#Word types: 48
#Word tokens: 48980
#Search results: 0
1	29863	all	
2	8962	such	
3	7482	quite	
4	1712	half	
5	376	both	
6	314	twice	
7	98	double	
8	31	many	
9	27	some	
10	19	each	
11	14	most	
12	10	more	
13	8	triple	
14	6	any	
15	5	wet	
16	4	last	
17	4	about	
18	4	woth	
19	3	nary	
20	3	much	
21	3	\&gt;implying	
22	3	every	
23	2	a	
24	2	ouch	
25	2	those	
26	1	what	
27	1	idk	
28	1	f	
29	1	inverting	
30	1	thru	
31	1	neither	
32	1	this	
33	1	little	
34	1	less	
35	1	around	
36	1	good	
37	1	ignore	
38	1	next	
39	1	notebook(just	
40	1	third	
41	1	suuuuuch	
42	1	few	
43	1	over	
44	1	i	
45	1	oh	
46	1	several	
47	1	right	
48	1	close	
