#Word types: 1538
#Word tokens: 2111
#Search results: 0
1	61	Fine	
2	46	Weekly New User	
3	25	Australian Roses	
4	23	Pilots	
5	23	the Wing Sung	
6	23	Autumn Oak	
7	20	Esterbrook	
8	15	Apache Sunset	
9	14	DC	
10	14	Instagram @redeempens	
11	10	EF	
12	10	Star Wars	
13	9	Noodler	
14	8	Love	
15	8	Wing Sung	
16	8	EoC	
17	7	the Wing Sung 698	
18	7	Bible	
19	6	Oxblood	
20	6	PhD	
21	6	Antique Glass	
22	6	Fountain Pen	
23	6	Midnight Blue	
24	5	Noodler's Apache Sunset	
25	5	The Wing Sung	
26	5	Mont Blanc	
27	5	Diamine Ancient Copper	
28	5	Diamine Autumn Oak	
29	5	Adventure Milo](http://AdventureMilo.com	
30	5	a Wing Sung 698	
31	5	Turquoise	
32	5	Goulet Pens	
33	5	Colorverse	
34	5	Black Swan	
35	4	Random Cheap Pens](https://www.reddit.com/r/Pen_Swap/comments/6myx0n/wts_random_pens_and_pencils_lot_1_5_10_bd_or_80/	
36	4	a Mont Blanc	
37	4	a Parker 51	
38	4	a Pro Gear	
39	4	Diamine Sherwood Green	
40	4	Diamine Oxblood	
41	4	Frankenpen	
42	4	Extra Fine	
43	3	The Little Prince	
44	3	The Pen Addict	
45	3	Diamine Aqua Lagoon	
46	3	Flex	
47	3	Diamine Majestic Blue	
48	3	Made in Vietnam	
49	3	Heart of Darkness	
50	3	Diamine Imperial Purple	
51	3	Esterbrook J	
52	3	Sailor Tomeikan Tayama Bungu Limited Pen	
53	3	English Roses	
54	3	Coalsack Nebula	
55	3	Diamine Hope Pink	
56	3	a Wing Sung	
57	3	Lamys	
58	3	Clairfontaine	
59	3	Lexington Gray	
60	3	Fuck	
61	3	The Writing Desk	
62	3	a Lamy 2000	
63	3	the Mont Blanc	
64	3	fountainfeder.eu	
65	3	a Parker IM	
66	3	Marupen	
67	2	the Declaration of Independence	
68	2	a Bic Cristal	
69	2	Baystate Blue	
70	2	Airmail Wality	
71	2	Diamine Red Dragon	
72	2	Iroshizuku Syo-ro	
73	2	Noodler's Black Swan	
74	2	Čech	
75	2	Čechy	
76	2	Grenade	
77	2	Special Edition	
78	2	Purples: Imperial Purple, Black Swan	
79	2	The Brown: De Atramentis	
80	2	the Google Form	
81	2	Oooh	
82	2	a Parker 75	
83	2	the Nice Lilas	
84	2	OS Nitrogen	
85	2	the Parker Vacumatics	
86	2	Noodler's Zhivago]]	
87	2	Diamine Marine	
88	2	the Lamy Aion	
89	2	Pelikan M805	
90	2	Mead	
91	2	a Faber Castell Loom	
92	2	the Tale of Genji	
93	2	Hurricane Relief	
94	2	The Wing Sung 698	
95	2	Lamy Dark Lilac	
96	2	Hand Over That	
97	2	Platinum Carbon Black	
98	2	Pelikan	
99	2	a Parker Arrow	
100	2	the Lamy Dialog 3	
101	2	OS Balance	
102	2	Goulet	
103	2	Waterman	
104	2	Starry Night	
105	2	Military Set	
106	2	Vanishing Points	
107	2	Iridium Point Germany	
108	2	Noodler's Heart of Darkness	
109	2	Waterfront Dusk	
110	2	Monteverde Horizon Blue	
111	2	a Parker Sonnet	
112	2	Higgins Waterproof Black Ink	
113	2	Morning Snow	
114	2	the Secret Ink Santa	
115	2	the Live	
116	2	Night Sky	
117	2	Sheaffer Balance	
118	2	Diamine Midnight	
119	2	Triumph	
120	2	YouTube	
121	2	the Platinum Preppy	
122	2	Google Sheets	
123	2	Organics Studio Nitrogen Royal Blue	
124	2	Pilot Namiki Blue]]	
125	2	Vacumatic	
126	2	the Platinum Balance	
127	2	Diamine Enchanted Ocean	
128	2	Tomoe River	
129	2	Falcons	
130	2	Noodlers Baystate Blue	
131	2	°F	
132	2	The Wing Sung 601	
133	2	America the Beautiful	
134	2	Noodler's Blue Ghost	
135	2	Fountain Pen Follies](https://fountainpenfollies.com/2016/01/07/ink-review-kwz-iron-gall-blue-5/	
136	2	Esterbrook SJ	
137	2	a Wing Sung 3008	
138	2	Pelikan 4001 Turquoise	
139	2	IRIDIUM POINT GERMANY	
140	2	Parallel	
141	2	Previous post](https://www.reddit.com/	
142	2	Kingsize	
143	2	Conids	
144	2	another Wing Sung	
145	2	Lamy	
146	2	Rhodia Dot	
147	2	Intense Black	
148	2	De Atramentis Aubergine	
149	2	Sailor King Of Pen	
150	2	Pelikan M200	
151	2	Iroshizuku Asa gao	
152	2	Osmiroid	
153	2	Four Seasons	
154	2	Diamine Royal Blue	
155	2	Tsutsuji	
156	2	MF	
157	2	Winter Edition Nightfall	
158	2	Mont Blanc 149	
159	2	Onyx	
160	2	brown	
161	2	Limited Edition	
162	2	Promotion	
163	2	Cat	
164	2	Quinks	
165	2	Casebook	
166	2	Sheaffer Snorkel	
167	2	Nemosine	
168	2	Dangers of the Deep	
169	2	Document Black	
170	2	a Mont Blanc 149	
171	2	the Wing Sung 3008	
172	2	the Lamy EF	
173	2	Calligraphy Passion	
174	2	AURORA	
175	2	88	
176	2	Classic Fountain Pens	
177	2	Private Reserve Midnight Blues	
178	2	Copper Verde	
179	2	Aussies	
180	2	Writers Edition	
181	2	Paying Forward a lovely Pilot Cocoon	
182	2	Picasso	
183	2	Royal	
184	2	moonman m100	
185	2	Dolphin	
186	1	a Nanami Writer	
187	1	Esterbrook J Pens	
188	1	the Black Luster	
189	1	Ex-Factor	
190	1	Penshoppen	
191	1	Stealth Black	
192	1	West	
193	1	Scottsdale Pen	
194	1	the Lamy 27s	
195	1	Noodler's Lexington	
196	1	Impressions	
197	1	Gold Starry	
198	1	Noodler's Turquoise]]  	
199	1	Diamine Ancient	
200	1	a Wing Sung 698 with a	
201	1	Moist	
202	1	Heavy Discharge	
203	1	Gold Lamy's	
204	1	Rare	
205	1	The Matrix	
206	1	De Atramentis Aubergine]]  	
207	1	Pelikan Edelstein Smoky Quartz	
208	1	Robert Oster Blue Water Ice	
209	1	Instagram channel](http://instagram.com/visconti_dave/	
210	1	Dear Dumb Diary	
211	1	Snow Wolf VFeng	
212	1	this one](https://page.auctions.yahoo.co.jp/jp/auction/o192458485	
213	1	Webbie	
214	1	FPA	
215	1	C Demonstrator Ballpoint	
216	1	Apricot Jam	
217	1	The Pen Station	
218	1	"Antique Copper"	
219	1	Tagayasan Gloss	
220	1	ting	
221	1	Bohemia	
222	1	Czech Republic"  EDIT:	
223	1	Minima	
224	1	Instagram made me buy this	
225	1	Deep Sea	
226	1	the Rhodia Dotbook	
227	1	the Wing Sung 698 with 14k gold nib	
228	1	Iroshizuku	
229	1	Contract Estimating	
230	1	Star Wars but Majestic	
231	1	Mastering Copperplate Calligraphy	
232	1	Winters	
233	1	"Mastering Copperplate Calligraphy"	
234	1	Midori for Fountain Pens'	
235	1	the Dorsal Fin 1 in Aka-tamenuri(the	
236	1	a Pilot Kakuno	
237	1	Ph.D.	
238	1	Flex Sit	
239	1	Pelikan Brilliant Black	
240	1	[lamy blue black	
241	1	Waterman's Made	
242	1	a Sheaffer Balance	
243	1	Black Esterbrook J	
244	1	"General Writing" nib).  	
245	1	Rose Gold	
246	1	Jinhao 992](https://www.amazon.com	
247	1	Noodler's Saguaro Wine]]](https://www.gouletpens.com/noodlers-saguaro-wine-3oz-bottled-fountain-pen-ink/p/N19032	
248	1	Noodler's Harmonious Green	
249	1	Special Edition Dark Lilac	
250	1	a Lamy Safari Fine	
251	1	MADE IN U.S.A 9 (	
252	1	White Collar	
253	1	Outdated Technologies	
254	1	Diamine Lilac Satin	
255	1	Handmade in Florence	
256	1	Wahl-Eversharp Doric	
257	1	a Hero 7001A.	
258	1	Sunnyside Art Supplies	
259	1	Egg	
260	1	Charley	
261	1	Iroshizuku Tsutsuji]] in it.	
262	1	The Pendragons over at https://www.vintagepensacsandparts.com	
263	1	MBA	
264	1	a Nakaya Piccolo	
265	1	Noodler's Nikita	
266	1	The Coffee Tree Roasters	
267	1	Needlepoints	
268	1	Franklin-Christoph 20	
269	1	Tortoise	
270	1	Spencerian Theory Book	
271	1	5 Copy Books	
272	1	Book Depository	
273	1	"My Favorite Things	
274	1	Taobao](https://world.taobao.com	
275	1	Chesterfield Antique Raven	
276	1	Noodler's Bad Belted Kingfisher]	
277	1	Osmiroid B2	
278	1	Noodler's Bad Blue Heron]]   	
279	1	Diamine Twilight]]	
280	1	Noodler's Forest Green	
281	1	Kaweco Palm Green	
282	1	The Room	
283	1	The Hands of Fate	
284	1	The Tin Umbrella	
285	1	Franklin-Christoph Ink :	
286	1	Midnight Emerald	
287	1	Terra Firma	
288	1	the Wing Sung 618)  	
289	1	The Eco in M	
290	1	Bung-Box Sapphire	
291	1	Noodler's Air-corp Blue Black	
292	1	Shadows	
293	1	Technical Death Metal	
294	1	Targas	
295	1	Sheaffer Turquoise]] is one of the best performing	
296	1	PELIKAN MK30 – GERMANY	
297	1	the Pilot G2	
298	1	[Ful Stop by Radiohead](http://imgur.com	
299	1	Feuillets d'Hypnos	
300	1	Purple Haze	
301	1	Bloc Rhodia	
302	1	the Infield Brown	
303	1	Diamine Meadow	
304	1	Diamine Twilight]]  Feel	
305	1	a Platinum Medium	
306	1	VP- Ugh	
307	1	the Platinum 3776 Century	
308	1	Diamine Green Black	
309	1	De Atramentis Black-Green]]	
310	1	Noodler's Black]]	
311	1	Noodler's Sequoia Green]]	
312	1	Noodler's Ottaman Rose	
313	1	Noodler's Golden Brown	
314	1	Diamine Kelly Green	
315	1	De Atramentis Mint Turquoise]]	
316	1	51's	
317	1	Esterbrook J's	
318	1	318982	
319	1	a Master Calligrapher	
320	1	Exclusive	
321	1	"China Hong Kong City Mall"	
322	1	Ltd Edition	
323	1	wet"](http://blog.gouletpens.com/2016/09	
324	1	Calico	
325	1	Lama	
326	1	a Wing Sung 659	
327	1	LOOOOOOVE	
328	1	ohyayeh 葉曄](https://www.youtube.com/channel	
329	1	The Renga Bamboo	
330	1	Housegrind	
331	1	Fine to MF	
332	1	Permapoint	
333	1	the Goal Book	
334	1	Made in Mexico	
335	1	Bologna extra Arco”](http://imgur.com/qG1G9QJ)	
336	1	Arctic Green”](http://imgur.com/YXoFdFI	
337	1	Organics Studio	
338	1	Best	
339	1	'Hard Medium-Fine'	
340	1	the Friends of Calligraphy   Pen	
341	1	Black and Heart of Darkness	
342	1	the Parker 51, though I wouldn't go as far	
343	1	The Wing Sung 78G	
344	1	Rolatip	
345	1	Fine Pilot	
346	1	Yellow and Shah's	
347	1	Diamine Apple Glory]]	
348	1	Osmia	
349	1	a Montegrappa Bottle	
350	1	The Lamy 2000	
351	1	La Couronne du Comte's	
352	1	YouTube: Grandmia Pens	
353	1	Silent Night	
354	1	Phatboy	
355	1	Sheaffer Oversize Balance	
356	1	Milky Way	
357	1	My Life As A Verb](http://www.leighreyes.com/	
358	1	J.J Watts Flood	
359	1	Dear Children of Troy	
360	1	A Taperite	
361	1	Skylines	
362	1	Saturday	
363	1	Iroshizuku inks](https://www.instagram.com/p/BWnb7Q_FseL/	
364	1	flip[ed	
365	1	Soyuz	
366	1	Pelikan Edelstein Sapphire	
367	1	man I wish I had a Raden Metropolitan"	
368	1	the Wing Sung hype train and encourage	
369	1	the MB Oscar Wilde	
370	1	Vintage Green	
371	1	Studio Notes	
372	1	Fountain pen inks by Diamine inks	
373	1	Dostoevsky, Rachmaninoff, Berning Red, BSB	
374	1	Urushi Maki-E	
375	1	Nikkor 50mm	
376	1	the Platinum Maki-E Cherry Blossom Pen	
377	1	Pacific	
378	1	these Esterbrook Js	
379	1	Diamine Apple Glory]] or so dark as	
380	1	Noodler's Gruene Cactus	
381	1	a The Pen Lover Boutique	
382	1	the Wing Sung 659	
383	1	the Aurora Black	
384	1	Montblanc Midnight Blue](http://farm9.staticflickr.com/8254/8686292587_743f2f8185_c.jpg	
385	1	OS Walden Pond Blue	
386	1	EastVita	
387	1	De Atramentis lavender](https://www.gouletpens.com/de-atramentis-lavender-scented-35ml	
388	1	Fine in a Lamy Al-Star	
389	1	Gramophone	
390	1	Clairfontaine pad	
391	1	Anchor Gray with a Fine	
392	1	Citrus Black	
393	1	Citrus, Cassis, Forest	
394	1	Geo 'S	
395	1	Noodler's Black 2	
396	1	Noodler's Inks	
397	1	Laparoscopic	
398	1	Follow Me	
399	1	Bigger is Better	
400	1	a Parker 51 and *	
401	1	Gold	
402	1	the Parker Doctors Pen	
403	1	Safari Medium	
404	1	Starry Night Blue	
405	1	Klingners Blu Mare	
406	1	Love the color!](https://i.imgur.com/RBPjsDG.jpg	
407	1	Gold Wing Fountain Pen	
408	1	Reserve-Tank	
409	1	Monteverde Chariote]]	
410	1	Diamine Silver Fox]]	
411	1	Noodlers Bernanke Blue]]	
412	1	Noodlers X-Feather	
413	1	De Atramentis Document Brown]]	
414	1	De Atramentis Gold]]  	
415	1	a Mont Meisterstück	
416	1	Pelikan 500 Tortoise	
417	1	a Wing Sung Pilot	
418	1	N	
419	1	Traditional Chinese or Simplified Chinese	
420	1	a Pelicano Junior	
421	1	Sherwood	
422	1	Yonaga	
423	1	The Cuckoo's Clock Pen](https://farm1.staticflickr.com/564/33345089625_d8041ce1d5_c.jpg	
424	1	Pelikan Ink of the Year - Smoky Quartz	
425	1	Lightning	
426	1	Optimum Car Wax	
427	1	a Sheaffer's Flat Top BCHR 34	
428	1	Da Book	
429	1	Pelikan Hubs	
430	1	Fire and Coal	
431	1	the King Eagle	
432	1	the "Lava	
433	1	F,EF	
434	1	Nakaya Dorsal	
435	1	Florentine Hills	
436	1	Crystal Swirl	
437	1	Cheers	
438	1	This Conid	
439	1	Noodler's Habanero]]	
440	1	Diamine Wild Strawberry	
441	1	Caran d'Ache Divine Pink]]	
442	1	De Atramentis Gold]]	
443	1	The Writing Desk](https://www.thewritingdesk.co.uk	
444	1	[KWZ IG Mandarin]]) and it was a lovely experience	
445	1	Jame	
446	1	the Parker 75 (French 18k	
447	1	Rolex	
448	1	Himalayan Stove Project](http://HimalayanStoveProject.org	
449	1	Konrad Demonstrator	
450	1	the Pilot Metropolitans on Amazon.it and ebay.it	
451	1	Pilots and Sailor	
452	1	Chicken	
453	1	Legatoria, La Fenice	
454	1	Book - Rhodia Web Notebook Coffee - Bridgehead Nicaraguan Dark	
455	1	the Land Down Under	
456	1	Piss Christ	
457	1	Pelikan Edelstein Aventurine	
458	1	Nemosines	
459	1	these](http://www.waterman.com	
460	1	Scripto	
461	1	The  Diamine Oxblood	
462	1	Remain	
463	1	Schneider City Pen	
464	1	the Parker 51/21, Sheaffer Snorkel/PFM/other Triumph nibs	
465	1	Franklin-Christoph Model 03	
466	1	15ml Iro's	
467	1	Promenade	
468	1	"Pretty Penne"	
469	1	the Wing Sung but the Wing Sung	
470	1	Momiji	
471	1	Made In Germany	
472	1	Amethyste de l'Oural	
473	1	Final Piece](https://media.discordapp.net/attachments/346458917221433344/371562347141267457/20171022_022848.jpg	
474	1	Amethyste d l'Oural	
475	1	Night Blue  	
476	1	Bung Box Blue Black	
477	1	Noodler’s Black Swan	
478	1	Essie's Master Plan	
479	1	Tesla	
480	1	Wing Sung 698	
481	1	Unicorn Barf	
482	1	OXFORD MADE IN USA BY THE MAKERS OF EVERSHARP	
483	1	The FPR Himalaya	
484	1	the FPR Himalaya	
485	1	H-EF	
486	1	Dubble	
487	1	De Atrementis Ink	
488	1	pop the cherry	
489	1	De Atrementis	
490	1	a Secret Santa	
491	1	Fountain Pens:	
492	1	Burgundy Leather	
493	1	Legacy Fantasy	
494	1	Fine * Asa Galactic Flat Top-Bottom	
495	1	14/kt 585	
496	1	'Mont Blanc	
497	1	Porch TechFlex	
498	1	Fountain Pen Day	
499	1	NPD	
500	1	The Parker Sonnet	
501	1	The Woodsmith Store	
502	1	a Platinum Century 3776 next	
503	1	The Pen World	
504	1	Diamine Evergreen	
505	1	Noodler's Squeteague]	
506	1	Diamine Terracotta	
507	1	Noodler's Brown	
508	1	J. Herbin Lierre Sauvage	
509	1	Anyways	
510	1	the Pilot Decimo	
511	1	For Other International Orders Please Mail	
512	1	a "Superflex" nib	
513	1	Majestic	
514	1	Short Gold Filled Lipstick Style Lifetime Balance FP	
515	1	Jasper	
516	1	Summer	
517	1	Sheaffer announced the Tuckaway in 1940.	
518	1	Appreciate	
519	1	The Wing Sung and Lanbitou	
520	1	Pelikan nibs	
521	1	Chesterfield Antique Crimson	
522	1	Figboot	
523	1	Pelikan Onyx	
524	1	the "Writing Instruments"	
525	1	Ink/Refills	
526	1	Arabian Nights and Wine Divine	
527	1	Oster	
528	1	pilot+metropolitan+fountain+pen	
529	1	the "Dolphin	
530	1	Psalms of the Old Testament	
531	1	Noodlers Heart of Darkness	
532	1	De Atramentis Black Brown	
533	1	Perch	
534	1	W.Germany	
535	1	Vanness All Sailor	
536	1	JUST KIDDING	
537	1	De Atramentis Document Ink Black	
538	1	Birmingham Pens](https://www.birminghampens.com/	
539	1	A Saibi Togi	
540	1	Made in Germany	
541	1	Visconti Comparisons	
542	1	Masuyama AND a Fine FC nib	
543	1	Old Amber	
544	1	a Waterman Stalwart	
545	1	Deep Yellow	
546	1	Darth Vader	
547	1	Sizzle Stix	
548	1	BsB	
549	1	TWSBI Vac Mini	
550	1	Venezia	
551	1	a Loom in M	
552	1	the Lamy Petrol	
553	1	Diamine Registrar's Ink]]	
554	1	[Platinum Carbon Black]] and the fugly white stuff	
555	1	Tibaldi	
556	1	the Fisher of Pens	
557	1	Fountain Pen Facebook	
558	1	Mechanics of Materials	
559	1	MK1 Aerometric	
560	1	Padfield	
561	1	Brexit	
562	1	Top Gun](https://media.gq.com/photos/55bba390962900e47cf1383b/master/pass/tom-cruise-style-	
563	1	Iroshizuku Ama-iro	
564	1	the Secret Ink Santa exchange	
565	1	Scriptorium Pens Chronicler](https://chatterleyluxuries.com	
566	1	[Tears of a Clown](https://i1.wp.com/www.wellappointeddesk.com/wp-content/uploads/2015/07/mon-2.jpg?resize=1000%2C667&amp;ssl=1	
567	1	The Greatest Showman	
568	1	Noodler's Bulletproof Black	
569	1	The ‘Higgins Lies’	
570	1	Schaeffer Snorkel	
571	1	Buckeye	
572	1	Faber-Castell	
573	1	Cretins	
574	1	Massdrop of the Regal Lane	
575	1	Noodler's Fruit Cactus Eel	
576	1	Wish List	
577	1	German Industry Standard	
578	1	H-F	
579	1	Wing Sung:	
580	1	Tokyo Pen Shop Quill	
581	1	Fine Artist	
582	1	Orange Nights	
583	1	Standard Craft	
584	1	Rickshaws Bag	
585	1	the Live In You MiTu	
586	1	Rickshaw Bags	
587	1	picture](https://www.reddit.com	
588	1	Made in Japan	
589	1	Wisteria	
590	1	Wancher	
591	1	Delicious Cycle"](https://xkcd.com/140/	
592	1	Tibaldi Impero](https://i.imgur.com/APCSuJn.jpg	
593	1	the Apres Ski	
594	1	The Wing Sung 618	
595	1	The Hobbit	
596	1	Hero 395s	
597	1	Pacific Dawn	
598	1	Newton Pens](https://newtonpens.com/	
599	1	these Hero/WS fude nibs](https://www.ebay.com/itm/5-fountain-pen-bent-nib	
600	1	Wing Sung 330 and 329	
601	1	Watermans Ideal 14k	
602	1	Iroshizuku Take-sumi	
603	1	Decimo	
604	1	the Lamy Dialog 3 vs the	
605	1	Test" slower and slower and is it supposed to be this wet and thick?	
606	1	Skipping	
607	1	Platinum, Sailor	
608	1	Diamine Passion Red	
609	1	Dot Pad	
610	1	De Atrementis Document Ink Fog Grey	
611	1	this Secret Ink Santa	
612	1	Rose	
613	1	Red Rose	
614	1	The Secret of Kells	
615	1	Deep Dark Brown	
616	1	Monteverde Fire Opal	
617	1	The Live	
618	1	A Parker 51 Special	
619	1	Everything You Know is Wrong	
620	1	Autumn Oak Matches	
621	1	the Faber Castell Ondoro Smoked Oak	
622	1	Al Star	
623	1	Pelikan Edelstein Tanzanite	
624	1	A Pair of lovely Vintage Fountain Pens	
625	1	14CAR	
626	1	Galaxy	
627	1	Walden Pond	
628	1	Siloso Sunset	
629	1	Midnight Marina	
630	1	Cleen-X	
631	1	Space Ship	
632	1	Dolce	
633	1	Sazerac	
634	1	SexMonkey	
635	1	Magic	
636	1	Prius	
637	1	the Parker 51	
638	1	The Pen Habit	
639	1	here](http://www.ebay.it	
640	1	pictures.](https://i.imgur.com	
641	1	Writing Sample/Family Christmas Photo](https://imgur.com/a/44tqh	
642	1	bibs	
643	1	Diamine Golden	
644	1	Pelikan M200  Ohh	
645	1	Pelikan Tortoiseshell	
646	1	Unbranded Goods	
647	1	the Wing Sung X698 &lt;F&gt	
648	1	Monochrome	
649	1	Yukitsubaki Pro Gear	
650	1	Currently Inked	
651	1	Meguiars Scratch X	
652	1	Lamy or Pilot	
653	1	Anniversary Edition of Blue Herpes	
654	1	Pelikan Ink Converter](https://www.amazon.com/gp/product/B01EFL270A/ref=	
655	1	a Black and Red Notebook	
656	1	Purepens and Cultpens	
657	1	The Pro Gear	
658	1	“ THEY BETTER FIND THESE AND GET THEM TO ME, OR ILL BE WRITING MY CLAIM	
659	1	Speedball	
660	1	Midnight Sapphire	
661	1	Bkue Night	
662	1	Midnight Blue Monteverde	
663	1	Autumn Oak De Atramentis	
664	1	Esterbrook Transitional	
665	1	Kaweco Classic Sport](https://imgur.com/a	
666	1	Levenger Facet](https://imgur.com/	
667	1	Montblanc 22](https://imgur.com	
668	1	Fine Flex		
669	1	Plate Torsade		
670	1	Steel Fine	
671	1	"Fine Nib"	
672	1	Sheaffer Admiral](https://imgur.com/a/uyaWN)		
673	1	Sheaffer Craftsman](https://imgur.com/a/E2JI5)		
674	1	Sheaffer Desk Pen](https://imgur.com/a/3HBj3)	
675	1	Sheaffer Desk Pen](https://imgur.com/a/UDNK8	
676	1	Sheaffer Imperial III](https://imgur.com/a/dj62B	
677	1	Sheaffer Valiant](https://imgur.com/a/1vNGV	
678	1	Super5 Calligraphy	
679	1	Fountain Pens Vintage and Modern	
680	1	Fountain Pens of Japan	
681	1	Pelikan Edelstein Aquamarine|BLUE|One	
682	1	"Shopping, Seduction and Mr Selfridge	
683	1	The Raven Black	
684	1	Girly Rose	
685	1	Diamine Turquoise	
686	1	Heritage 1912	
687	1	Platinenaufbau und Leiterplattendesign	
688	1	Anderson	
689	1	Last and Least	
690	1	Morning Pages	
691	1	Scribal Workshop	
692	1	Pilots and Sailors (BSB	
693	1	Wing Sung 659	
694	1	Aquash	
695	1	Clear Demonstrator Transparent Fountain Pen Piston Filler Extra Fine Nib 0.38mm	
696	1	Lie de Thé	
697	1	Kustoms INK	
698	1	Grind Down	
699	1	Japanese Fine	
700	1	Pilot Namiki Blue-Black	
701	1	Pelikan Edelstein Jade	
702	1	Hero and Picasso	
703	1	Noodler Ahab	
704	1	a Wing Sung 601	
705	1	4”x13	
706	1	Pilot Elite	
707	1	I am	
708	1	a Non-Vintage Pen Day	
709	1	Somiko	
710	1	"Young Profit"	
711	1	TWSBI	
712	1	the Royal Tangerine	
713	1	Akkerman No.23	
714	1	the Leonard Yehudi Menuhin Pen Violin Clip by Mont Blanc	
715	1	Potential Mont Blanc Pen](https://imgur.com/gallery/IPJj1	
716	1	Noodler's Eel Gruene Cactus	
717	1	the Platinum Century	
718	1	Velvet Red	
719	1	Summer Tanager	
720	1	Rikyu-Cha	
721	1	Word Gauge	
722	1	1M	
723	1	Diamine Qxblood	
724	1	Cassis Black	
725	1	Arctic Serenity	
726	1	THANK YOU VERY MUCH	
727	1	Diamine Woodland Green	
728	1	Diamine Lavender]].	
729	1	Beaufort Ink	
730	1	Citrus Black Platinum Classic	
731	1	the Lamy Aion EF	
732	1	Perfect Pen No 60](https://imgur.com/a/3i6Dp	
733	1	Large	
734	1	The Faber Castell Ondoro (M	
735	1	The Take-Sumi	
736	1	Bullet With Butterfly Wings	
737	1	AutoMod: Activate	
738	1	AutoMod: Recommend	
739	1	Diamine Pink Glitz	
740	1	Aurora Blue	
741	1	[Platinum Citrus Black]]	
742	1	De Atramentis Purple Violet	
743	1	Kakunos in November	
744	1	Myrtle	
745	1	a Writer in Aka Tamenuri	
746	1	the FPR Indus AT ALL	
747	1	the Zebra G *	
748	1	the Google Sheet	
749	1	Find Them and the Case of Beasts	
750	1	Mogu Mogu	
751	1	Lecoule	
752	1	Nu Sentral	
753	1	Tissot Visodate	
754	1	Bumblebee	
755	1	Sheaffer Legacy II Black Pearl	
756	1	Raven/Aqua	
757	1	a Platinum M.  	
758	1	Wahl Eversharp Doric Kashmir	
759	1	Uncial	
760	1	Life Noble	
761	1	the Platinum Briar	
762	1	Utenhage Eastern Cape	
763	1	Custom	
764	1	Hamilton	
765	1	the Lamy	
766	1	Stainless	
767	1	Ivory	
768	1	the Masters of Fountain Pen	
769	1	Agio Compact	
770	1	Diamine Night Sky	
771	1	Brand][Model	
772	1	a Baron Fig Confidant 2	
773	1	the Wing Sung 3007	
774	1	Pelikan today	
775	1	Can I shove the nib	
776	1	Widow Maker, Diamine Autumn Oak, Diamine Sherwood Green	
777	1	Widow Maker	
778	1	Nemosine Haleys comet](https://www.gouletpens.com	
779	1	Nakaya	
780	1	the Dream Pen	
781	1	this Wancher Dream Pen	
782	1	the Lamy with Pilot	
783	1	Skylark	
784	1	Google Translating	
785	1	Harter	
786	1	Boutiques	
787	1	-11	
788	1	Bonfire	
789	1	"Manos Special"	
790	1	Travelers	
791	1	Gotham	
792	1	Jowo nib	
793	1	a Certificate of Analysis	
794	1	🤣	
795	1	https://imgur.com/gallery/L0vj8  	
796	1	the Sailor Kabazaiku	
797	1	The Phantom Thread	
798	1	Touchdown	
799	1	Hero Calligraphy	
800	1	Rakute n	
801	1	Memories	
802	1	Noodler's Polar Brown	
803	1	Noodler's Burma Road Brown	
804	1	the Fine	
805	1	Wahl/Eversharp	
806	1	KWZ IG Turquoise	
807	1	Fountain Pen Follies](https://fountainpenfollies.com/2016/02/13	
808	1	The Lock	
809	1	KWZ Iron Gall Turquoise	
810	1	Black, Violet and Blue	
811	1	the Faber Castell	
812	1	GVfC Midnight Blue	
813	1	LoL Edit:	
814	1	The Well Appointed Desk	
815	1	The Famous Hands Series	
816	1	Namisu	
817	1	the "Ease My Flex (EMF) Mod	
818	1	Diamine Majestic Purple	
819	1	Pilot Drawing Ink	
820	1	*Water Test	
821	1	Winter Glow	
822	1	Mottishaw	
823	1	Dia2	
824	1	Dragons Napalm	
825	1	these stickers](https://www.amazon.com/dp/B01243XXZO/ref=cm_sw_r_cp_api_6TWGAbJPDDNVX	
826	1	1914	
827	1	Pelikan Maki-e Raden Sunrise	
828	1	I Love You	
829	1	Thoughts for my Son	
830	1	centennial	
831	1	Tunes of Lycka	
832	1	Carbon Black -	
833	1	a Parker Case	
834	1	Yama-Dori	
835	1	this one](https://www.ebay.com.au/itm/Luxury-PENBBS-308-Acrylic-Fountain-Pen-Smooth-Fine-0-5mm-Nib-Writing-For-Him	
836	1	a Let's Split	
837	1	most Euro	
838	1	P.W. Akkerman	
839	1	weg laat rijmt	
840	1	Platinum Blue-Black	
841	1	Talisker Storm	
842	1	The Lamy and Pilot Iroshizuku	
843	1	Old Man Winter	
844	1	Organics Studio Nitrogen Blue	
845	1	Noodler's Turquoise]]	
846	1	a Mont Blanc 342G	
847	1	Pelikan M800	
848	1	Honus Wagner Infield Brown	
849	1	Pelikan Edelstein	
850	1	Diamine Deep Dark Orange	
851	1	Monteverde Caribbean Blue	
852	1	Acceptable Use Policy	
853	1	MB Corn Poppy Red	
854	1	SASE	
855	1	Lemur Ink:	
856	1	shimmer	
857	1	a Wing Sung 6359	
858	1	Penhero	
859	1	Fountain Pens of the World	
860	1	Clipper	
861	1	Visconti Large Paladium Nib - Medium - $264	
862	1	Alpine	
863	1	a Lamy Safari EF	
864	1	Trinket	
865	1	Tibaldi Impero	
866	1	a Lami Safar	
867	1	an HS Dark Age	
868	1	the Parker Vacs	
869	1	the Mata Hari	
870	1	Cobblestone	
871	1	The Fan	
872	1	[Platinum Classic Lavender Black]]	
873	1	cursive italic	
874	1	the Midnight Horizon	
875	1	Rossi Bianco	
876	1	Pros: It's brass	
877	1	NVPD	
878	1	Parker Vacs	
879	1	The Last Leaf	
880	1	12k GF.	
881	1	Waterman Intense Black	
882	1	a Platinum Preppy Fine	
883	1	[Diamine Monaco Red]	
884	1	V-Amplified	
885	1	Right on the Nail	
886	1	Economy International Shipping	
887	1	Star Trek	
888	1	The Legend of Zelda	
889	1	the Lierre Sauvage	
890	1	the Taccia Nishijin Mystic Waves	
891	1	Kumamon	
892	1	Esterbrook or Sheaffer Balance over Pilot Metro	
893	1	Fine, Medium or Fine-Medium	
894	1	The Platinum Carbon Black	
895	1	Yellow Ochre 9	
896	1	a Full Demonstrator Regular Flattop	
897	1	Rakuten Global	
898	1	the Lamy 2K	
899	1	Write in the Rain	
900	1	Fountain Pen Recolution	
901	1	Encre Violette Pensee	
902	1	Shinjuku	
903	1	the Homo Sapiens	
904	1	the Pelikan Classic M200	
905	1	Sketch	
906	1	Love Love Love	
907	1	Opera Master	
908	1	Noodler's Nikita Red]]  	
909	1	Noodler's Nikita Red	
910	1	The Soul has Bandaged Moments	
911	1	the Pro Use 1500 and the Rotring 600/800 the most	
912	1	Nib Nook	
913	1	The Brothers Karamazov	
914	1	Bulow	
915	1	TO A YOUNG HEART EVERYTHING IS FUN	
916	1	The Hobby Lobby	
917	1	Iroshizuku Take	
918	1	Noodler's	
919	1	Amazon Warehouse Deal	
920	1	Rules	
921	1	Black and Pearl	
922	1	Noodler's Air-Corp Blue-Black	
923	1	the Nakaya Piccolo	
924	1	Star Wars ;)	
925	1	P60	
926	1	MB Einstein	
927	1	DO-WRITE PEN MADE IN U.S.A.	
928	1	Masuyama CI	
929	1	Love German	
930	1	LAMY	
931	1	Pilots, Sailors	
932	1	Nooooooo	
933	1	JPY30000	
934	1	Fountain Pen (No Ink	
935	1	Rosso Bianco	
936	1	First Love	
937	1	the "Hamilton" Broadway	
938	1	Moonlight F	
939	1	a Pelikan EF	
940	1	an S.T. Dupont	
941	1	The Platinum Preppy	
942	1	a Daiso on Takeshita Street	
943	1	kawaii"-version	
944	1	Black and Noodler's	
945	1	The Black Flag: Crimson Worlds Successors	
946	1	1](https://imgur.com/L2KIsBJ	
947	1	Pelikan M600 Black Resin	
948	1	this](https://youtu.be	
949	1	Nice	
950	1	Ink Flight's	
951	1	Dreambooks Handmade Fantasy	
952	1	Easy Cast	
953	1	Shitataka	
954	1	Google Translate	
955	1	Passport	
956	1	RoK	
957	1	Golden Record	
958	1	Pilot Iroshizuku Momiji	
959	1	Diamine Ultra Green	
960	1	Pilot Iroshizuku Tsutsuji]]  	
961	1	Super Quality	
962	1	Oomph	
963	1	a Wing Sung 3003	
964	1	[Platinum Classic Citrus Black	
965	1	Surprise Me	
966	1	Azure Noir	
967	1	Sheaffer Triumph	
968	1	Large Leuchturm1917	
969	1	Lucky Orange	
970	1	Oster Antique Gold	
971	1	the "Klimt Experience" Exhibition	
972	1	Leutchtturms	
973	1	LE” Sailor Shikiori	
974	1	Grail	
975	1	“Real Mexican, not just Taco Bell.	
976	1	Parker,Made in USA	
977	1	The Lamy EF	
978	1	"Holy Grail"	
979	1	Classic - M * Platinum	
980	1	Fine and Extra-Fines	
981	1	Specs	
982	1	Enlight	
983	1	Clairfontaine or Rhodia	
984	1	lime green](https://i.imgur.com/qFARXVG.png	
985	1	a Whiskey Sour	
986	1	Pelikan Maki-e	
987	1	Esties	
988	1	Black	
989	1	The *Violet	
990	1	The *Apple*	
991	1	The *Orange*	
992	1	a Field Notes Lunacy	
993	1	PARKER DUOFOLD DELUXE MADE IN USA	
994	1	Noodler Creaper Flex	
995	1	the Franklin Christophs	
996	1	Lilac Night	
997	1	this one](http://dirck.delint.ca/beta/?page_id=5182	
998	1	the Lamy website](https://lamyshop.ca/ca_en/fountain-pen-lamy-st.html?sel=2423	
999	1	the Laban Corinth	
1000	1	a Twsbi Mini	
1001	1	Mesnevi	
1002	1	Zooming	
1003	1	Brillo M	
1004	1	Monteverde Sapphire Blue	
1005	1	Iroshizuku Ink  The	
1006	1	La Llorona	
1007	1	The Esterbrook J	
1008	1	Bleu	
1009	1	encre de calligraphie	
1010	1	Fine-Medium	
1011	1	OS Balances	
1012	1	Iroshizuku Syo-Ro	
1013	1	Wallet Bermuda Triangle	
1014	1	the Metro/88G	
1015	1	a Snorkler Clipper	
1016	1	the Kumamoto Prefecture	
1017	1	Schwedenrätsel	
1018	1	Edelstein Ink	
1019	1	Lights on Ceres	
1020	1	GvFC Midnight Blue	
1021	1	| Again	
1022	1	The Kelly Green	
1023	1	Pilot Namiki Black	
1024	1	Line Friends	
1025	1	a Parker Challenger	
1026	1	Challenger	
1027	1	Pelikan m800 Renaissance Brown	
1028	1	Beijing Forbidden City	
1029	1	Minka	
1030	1	Appointments	
1031	1	Tiger Shark	
1032	1	Pilot Stargazer in Fine	
1033	1	the Kakuno EF nib	
1034	1	the Kakuno EF	
1035	1	Organic Studio Nitrogen](https://www.gouletpens.com/organics-studio-nitrogen-55ml-bottled-ink/p/OS-Nitro	
1036	1	Krishna	
1037	1	Stevie Ray	
1038	1	Functionality of the Body	
1039	1	the Namisu Ixion	
1040	1	Vicissitudes	
1041	1	Monteverde Green	
1042	1	Lustraloy	
1043	1	the Leonardt G	
1044	1	The Daily Stoic	
1045	1	The Nameless City	
1046	1	a Pilot Kakuno, Wing Sung 3008	
1047	1	Swan Ink	
1048	1	The Facts of Life	
1049	1	Parker	
1050	1	Skater	
1051	1	handwriting comparison](https://ibb.co/dzogeH	
1052	1	Noodlers Bernanke Black	
1053	1	Lexington Gray]].	
1054	1	Made In W Germany	
1055	1	The World Since 1945	
1056	1	The Pen Addict's	
1057	1	Take Note	
1058	1	The Lunar Sentinel	
1059	1	Autumn Oak *	
1060	1	Clairfontaine A4	
1061	1	Curvex Point U.S.A	
1062	1	a King of Pen	
1063	1	the M800 Renaissance Brown	
1064	1	Sheaffer Sentinel	
1065	1	Titanium	
1066	1	The Diagnosis	
1067	1	Monoprix for the Waterman	
1068	1	Bertrams Inkwell	
1069	1	Diamine Blue Velvet]].  	
1070	1	Curved-Bill	
1071	1	Purple Heart	
1072	1	(Color of Water) by	
1073	1	a Platinum Desk Pen	
1074	1	the Noodler Purple	
1075	1	Jet Black	
1076	1	The North Remembers	
1077	1	The Tale of Genji	
1078	1	38mm-Fine-Nib-Transparent-Fountain-Pen-w	
1079	1	The Name of the Wind	
1080	1	Black N Red	
1081	1	Welcome to Reddit	
1082	1	Shikiori line](https://www.jetpens.com/Sailor-Shikiori-Inks/ct/4886	
1083	1	Balance (Slender	
1084	1	a Wing Sung 698 F	
1085	1	Jim Shore Pete's Dragon	
1086	1	Vanishing Point	
1087	1	Pelican Case	
1088	1	This Photo of the Nib](https://imgur.com/U6JinxJ	
1089	1	Medium Wing Sung	
1090	1	a Wing Sing 601 with the new pump filler	
1091	1	Applied Psychology	
1092	1	Japanese Watercolour	
1093	1	The Color of Water	
1094	1	a Parker Vacumatic	
1095	1	Lie de The	
1096	1	F nib	
1097	1	Twsbi Eco	
1098	1	the Cherry Blossom of Keage	
1099	1	The Lamy Vibrant Pink and Faber Castell Electric Pink	
1100	1	Lights on Ceres or Momjii	
1101	1	an Esterbrook J	
1102	1	Noodler's Bad Blue Heron	
1103	1	Stepford	
1104	1	Save the Children	
1105	1	the De Atramentis Document Ink	
1106	1	a Pro Gear Realo	
1107	1	Balance Crest	
1108	1	sap green	
1109	1	Wipes	
1110	1	the Conid Regular	
1111	1	Conid Grip”](https://imgur.com/a/NHDrrwR	
1112	1	Krishna Silent Night	
1113	1	Traditional Sphynx	
1114	1	Painfully Refined	
1115	1	Niche  	
1116	1	The Brotherhood of Stripes	
1117	1	Fine or Broad	
1118	1	the Ultrs Classic	
1119	1	Lilac Wind	
1120	1	Golden Pearl	
1121	1	Cocoon	
1122	1	A Waterman Hemisphere	
1123	1	Belieben	
1124	1	Flat Tip Duckbill Tibetan Arabic Fountain Pen	
1125	1	*The Old Man and The Sea	
1126	1	Mastermetal	
1127	1	SHEAFFER'S - MADE IN U.S.A." &amp	
1128	1	Starry Sky	
1129	1	The “Bauhaus	
1130	1	Far Top	
1131	1	Blue	
1132	1	renaissance brown	
1133	1	Fine or Finer	
1134	1	Epson	
1135	1	Aerometric in XF	
1136	1	a Parker 21 that	
1137	1	Traveler's Notebook	
1138	1	Platinum PRESIDENT Japan	
1139	1	EMR	
1140	1	Leuchtturm and Midori for me	
1141	1	80 Euro	
1142	1	Sh	
1143	1	Spider Fingers	
1144	1	Fantastic	
1145	1	Pilot Kakuno EF + Pelikan Brilliant Brown with brushpen](https://i.imgur.com/cUN9TBe.jpg	
1146	1	a Hacked Up Pen Day	
1147	1	1964	
1148	1	Krishna Pencil	
1149	1	The Wing	
1150	1	Pelican Souveran M1000	
1151	1	the Hard Style Chinese Calligraphy	
1152	1	True Writer	
1153	1	the Triangle Pen Show	
1154	1	quasi-Imperials	
1155	1	the Dorsal Fin and Decapod	
1156	1	Safari they had at the store was a medium	
1157	1	War and Peace	
1158	1	Clickspring	
1159	1	Forever in Time	
1160	1	Schmidt PRS	
1161	1	Hammsuke	
1162	1	Portofino Acquerello	
1163	1	as the Lamy	
1164	1	Saturday Swatches	
1165	1	Spencerian Handwriting	
1166	1	Wahlnut	
1167	1	The Pilot Capless Moonlight	
1168	1	Limited Edition Charcoal Marble	
1169	1	Firefly	
1170	1	Hmm	
1171	1	Twilight Vanishing Point	
1172	1	The Taxtile Turn and the Ixion	
1173	1	M805	
1174	1	Royal Tangerine Sailor	
1175	1	Inks	
1176	1	The Nib Smith](https://nibsmith.com/product/platinum-3776-century-kumpoo-limited-edition-fountain/	
1177	1	The Platinum and Sailors	
1178	1	Hobbit	
1179	1	the Platinum Carbon	
1180	1	"Platinum Feedback"	
1181	1	Wexford	
1182	1	the Platinum Pink	
1183	1	an Esterbrook SJ	
1184	1	Millennial	
1185	1	Onoto	
1186	1	Lifetime	
1187	1	Kaweco Skylines	
1188	1	the Pilot Knight	
1189	1	Midnight Black	
1190	1	“Mars Pearl”	
1191	1	the Moore Safety Pen	
1192	1	a Lamy Nexx	
1193	1	Perfect.	
1194	1	Pomegranate	
1195	1	Jade Baron	
1196	1	Diamine	
1197	1	Pelikan Twist	
1198	1	the Parker Sonnet SSCT	
1199	1	Pilot NYC	
1200	1	Reform	
1201	1	Namiki	
1202	1	“Liquid Lunch”	
1203	1	Macho Man	
1204	1	Savage	
1205	1	Ooooooh	
1206	1	Iroshizuku Ku-jaku	
1207	1	a Mont Blanc Boheme	
1208	1	The "Earth	
1209	1	Summer Storm	
1210	1	a Mont Blanc 12	
1211	1	Ooooh	
1212	1	Batman	
1213	1	Iroshizuku Ink	
1214	1	Pilot Custom Grandee	
1215	1	Arrow CT	
1216	1	Cooler Master MasterBox 5](https://www.amazon.com/dp/B01HDUVOGI/ref=	
1217	1	my Master's	
1218	1	KWZI and a Sheaffer Balance II	
1219	1	Diamine Earl Gray	
1220	1	Vibrant Turquoise	
1221	1	Callifolio Noir	
1222	1	Epsilon	
1223	1	Iroshizuku Take-Sumi	
1224	1	Wortzusammensetzungen	
1225	1	the Diamine Wild Strawberry	
1226	1	the Declaration of Independence each Fourth of July	
1227	1	the Rose Gold	
1228	1	Sheaffer Balances	
1229	1	a Rickshaw Bags Hemingway 6 pen roll	
1230	1	Kaweco Sport Ice	
1231	1	The Tree People	
1232	1	the Platinum Glamour	
1233	1	Writing is the Geometry of the Soul	
1234	1	Mattias Adolfsson](http://mattiasa.blogspot.com	
1235	1	Bad Taste	
1236	1	the King Size	
1237	1	the Parker Challenger	
1238	1	timestamp](https://youtu.be	
1239	1	timestamp](https://youtu.be/zOOhGPPP2Xs?t=65	
1240	1	Fine and Medium	
1241	1	Instagram @lilleatherstudio	
1242	1	Fountain	
1243	1	Rose Bloom	
1244	1	a Tuckaway	
1245	1	Pilot Plumix Enso	
1246	1	Anne of the Green Gables	
1247	1	Purchase Links:	
1248	1	Iroshizuku Ina Ho	
1249	1	Sailor	
1250	1	Spring	
1251	1	Autumn	
1252	1	Butter Line Stub	
1253	1	the "Kyouka	
1254	1	Writing Sample](https://i.redd.it/z1ru676sk4b11.jpg	
1255	1	Botticelli	
1256	1	Tintenkiller	
1257	1	Golden ink	
1258	1	Ferrari Testarossa	
1259	1	Franklin-Christoph	
1260	1	Diamine 80ml Glas Bottle Calligraphy Passion	
1261	1	Diamine 80ml Glas Bottle November Rain	
1262	1	Art for art’s sake	
1263	1	Piccadilly	
1264	1	88K	
1265	1	Right Top Row	
1266	1	See Through White	
1267	1	Cocktail Series	
1268	1	Origami Inks	
1269	1	Sailor Tall Bottles/Vase Bottles	
1270	1	Walnut	
1271	1	the Platinum BB	
1272	1	Diamine Blue Velvet]	
1273	1	Dux	
1274	1	Dollar	
1275	1	Black or Blue-Black	
1276	1	The Lamy Medium	
1277	1	TWSBI 580AL	
1278	1	Breaking News:	
1279	1	OP Delivers](https://imgur.com	
1280	1	a Nemosine Singularity	
1281	1	Royal Tangerine (EF	
1282	1	Chwyć	
1283	1	The Champion	
1284	1	Pilot Custom Heritage 91 EF	
1285	1	November Rain	
1286	1	International Short	
1287	1	This particular Waterman I have is on the heavier side so it has that pleasant	
1288	1	Opon Channel Blue Opon	
1289	1	Progear Nib on a Regular	
1290	1	Boa Constrictor Imperator	
1291	1	Conklin and Cleo Skribent	
1292	1	Twsbi 580AL	
1293	1	The Art of Calligraphy	
1294	1	Muji Writing Paper	
1295	1	Smokey Quartz	
1296	1	Eversharp Inc	
1297	1	Made in USA”	
1298	1	Eversharp 14k	
1299	1	Foundational Hand	
1300	1	the X-Heart	
1301	1	Standard" Fine	
1302	1	‘Black Dragon’	
1303	1	the Palmer Rite Way	
1304	1	Moonlight	
1305	1	Pilot Namiki IC100	
1306	1	First Love Sapphire	
1307	1	Hand Book	
1308	1	the Iroshizuku Shin Kai	
1309	1	La Reine Mauve	
1310	1	This Wing Sung	
1311	1	BLS’ing	
1312	1	Stationery Shopping: Kingdom Note	
1313	1	La Divina Commedia	
1314	1	Do I LIKE IT	
1315	1	Pelikan 100N.	
1316	1	Faber-Castell E-Motion Pure Black	
1317	1	old-timey	
1318	1	Loom	
1319	1	Gameboy Pokédex	
1320	1	The Raven	
1321	1	a Tribute Collection	
1322	1	the Monteverde Regatta	
1323	1	"Out of Stock"	
1324	1	The "Re-Entry" nibs are	
1325	1	Swan	
1326	1	Pennspecialisten	
1327	1	Normal	
1328	1	The Ahab, Konrad	
1329	1	TWSBI Diamond	
1330	1	Shadowrun	
1331	1	Pelikan - W Germany	
1332	1	Devils Bargain	
1333	1	Randall	
1334	1	Mowwy	
1335	1	Courtesy of The Francis Lara Collection	
1336	1	Fountain Pen Camera	
1337	1	Starry Sky of Jonuma (城沼の星空)](https://www.facebook.com/anatabrand/posts/1964216717172459	
1338	1	M.  	
1339	1	Vermouth	
1340	1	Delike	
1341	1	Fairyland	
1342	1	a Parker Vector	
1343	1	Waterman - Made	
1344	1	the Super Master	
1345	1	Product Shots and macro!](https://imgur.com	
1346	1	a Parker 75 in the “	
1347	1	Cisele	
1348	1	The Parker 75	
1349	1	Sheaffer Touchdown Filling System	
1350	1	The Sheaffer Imperial Family of Fountain Pens	
1351	1	FAQ	
1352	1	the "Palmer Method	
1353	1	Spalted Maple Driftwood/Sea Glass Resin’	
1354	1	Melbourne on the 25th of November](http://www.melbpenshow.com.au/	
1355	1	Pelikan M605	
1356	1	Bright	
1357	1	Iroshizuku Take-sumi(my	
1358	1	Instagram page](https://www.instagram.com/chesapeakepenco	
1359	1	Schin Loong"(actually	
1360	1	the "Spencerian	
1361	1	https://www.docdroid.net/oxwk/theory-of-the-spencerian-method-of-papractical-penmanship-and-five-copybooks.pdf](https://www.docdroid.net/oxwk/theory-of-the-spencerian-method-of-papractical-penmanship-and-five-copybooks.pdf	
1362	1	Krishna Jungle	
1363	1	Waterman’s Ideal	
1364	1	Made in the USA	
1365	1	Wing Sungs	
1366	1	Waterman's Ideal 14 kt	
1367	1	the picture](https://i.imgur.com/BBMjwas.jpg	
1368	1	London Fog 😜	
1369	1	Truphae	
1370	1	the MB Toffee	
1371	1	Fountain Pen Revolution Indus Fountain Pen	
1372	1	the Nobel prize	
1373	1	Air bn&amp;b	
1374	1	Leave Out All The Rest	
1375	1	Iroshizuku Ama-Iro	
1376	1	Mont Blanc Psychedelic Purple	
1377	1	marupen	
1378	1	3776 Fine	
1379	1	Just in Khuong	
1380	1	90g	
1381	1	Soft Fine Falcon	
1382	1	Pelikan M620	
1383	1	The Life-Changing Magic of Tidying	
1384	1	Pelikan M600 Turquoise	
1385	1	a HS Bronze Age anymore	
1386	1	`Polar Purple	
1387	1	Figma Table Museum	
1388	1	a Wing Sung 698 EF	
1389	1	Habanero  Pilot Metropolitan M - Noodler’s Heart of Darkness  Pilot Prera M - Noodler’s Shah’s	
1390	1	Fountain Pens: History and Design	
1391	1	the PM F	
1392	1	Pure Black	
1393	1	a “Parker Special	
1394	1	Standard AWB Tertia	
1395	1	Edel Chromepen 1.Qual	
1396	1	Noodlers Bad Belted Kingfisher	
1397	1	Noodlers Lexington Gray]]	
1398	1	Extra Extra Broad Oblique - O3B	
1399	1	Aus Roses	
1400	1	pelikan 4001 Black	
1401	1	Goods for the Study	
1402	1	[Diamine Oxblood]].	
1403	1	Aurora black	
1404	1	Rose Quartz	
1405	1	Form Living	
1406	1	https://nickstewart.ink/2015/11/16/and-the-real-magic-begins/](https://nickstewart.ink/2015/11/16/and-the-real-magic-begins/	
1407	1	Charlie	
1408	1	Carbon Black ten seconds	
1409	1	Carbon Black	
1410	1	Twsbi	
1411	1	“Platinum Preppy”	
1412	1	Life	
1413	1	Pelikan M205	
1414	1	Philly Pen Show	
1415	1	Monteverde Fireopal	
1416	1	Skate or Die'	
1417	1	Iroshizuku Syo Ro	
1418	1	AL Sport	
1419	1	Retro	
1420	1	Line Store in Itaewon	
1421	1	Fountain Ink	
1422	1	the Platinum Izumo	
1423	1	Special	
1424	1	Forest Green	
1425	1	Goulets	
1426	1	Topres	
1427	1	Waterman Mysterious Blue	
1428	1	Montverde California Teal	
1429	1	the "Sailor Pro Gear Purple Cosmos"	
1430	1	CON40s the Carbonesques	
1431	1	Stolla III](https://imgur.com	
1432	1	The Copper and Golden Ale	
1433	1	Pen's	
1434	1	Dann	
1435	1	Stiftskirche	
1436	1	Darren	
1437	1	a Parker 45 — the clip	
1438	1	Balance	
1439	1	Chadwick	
1440	1	VPD	
1441	1	a Regular and Kingsize	
1442	1	Regular	
1443	1	The Love Song of J. Alfred Prufrock	
1444	1	copper-y	
1445	1	Crest	
1446	1	Quest	
1447	1	Colorverse String	
1448	1	2800 Euro	
1449	1	Adjusting Your Fountain Pen - Part 1:	
1450	1	Adzuki Bean Color	
1451	1	The Count of Monte Cristo	
1452	1	this Pro Gear	
1453	1	Autumn Rain Gray	
1454	1	Tranquility	
1455	1	The Sloppy Schematic	
1456	1	Vermilion	
1457	1	Shooting Star of Jonuma	
1458	1	Primary Manipulation	
1459	1	a Platinum PTL-5Ka	
1460	1	a Platinum PLT	
1461	1	Vaness later	
1462	1	Allo, Allo	
1463	1	Marksman	
1464	1	Visconti Blue	
1465	1	Kawasemi	
1466	1	Made In West Germany	
1467	1	the Royal Blues	
1468	1	the Mont Blanc Royal Blue	
1469	1	A Lamy Safar EF	
1470	1	Fine with Noodler's Pecan   	
1471	1	Tulip	
1472	1	the Sheaffer Pop	
1473	1	Tomiya 1797	
1474	1	a Nobel Prize	
1475	1	Like You	
1476	1	Master's Degree	
1477	1	Midori A5 Grid	
1478	1	the Eversharp Skylines	
1479	1	Purple Mountain Majesty	
1480	1	This Is Not Robert Longshore	
1481	1	John Holland Gold Pen Company	
1482	1	the Royal Challenger	
1483	1	the Parker Challenger Deluxe	
1484	1	Limited Edition Delta Demonstrator - Victo FP-B000W Clear Demonstrator	
1485	1	Chesterfield Antique Copper	
1486	1	Red Rakham's Treasure	
1487	1	Early Bird Specials	
1488	1	The Well Appointed Deak	
1489	1	Apache Sunset or Diamine Autumn Oak	
1490	1	IRIDIUM POINT, GERMANY	
1491	1	The Master of Ink and bad handwriting	
1492	1	Iroshizuku Ama Iro	
1493	1	Breeze Notebook	
1494	1	Think Geek	
1495	1	Shark Pen	
1496	1	Antique Copper	
1497	1	'Purple Pizazz	
1498	1	Shopmate	
1499	1	Woody	
1500	1	Lamy2000	
1501	1	Platinum Carbon Ink	
1502	1	The Pro Gear Slims	
1503	1	Pelikan 140	
1504	1	Warranted Durium Tipped 14K	
1505	1	Innovative Journaling](http://innovativejournaling.com/	
1506	1	Renaissance Art	
1507	1	Swan 205/60	
1508	1	post yesterday](https://www.reddit.com	
1509	1	Azure Senior Maxima	
1510	1	IS MINE NOW	
1511	1	Top Half	
1512	1	Beside	
1513	1	Yodaki	
1514	1	Italix	
1515	1	Alexa: play baby shark	
1516	1	Troublemaker Copper Patina	
1517	1	Dove	
1518	1	the Faber Castell "Loom	
1519	1	Rapture	
1520	1	Monteverde Midnight Black	
1521	1	River Birch	
1522	1	Moonman M2	
1523	1	Bonus	
1524	1	The Well-Appointed Desk	
1525	1	Translucent Bronze	
1526	1	An Easier Fountain Pen	
1527	1	Autum Oak	
1528	1	Copper Patina	
1529	1	Instagram for the longest time	
1530	1	Black Diamond	
1531	1	Light to Medium	
1532	1	kinda ink	
1533	1	The "Cracked Ice"	
1534	1	a Tactile Turn	
1535	1	TDC	
1536	1	Pelikan Edelstien Mandarin	
1537	1	Elysee No. 90 Barleycorn Fountain Pen	
1538	1	the Chaplain's Tankard	
