#Word types: 56
#Word tokens: 15150
#Search results: 0
1	2680	is	
2	2639	was	
3	2387	be	
4	1591	's	
5	1256	are	
6	853	been	
7	646	being	
8	622	were	
9	571	get	
10	467	'm	
11	263	got	
12	234	getting	
13	193	am	
14	190	're	
15	165	’ve	
16	133	’m	
17	108	gets	
18	50	’re	
19	13	look	
20	12	came	
21	9	feels	
22	9	s	
23	8	looks	
24	6	become	
25	4	gotten	
26	3	staying	
27	3	going	
28	2	re	
29	2	becoming	
30	2	feeling	
31	2	becomes	
32	2	comes	
33	2	come	
34	1	says	
35	1	feel	
36	1	untill	
37	1	became	
38	1	bought	
39	1	gone	
40	1	agree	
41	1	to	
42	1	felt	
43	1	looking	
44	1	seemed	
45	1	prefer	
46	1	enjoyed	
47	1	st	
48	1	fromjapan](https://www.fromjapan.co.jp	
49	1	stay	
50	1	looked	
51	1	seems	
52	1	sized	
53	1	’s	
54	1	walking	
55	1	ought	
56	1	standard	
