#Word types: 47
#Word tokens: 8395
#Search results: 0
1	1649	be	
2	1400	is	
3	1221	was	
4	970	are	
5	711	's	
6	605	been	
7	440	being	
8	296	were	
9	287	get	
10	197	're	
11	125	'm	
12	122	got	
13	108	getting	
14	102	gets	
15	66	am	
16	15	s	
17	11	’ve	
18	10	’m	
19	10	re	
20	9	’re	
21	4	look	
22	3	came	
23	3	looks	
24	3	feeling	
25	2	feels	
26	2	become	
27	2	feel	
28	2	stay	
29	2	come	
30	1	saying	
31	1	beachy	
32	1	gotten	
33	1	turn	
34	1	will	
35	1	staying	
36	1	pm	
37	1	going	
38	1	became	
39	1	taste	
40	1	seems	
41	1	bb	
42	1	read	
43	1	felt	
44	1	turned	
45	1	remains	
46	1	need	
47	1	becoming	
