#Word types: 179
#Word tokens: 10704
#Search results: 0
1	2886	a	
2	2762	$	
3	1301	#	
4	789	than	
5	433	over	
6	312	about	
7	300	to	
8	290	around	
9	225	under	
10	190	like	
11	94	£	
12	90	up	
13	88	quite	
14	77	times	
15	70	between	
16	52	1	
17	44	3	
18	39	2	
19	35	as	
20	34	10	
21	30	half	
22	30	20	
23	27	some	
24	25	€	
25	24	of	
26	20	every	
27	15	40	
28	14	50	
29	12	60	
30	12	all	
31	11	two	
32	11	30	
33	11	15	
34	11	%	
35	10	7	
36	10	4	
37	10	out	
38	10	no	
39	10	5	
40	9	us$	
41	8	8	
42	8	100	
43	7	tens	
44	7	from	
45	7	25	
46	7	6	
47	7	in	
48	6	another	
49	6	45	
50	6	35	
51	6	vs	
52	6	dozen	
53	5	with	
54	5	the	
55	5	close	
56	5	9	
57	4	1/2	
58	4	mm	
59	4	75	
60	3	three	
61	3	200	
62	3	150	
63	3	four	
64	3	one	
65	3	80	
66	3	500	
67	3	12	
68	3	85	
69	3	little	
70	3	five	
71	3	after	
72	3	nib	
73	3	1.5	
74	2	250	
75	2	70	
76	2	0.1	
77	2	below	
78	2	11	
79	2	thirds	
80	2	near	
81	2	above	
82	2	800	
83	2	743	
84	2	on	
85	2	300	
86	2	0.9	
87	2	twice	
88	2	72	
89	2	something	
90	2	ten	
91	2	any	
92	2	thousands	
93	2	upon	
94	1	utf8&amp;qid=1337120960&amp;sr=8	
95	1	15-	
96	1	1.00	
97	1	wow	
98	1	each	
99	1	minus	
100	1	monday	
101	1	fifteen	
102	1	~$6	
103	1	14	
104	1	per	
105	1	utf8&amp;qid=1423246676&amp;sr=8	
106	1	4.25	
107	1	8.5	
108	1	210	
109	1	ef	
110	1	65	
111	1	22	
112	1	26	
113	1	too	
114	1	custom	
115	1	119.40	
116	1	0	
117	1	tge	
118	1	61	
119	1	off	
120	1	medium	
121	1	~50	
122	1	0.4	
123	1	20,000	
124	1	13	
125	1	1.2	
126	1	versus	
127	1	2.5	
128	1	440,~~	
129	1	pm	
130	1	700	
131	1	~70	
132	1	|	
133	1	12.94	
134	1	14.99	
135	1	136	
136	1	11580	
137	1	440	
138	1	http://www.shopmiquelrius.com/	
139	1	because	
140	1	8,000	
141	1	~10	
142	1	la	
143	1	o'clock	
144	1	17	
145	1	19	
146	1	g	
147	1	month	
148	1	12-box	
149	1	912	
150	1	1)about	
151	1	4)about	
152	1	beyond	
153	1	0.8	
154	1	thousand	
155	1	1/10	
156	1	1.25	
157	1	600	
158	1	1.50	
159	1	bit	
160	1	d	
161	1	couple	
162	1	41	
163	1	05	
164	1	7995	
165	1	upwards	
166	1	~20	
167	1	146	
168	1	90	
169	1	80](https://www.amazon.com	
170	1	these	
171	1	950	
172	1	six	
173	1	99	
174	1	1,000	
175	1	176	
176	1	137	
177	1	ml	
178	1	black**](http://tomiya	
179	1	within	
