#Word types: 254
#Word tokens: 447
#Search results: 0
1	105	Metro	
2	19	metro	
3	11	nibs	
4	8	Sailor	
5	7	Walden Pond	
6	6	Fountain Pen Network	
7	6	Metropolitan	
8	4	Classic	
9	3	Triumph	
10	3	Fountain Pen Hospital	
11	3	the DC Pen Show	
12	3	\-	
13	2	Bromfield Street	
14	2	the Saint-ExupÃ©	
15	2	Peyton Street Pens	
16	2	the Chicago Pen Show	
17	2	Cafe Creme	
18	2	Tomoe River	
19	2	Apache Sunset	
20	2	the Graf von Faber-Castell	
21	2	the Palmer Method	
22	2	Safariâs	
23	2	Delike	
24	2	Vanness](https://vanness1938.com	
25	2	YouTube	
26	2	Pen Room	
27	2	an Al Star	
28	2	Osmiroid 65	
29	2	Rokko Island Blue	
30	2	m1000	
31	2	L2K	
32	2	Golden Sands	
33	2	the Golden Sands	
34	2	Fountain Pens	
35	2	M1000	
36	2	580	
37	2	Â£25	
38	2	the Triangle Pen Show	
39	2	F	
40	1	the Classic Black	
41	1	AE	
42	1	the Kon-Peki	
43	1	Red-Black	
44	1	1.2ml	
45	1	Orange Rumble	
46	1	the Crimson Sunrise	
47	1	Marshalls/TJMaxx	
48	1	the Blues/Turquoise	
49	1	Blue Cypress	
50	1	823s	
51	1	Turquoise-White	
52	1	The Pelikan M600	
53	1	3.20â¬	
54	1	the Robert Oster Graphite	
55	1	the Nib Nook	
56	1	the Pen Plaza	
57	1	Herbin Gris Nuage	
58	1	the Sailor King of Pen	
59	1	Fujin Raijin	
60	1	Fountain Pen	
61	1	Kingdom Note Tanna Japonensis	
62	1	Fountain Pen Hospitalâs	
63	1	THE WALLã	
64	1	LCDC	
65	1	Hellfire
	
66	1	Al-star	
67	1	the Pen Habit's	
68	1	Vanness	
69	1	Flex Nib Factory	
70	1	Sheaffer Triumph	
71	1	the Apache Sunset	
72	1	323	
73	1	Pen BBS 350	
74	1	âpaper	
75	1	Aurora 88	
76	1	Preppy	
77	1	Slims	
78	1	Fountain Pen Revolution	
79	1	peyton street	
80	1	Black-Red-Hardcover-Notebook-K67030	
81	1	the Al-Sport	
82	1	Rose Quartz	
83	1	the Rose Quartz	
84	1	the Bouquet d'Antan	
85	1	the Waterman Green	
86	1	Birmingham Pens	
87	1	Mnemosyne	
88	1	Blue-Black	
89	1	the Lamy Al Star	
90	1	the Pelikan Classic M200	
91	1	WORDS	
92	1	the nib isnât	
93	1	Lugdunum	
94	1	Flexible Nib Factory	
95	1	Red-Black](https://dl.airtable.com/nKQKWAuWShGAKx6z3Blt_Noodler's%20Red%20Black.jpg	
96	1	the Zebra G	
97	1	the pelikan m800/m600	
98	1	Birmingham Emerald View Park	
99	1	Teri at Peyton Street Pens â	
100	1	the Purple Ellipse	
101	1	the Pelikan M205 Duo BB	
102	1	Kaweco Palm Green	
103	1	Black	
104	1	Camden Yards	
105	1	the Goulet Pens "Coming Soon	
106	1	the Sheaffer Tuckaway	
107	1	Wing Sung Nibs:	
108	1	Shadyside Walnut Street	
109	1	Robert Oster Fire Engine Red	
110	1	hehe uni	
111	1	Edelstein Smoky Quartz	
112	1	Pelikan Cafe Creme	
113	1	the Namisu Ixion	
114	1	the Sky Tree	
115	1	Tokio Station	
116	1	M1000 Raden	
117	1	Sooooooo youâre	
118	1	Birmingham Pen Co	
119	1	âMars	
120	1	Sheaffer's Tuckaway	
121	1	K Masterpiece	
122	1	the Graff Von Faber Castell	
123	1	OS Walden Pond	
124	1	Jilong Road	
125	1	the Cafe Creme	
126	1	Studio	
127	1	Pelikan 100	
128	1	the Kyo-Iro/Kyo-No-Oto	
129	1	Fenway Park	
130	1	the Blue-Black	
131	1	Lake Tahoe	
132	1	white ammonia water	
133	1	Â£11	
134	1	the Otto Hutt Design 06	
135	1	Sheaffer Tuckaway TD M	
136	1	Al Star	
137	1	the SF Pen Show	
138	1	the Line Friends Cafe	
139	1	Water for Hours	
140	1	the Aurora Blue Black	
141	1	Pelikan 600	
142	1	Goulet's	
143	1	Edison Pens	
144	1	Edison Collier	
145	1	Fountain Feeder	
146	1	Fountain Pen with Fine nib	
147	1	the F-C Masuyama Needlepoint	
148	1	the Blue Black	
149	1	the Sailor King of Pens	
150	1	Sheaffer Triumph Crest	
151	1	Jinhao"

	
152	1	the Pelikan M200 Black	
153	1	the Writing Room	
154	1	Harrods	
155	1	the Noodlerâs Black	
156	1	Fountain Pen 101	
157	1	Fountain Feder	
158	1	Sailor Jentle Rikyu-Cha	
159	1	the Fountain Pen Revolution Indus	
160	1	Goulet Pens	
161	1	Dollar General	
162	1	Eclat de Safir	
163	1	Blue Pearl	
164	1	âfine	
165	1	jinhao replacement nibs	
166	1	the Quink Black	
167	1	the Edison Collier	
168	1	the Castle now\	
169	1	Maruzen Matsumoto Shop	
170	1	the Salem Witch Trial	
171	1	the Ici Et La nib	
172	1	the Hotel de Ville Metro	
173	1	61 rue Saint-Martin	
174	1	Black Tortoise	
175	1	Green Stripe	
176	1	Calle Larios	
177	1	the Wing Sungs	
178	1	my Noodlerâs Black Swan	
179	1	the Medium Sleeve	
180	1	The Pen Habit	
181	1	Peyton Street Pens (Teri Morris	
182	1	the Seattle-ish Pen Posse	
183	1	Mo's Art Supply and Framing	
184	1	the Lakeside Mall	
185	1	the 'n'	
186	1	Wing Sung	
187	1	semi\-	
188	1	the F-C nib	
189	1	150th Port Anniversary Lecoule	
190	1	the BRASS RING	
191	1	Diamine Golden Sands	
192	1	2M	
193	1	Spring Drive	
194	1	The Eel Black	
195	1	Nik Pang	
196	1	Pelikan 605	
197	1	The Black n Red	
198	1	the F nib	
199	1	Interstate Highway	
200	1	Quink Black	
201	1	the Deep Sea	
202	1	Fifth Avenue	
203	1	Chalet Pens	
204	1	the Art Sport	
205	1	Anderson's Pen	
206	1	Oxford Street	
207	1	HumlegÃ¥rden Park	
208	1	Jowo	
209	1	the Robert Oster Fire	
210	1	J Herbin Bleu Pervenche	
211	1	piston fountain pen	
212	1	580/700	
213	1	Lamy's Blue-Black	
214	1	the Lime Green	
215	1	the Black n' Reds	
216	1	New Moon - These	
217	1	Provider La Grand Bellezas	
218	1	Sailor Rikyu	
219	1	Â£15	
220	1	Carmine Red	
221	1	this Pelikan M600 Vibrant Green	
222	1	Woodshed Pens \-	
223	1	Iroshizuku Ina-Ho	
224	1	Mods	
225	1	Slimline	
226	1	Harvard Square	
227	1	Park Street	
228	1	the Sea King	
229	1	âpromotional	
230	1	Lamy Line Friends Brown FPâs	
231	1	the Pro Gear Earth LE	
232	1	Le Citron Bar	
233	1	Burma Road Brown	
234	1	the nib slit	
235	1	The DC Pen Show	
236	1	the Berlin Wall	
237	1	gel	
238	1	Beverly Center	
239	1	the Mont Blanc	
240	1	Visconti Wall Street	
241	1	Visconti Wall Street LE	
242	1	M2	
243	1	the Namisu Orion	
244	1	al-star	
245	1	the LA Pen Show	
246	1	a Sheaffer Triumph Wartime	
247	1	Schneider	
248	1	the Schneider Smart	
249	1	WS EF	
250	1	the WS F	
251	1	the Golden Ratio	
252	1	the PFM IV	
253	1	the Eversharp Doric	
254	1	Pelikan Edelstein Smoky Quartz	
