#Word types: 1436
#Word tokens: 70747
#Search results: 0
1	17264	for	
2	13722	me	
3	10953	you	
4	8372	to	
5	5320	it	
6	2989	them	
7	1498	him	
8	1076	us	
9	989	myself	
10	955	what	
11	873	yourself	
12	716	her	
13	472	much	
14	357	pen	
15	315	that	
16	242	this	
17	192	people	
18	150	one	
19	136	pens	
20	120	nib	
21	107	ink	
22	91	someone	
23	71	writing	
24	56	which	
25	48	everyone	
26	46	inks	
27	46	bottle	
28	44	anyone	
29	42	twsbi	
30	37	handwriting	
31	35	converter	
32	34	wife	
33	34	op	
34	33	whatever	
35	32	friend	
36	31	mom	
37	29	cartridge	
38	28	nibs	
39	27	pilot	
40	25	themselves	
41	24	parker	
42	24	who	
43	24	person	
44	23	himself	
45	23	jinhao	
46	22	lamy	
47	22	dad	
48	20	sailor	
49	20	those	
50	20	others	
51	19	cap	
52	19	pelikan	
53	19	blue	
54	18	feed	
55	18	'em	
56	18	em	
57	18	ya	
58	18	customers	
59	17	mine	
60	17	part	
61	16	black	
62	15	than	
63	15	safari	
64	15	u	
65	15	girlfriend	
66	15	seller	
67	15	custom	
68	15	guy	
69	15	eco	
70	14	students	
71	14	sister	
72	13	guys	
73	13	sub	
74	13	noodlers	
75	13	man	
76	12	customer	
77	12	brother	
78	12	kid	
79	12	user	
80	12	thing	
81	11	i	
82	11	users	
83	11	paper	
84	11	things	
85	11	son	
86	11	these	
87	11	kids	
88	11	vp	
89	11	heritage	
90	10	letters	
91	10	bottles	
92	10	goulet	
93	10	mother	
94	10	brand	
95	10	company	
96	10	husband	
97	10	herself	
98	10	metropolitan	
99	10	a	
100	10	piston	
101	10	daughter	
102	9	diamine	
103	9	notebooks	
104	9	community	
105	9	other	
106	9	metro	
107	9	waterman	
108	9	nibmeister	
109	9	converters	
110	8	sample	
111	8	somebody	
112	8	children	
113	8	section	
114	8	lines	
115	8	_	
116	7	on	
117	7	he	
118	7	try	
119	7	everything	
120	7	gf	
121	7	hand	
122	7	platinum	
123	7	kind	
124	7	ef	
125	7	in	
126	7	owner	
127	7	lots	
128	7	diplomat	
129	7	rhodia	
130	6	mb	
131	6	prera	
132	6	decimo	
133	6	buyers	
134	6	friends	
135	6	series	
136	6	montblanc	
137	6	fingers	
138	6	hero	
139	6	buyer	
140	6	amazon	
141	6	ones	
142	6	body	
143	6	vac	
144	6	green	
145	6	italic	
146	6	service	
147	6	product	
148	6	something	
149	6	store	
150	6	2000	
151	6	fine	
152	6	stub	
153	6	itself	
154	5	point	
155	5	world	
156	5	tines	
157	5	parts	
158	5	kaweco	
159	5	they	
160	5	retailers	
161	5	characters	
162	5	girl	
163	5	herbin	
164	5	etc	
165	5	ourselves	
166	5	ebay	
167	5	grandmother	
168	5	case	
169	5	4x	
170	5	/u	
171	5	father	
172	5	like	
173	5	method	
174	5	video	
175	5	visconti	
176	5	filler	
177	5	niece	
178	5	akkerman	
179	5	yours	
180	5	s	
181	5	preppy	
182	5	material	
183	5	christoph	
184	5	conid	
185	4	words	
186	4	's	
187	4	fo	
188	4	bsb	
189	4	with	
190	4	two	
191	4	jetpens	
192	4	go	
193	4	con	
194	4	fps	
195	4	vintage	
196	4	m	
197	4	old	
198	4	hands	
199	4	employees	
200	4	binder	
201	4	dragon	
202	4	fp	
203	4	comment	
204	4	wallet	
205	4	massdrop	
206	4	parents	
207	4	line	
208	4	style	
209	4	sac	
210	4	companies	
211	4	silver	
212	4	so	
213	4	suggestion	
214	4	grip	
215	4	mouse	
216	4	self	
217	4	f	
218	4	bernie	
219	4	hobby	
220	4	writer	
221	4	colors	
222	4	vs	
223	4	w	
224	4	post	
225	4	penbbs	
226	3	knob	
227	3	calligraphy	
228	3	cursive	
229	3	bleach	
230	3	medium	
231	3	gold	
232	3	yourselves	
233	3	lot	
234	3	leuchtturm	
235	3	team	
236	3	suggestions	
237	3	10x	
238	3	my	
239	3	peki	
240	3	site	
241	3	character	
242	3	mike	
243	3	piece	
244	3	2x	
245	3	fountainpens	
246	3	shawn	
247	3	consumers	
248	3	y'	
249	3	barrel	
250	3	salix	
251	3	dan	
252	3	manufacturers	
253	3	convertor	
254	3	box	
255	3	feather	
256	3	nathan	
257	3	glue	
258	3	teacher	
259	3	cartridges	
260	3	boy	
261	3	k	
262	3	74	
263	3	amber	
264	3	reserve	
265	3	size	
266	3	falcon	
267	3	less	
268	3	grandfather	
269	3	syringe	
270	3	quink	
271	3	konrad	
272	3	model	
273	3	alcohol	
274	3	co.	
275	3	grandma	
276	3	unit	
277	3	wet	
278	3	nemosine	
279	3	joy	
280	3	masuyama	
281	3	little	
282	3	bacas	
283	3	group	
284	3	stranger	
285	3	page	
286	3	rats	
287	3	stubs	
288	3	mods	
289	3	idea	
290	3	vendor	
291	3	823	
292	3	owners	
293	3	teachers	
294	3	interior	
295	2	driver	
296	2	client	
297	2	broad	
298	2	canadians	
299	2	ahab	
300	2	pads	
301	2	mini	
302	2	bladder	
303	2	repair	
304	2	m800	
305	2	stock	
306	2	this](http://www.amazon.com	
307	2	usd	
308	2	iroshizuku	
309	2	varsity	
310	2	¥	
311	2	4001	
312	2	mm	
313	2	another	
314	2	test	
315	2	cross	
316	2	banditapple	
317	2	ron	
318	2	bf	
319	2	pages	
320	2	recipe	
321	2	email	
322	2	redditor	
323	2	videos	
324	2	moleskine	
325	2	tootsie	
326	2	gao	
327	2	mixture	
328	2	twilight	
329	2	notebook	
330	2	brown	
331	2	nicer	
332	2	worth	
333	2	20	
334	2	dupont	
335	2	oxblood	
336	2	goulets	
337	2	kakuno	
338	2	51	
339	2	ford	
340	2	package	
341	2	andersons	
342	2	580	
343	2	of	
344	2	turquoise	
345	2	syogun	
346	2	cheapo	
347	2	oak	
348	2	varsities	
349	2	singularity	
350	2	uncle	
351	2	carpet	
352	2	light	
353	2	grandfathers	
354	2	flex	
355	2	safaris	
356	2	yo	
357	2	webbie	
358	2	products	
359	2	restoration	
360	2	usps	
361	2	parallel	
362	2	bank	
363	2	hod	
364	2	sans	
365	2	mum	
366	2	tip	
367	2	water	
368	2	5	
369	2	while	
370	2	mechanism	
371	2	plunger	
372	2	boku	
373	2	momiji	
374	2	dog	
375	2	greg	
376	2	rakuten	
377	2	dilution	
378	2	159	
379	2	amd	
380	2	experience	
381	2	noir	
382	2	ballpoints	
383	2	brands	
384	2	do	
385	2	bbm	
386	2	edison	
387	2	place	
388	2	more	
389	2	methods	
390	2	vista	
391	2	sheaffer	
392	2	issues	
393	2	dollar	
394	2	partner	
395	2	diy	
396	2	itm	
397	2	ease	
398	2	fiancee	
399	2	places	
400	2	balance	
401	2	retailer	
402	2	ton	
403	2	underwriting	
404	2	w/	
405	2	shops	
406	2	readers	
407	2	purposes	
408	2	cdn	
409	2	smoother	
410	2	brass	
411	2	wiki	
412	2	pressure	
413	2	coworker	
414	2	flush	
415	2	work	
416	2	whoever	
417	2	m400	
418	2	public	
419	2	collection	
420	2	tardiff	
421	2	members	
422	2	demonstrator	
423	2	100	
424	2	velvet	
425	2	downstrokes	
426	2	pilots	
427	2	copper	
428	2	inventor	
429	2	de	
430	2	times	
431	2	shop	
432	2	head	
433	2	cushiony	
434	2	pelikans	
435	2	wa	
436	2	92	
437	2	sender	
438	2	episode	
439	2	sunset	
440	2	e	
441	2	murex	
442	2	kwz	
443	2	direction	
444	2	way	
445	2	10	
446	2	t	
447	2	normal	
448	2	dori	
449	2	skyline	
450	2	x450	
451	2	latter	
452	2	chart	
453	2	sport	
454	2	combo	
455	2	letter	
456	2	uk	
457	2	seal	
458	2	hp	
459	2	laser	
460	2	system	
461	2	acrylic	
462	2	fc	
463	2	coworkers	
464	2	businesses	
465	2	sung	
466	2	thicker	
467	2	age	
468	2	abouts	
469	2	aurora	
470	2	cleaner	
471	2	beginner	
472	2	guro	
473	2	high	
474	2	child	
475	2	conklin	
476	2	french	
477	2	5x	
478	2	cart	
479	2	gouletpens	
480	2	agora	
481	2	haribo	
482	2	wood	
483	2	3x	
484	2	swap	
485	2	notes	
486	2	ring	
487	2	dye	
488	2	input	
489	2	fpnibs.com	
490	2	strokes	
491	2	recipient	
492	2	brian	
493	2	student	
494	2	asa	
495	2	pablo	
496	2	70	
497	2	artist	
498	2	nick	
499	2	use	
500	2	r	
501	2	as	
502	2	/r	
503	2	century	
504	2	premium	
505	2	money	
506	2	m2	
507	1	saffron	
508	1	aquaponics	
509	1	crystal	
510	1	yoruself	
511	1	midnight	
512	1	order	
513	1	stars	
514	1	black.](http://www.gouletpens.com	
515	1	wrists	
516	1	jr.	
517	1	setup	
518	1	daughters	
519	1	here](http://edjelley.com/2013/01/18	
520	1	components	
521	1	performance	
522	1	edition	
523	1	thewritingdesk.co.uk](http://www.thewritingdesk.co.uk	
524	1	renters	
525	1	ago](http://www.reddit.com	
526	1	phone	
527	1	outside	
528	1	sandpaper	
529	1	thirds	
530	1	bucks](http://www.isellpens.com	
531	1	arms	
532	1	redditors	
533	1	1917	
534	1	above	
535	1	newton	
536	1	dollars	
537	1	tih	
538	1	irons	
539	1	ten	
540	1	army	
541	1	.6	
542	1	heck	
543	1	sky	
544	1	yellow	
545	1	with--	
546	1	wif	
547	1	hem	
548	1	sucker	
549	1	half	
550	1	mocha	
551	1	spread	
552	1	basic	
553	1	j	
554	1	time	
555	1	beginners	
556	1	oc	
557	1	pencil	
558	1	from	
559	1	spreadsheet	
560	1	have	
561	1	herbins	
562	1	sites	
563	1	zorn	
564	1	plates	
565	1	topics	
566	1	stores	
567	1	texture	
568	1	restored	
569	1	speaking-	
570	1	stuff	
571	1	lisa	
572	1	watterson	
573	1	program	
574	1	ad	
575	1	aliexpress	
576	1	workers	
577	1	d	
578	1	599	
579	1	fillers	
580	1	kyoto	
581	1	car	
582	1	carry(that	
583	1	bracelet	
584	1	clogging	
585	1	rate	
586	1	control	
587	1	jh	
588	1	pennies	
589	1	roc	
590	1	m805	
591	1	spray	
592	1	painting	
593	1	bff	
594	1	entries	
595	1	mirrors	
596	1	chamber	
597	1	papers	
598	1	fomr	
599	1	wonderpens	
600	1	prestige	
601	1	essay	
602	1	habanero	
603	1	country	
604	1	dealer	
605	1	channel	
606	1	japan	
607	1	artists	
608	1	runny	
609	1	article	
610	1	feminism	
611	1	detergent	
612	1	studio	
613	1	splatters	
614	1	jewelry	
615	1	kustoms	
616	1	gives	
617	1	samples	
618	1	wonderpens.ca	
619	1	hyatt	
620	1	business	
621	1	refund(from	
622	1	grader	
623	1	soak	
624	1	flavors	
625	1	grabbers	
626	1	having	
627	1	peoples	
628	1	stormy	
629	1	esties	
630	1	korea	
631	1	center	
632	1	caseyjarryn	
633	1	700	
634	1	~~$20~~	
635	1	a5	
636	1	chai	
637	1	parties	
638	1	bout	
639	1	fans	
640	1	standard	
641	1	firehose	
642	1	whitney	
643	1	nib](http://www.gouletpens.com	
644	1	reader	
645	1	sheeple	
646	1	pink	
647	1	minuskin	
648	1	co	
649	1	con-20	
650	1	+10	
651	1	regrinding	
652	1	goo	
653	1	come	
654	1	drjd16	
655	1	ellitomoosolini	
656	1	beb21	
657	1	penpal	
658	1	hehehe	
659	1	antiquing	
660	1	ro	
661	1	discount	
662	1	50%+	
663	1	mean	
664	1	blogger	
665	1	rb	
666	1	faber	
667	1	mines	
668	1	through	
669	1	had	
670	1	12.50	
671	1	slit	
672	1	variation	
673	1	individuals	
674	1	expedited	
675	1	recommendation	
676	1	boards	
677	1	posts	
678	1	namiki	
679	1	bookmarking	
680	1	irs	
681	1	one](http://pages.ebay.com	
682	1	darker	
683	1	school	
684	1	1/2	
685	1	flax	
686	1	martemondena	
687	1	officer	
688	1	spouse	
689	1	iro	
690	1	offender	
691	1	skrumpy	
692	1	78g.	
693	1	philip	
694	1	napalm	
695	1	fix	
696	1	threads	
697	1	blueblack	
698	1	hubby	
699	1	rittenhouse	
700	1	b	
701	1	meiningers	
702	1	kikkerland.com	
703	1	souten	
704	1	nob	
705	1	pad](http://www.amazon.com	
706	1	crimson	
707	1	anything	
708	1	tsa	
709	1	ratings	
710	1	day	
711	1	stocks	
712	1	experience-	
713	1	collector	
714	1	minutes	
715	1	nibs(or	
716	1	sbi7lhh.jpg	
717	1	imperials	
718	1	upto	
719	1	italix	
720	1	all	
721	1	helianthus	
722	1	mask	
723	1	points	
724	1	own	
725	1	tara	
726	1	johnny	
727	1	graf	
728	1	p51	
729	1	rum	
730	1	classes	
731	1	50	
732	1	proof	
733	1	telling	
734	1	flitz	
735	1	http://www.engeika.com/home	
736	1	heres	
737	1	nibs.com	
738	1	tienamen	
739	1	formula	
740	1	ross	
741	1	gods	
742	1	)	
743	1	desk	
744	1	omg	
745	1	journal	
746	1	scoring	
747	1	leather	
748	1	darn	
749	1	nibs](http://www.peytonstreetpens.com	
750	1	text	
751	1	brackets	
752	1	fees	
753	1	penzdetroit	
754	1	grape	
755	1	noble	
756	1	jennifer	
757	1	congress	
758	1	value(eg	
759	1	disclaimer	
760	1	river	
761	1	eldon	
762	1	too!](http://imgur.com	
763	1	grips	
764	1	rosand	
765	1	individual	
766	1	v	
767	1	clip	
768	1	coat	
769	1	design	
770	1	propas	
771	1	be	
772	1	none	
773	1	true&amp;ref_=ox_sc_act_title_1&amp;smid	
774	1	8(included	
775	1	versions	
776	1	resources	
777	1	10$.	
778	1	http://www.thewritingdesk.co.uk/showproduct.php?brand=the%20writing%20desk&amp;range=filling%20kits	
779	1	smaragdgrün	
780	1	satisfying	
781	1	duofold	
782	1	party	
783	1	ripple	
784	1	giftee	
785	1	lemon	
786	1	triple	
787	1	chicago	
788	1	game	
789	1	aveeno	
790	1	matt	
791	1	bu	
792	1	secret	
793	1	gran	
794	1	matsu	
795	1	guild	
796	1	retro	
797	1	centre	
798	1	salespeople	
799	1	baoer	
800	1	young	
801	1	illustration	
802	1	sull	
803	1	christoph.com	
804	1	realo	
805	1	goldsmith	
806	1	vanness	
807	1	glasses	
808	1	dogs	
809	1	königsblau	
810	1	scabiosa	
811	1	red	
812	1	lens	
813	1	pratchett	
814	1	hematite	
815	1	luck	
816	1	rose	
817	1	sketch	
818	1	subculture	
819	1	sturdy	
820	1	pdf	
821	1	plastic	
822	1	dealers	
823	1	uca	
824	1	backers	
825	1	casing	
826	1	fiancé	
827	1	sides	
828	1	comte	
829	1	edisons	
830	1	makrolon	
831	1	grease	
832	1	sooo	
833	1	look	
834	1	boyfriend	
835	1	saphir	
836	1	wallet~~	
837	1	dudette	
838	1	whole.nib	
839	1	north	
840	1	tips	
841	1	alternatives	
842	1	pick	
843	1	am.](http://imgur.com	
844	1	y’	
845	1	finger	
846	1	masuda	
847	1	boutique	
848	1	paradox](https://imgur.com	
849	1	favorite	
850	1	can	
851	1	pm	
852	1	demonstrators	
853	1	kuretake	
854	1	scratchy	
855	1	capacity	
856	1	stylus/	
857	1	preppys	
858	1	anna	
859	1	stainless	
860	1	grenade	
861	1	re	
862	1	boycotting	
863	1	richard	
864	1	government	
865	1	state	
866	1	hair	
867	1	dryer	
868	1	anther	
869	1	anderson	
870	1	near	
871	1	woman	
872	1	hospital	
873	1	modification	
874	1	canada	
875	1	lovers	
876	1	smaug	
877	1	photograph	
878	1	padded	
879	1	%	
880	1	credit	
881	1	brain	
882	1	delhi	
883	1	bundle	
884	1	ap	
885	1	number	
886	1	marble	
887	1	markiaro	
888	1	eyes	
889	1	knox	
890	1	vacs	
891	1	au	
892	1	proctor	
893	1	karas	
894	1	m.	
895	1	sea	
896	1	gasses	
897	1	fudge	
898	1	ny	
899	1	campus	
900	1	tries	
901	1	comparison	
902	1	imitation	
903	1	jukeboxes	
904	1	materials	
905	1	swirl	
906	1	everybody	
907	1	pollock	
908	1	moccasin	
909	1	function	
910	1	tanzanite	
911	1	spans	
912	1	here](http://imgur.com	
913	1	aventurine	
914	1	areas	
915	1	offers	
916	1	qqiyggfurhc	
917	1	crane	
918	1	help	
919	1	www.lacouronneducomte.nl	
920	1	norcom	
921	1	bunch	
922	1	！	
923	1	grinding	
924	1	f0iu0xe.jpg	
925	1	supplies	
926	1	francis	
927	1	thousands	
928	1	ol	
929	1	sushi	
930	1	silicon	
931	1	3776s	
932	1	caps	
933	1	dude	
934	1	steel	
935	1	solution	
936	1	hood	
937	1	thee	
938	1	neponset	
939	1	paper)for	
940	1	couple	
941	1	sgd	
942	1	nature	
943	1	8yo	
944	1	urban	
945	1	squarepants	
946	1	europeans	
947	1	name	
948	1	mark	
949	1	matador	
950	1	twisbi	
951	1	x5	
952	1	pair	
953	1	rivet	
954	1	dust	
955	1	yor	
956	1	slicer.](https://www.amazon.com	
957	1	holder.](https://www.amazon.com	
958	1	lauds	
959	1	whit	
960	1	sirens	
961	1	fude	
962	1	clairefontaine	
963	1	models	
964	1	this](http://www.cultpens.com	
965	1	trolls	
966	1	details	
967	1	beauty	
968	1	uer	
969	1	willvintage	
970	1	particulate	
971	1	pack	
972	1	1	
973	1	coms	
974	1	answer	
975	1	diabetes	
976	1	architects	
977	1	link	
978	1	duty	
979	1	grinder	
980	1	opéra	
981	1	here](http://willvintage.nextcoder.com/2016/10/11	
982	1	job	
983	1	95s	
984	1	mint	
985	1	prices	
986	1	bilberry	
987	1	this](https://www.amazon.com	
988	1	berg	
989	1	factory	
990	1	flushes	
991	1	kusa	
992	1	impression	
993	1	cadoozles	
994	1	federico	
995	1	laserjet	
996	1	gps	
997	1	merle	
998	1	professional	
999	1	ha	
1000	1	constitute	
1001	1	us.^2	
1002	1	designers	
1003	1	brush20	
1004	1	morsdator	
1005	1	w.	
1006	1	ignoramuspolymath	
1007	1	m1000	
1008	1	sailors	
1009	1	west	
1010	1	grandchildren	
1011	1	14k	
1012	1	not	
1013	1	haw	
1014	1	wih	
1015	1	😋	
1016	1	sands	
1017	1	if	
1018	1	newcomers	
1019	1	vat	
1020	1	450	
1021	1	employee	
1022	1	rig	
1023	1	shikibu	
1024	1	amescg	
1025	1	strangers	
1026	1	thien	
1027	1	sack	
1028	1	nock	
1029	1	night	
1030	1	jpy	
1031	1	type	
1032	1	this](https://qw88nb88.files.wordpress.com/2008/05	
1033	1	disc	
1034	1	paint	
1035	1	monkeys	
1036	1	puppy	
1037	1	bulkfiller	
1038	1	fiction	
1039	1	want	
1040	1	149	
1041	1	maker	
1042	1	russ	
1043	1	grey	
1044	1	stroke	
1045	1	698	
1046	1	consumer	
1047	1	heads	
1048	1	intern	
1049	1	sketchup	
1050	1	mrgravity15	
1051	1	studios	
1052	1	calle	
1053	1	guri(or	
1054	1	chet	
1055	1	palladium	
1056	1	bc	
1057	1	bread	
1058	1	snapback	
1059	1	bar	
1060	1	please	
1061	1	budo	
1062	1	noodler	
1063	1	bernanke	
1064	1	flower	
1065	1	uranus	
1066	1	absorbent	
1067	1	exclusives	
1068	1	sellers	
1069	1	up	
1070	1	star	
1071	1	ch92	
1072	1	3776	
1073	1	folks	
1074	1	honey	
1075	1	2000s	
1076	1	hs	
1077	1	sink	
1078	1	crosses	
1079	1	¼	
1080	1	cram	
1081	1	neil	
1082	1	binding	
1083	1	vial	
1084	1	cassia	
1085	1	leathers	
1086	1	i've	
1087	1	budget	
1088	1	la	
1089	1	pentuner	
1090	1	monteverdes	
1091	1	you!](http://imgur.com	
1092	1	but	
1093	1	breather	
1094	1	wingsung	
1095	1	this](https://www.jetpens.com	
1096	1	rouge	
1097	1	wetter	
1098	1	postman	
1099	1	border	
1100	1	ask](http://i.imgur.com	
1101	1	paraloid	
1102	1	b-72	
1103	1	hairy	
1104	1	taobao	
1105	1	visitors	
1106	1	ok	
1107	1	script	
1108	1	paperclip	
1109	1	fins	
1110	1	lb	
1111	1	md	
1112	1	neutrino	
1113	1	house	
1114	1	are	
1115	1	japanese	
1116	1	woodworking	
1117	1	ober	
1118	1	cars	
1119	1	skull	
1120	1	pmed	
1121	1	sterling	
1122	1	overlay	
1123	1	mindestens	
1124	1	penmanship	
1125	1	☺	
1126	1	fort0	
1127	1	maybe	
1128	1	moved	
1129	1	shapes	
1130	1	m605	
1131	1	i7ybd	
1132	1	ahhhhhhhhhh	
1133	1	chap	
1134	1	commenters	
1135	1	doyou	
1136	1	normies	
1137	1	kobe	
1138	1	55	
1139	1	significance	
1140	1	realy	
1141	1	clairmail	
1142	1	authentic	
1143	1	dandyism	
1144	1	one(s	
1145	1	levenger	
1146	1	easy~~	
1147	1	eoc	
1148	1	movie	
1149	1	jeremy	
1150	1	kakimori	
1151	1	groups	
1152	1	pal	
1153	1	sun	
1154	1	avec	
1155	1	end	
1156	1	bright	
1157	1	crystals	
1158	1	seat	
1159	1	2k	
1160	1	architect	
1161	1	anybody	
1162	1	turnip	
1163	1	scholar	
1164	1	oster	
1165	1	incise	
1166	1	edelstein	
1167	1	these](https://www.amazon.com	
1168	1	here](https://fountainpenfollies.com/2016/02/04	
1169	1	plethora	
1170	1	meeks	
1171	1	that.thank	
1172	1	chug	
1173	1	owlie	
1174	1	ambition	
1175	1	geologists	
1176	1	20ml	
1177	1	petrol	
1178	1	329	
1179	1	profs	
1180	1	€	
1181	1	god	
1182	1	nitrogen	
1183	1	lighter	
1184	1	glah	
1185	1	banks	
1186	1	category	
1187	1	31	
1188	1	juuuuust	
1189	1	planner	
1190	1	nieces	
1191	1	journaling	
1192	1	procolor	
1193	1	bunnies	
1194	1	account	
1195	1	greys	
1196	1	kayaba	
1197	1	fan	
1198	1	rollerballs	
1199	1	matte	
1200	1	vector	
1201	1	pearl	
1202	1	mead	
1203	1	x750	
1204	1	many	
1205	1	is	
1206	1	whether	
1207	1	fission	
1208	1	paypal	
1209	1	posters	
1210	1	tr	
1211	1	fountain-	
1212	1	adjust	
1213	1	xf	
1214	1	fpers	
1215	1	🤣	
1216	1	entrants	
1217	1	actually](http://i.imgur.com	
1218	1	4033	
1219	1	screwed	
1220	1	meisterstuck	
1221	1	kop	
1222	1	medalists	
1223	1	enablers	
1224	1	lx	
1225	1	3	
1226	1	uploads	
1227	1	italians	
1228	1	holland	
1229	1	monza	
1230	1	price	
1231	1	jowo	
1232	1	someones	
1233	1	customs	
1234	1	snake	
1235	1	nooders	
1236	1	binders	
1237	1	gaudy	
1238	1	professor	
1239	1	magenta	
1240	1	bit	
1241	1	0%2526rvr_id%253d1392489773886	
1242	1	sections	
1243	1	bungubox	
1244	1	organics	
1245	1	member	
1246	1	tattoo	
1247	1	creature	
1248	1	fromjapan	
1249	1	feedback	
1250	1	width	
1251	1	may	
1252	1	protection	
1253	1	everywhere/	
1254	1	cards	
1255	1	toho	
1256	1	project	
1257	1	office	
1258	1	smith](https://nibsmith.com/	
1259	1	heron	
1260	1	taizo	
1261	1	delrin	
1262	1	amazon.jp	
1263	1	andre	
1264	1	huge	
1265	1	aquaspindle	
1266	1	gave	
1267	1	art	
1268	1	wheatstraw	
1269	1	lke	
1270	1	mod	
1271	1	comments	
1272	1	phillip	
1273	1	writers	
1274	1	hq	
1275	1	generations	
1276	1	supplier	
1277	1	distributor	
1278	1	sch	
1279	1	onto	
1280	1	shipping	
1281	1	area	
1282	1	candy	
1283	1	medicines	
1284	1	popcodswallop	
1285	1	bbs	
1286	1	ondoro	
1287	1	os	
1288	1	include	
1289	1	tonhave	
1290	1	jackokun	
1291	1	interviews)--almost	
1292	1	stuffers	
1293	1	cassis	
1294	1	pristine	
1295	1	hiace	
1296	1	calculus	
1297	1	heroin	
1298	1	nibsmith	
1299	1	attendant	
1300	1	listing/595935771	
1301	1	cat	
1302	1	loom	
1303	1	one](https://rover.ebay.com	
1304	1	20usd	
1305	1	good	
1306	1	subscribers	
1307	1	babies	
1308	1	away?~~	
1309	1	inconvenient	
1310	1	blog	
1311	1	graphgear	
1312	1	ish	
1313	1	mt3	
1314	1	trick	
1315	1	smurf	
1316	1	thieves	
1317	1	fabergé	
1318	1	josh	
1319	1	uo	
1320	1	cp1–not	
1321	1	vials	
1322	1	any	
1323	1	salesperson	
1324	1	amazing	
1325	1	dance.com	
1326	1	fa	
1327	1	sic	
1328	1	~$6	
1329	1	ldl	
1330	1	cases	
1331	1	lax	
1332	1	moonman	
1333	1	g4-	
1334	1	conversion	
1335	1	thanks	
1336	1	content	
1337	1	out](https://imgur.com	
1338	1	out	
1339	1	washes	
1340	1	foot	
1341	1	werner	
1342	1	surface	
1343	1	revolution	
1344	1	fill	
1345	1	sisters	
1346	1	fountain	
1347	1	kaigelu	
1348	1	portion	
1349	1	cms/8588	
1350	1	organizers	
1351	1	wo	
1352	1	sheaffers	
1353	1	06	
1354	1	samples](https://andersonpens.com	
1355	1	telegraph	
1356	1	types	
1357	1	lease	
1358	1	thoughts	
1359	1	daggon	
1360	1	inspections	
1361	1	novices	
1362	1	countries	
1363	1	dozens	
1364	1	alaska	
1365	1	clog	
1366	1	appearance	
1367	1	comic.com	
1368	1	internet	
1369	1	rollerball	
1370	1	lever	
1371	1	optima	
1372	1	dor	
1373	1	brothers	
1374	1	midi	
1375	1	here](https://imgur.com	
1376	1	roll	
1377	1	conan	
1378	1	side	
1379	1	u/8ballpens	
1380	1	manufacturing	
1381	1	toothbrush	
1382	1	route	
1383	1	sketchbook	
1384	1	thunderstorm	
1385	1	schmidt	
1386	1	♀	
1387	1	renée	
1388	1	overall	
1389	1	street	
1390	1	yinzer	
1391	1	grind	
1392	1	e95s	
1393	1	lex	
1394	1	fpr	
1395	1	prob	
1396	1	pisuke	
1397	1	jn	
1398	1	ways	
1399	1	without	
1400	1	carla	
1401	1	color	
1402	1	dominoes	
1403	1	anothers	
1404	1	ar	
1405	1	plus	
1406	1	astroturfers	
1407	1	some	
1408	1	jade	
1409	1	02	
1410	1	backer	
1411	1	ships	
1412	1	twbi	
1413	1	pelvis	
1414	1	travelers	
1415	1	soooooo	
1416	1	hobonichi	
1417	1	2v	
1418	1	fred	
1419	1	everytig	
1420	1	lesson	
1421	1	moose	
1422	1	quite](https://www.penchalet.com	
1423	1	type/	
1424	1	drawings	
1425	1	r&amp;k	
1426	1	flake	
1427	1	singapore	
1428	1	miquelrius	
1429	1	justwrite	
1430	1	colour	
1431	1	brugal	
1432	1	1888	
1433	1	shitload	
1434	1	foggy	
1435	1	grandpa	
1436	1	you(fantasia	
