#Word types: 35
#Word tokens: 334
#Search results: 0
1	195	English	
2	15	english	
3	15	Hebrew	
4	15	Arabic	
5	11	Finish	
6	10	Mandarin	
7	8	Japanese	
8	7	French	
9	6	Spanish	
10	6	Chinese	
11	6	french	
12	5	Russian	
13	4	Latin	
14	3	Spencerian	
15	3	arabic	
16	3	German	
17	2	Swedish	
18	2	spanish	
19	2	Jinhao	
20	1	35ish	
21	1	notebooks](http://www.muji.us	
22	1	JoWo nibs	
23	1	KoP	
24	1	Newspeak	
25	1	3.0ml	
26	1	Slavic	
27	1	subreddit](https://www.reddit.com	
28	1	🏻	
29	1	Bungubox	
30	1	21	
31	1	mandarin	
32	1	Wearevers	
33	1	Barnes	
34	1	Safari	
35	1	russian	
