#Word types: 1988
#Word tokens: 11079
#Search results: 0
1	993	bit	
2	523	way	
3	497	time	
4	386	little	
5	333	day	
6	331	lot	
7	233	year	
8	229	^^[creator](https://np.reddit.com	
9	228	imguralbumbot	
10	225	today	
11	224	thanks	
12	203	years	
13	184	times	
14	169	week	
15	168	days	
16	137	%	
17	112	it	
18	109	month	
19	100	months	
20	96	man	
21	91	myself	
22	90	pen	
23	84	weeks	
24	79	yesterday	
25	63	yourself	
26	51	couple	
27	51	haha	
28	50	while	
29	50	water	
30	50	hell	
31	47	lol	
32	46	same	
33	44	night	
34	41	tomorrow	
35	40	op	
36	40	hand	
37	39	one	
38	39	yea	
39	37	morning	
40	35	yep	
41	34	ink	
42	34	brand	
43	34	🖊	
44	33	sir	
45	32	each	
46	31	nah	
47	30	imo	
48	29	gold	
49	29	btw	
50	28	dude	
51	27	weekend	
52	26	tad	
53	26	self	
54	25	nib	
55	25	most	
56	25	god	
57	24	guys	
58	23	etc	
59	21	tonight	
60	21	edit	
61	21	hours	
62	20	yup	
63	20	minutes	
64	20	gt	
65	20	piston	
66	20	activate	
67	19	everyday	
68	19	hour	
69	19	fyi	
70	19	internet	
71	18	pilot	
72	18	r	
73	18	40	
74	17	cost	
75	17	price	
76	17	5	
77	17	tbh	
78	16	money	
79	16	point	
80	16	step	
81	16	restorations	
82	15	damn	
83	14	meh	
84	14	2000	
85	13	mm	
86	13	1	
87	13	themselves	
88	13	pens	
89	13	thing	
90	12	all	
91	12	steel	
92	12	2	
93	12	heh	
94	12	un	
95	12	shit	
96	12	10	
97	12	payment	
98	11	piece	
99	11	size	
100	11	4	
101	11	/u	
102	11	problem	
103	11	g	
104	11	metal	
105	11	fp	
106	11	top&amp;t	
107	11	amp;#x200b	
108	10	black	
109	10	this	
110	10	everyone	
111	10	something	
112	10	eye	
113	10	parker	
114	10	fountain	
115	10	spring	
116	10	part	
117	10	f	
118	10	_	
119	10	ways	
120	10	that	
121	10	nibs	
122	10	decades	
123	9	3	
124	9	bro	
125	9	people	
126	9	jesus	
127	9	nothing	
128	9	oops	
129	9	buddy	
130	9	congratulations	
131	9	you	
132	9	dye	
133	9	mass	
134	9	montblanc	
135	9	world	
136	9	me	
137	9	lamy	
138	9	summer	
139	9	air	
140	8	much	
141	8	friend	
142	8	dollars	
143	8	m	
144	8	half	
145	8	gt;also	
146	8	end	
147	8	few	
148	8	stub	
149	8	minute	
150	8	ahh	
151	8	afternoon	
152	8	sorry	
153	8	points	
154	8	bucks	
155	8	geez	
156	8	sac	
157	8	comments](https://np.reddit.com	
158	8	auto	
159	7	custom	
160	7	blue	
161	7	semester	
162	7	k	
163	7	wtf	
164	7	christ	
165	7	shot	
166	7	level	
167	7	;)	
168	7	side	
169	7	50	
170	7	eco	
171	7	sunday	
172	7	ton	
173	7	user	
174	7	bleep	
175	7	imho	
176	7	us	
177	7	jon	
178	7	posts](https://np.reddit.com	
179	6	ef	
180	6	15	
181	6	monday	
182	6	some	
183	6	hassle	
184	6	.	
185	6	bottle	
186	6	look	
187	6	twsbi	
188	6	seconds	
189	6	20	
190	6	fwiw	
191	6	folks	
192	6	friday	
193	6	pocket	
194	6	decade	
195	6	delet%20this&amp;message	
196	5	moment	
197	5	cm	
198	5	sailor	
199	5	cheers	
200	5	penny	
201	5	|	
202	5	none	
203	5	b	
204	5	grey	
205	5	site	
206	5	paper	
207	5	x750	
208	5	more	
209	5	enjoy	
210	5	hahaha	
211	5	reason	
212	5	filler	
213	5	inks	
214	5	580	
215	5	sample	
216	5	/r	
217	5	jinhao	
218	5	inches	
219	5	goodness	
220	5	hah	
221	5	ugh	
222	5	boy	
223	5	200	
224	5	hmmm	
225	5	amp;nbsp	
226	5	cigar	
227	5	less	
228	4	51	
229	4	news	
230	4	fuck	
231	4	question	
232	4	line	
233	4	crack	
234	4	value	
235	4	lord	
236	4	woah	
237	4	lmao	
238	4	gt;and	
239	4	post	
240	4	miles	
241	4	what	
242	4	nevermind	
243	4	1911	
244	4	kiri	
245	4	matte	
246	4	matter	
247	4	30	
248	4	weight	
249	4	13	
250	4	life	
251	4	risk	
252	4	ymmv	
253	4	mods	
254	4	effort	
255	4	dang	
256	4	mis	
257	4	things	
258	4	shame	
259	4	pelikan	
260	4	brian	
261	4	visconti	
262	4	waterman	
263	4	saturday	
264	4	idk	
265	4	nail	
266	4	medium	
267	4	everybody	
268	4	lifetime	
269	4	try	
270	4	himself	
271	4	usd	
272	4	vice	
273	4	which	
274	4	baby	
275	4	silver	
276	4	mod	
277	4	child	
278	4	china	
279	4	ooooh	
280	4	story	
281	4	scratchy	
282	4	6	
283	4	sigh	
284	4	100	
285	4	cellulose	
286	4	fam	
287	4	^units	
288	4	kg	
289	4	beep	
290	4	\-	
291	3	anything	
292	3	mistake	
293	3	goulet	
294	3	uhhh	
295	3	dip	
296	3	noodlers	
297	3	ham	
298	3	calligraphy	
299	3	kinda	
300	3	idea	
301	3	red	
302	3	april	
303	3	input	
304	3	hole	
305	3	bummer	
306	3	hundreds	
307	3	dad	
308	3	doubt	
309	3	november	
310	3	pre	
311	3	reddit	
312	3	u	
313	3	metropolitan	
314	3	forgery	
315	3	vac	
316	3	hrm	
317	3	school	
318	3	converter	
319	3	rock	
320	3	pictures	
321	3	thursday	
322	3	jeez	
323	3	feather	
324	3	w	
325	3	example	
326	3	3776	
327	3	gt;if	
328	3	gt;how	
329	3	funny	
330	3	baoer	
331	3	peki	
332	3	high	
333	3	ie	
334	3	thankfully	
335	3	uber	
336	3	fact	
337	3	writing	
338	3	e	
339	3	space	
340	3	rohrer	
341	3	tuesday	
342	3	worries	
343	3	afaik	
344	3	rhodium	
345	3	new	
346	3	two	
347	3	crap	
348	3	bs	
349	3	vp	
350	3	worlds	
351	3	essay	
352	3	tip	
353	3	hrs	
354	3	syrah	
355	3	gt;but	
356	3	heritage	
357	3	box	
358	3	pressure	
359	3	ahab	
360	3	pop	
361	3	wood	
362	3	apologies	
363	3	lots	
364	3	sooo	
365	3	whoops	
366	3	8	
367	3	butt	
368	3	4001	
369	3	brother	
370	3	c	
371	3	case	
372	3	m200	
373	3	italic	
374	3	mile	
375	3	dozen	
376	3	ffs	
377	3	scenario	
378	3	dirt	
379	3	ebay	
380	3	noodler	
381	3	quality	
382	3	them	
383	3	7	
384	3	second	
385	3	barrel	
386	3	friction	
387	3	$	
388	3	work	
389	3	bot	
390	3	2018	
391	3	heads	
392	3	factory	
393	3	mate	
394	3	acrylic	
395	3	ya	
396	3	home	
397	3	handwriting	
398	3	may	
399	3	sugarcane	
400	3	▄	
401	2	soooo	
402	2	oil	
403	2	bottom	
404	2	typo	
405	2	master	
406	2	21	
407	2	45	
408	2	condition	
409	2	ground	
410	2	term	
411	2	x450	
412	2	binder	
413	2	atleast	
414	2	2011	
415	2	style	
416	2	:p	
417	2	forum	
418	2	ho	
419	2	beginner	
420	2	kit	
421	2	do	
422	2	opinion	
423	2	notebooks	
424	2	syringe	
425	2	:(	
426	2	i	
427	2	glass	
428	2	lamys	
429	2	vat	
430	2	heat	
431	2	issues	
432	2	september	
433	2	springy	
434	2	stone	
435	2	hair	
436	2	coz	
437	2	other	
438	2	castell	
439	2	vacuum	
440	2	1951	
441	2	plastic	
442	2	person	
443	2	market	
444	2	votes	
445	2	700	
446	2	luck	
447	2	choice	
448	2	yard	
449	2	o	
450	2	mam	
451	2	19	
452	2	goddamn	
453	2	dropper	
454	2	century	
455	2	yo	
456	2	so	
457	2	mb	
458	2	argh	
459	2	color	
460	2	call	
461	2	pm	
462	2	monster	
463	2	heck	
464	2	broad	
465	2	24th	
466	2	1971	
467	2	burgundy	
468	2	blood	
469	2	retailer	
470	2	bock	
471	2	her	
472	2	ed	
473	2	lyfe	
474	2	gao	
475	2	amber	
476	2	yah	
477	2	however	
478	2	bottles	
479	2	note	
480	2	best	
481	2	60	
482	2	the	
483	2	ahem	
484	2	cool	
485	2	business	
486	2	gear	
487	2	ooops	
488	2	ahhh	
489	2	gotcha	
490	2	shocker	
491	2	letter	
492	2	turn	
493	2	celluloid	
494	2	as	
495	2	massdrop	
496	2	sheaffer	
497	2	rhodia	
498	2	laser	
499	2	hate	
500	2	fill	
501	2	gt;this	
502	2	flex	
503	2	cult	
504	2	negative	
505	2	classic	
506	2	brianandersonpens	
507	2	budget	
508	2	disregard	
509	2	fault	
510	2	advertising	
511	2	mini	
512	2	awesome	
513	2	xd	
514	2	gt;can	
515	2	wire	
516	2	junk	
517	2	decision	
518	2	tag	
519	2	evening	
520	2	music	
521	2	sub	
522	2	skin	
523	2	someday	
524	2	gods	
525	2	cancer	
526	2	thread	
527	2	chinese	
528	2	google	
529	2	palladium	
530	2	cunt	
531	2	sweetie	
532	2	suggestion	
533	2	everything	
534	2	2015	
535	2	conklin	
536	2	black-3oz	
537	2	american	
538	2	bunch	
539	2	graphite	
540	2	germany	
541	2	automod	
542	2	sentence	
543	2	iridium	
544	2	methinks	
545	2	knob	
546	2	difference	
547	2	dog	
548	2	stain	
549	2	70-year	
550	2	huh	
551	2	state	
552	2	premium	
553	2	herself	
554	2	both	
555	2	bright	
556	2	swap	
557	2	product	
558	2	no	
559	2	colour	
560	2	diameter	
561	2	premiere	
562	2	makrolon	
563	2	omg	
564	2	gt;are	
565	2	message	
566	2	material	
567	2	soo	
568	2	bomb	
569	2	prime	
570	2	christoph	
571	2	gt;why	
572	2	min	
573	2	.36	
574	2	touch	
575	2	ultra	
576	2	distance	
577	2	chart](http://i.imgur.com	
578	2	uk	
579	2	74	
580	2	liter	
581	2	range	
582	2	dawg	
583	2	sheen	
584	2	salix	
585	2	ml	
586	2	star	
587	2	afaict	
588	2	shipping	
589	2	jinhaos	
590	2	a5	
591	2	aesthetics	
592	2	cap	
593	2	acid	
594	2	sight	
595	2	extra	
596	2	trouble	
597	2	snap	
598	2	gee	
599	2	feet	
600	2	ones	
601	2	set	
602	2	tl;dr	
603	2	willvintage	
604	2	sport	
605	2	everytime	
606	2	cartridge	
607	2	masuyama	
608	2	jonszanto	
609	2	m400	
610	2	corrosion	
611	2	bible	
612	2	three	
613	2	disclaimer	
614	2	http://twitter.com/penhabit	
615	2	store	
616	2	a/9gs9p	
617	2	edc	
618	2	read	
619	2	customer	
620	2	place	
621	2	9	
622	2	penman	
623	2	right	
624	2	downvote	
625	2	advice	
626	2	feed	
627	2	purchase	
628	2	bleed	
629	2	south	
630	2	unsure	
631	2	warning	
632	2	aurora	
633	2	akkerman	
634	2	amount	
635	2	youtuber	
636	2	aye	
637	2	luke	
638	2	sam	
639	2	conid	
640	2	ballpoint	
641	2	yikes	
642	2	profile	
643	2	😅	
644	2	im_14_and_into_mechanical_pencils_i_bought_the/	
645	2	hahah	
646	2	john	
647	2	tokyo	
648	2	surprise	
649	2	rubber	
650	2	comments/8fxjve	
651	2	penbrother	
652	1	ptsd	
653	1	screws	
654	1	mydarnsnakelegs	
655	1	thoughts	
656	1	kevin	
657	1	gt;¡ıɾnɯ	
658	1	hospital	
659	1	savings	
660	1	copy	
661	1	blanc	
662	1	transcript	
663	1	chill	
664	1	28.00	
665	1	whiz	
666	1	afterall	
667	1	2xl	
668	1	21](http://www.gouletpens.com	
669	1	12](http://www.walmart.com	
670	1	original	
671	1	inch	
672	1	600](http://www.walmart.com	
673	1	rotation	
674	1	mix	
675	1	heath	
676	1	own	
677	1	iro	
678	1	organics	
679	1	fish	
680	1	40-$60	
681	1	kick	
682	1	affiliations	
683	1	twsbis	
684	1	cringe	
685	1	wait	
686	1	lazylinkerbot	
687	1	need	
688	1	downvoter	
689	1	nevermakesamistake	
690	1	fingers	
691	1	tone	
692	1	wonder	
693	1	fpn	
694	1	1.9	
695	1	commission	
696	1	yeess	
697	1	mechanism	
698	1	below](http://www.reddit.com	
699	1	m90	
700	1	1:4	
701	1	peeps	
702	1	items	
703	1	70	
704	1	wikibot	
705	1	flex!!1!1	
706	1	nowaday	
707	1	vry	
708	1	jkjk	
709	1	carolina	
710	1	candy	
711	1	tassadar	
712	1	auction	
713	1	2014	
714	1	ravi	
715	1	tyler	
716	1	here](http://www.vintagepen.net	
717	1	downwards	
718	1	wbu	
719	1	srsyly	
720	1	index.php	
721	1	hv	
722	1	http://www.iampeth.com/lessons_spencerian.php	
723	1	girlfriend	
724	1	student	
725	1	scratchy(i	
726	1	9048	
727	1	nibmeister	
728	1	piscodig	
729	1	gt;try	
730	1	yeap	
731	1	pursuit	
732	1	didn't	
733	1	latter	
734	1	gnnf4ex	
735	1	kung	
736	1	yes	
737	1	erm	
738	1	concept	
739	1	616	
740	1	althought	
741	1	dooly	
742	1	adapter	
743	1	y&amp;sort=7&amp;cat=1106&amp;f	
744	1	stupid	
745	1	2013	
746	1	renaissance	
747	1	meen	
748	1	laerdarp	
749	1	fountainpen	
750	1	sonnet	
751	1	power	
752	1	gall	
753	1	h1186	
754	1	f1	
755	1	pinch	
756	1	biggie	
757	1	http://i.imgur.com/ns0s6he.jpg	
758	1	hurr	
759	1	feathering	
760	1	body	
761	1	701	
762	1	aaahh	
763	1	media	
764	1	xperinc	
765	1	http://m.ebay.com/itm?itemid=151267869823	
766	1	wnt	
767	1	oψ	
768	1	5(about	
769	1	dam	
770	1	~~why	
771	1	usa	
772	1	245	
773	1	160	
774	1	monteverde	
775	1	march	
776	1	256	
777	1	itself	
778	1	3=	
779	1	maki	
780	1	milady	
781	1	alredy	
782	1	soltn	
783	1	lt;sarcasm&gt;ps	
784	1	inkwise	
785	1	10.50	
786	1	freeway/	
787	1	pens](http://www.gouletpens.com	
788	1	basic	
789	1	fine	
790	1	mandarin	
791	1	opening	
792	1	gt;or	
793	1	emphasis	
794	1	glassy	
795	1	coool	
796	1	mltd	
797	1	14	
798	1	1953	
799	1	1947	
800	1	konrad	
801	1	dennis	
802	1	wow	
803	1	jan	
804	1	effects	
805	1	afterword	
806	1	v	
807	1	-illegible-	
808	1	wicle	
809	1	feedback	
810	1	100x	
811	1	touchdown](http://imgur.com	
812	1	flattop	
813	1	translate_the_illest	
814	1	mes	
815	1	upvoters	
816	1	http://youtu.be/a9zkg3tctm4	
817	1	dunno	
818	1	floyd	
819	1	2/3	
820	1	smooth	
821	1	wellll	
822	1	aerometric	
823	1	fifth	
824	1	http://penthusiast.wordpress.com/2014/06/29/20/	
825	1	18kop	
826	1	bro](http://i.imgur.com	
827	1	demonstrator](http://www.gouletpens.com	
828	1	http://imgur.com/cysms5u	
829	1	25	
830	1	cp1	
831	1	prob	
832	1	apple	
833	1	beard	
834	1	cloud	
835	1	gt;.&gt	
836	1	http://www.muji.us/store/stationery/organizers/canvas-pen-case-flat-type-light-gray.html	
837	1	love	
838	1	link](http://www.gouletpens.com	
839	1	hagle	
840	1	innit	
841	1	classics	
842	1	attention	
843	1	repair	
844	1	fan	
845	1	1/5th	
846	1	mineral	
847	1	series	
848	1	azure	
849	1	diamine	
850	1	ik	
851	1	umm	
852	1	adamsw216	
853	1	aaaaand	
854	1	1rd	
855	1	nt	
856	1	dyslexia	
857	1	jolene	
858	1	vista	
859	1	flight	
860	1	clog	
861	1	safari	
862	1	ago:](https://www.reddit.com	
863	1	580](http://www.gouletpens.com	
864	1	lmy	
865	1	going	
866	1	son	
867	1	395	
868	1	nobody	
869	1	luis	
870	1	cue	
871	1	bahahaha	
872	1	gouletpens.com	
873	1	plain	
874	1	tailor	
875	1	viscontis	
876	1	graf	
877	1	online	
878	1	remember	
879	1	pain	
880	1	glides	
881	1	winter	
882	1	experience	
883	1	é	
884	1	kid	
885	1	job	
886	1	ko	
887	1	october	
888	1	1950	
889	1	dome	
890	1	11th	
891	1	1992	
892	1	platinum	
893	1	clergy	
894	1	22.99	
895	1	nijmegen	
896	1	maður	
897	1	-&gt	
898	1	meat	
899	1	theory](https://brainmass.com	
900	1	manipulation/	
901	1	sorta	
902	1	spicypenis	
903	1	brew	
904	1	bugger	
905	1	http://www.dutycalculator.com	
906	1	5-$10	
907	1	female	
908	1	gender	
909	1	http://fpgeeks.com/forum/showthread.php/6685-sheaffer-legacy-fantasy-it-s-epic	
910	1	aaaand	
911	1	male	
912	1	ouuuut](http://static.squarespace.com	
913	1	yesss	
914	1	evolutionarily	
915	1	postage	
916	1	right?](http://blog.gouletpens.com/2013/08	
917	1	148.61	
918	1	country	
919	1	microns	
920	1	overall	
921	1	topic/275078	
922	1	plat	
923	1	pnb-10000	
924	1	express	
925	1	sports	
926	1	1010101010	
927	1	fivetwofour	
928	1	terrors	
929	1	unica	
930	1	bitcoin	
931	1	pr	
932	1	gt;with	
933	1	jaw	
934	1	test	
935	1	position	
936	1	fellows	
937	1	polymer	
938	1	safari&gt	
939	1	classes	
940	1	biology	
941	1	gt;however	
942	1	massdropbot	
943	1	foam	
944	1	yt	
945	1	yeeeeeeeeee	
946	1	brewers	
947	1	muthafukka	
948	1	holiday	
949	1	http://blog.gouletpens.com/2013/12/jinhao-x450x750-fountain-pen-nib.html?m=1	
950	1	reckon	
951	1	seminar	
952	1	funnily	
953	1	gees	
954	1	crotchety	
955	1	environment	
956	1	1](http://www.reddit.com	
957	1	set](http://blog.gouletpens.com/2014/03	
958	1	generations	
959	1	fool	
960	1	absorbent	
961	1	rosin	
962	1	review.aspx?id=328&amp;type	
963	1	faber	
964	1	questions	
965	1	luv	
966	1	latex	
967	1	volume	
968	1	freakin	
969	1	length	
970	1	midi	
971	1	keuffel	
972	1	caps	
973	1	hands	
974	1	tooth	
975	1	61	
976	1	ii	
977	1	percent	
978	1	maintenance	
979	1	suggested_retail_price	
980	1	dr.	
981	1	bastard	
982	1	prices	
983	1	id	
984	1	penvelope	
985	1	topic/281067-edison	
986	1	wolves	
987	1	photo	
988	1	future	
989	1	legal	
990	1	roll	
991	1	flag](http://truthinamericaneducation.com	
992	1	max	
993	1	about/	
994	1	anyways	
995	1	gt;next	
996	1	picture](http://www.leighreyes.com	
997	1	mystery	
998	1	disappointing	
999	1	gladiaxis	
1000	1	zijnb5ojxs/?modal	
1001	1	yrkucwojzl/?modal	
1002	1	matt	
1003	1	chive	
1004	1	noodler&amp;#039;s	
1005	1	bulls	
1006	1	.50	
1007	1	mrsgoulet	
1008	1	über	
1009	1	lockeylom	
1010	1	pj4hi	
1011	1	912](http://www.amazon.ca	
1012	1	anywho	
1013	1	como	
1014	1	beware	
1015	1	comments/1zxsj2	
1016	1	vargen	
1017	1	115	
1018	1	o.o	
1019	1	valley	
1020	1	diamond	
1021	1	whelp	
1022	1	grease	
1023	1	mesh	
1024	1	4.95](http://www.gouletpens.com	
1025	1	2.75	
1026	1	less](http://www.andersonpens.com	
1027	1	ref	
1028	1	90	
1029	1	wikipedia	
1030	1	yellow*](http://www.christies.com	
1031	1	circle	
1032	1	gt;finally	
1033	1	gt;no	
1034	1	reading	
1035	1	gt;semantics	
1036	1	did	
1037	1	"i'm	
1038	1	perma	
1039	1	4k	
1040	1	guilt	
1041	1	triple	
1042	1	fair	
1043	1	http://www.clearcoproducts.com/pdf/library/solubility1.pdf	
1044	1	yanno	
1045	1	m'lady	
1046	1	shellac	
1047	1	porn	
1048	1	showthread.php/1433-vintage	
1049	1	0.00	
1050	1	off](http://smile.amazon.com	
1051	1	http://www.amazon.com/parker-permanent-refill-2-ounce-s0037460/dp/b004yk4vha	
1052	1	drstephen	
1053	1	alright	
1054	1	nice	
1055	1	10-$15	
1056	1	albiet	
1057	1	teal](http://www.amazon.com	
1058	1	^/u	
1059	1	^trouble	
1060	1	nd	
1061	1	cares?!](http://memeorama.com	
1062	1	collection	
1063	1	too?simple	
1064	1	midnight	
1065	1	seal	
1066	1	highlighter	
1067	1	55	
1068	1	dummy	
1069	1	design	
1070	1	moma	
1071	1	sober	
1072	1	266	
1073	1	either	
1074	1	cs1xlmu?context=3	
1075	1	klingner	
1076	1	ser	
1077	1	danke	
1078	1	tim	
1079	1	smoothest	
1080	1	comments/2ootzi	
1081	1	duhhh	
1082	1	wetter	
1083	1	st	
1084	1	-wise	
1085	1	footer)*^(if	
1086	1	#	
1087	1	arc	
1088	1	doctor	
1089	1	100k	
1090	1	cnc	
1091	1	butter	
1092	1	s&amp;h	
1093	1	j	
1094	1	ravioli	
1095	1	gt;3	
1096	1	post.](http://www.thewritingarsenal.com	
1097	1	50,000	
1098	1	uyhb6lòòj	
1099	1	spot	
1100	1	prey	
1101	1	waaaaay	
1102	1	41-year	
1103	1	gt;yeah	
1104	1	toodle	
1105	1	oxy	
1106	1	topic/277657-nibs	
1107	1	gt;.&lt	
1108	1	programming	
1109	1	theory	
1110	1	calligrapher	
1111	1	😊	
1112	1	felt	
1113	1	bits	
1114	1	tony	
1115	1	left)](https://massdrop.com	
1116	1	falcon	
1117	1	743	
1118	1	abbreviations	
1119	1	tardif	
1120	1	bmat	
1121	1	weirdo	
1122	1	hellmark	
1123	1	kay	
1124	1	litigation	
1125	1	pen_porn	
1126	1	29	
1127	1	subreddit	
1128	1	flairs	
1129	1	bic	
1130	1	trigger	
1131	1	frenzyman01	
1132	1	https://youtu.be/a3nd2p4m0ne?t=11m30s	
1133	1	good	
1134	1	y	
1135	1	dool	
1136	1	bbbehhjjjjjjjjb	
1137	1	drunk	
1138	1	3-stories	
1139	1	pens](http://www.ebay.com	
1140	1	kids	
1141	1	2x	
1142	1	^^ok	
1143	1	durable	
1144	1	says	
1145	1	110	
1146	1	how'd	
1147	1	nib](http://i.imgur.com	
1148	1	tolga	
1149	1	xoxo	
1150	1	disc	
1151	1	converters	
1152	1	g.	
1153	1	youre	
1154	1	yeeeaaaah	
1155	1	web	
1156	1	comments/40xdeb	
1157	1	blimp	
1158	1	bilberry-80ml	
1159	1	91	
1160	1	windex	
1161	1	waves	
1162	1	freeze	
1163	1	bri7man	
1164	1	classy/	
1165	1	gpc	
1166	1	guess	
1167	1	camera	
1168	1	syd1	
1169	1	gt;so	
1170	1	mrmojorisingi	
1171	1	report	
1172	1	member	
1173	1	podcast	
1174	1	wealth	
1175	1	uncapped	
1176	1	\	
1177	1	tipped	
1178	1	p/18098	
1179	1	soooooooo	
1180	1	rule	
1181	1	bald	
1182	1	-(when	
1183	1	layoffs	
1184	1	1.1	
1185	1	tool	
1186	1	justin	
1187	1	64	
1188	1	450	
1189	1	striped	
1190	1	sites	
1191	1	grenat	
1192	1	eg	
1193	1	gram	
1194	1	http://www.fountainpennetwork.com/forum/topic/195865-parker-51-vs-hero-616-jumbo/	
1195	1	batt	
1196	1	goo	
1197	1	answer	
1198	1	bad	
1199	1	dudette	
1200	1	season	
1201	1	2.35	
1202	1	brown	
1203	1	bruh	
1204	1	green](http://i.imgur.com	
1205	1	sepia	
1206	1	anniversary	
1207	1	dori	
1208	1	9k	
1209	1	sub](https://imgur.com	
1210	1	mind	
1211	1	kultur	
1212	1	d	
1213	1	m1000	
1214	1	alas	
1215	1	kannasama	
1216	1	or	
1217	1	refresh	
1218	1	gahhh	
1219	1	ghosting	
1220	1	wisconsin	
1221	1	mixture	
1222	1	wage	
1223	1	truck](http://www.penskeusedtrucks.com	
1224	1	search	
1225	1	grip	
1226	1	http://i.imgur.com/hkuhzah.jpg	
1227	1	hunjy	
1228	1	stiff	
1229	1	hence	
1230	1	pearlette	
1231	1	indigo	
1232	1	diamond-580al	
1233	1	go	
1234	1	vddxq	
1235	1	des	
1236	1	autocorrect	
1237	1	geeze	
1238	1	francis	
1239	1	comment	
1240	1	550	
1241	1	nerd	
1242	1	talk	
1243	1	overwrought	
1244	1	waters	
1245	1	tripe	
1246	1	sooooo	
1247	1	2128	
1248	1	aaaah	
1249	1	luau	
1250	1	teal	
1251	1	convenience	
1252	1	brain	
1253	1	nichehobby	
1254	1	mmore	
1255	1	intsert	
1256	1	blacks	
1257	1	college	
1258	1	lol.	
1259	1	ink](http://www.urbandictionary.com	
1260	1	define.php?term	
1261	1	post-65485	
1262	1	gt;tip	
1263	1	age	
1264	1	teachers	
1265	1	varar	
1266	1	outside	
1267	1	habanero	
1268	1	indian	
1269	1	=d	
1270	1	ive	
1271	1	pininfarina	
1272	1	.9	
1273	1	edison	
1274	1	10-$12	
1275	1	pol	
1276	1	m800	
1277	1	better](https://www.reddit.com	
1278	1	2016	
1279	1	14k	
1280	1	mine	
1281	1	gt;the	
1282	1	white-35ml	
1283	1	https://www.amazon.com/gp/aw/d/b009gliu9m/ref=yo_ii_img?ie=utf8&amp;psc=1	
1284	1	insanely	
1285	1	not	
1286	1	fancy	
1287	1	knockoff	
1288	1	itm	
1289	1	rare	
1290	1	johnson	
1291	1	http://www.wellappointeddesk.com/2012/09/kaweco-highlighter-pen/	
1292	1	review	
1293	1	lime	
1294	1	wax	
1295	1	lint	
1296	1	update	
1297	1	cus	
1298	1	he	
1299	1	https://www.youtube.com/watch?v=g7u8yvlmyqy	
1300	1	titanium	
1301	1	brexit	
1302	1	brazil	
1303	1	black'n'red	
1304	1	golf	
1305	1	etzer3j.jpg?1	
1306	1	1912	
1307	1	bpittin	
1308	1	~~seen~~	
1309	1	tbqh	
1310	1	mont	
1311	1	lt;/envious&gt	
1312	1	attitude	
1313	1	automatic	
1314	1	ikdubu	
1315	1	next	
1316	1	sheesh	
1317	1	varrekt	
1318	1	its	
1319	1	pd	
1320	1	fountainpens	
1321	1	^sees	
1322	1	physicist.tumblr.com	
1323	1	douche	
1324	1	outlines	
1325	1	11.2.352.nflk3ifr9vi	
1326	1	mit	
1327	1	client	
1328	1	orange	
1329	1	leads	
1330	1	burp	
1331	1	impressa	
1332	1	reply	
1333	1	sherwood	
1334	1	steel?~~	
1335	1	https://www.amazon.com/diplomat-aero-black-fountain-fine/dp/b01b6g5lrs	
1336	1	will	
1337	1	jacket	
1338	1	yen	
1339	1	purple	
1340	1	po	
1341	1	5x7	
1342	1	zry7wp7	
1343	1	http://imgur.com/u8msieb	
1344	1	horizontal	
1345	1	jewel	
1346	1	felixthecat24	
1347	1	http://www.nibs.com/article6.html	
1348	1	lightweight	
1349	1	hero	
1350	1	damnit	
1351	1	tool](http://www.andersonpens.com	
1352	1	ass	
1353	1	ahhhhh	
1354	1	scary	
1355	1	sponge	
1356	1	bat	
1357	1	10th	
1358	1	synacksyn	
1359	1	jherbin	
1360	1	smiggle	
1361	1	pilot+metropolitan	
1362	1	7.0	
1363	1	reviews	
1364	1	littler	
1365	1	length/	
1366	1	vegetable	
1367	1	yr	
1368	1	aluminum	
1369	1	tatsy	
1370	1	https://youtu.be/lhibwnuhrfw	
1371	1	yuck	
1372	1	85ml	
1373	1	performance	
1374	1	bulkfillers	
1375	1	kanji	
1376	1	bah	
1377	1	change	
1378	1	smidgen	
1379	1	fiberglass	
1380	1	leather	
1381	1	patina	
1382	1	2nd	
1383	1	pendemonium	
1384	1	lt;sigh&gt	
1385	1	soul	
1386	1	bullshit	
1387	1	every	
1388	1	nauseam	
1389	1	1950s	
1390	1	finders	
1391	1	dr	
1392	1	friends	
1393	1	glasses	
1394	1	flint	
1395	1	leak	
1396	1	boi	
1397	1	wetness	
1398	1	clue	
1399	1	substitute	
1400	1	yagan	
1401	1	grade	
1402	1	peasant	
1403	1	p	
1404	1	lefty	
1405	1	veep	
1406	1	propas	
1407	1	bauhaus	
1408	1	580al	
1409	1	francais	
1410	1	define	
1411	1	car	
1412	1	이새끼야	
1413	1	130	
1414	1	wednesday	
1415	1	traits	
1416	1	dammit	
1417	1	sublime	
1418	1	awe	
1419	1	rep	
1420	1	netherlands	
1421	1	wet	
1422	1	dyes	
1423	1	gt;*south_dartmouth_inks	
1424	1	blot	
1425	1	https://www.youtube.com/watch?v=tqufbcklqh8	
1426	1	moneybags	
1427	1	collar	
1428	1	interchange	
1429	1	aaaaaaaand	
1430	1	preppy	
1431	1	stings	
1432	1	guide	
1433	1	protip	
1434	1	isopropanol	
1435	1	duragraph	
1436	1	kaweco	
1437	1	°	
1438	1	warranty	
1439	1	david	
1440	1	gt;"where	
1441	1	😢	
1442	1	cocoon	
1443	1	hahahaha	
1444	1	https://www.jetpens.com/platinum-balance-fountain-pens/ct/1762	
1445	1	i'm	
1446	1	tardiff	
1447	1	thousands	
1448	1	asap	
1449	1	1500	
1450	1	again~~	
1451	1	west	
1452	1	experiences	
1453	1	mold	
1454	1	community	
1455	1	mom	
1456	1	^^^^^^^^^^^^^^^^0.3787	
1457	1	8-)	
1458	1	nooo	
1459	1	many	
1460	1	eu	
1461	1	certified	
1462	1	colibri	
1463	1	anyday	
1464	1	shin	
1465	1	petrol	
1466	1	identification	
1467	1	recreating	
1468	1	1914](http://www.montblanc.com	
1469	1	correct	
1470	1	http://www.amazon.com/zebra-comic-model-chrome-pg-6b-c-k/dp/b006cqw428/	
1471	1	binding**](http://legaliq.com	
1472	1	more](http://legaliq.com	
1473	1	^droppinhammers	
1474	1	files	
1475	1	sf	
1476	1	turquoise	
1477	1	jobex	
1478	1	lady	
1479	1	shop	
1480	1	distress	
1481	1	http://24.media.tumblr.com/tumblr_lwiz29meah1qzttq2o1_1280.jpg	
1482	1	drying	
1483	1	noob	
1484	1	notes	
1485	1	dry	
1486	1	gl	
1487	1	upvoted	
1488	1	lt;.&lt	
1489	1	grain	
1490	1	sides	
1491	1	ps	
1492	1	kop	
1493	1	180-degrees	
1494	1	jerry	
1495	1	https://ibb.co/nc9tsv	
1496	1	secret	
1497	1	sp	
1498	1	👌	
1499	1	writink	
1500	1	lager	
1501	1	wine	
1502	1	soap	
1503	1	kjudef	
1504	1	cent	
1505	1	11	
1506	1	pattern	
1507	1	white	
1508	1	pffft	
1509	1	knives	
1510	1	coulda	
1511	1	here](http://www.johnnealbooks.com	
1512	1	tea	
1513	1	street	
1514	1	😏	
1515	1	suggestions	
1516	1	tools	
1517	1	translink	
1518	1	exupery	
1519	1	ink-50ml	
1520	1	~$7	
1521	1	waaaaaay	
1522	1	euro	
1523	1	penswap	
1524	1	paramilitary	
1525	1	house	
1526	1	visit	
1527	1	hope	
1528	1	source	
1529	1	chisel	
1530	1	zarex95	
1531	1	loom	
1532	1	smile	
1533	1	b000099o2w	
1534	1	^votes	
1535	1	imaginarycooper	
1536	1	gt;when	
1537	1	doe	
1538	1	drworman	
1539	1	^^day	
1540	1	wrathofxargon	
1541	1	flair	
1542	1	writer	
1543	1	prove	
1544	1	uef	
1545	1	august	
1546	1	con-70s	
1547	1	this](http://www.sbrebrown.com/2014/09	
1548	1	sai	
1549	1	screen	
1550	1	here](http://thenibsection.podbean.com/	
1551	1	holder	
1552	1	role	
1553	1	http://kencrooker.com/igink/amp/	
1554	1	regrets	
1555	1	dupont	
1556	1	66	
1557	1	notepad	
1558	1	treadle	
1559	1	^-	
1560	1	^meg	
1561	1	share	
1562	1	say	
1563	1	599	
1564	1	yeehaw	
1565	1	investment	
1566	1	error	
1567	1	gt;as	
1568	1	micro	
1569	1	comments/6uovz6	
1570	1	jaja	
1571	1	gt;maybe	
1572	1	tinkerer	
1573	1	abso	
1574	1	big	
1575	1	71/100	
1576	1	exercise	
1577	1	sherlock	
1578	1	sense	
1579	1	^metric	
1580	1	goldspot	
1581	1	ofc	
1582	1	ad5001e8	
1583	1	shabazz	
1584	1	lowest	
1585	1	0-$10	
1586	1	mid	
1587	1	15th	
1588	1	congrats	
1589	1	clairefontaine	
1590	1	context	
1591	1	problemo	
1592	1	souveraen.html	
1593	1	ammonia	
1594	1	hahahhaha	
1595	1	purpose	
1596	1	explanation](https://www.youtube.com	
1597	1	android	
1598	1	🤔	
1599	1	｡&amp;#94;‿&amp;#94;｡	
1600	1	metric_units&amp;subject	
1601	1	parents	
1602	1	ahhhh	
1603	1	equifax	
1604	1	viaggio	
1605	1	japanese	
1606	1	s	
1607	1	kong	
1608	1	coconuthead777	
1609	1	12	
1610	1	data	
1611	1	musketeers	
1612	1	up(https://imgur.com	
1613	1	mke2a	
1614	1	18c	
1615	1	(:	
1616	1	book	
1617	1	targas	
1618	1	areas	
1619	1	pensachi	
1620	1	straw	
1621	1	bigdickproblems	
1622	1	tape	
1623	1	s3.imgix.net	
1624	1	5](https://massdrop	
1625	1	precision	
1626	1	ben	
1627	1	dialog	
1628	1	ar	
1629	1	ice	
1630	1	~1.2	
1631	1	pharmacy	
1632	1	aaron	
1633	1	dean	
1634	1	hunny	
1635	1	finish	
1636	1	gt;del	
1637	1	oooooo	
1638	1	noseshimself	
1639	1	https://imgur.com/gallery/bd9gp	
1640	1	disclosure	
1641	1	kaigelu	
1642	1	20ml	
1643	1	gitroy	
1644	1	case](https://www.kipling.com	
1645	1	cases/50-pens	
1646	1	swabs	
1647	1	despacito	
1648	1	oooooh	
1649	1	company	
1650	1	sustainable+earth+notebook	
1651	1	etruria	
1652	1	option	
1653	1	km	
1654	1	pics	
1655	1	loser	
1656	1	someone	
1657	1	m8	
1658	1	gou	
1659	1	^^my	
1660	1	miu	
1661	1	detail	
1662	1	rms05/	
1663	1	mille	
1664	1	ss	
1665	1	bonus	
1666	1	5th	
1667	1	13th	
1668	1	somewhere	
1669	1	far](http://i.imgur.com	
1670	1	purples	
1671	1	sux	
1672	1	hod	
1673	1	mechanicalpencils	
1674	1	page	
1675	1	ayyy	
1676	1	here](https://my.mixtape.moe	
1677	1	resin	
1678	1	page-3	
1679	1	tritium	
1680	1	worker	
1681	1	vacay	
1682	1	drop	
1683	1	300	
1684	1	plaisir	
1685	1	149	
1686	1	evo_spec	
1687	1	fosfor	
1688	1	24/7	
1689	1	girl	
1690	1	gt;elizabeth	
1691	1	darcy	
1692	1	oldc38supbpulu2l2d0cfbefbkztmvqb2fm4krzogwvsk__60dfyoflotxmx6u1f_bok44glf6eiv9upr9y	
1693	1	etcetera	
1694	1	1200	
1695	1	reserve	
1696	1	plaisir](https://flexandotherfollies.wordpress.com/2018/01/19	
1697	1	comments/7eqe7c	
1698	1	comments/7829o0	
1699	1	word	
1700	1	trust	
1701	1	sideways	
1702	1	8802	
1703	1	targa	
1704	1	b)^2	
1705	1	faking	
1706	1	lonesomeobserver	
1707	1	ep2628605	
1708	1	height	
1709	1	food	
1710	1	danilo_dk	
1711	1	meaning	
1712	1	injection	
1713	1	irony	
1714	1	https://www.nytimes.com/2014/10/09/business/supreme-court-weighs-employee-pay-for-amazons-after-work-security-screening.html	
1715	1	3008s	
1716	1	700r	
1717	1	rohs	
1718	1	scene	
1719	1	slug	
1720	1	fall	
1721	1	abc	
1722	1	micarta	
1723	1	welp	
1724	1	geauxbulldogs	
1725	1	cents	
1726	1	l3059	
1727	1	text	
1728	1	machine	
1729	1	tier	
1730	1	’s	
1731	1	shimmer	
1732	1	jfc	
1733	1	press	
1734	1	studio	
1735	1	gt;personally	
1736	1	dose	
1737	1	p.	
1738	1	6359	
1739	1	block	
1740	1	boys	
1741	1	-1	
1742	1	asa	
1743	1	demonstrator	
1744	1	35	
1745	1	gt;worse	
1746	1	dawn	
1747	1	cross	
1748	1	surf	
1749	1	l.	
1750	1	penguin	
1751	1	staple	
1752	1	den	
1753	1	26th	
1754	1	novelty	
1755	1	uhh	
1756	1	shadow	
1757	1	3/8	
1758	1	42.86	
1759	1	😝	
1760	1	animal	
1761	1	tho	
1762	1	counterfeit	
1763	1	strauss	
1764	1	y'know	
1765	1	canada	
1766	1	w/	
1767	1	probably\_your\_wife	
1768	1	dxiq3h3	
1769	1	comments/8cwwhb	
1770	1	beauty	
1771	1	consideration	
1772	1	piffle	
1773	1	demo	
1774	1	others	
1775	1	30au	
1776	1	️	
1777	1	attachment	
1778	1	stipula	
1779	1	grog	
1780	1	refund	
1781	1	donald	
1782	1	main	
1783	1	pad	
1784	1	hai	
1785	1	ek	
1786	1	haath	
1787	1	left	
1788	1	1915	
1789	1	fountainpengore	
1790	1	y’know	
1791	1	are_chinese_pens_just_throw_a_ways_or_are_there/	
1792	1	823	
1793	1	intention	
1794	1	nock	
1795	1	spoon	
1796	1	77s	
1797	1	moon	
1798	1	bunches	
1799	1	10(i	
1800	1	hike	
1801	1	goody	
1802	1	kind	
1803	1	1](https://www.facebook.com	
1804	1	vac700r.	
1805	1	picks	
1806	1	doc	
1807	1	rialto	
1808	1	bigglesworth	
1809	1	your	
1810	1	billgates	
1811	1	•	
1812	1	continuation	
1813	1	cooler	
1814	1	designs	
1815	1	miller	
1816	1	2k	
1817	1	ideas	
1818	1	lolll	
1819	1	least	
1820	1	slight	
1821	1	yuki	
1822	1	topic/246388-just	
1823	1	brag	
1824	1	walter	
1825	1	weekday	
1826	1	laugh	
1827	1	info	
1828	1	english	
1829	1	children	
1830	1	subscription	
1831	1	psst	
1832	1	truth	
1833	1	p.s.	
1834	1	yours	
1835	1	assholes	
1836	1	charts.com	
1837	1	nation	
1838	1	🙂	
1839	1	oracle	
1840	1	june	
1841	1	ignorance	
1842	1	wrong	
1843	1	x	
1844	1	boxes	
1845	1	obstruction	
1846	1	model	
1847	1	1000x	
1848	1	601	
1849	1	info)](http://np.reddit.com	
1850	1	https://www.instagram.com/graysontighe/](https://www.instagram.com/graysontighe/	
1851	1	december	
1852	1	hmmmmm	
1853	1	striated	
1854	1	band	
1855	1	aim	
1856	1	egg	
1857	1	period	
1858	1	gal	
1859	1	ohhhhhhh	
1860	1	hehehe	
1861	1	europe	
1862	1	hastepotpie	
1863	1	-nice	
1864	1	ci	
1865	1	👍	
1866	1	neon	
1867	1	pen](https://reddit.app.link	
1868	1	hulot	
1869	1	ink](https://fountainpenlove.com	
1870	1	https://i.imgur.com/4wptzvq.jpg	
1871	1	whoopity	
1872	1	whoop	
1873	1	gabe	
1874	1	photo](https://www.instagram.com	
1875	1	clone	
1876	1	july	
1877	1	toll	
1878	1	earth	
1879	1	quad	
1880	1	resale	
1881	1	measurements	
1882	1	naw	
1883	1	europa	
1884	1	list	
1885	1	king	
1886	1	3d	
1887	1	guy	
1888	1	pal	
1889	1	juice	
1890	1	muscle	
1891	1	phew	
1892	1	750	
1893	1	😎	
1894	1	😃	
1895	1	siad	
1896	1	pacific	
1897	1	noqturn	
1898	1	here](https://botrank.pastimes.eu/	
1899	1	aug	
1900	1	nibaction	
1901	1	amazon	
1902	1	fpgeeks	
1903	1	instagram	
1904	1	rip	
1905	1	gollum	
1906	1	noooo	
1907	1	v6kiglt	
1908	1	2019	
1909	1	rotfl	
1910	1	krusac	
1911	1	care	
1912	1	chevron	
1913	1	cold	
1914	1	closed](https://orig00.deviantart.net/20e9	
1915	1	f71_custom_combo_open_crop_by_voidelemental	
1916	1	longer	
1917	1	realo	
1918	1	nsfw	
1919	1	mhh	
1920	1	fa	
1921	1	npd	
1922	1	gawd	
1923	1	handmade	
1924	1	nicee	
1925	1	nintendo	
1926	1	sitcom	
1927	1	80	
1928	1	wheelchair	
1929	1	fpfan	
1930	1	ch	
1931	1	excellent	
1932	1	nib](https://instagram.com	
1933	1	youfirstbinding](https://etsy.me/2qmnoac	
1934	1	pseudo	
1935	1	whatever	
1936	1	kakuno	
1937	1	alot	
1938	1	karma	
1939	1	gt;	
1940	1	doya	
1941	1	advise	
1942	1	chipped	
1943	1	working	
1944	1	gray	
1945	1	brass	
1946	1	derringer	
1947	1	nibs.com	
1948	1	desk	
1949	1	gt;know	
1950	1	gt;i	
1951	1	pmed	
1952	1	strategy	
1953	1	hamburg	
1954	1	cmon	
1955	1	bandit	
1956	1	😈	
1957	1	breathe	
1958	1	67	
1959	1	smoke	
1960	1	basicbulletjournals	
1961	1	ig	
1962	1	lawd	
1963	1	fiyorad	
1964	1	fatter	
1965	1	bullet	
1966	1	honey	
1967	1	1day	
1968	1	here](https://www.reddit.com	
1969	1	nuts	
1970	1	02:10:56	
1971	1	garbage	
1972	1	finally_found_an_australian_substitute_for_goulet/	
1973	1	galactic](http://asapens.in	
1974	1	neidermeyer	
1975	1	wallet	
1976	1	ummm	
1977	1	fudge	
1978	1	from](https://www.amazon.com	
1979	1	order	
1980	1	direction	
1981	1	listing	
1982	1	welcome	
1983	1	deadline	
1984	1	u.s.a	
1985	1	here](https://www.instagram.com	
1986	1	m205	
1987	1	edelstein	
1988	1	digitally	
