#Word types: 4452
#Word tokens: 33715
#Search results: 0
1	4206	bit	
2	1769	way	
3	1678	little	
4	1377	time	
5	1295	lot	
6	878	day	
7	656	today	
8	649	year	
9	633	times	
10	613	years	
11	535	week	
12	436	it	
13	412	days	
14	357	water	
15	345	myself	
16	335	months	
17	330	yourself	
18	315	pen	
19	310	%	
20	305	weeks	
21	305	month	
22	222	thanks	
23	220	while	
24	179	man	
25	171	yesterday	
26	161	tomorrow	
27	160	couple	
28	158	ink	
29	142	btw	
30	133	op	
31	130	hand	
32	114	tad	
33	112	same	
34	110	gold	
35	108	nib	
36	103	haha	
37	101	night	
38	93	mm	
39	92	tonight	
40	89	each	
41	87	brand	
42	85	weekend	
43	85	hours	
44	82	imo	
45	79	most	
46	78	pilot	
47	77	one	
48	72	nibs	
49	71	fyi	
50	69	morning	
51	68	yep	
52	65	minutes	
53	65	fp	
54	63	1	
55	61	g	
56	60	step	
57	60	piston	
58	59	etc	
59	58	self	
60	56	hell	
61	56	5	
62	53	tbh	
63	48	everyday	
64	47	price	
65	47	steel	
66	47	dye	
67	46	spring	
68	46	side	
69	46	hope	
70	45	size	
71	45	yup	
72	44	fountain	
73	42	pens	
74	42	problem	
75	41	custom	
76	41	mass	
77	41	hour	
78	40	part	
79	40	god	
80	40	color	
81	39	edit	
82	39	2000	
83	38	2	
84	37	nah	
85	37	point	
86	37	touch	
87	37	eye	
88	36	try	
89	36	fwiw	
90	36	paper	
91	36	yea	
92	36	cost	
93	36	sir	
94	36	gt	
95	35	something	
96	35	seconds	
97	35	blue	
98	34	un	
99	33	note	
100	33	cm	
101	33	eco	
102	32	metal	
103	32	thing	
104	32	dude	
105	32	more	
106	31	shot	
107	30	much	
108	30	3	
109	30	congratulations	
110	30	10	
111	30	second	
112	29	stub	
113	29	decades	
114	29	damn	
115	29	congrats	
116	28	monday	
117	28	montblanc	
118	28	summer	
119	27	bottle	
120	27	friday	
121	27	f	
122	27	us	
123	27	pencil	
124	27	money	
125	27	air	
126	27	amp;nbsp	
127	26	minute	
128	26	lol	
129	26	dollars	
130	26	/u	
131	25	piece	
132	25	you	
133	25	rock	
134	24	50	
135	24	lamy	
136	24	15	
137	24	twsbi	
138	24	user	
139	24	sailor	
140	23	miles	
141	23	m	
142	23	weight	
143	22	themselves	
144	22	580	
145	22	few	
146	22	medium	
147	22	ways	
148	21	look	
149	21	lots	
150	21	inks	
151	21	100	
152	21	sac	
153	21	waterman	
154	21	amp;#x200b	
155	20	sheaffer	
156	20	20	
157	20	afternoon	
158	20	case	
159	19	saturday	
160	19	inch	
161	19	heat	
162	18	sunday	
163	18	4	
164	18	pigment	
165	18	k	
166	18	dang	
167	18	light	
168	18	inches	
169	18	shawn	
170	18	silver	
171	17	bucks	
172	17	pelikan	
173	17	heh	
174	17	oops	
175	17	oil	
176	17	friend	
177	17	decade	
178	17	ef	
179	17	metropolitan	
180	17	x750	
181	17	activate	
182	16	moment	
183	16	30	
184	16	choice	
185	16	i	
186	16	quality	
187	16	bleed	
188	16	birthday	
189	16	pocket	
190	16	evening	
191	16	best	
192	16	business	
193	16	page	
194	16	ugh	
195	16	end	
196	15	half	
197	15	flex	
198	15	buttery	
199	15	lifetime	
200	15	rhodia	
201	15	store	
202	15	parker	
203	15	that	
204	15	red	
205	15	_	
206	15	luck	
207	15	cartridge	
208	15	rhodium	
209	15	work	
210	15	ymmv	
211	15	/r	
212	15	friction	
213	15	tip	
214	14	someday	
215	14	both	
216	14	things	
217	14	guys	
218	14	nothing	
219	14	mis	
220	14	b	
221	14	jinhao	
222	13	1911	
223	13	some	
224	13	ton	
225	13	google	
226	13	noodlers	
227	13	converter	
228	13	wire	
229	13	anything	
230	13	semester	
231	13	none	
232	13	fine	
233	13	itm	
234	13	sample	
235	13	review	
236	13	e	
237	13	italic	
238	13	wait	
239	13	penny	
240	12	.	
241	12	effort	
242	12	goulet	
243	12	cigar	
244	12	all	
245	12	usd	
246	12	brother	
247	12	pen_swap	
248	12	ahh	
249	12	hassle	
250	12	carbon	
251	12	japan	
252	12	number	
253	12	kiri	
254	12	feet	
255	12	life	
256	12	rohrer	
257	12	ebay	
258	12	mod	
259	12	;)	
260	12	3776	
261	12	handwriting	
262	11	classic	
263	11	two	
264	11	term	
265	11	writer	
266	11	this	
267	11	heck	
268	11	warning	
269	11	heads	
270	11	uk	
271	11	risk	
272	11	rubber	
273	11	shoot	
274	11	14k	
275	11	drool	
276	11	me	
277	11	woah	
278	11	black	
279	11	thursday	
280	11	purchase	
281	10	japanese	
282	10	40	
283	10	7	
284	10	feather	
285	10	diamond	
286	10	college	
287	10	stuff	
288	10	scenario	
289	10	star	
290	10	finish	
291	10	vac	
292	10	top	
293	10	corrosion	
294	10	chinese	
295	10	200	
296	10	wednesday	
297	10	points	
298	10	gear	
299	10	fountainpens	
300	10	amazon	
301	10	word	
302	10	reason	
303	10	faber	
304	9	pop	
305	9	150	
306	9	hands	
307	9	november	
308	9	design	
309	9	writing	
310	9	sorry	
311	9	grey	
312	9	ahab	
313	9	green	
314	9	tl;dr	
315	9	dip	
316	9	m200	
317	9	filler	
318	9	thankfully	
319	9	school	
320	9	colour	
321	9	8	
322	9	forum	
323	9	ones	
324	9	visconti	
325	9	level	
326	9	tine	
327	9	christmas	
328	9	boy	
329	9	amp;nbsp;&amp;nbsp	
330	9	afaik	
331	9	visit	
332	9	hair	
333	9	enjoy	
334	9	jesus	
335	9	premium	
336	9	698	
337	8	uv	
338	8	acid	
339	8	quarter	
340	8	imho	
341	8	feed	
342	8	item	
343	8	performance	
344	8	century	
345	8	6	
346	8	bone	
347	8	calligraphy	
348	8	factory	
349	8	sepia	
350	8	targa	
351	8	auto	
352	8	shit	
353	8	doubt	
354	8	dirt	
355	8	shame	
356	8	580al	
357	8	go	
358	8	lord	
359	8	style	
360	8	however	
361	8	tuesday	
362	8	flow	
363	8	matte	
364	8	plastic	
365	8	march	
366	8	period	
367	8	trip	
368	7	mind	
369	7	kaweco	
370	7	geez	
371	7	brian	
372	7	story	
373	7	amount	
374	7	english	
375	7	index.php	
376	7	practice	
377	7	60	
378	7	platinum	
379	7	shop	
380	7	mix	
381	7	u	
382	7	bro	
383	7	son	
384	7	w/	
385	7	yrs	
386	7	choices	
387	7	shipping	
388	7	disclaimer	
389	7	54th	
390	7	pressure	
391	7	new	
392	7	matter	
393	7	ring	
394	7	barrel	
395	7	leather	
396	7	online	
397	7	diamine	
398	7	fall	
399	7	everyone	
400	7	awesome	
401	7	hero	
402	7	darn	
403	7	glass	
404	7	3d	
405	7	vacuum	
406	7	klingner	
407	7	apologies	
408	7	uhh	
409	7	set	
410	7	(:	
411	7	letter	
412	7	gt;if	
413	6	brown	
414	6	photos	
415	6	ie	
416	6	overall	
417	6	places	
418	6	ball	
419	6	welp	
420	6	others	
421	6	shellac	
422	6	source	
423	6	test	
424	6	75	
425	6	goodness	
426	6	alcohol	
427	6	notebook	
428	6	p	
429	6	question	
430	6	anyways	
431	6	sooo	
432	6	heritage	
433	6	salix	
434	6	yikes	
435	6	51	
436	6	cents	
437	6	high	
438	6	people	
439	6	ml	
440	6	hmmm	
441	6	turquoise	
442	6	the	
443	6	left	
444	6	budget	
445	6	teal	
446	6	home	
447	6	baby	
448	6	sight	
449	6	oxblood	
450	6	prera	
451	6	cap	
452	6	70	
453	6	peki	
454	6	sheen	
455	6	diameter	
456	6	jowo	
457	6	brass	
458	6	its	
459	6	april	
460	6	collection	
461	6	thread	
462	6	brush	
463	6	here](http://imgur.com	
464	6	2k	
465	6	guess	
466	6	jim	
467	6	family	
468	6	e.g.	
469	6	disc	
470	6	photo	
471	6	french	
472	6	jon	
473	6	tokyo	
474	6	3776s	
475	6	friends	
476	5	cash	
477	5	21	
478	5	pens](http://www.gouletpens.com	
479	5	crystal	
480	5	value	
481	5	standard	
482	5	blood	
483	5	nevermind	
484	5	model	
485	5	bullet	
486	5	detail	
487	5	staple	
488	5	heart	
489	5	300	
490	5	trick	
491	5	prime	
492	5	world	
493	5	less	
494	5	cream	
495	5	needle	
496	5	place	
497	5	other	
498	5	himself	
499	5	german	
500	5	experience	
501	5	hundreds	
502	5	example	
503	5	hmm	
504	5	ease	
505	5	questions	
506	5	45	
507	5	millimeter	
508	5	percent	
509	5	stationery	
510	5	yo	
511	5	china	
512	5	blanc	
513	5	25	
514	5	gt;but	
515	5	edc	
516	5	meh	
517	5	blocks	
518	5	triumph	
519	5	post	
520	5	|	
521	5	line	
522	5	december	
523	5	remember	
524	5	nakaya	
525	5	m400	
526	5	hah	
527	5	gah	
528	5	pics	
529	5	r	
530	5	door	
531	5	january	
532	5	18k	
533	5	samples	
534	5	preppy	
535	5	glad	
536	5	sheet	
537	5	syrah	
538	5	xlnt	
539	5	section	
540	5	block	
541	5	nail	
542	5	whoops	
543	5	idea	
544	5	gt;how	
545	5	trouble	
546	5	ch92	
547	5	15th	
548	5	black-3oz	
549	5	bottles	
550	5	50ml	
551	5	11.00](http://www.gouletpens.com	
552	5	customer	
553	5	gt;also	
554	5	nos	
555	5	ps	
556	5	0	
557	5	lab	
558	5	david	
559	5	wetter	
560	5	rosin	
561	5	suggestion	
562	5	pages	
563	5	alpha	
564	4	acrylic	
565	4	september	
566	4	whats	
567	4	simple	
568	4	sea	
569	4	search	
570	4	scratchy	
571	4	gall	
572	4	watch	
573	4	know	
574	4	smooth	
575	4	age	
576	4	quink	
577	4	falcon	
578	4	head	
579	4	maintenance	
580	4	beginner	
581	4	push	
582	4	moments	
583	4	start	
584	4	turn	
585	4	sub	
586	4	sketch	
587	4	york	
588	4	snorkel	
589	4	monteverde	
590	4	dozen	
591	4	stock	
592	4	sport	
593	4	journal	
594	4	p.s.	
595	4	profiles	
596	4	shade	
597	4	nano	
598	4	80	
599	4	youtube	
600	4	february	
601	4	dori	
602	4	art	
603	4	injection	
604	4	resin	
605	4	turns	
606	4	fantastic	
607	4	advice	
608	4	hella	
609	4	kind	
610	4	m800	
611	4	tp1.mozu.com/6639	
612	4	job	
613	4	balance	
614	4	may	
615	4	pack	
616	4	stain	
617	4	90	
618	4	great	
619	4	preference	
620	4	black](http://i.imgur.com	
621	4	a	
622	4	vintage	
623	4	guide	
624	4	everything	
625	4	scratch	
626	4	dollar	
627	4	’s	
628	4	is	
629	4	gt;i	
630	4	deal	
631	4	mods	
632	4	clip	
633	4	hahaha	
634	4	crap	
635	4	investment	
636	4	chisel	
637	4	steps	
638	4	klundtasaur	
639	4	worries	
640	4	wtf	
641	4	1933	
642	4	500	
643	4	dream	
644	4	blunt	
645	4	leak	
646	4	anyday	
647	4	read	
648	4	redditor	
649	4	which	
650	4	content	
651	4	hehe	
652	4	10x	
653	4	jotter	
654	4	bock	
655	4	masuyama	
656	4	verdigris	
657	4	demo	
658	4	74	
659	4	yay	
660	4	823	
661	4	fudge	
662	4	everytime	
663	4	june	
664	4	history	
665	4	space	
666	4	12	
667	4	m600	
668	4	uef	
669	4	tho	
670	4	reply	
671	4	sam	
672	4	dave	
673	4	fa	
674	4	asa	
675	4	ya	
676	4	july	
677	4	akkerman	
678	4	internet	
679	4	ammonia	
680	4	type	
681	4	ballpoint	
682	4	india	
683	4	whatever	
684	4	penbbs	
685	4	18.08	
686	3	bleach	
687	3	swan	
688	3	a5	
689	3	6th	
690	3	october	
691	3	tons	
692	3	vice	
693	3	appearance	
694	3	snow	
695	3	card	
696	3	moreso	
697	3	ref	
698	3	15x	
699	3	good	
700	3	razor	
701	3	ham	
702	3	hahah	
703	3	moleskine	
704	3	tips	
705	3	flick	
706	3	vista	
707	3	link	
708	3	use	
709	3	triangle	
710	3	d'ache	
711	3	site	
712	3	height	
713	3	y'know	
714	3	fraud	
715	3	your	
716	3	gt;and	
717	3	ok	
718	3	mate	
719	3	4001	
720	3	varsity	
721	3	fact	
722	3	fc	
723	3	cane	
724	3	:(	
725	3	products	
726	3	video	
727	3	jentle	
728	3	issues	
729	3	=)	
730	3	forgery	
731	3	gram	
732	3	disclosure	
733	3	chart](http://i.imgur.com	
734	3	mess	
735	3	con	
736	3	x	
737	3	levenger	
738	3	scratches	
739	3	grid	
740	3	drive	
741	3	index.php?language	
742	3	ooooh	
743	3	pictures	
744	3	primer	
745	3	pm	
746	3	safari	
747	3	2012	
748	3	sugarcane	
749	3	liner	
750	3	lever	
751	3	2nd	
752	3	book	
753	3	drier	
754	3	quad	
755	3	goddamn	
756	3	script	
757	3	ebony	
758	3	info	
759	3	grams	
760	3	wine	
761	3	many	
762	3	non	
763	3	omas	
764	3	kinda	
765	3	twist	
766	3	capped	
767	3	esterbrook	
768	3	sterling	
769	3	company	
770	3	winter	
771	3	massdrop	
772	3	input	
773	3	reviews	
774	3	write	
775	3	reasons	
776	3	gt;are	
777	3	ch	
778	3	bonus	
779	3	scabiosa	
780	3	either	
781	3	oftentimes	
782	3	phileas	
783	3	body	
784	3	community	
785	3	stateside	
786	3	vp	
787	3	archival	
788	3	plus	
789	3	kids	
790	3	office	
791	3	salad	
792	3	midnight	
793	3	peace	
794	3	dragon](http://i.imgur.com	
795	3	house	
796	3	nice	
797	3	ream	
798	3	gt;why	
799	3	pilots	
800	3	np	
801	3	nb	
802	3	c	
803	3	xd	
804	3	socio	
805	3	gift	
806	3	bad	
807	3	namiki	
808	3	bandolier	
809	3	foil	
810	3	rainbow	
811	3	is](http://imgur.com	
812	3	process	
813	3	yah	
814	3	roll	
815	3	min	
816	3	anderson	
817	3	watch?v	
818	3	iridium	
819	3	sapphire	
820	3	plumix	
821	3	honey	
822	3	iirc	
823	3	heya	
824	3	sellers	
825	3	parallel	
826	3	order	
827	3	buddy	
828	3	what	
829	3	document	
830	3	notes	
831	3	warranty	
832	3	words	
833	3	gao	
834	3	tines	
835	3	voila	
836	3	expense	
837	3	holiday	
838	3	scented-35ml	
839	3	aha	
840	3	cellulose	
841	3	click	
842	3	cheers	
843	3	notebooks	
844	3	option	
845	3	windsor	
846	3	esp	
847	3	tag	
848	3	tech	
849	3	purples	
850	3	danny	
851	3	desk	
852	3	idk	
853	3	moon	
854	3	acetone	
855	3	them	
856	3	repeat	
857	3	tsuyu	
858	3	repair	
859	3	anyone	
860	3	felt	
861	3	nib](https://imgur.com	
862	3	arrow	
863	3	mmm	
864	3	rest	
865	3	now	
866	3	chock	
867	3	decision	
868	3	student	
869	3	kobe	
870	3	1942	
871	3	automod	
872	3	2x	
873	3	13	
874	3	luke	
875	3	https://www.youtube.com/watch?v=uuq9tukrbcy	
876	3	architect	
877	3	guro	
878	3	g.	
879	3	river	
880	3	capacity	
881	3	box	
882	3	ny	
883	3	figboot	
884	3	smidge	
885	3	package	
886	3	leuchtturm	
887	3	thought	
888	3	pound	
889	3	1937	
890	3	herself	
891	3	fiber	
892	3	feedback	
893	3	noodler	
894	3	bottom	
895	3	m1000	
896	3	wow	
897	3	feathering	
898	3	consistency	
899	3	eg	
900	3	lb	
901	3	east	
902	3	glue	
903	3	galactic	
904	3	reddit	
905	3	tax	
906	3	kyo	
907	3	post](https://www.reddit.com	
908	3	1000	
909	3	noire	
910	3	purple	
911	3	aurora	
912	3	jaw	
913	3	material	
914	3	fraction	
915	3	walden	
916	3	618	
917	3	waverly	
918	3	yours	
919	3	width	
920	3	season	
921	3	3008	
922	3	indian	
923	3	white	
924	3	guy	
925	3	144-year	
926	2	beware	
927	2	last	
928	2	175	
929	2	letters	
930	2	print	
931	2	plaza	
932	2	$	
933	2	22	
934	2	.50	
935	2	patience	
936	2	gun	
937	2	rod	
938	2	cent	
939	2	ruled	
940	2	jealous	
941	2	three	
942	2	out](http://i.imgur.com	
943	2	sunset	
944	2	power	
945	2	sec	
946	2	konrad	
947	2	100x	
948	2	brimic	
949	2	sonnet	
950	2	plant	
951	2	own	
952	2	ounce	
953	2	bomb	
954	2	american	
955	2	screen	
956	2	giveaway	
957	2	gt;for	
958	2	1.1	
959	2	welcome	
960	2	difference	
961	2	bang	
962	2	golden	
963	2	freakin	
964	2	24/7	
965	2	1930s	
966	2	iron	
967	2	gotcha	
968	2	ed	
969	2	24	
970	2	italics	
971	2	michael	
972	2	plunger	
973	2	mistake	
974	2	studio	
975	2	fun	
976	2	show	
977	2	p.	
978	2	tsuki	
979	2	liquid	
980	2	earth	
981	2	clairefontaine	
982	2	auction	
983	2	topic/209494-sepia	
984	2	2014	
985	2	taizo	
986	2	1988	
987	2	stop	
988	2	typo	
989	2	eversharp	
990	2	ime	
991	2	mottishaw	
992	2	topic/187706-five	
993	2	happen	
994	2	millimeters	
995	2	jump	
996	2	iroshizuku	
997	2	course	
998	2	go](http://imgur.com	
999	2	manufacturers	
1000	2	newton	
1001	2	unscrews	
1002	2	button	
1003	2	ku	
1004	2	2000s	
1005	2	aston	
1006	2	aerometric	
1007	2	alrighty	
1008	2	music	
1009	2	range	
1010	2	profit	
1011	2	inkwise	
1012	2	600	
1013	2	storage	
1014	2	o	
1015	2	factor	
1016	2	92	
1017	2	tool](http://www.gouletpens.com	
1018	2	125	
1019	2	degrees	
1020	2	lmy	
1021	2	miss	
1022	2	http://www.cultpens.com/	
1023	2	marker	
1024	2	rinse	
1025	2	haul	
1026	2	email	
1027	2	jeez	
1028	2	1950s	
1029	2	antietam	
1030	2	grit	
1031	2	male	
1032	2	cool	
1033	2	jewelry	
1034	2	bear	
1035	2	tongue	
1036	2	postage	
1037	2	146	
1038	2	low	
1039	2	anywho	
1040	2	notch	
1041	2	rollerball	
1042	2	exam	
1043	2	watch?v=9rhfxcbom_q	
1044	2	gt;or	
1045	2	incase	
1046	2	ig	
1047	2	data	
1048	2	chance	
1049	2	1ml	
1050	2	route	
1051	2	velvet	
1052	2	oku	
1053	2	lefty	
1054	2	europe	
1055	2	murasaki	
1056	2	kultur	
1057	2	exclusive	
1058	2	stationary	
1059	2	european	
1060	2	absorbent	
1061	2	machined	
1062	2	repairs	
1063	2	12k	
1064	2	ahhh	
1065	2	origins	
1066	2	weekday	
1067	2	england	
1068	2	message	
1069	2	3x	
1070	2	http://www.richardspens.com/pdf/workshop_notes.pdf	
1071	2	preferences	
1072	2	manufacturer	
1073	2	tea	
1074	2	usage	
1075	2	gas	
1076	2	dan	
1077	2	huh	
1078	2	crimson	
1079	2	keyhole	
1080	2	issue	
1081	2	those	
1082	2	q	
1083	2	tldr	
1084	2	26	
1085	2	results	
1086	2	whelp	
1087	2	convertor	
1088	2	2ml	
1089	2	here](http://www.richardspens.com/?page	
1090	2	amber	
1091	2	fountainpen	
1092	2	alex	
1093	2	120	
1094	2	845	
1095	2	files	
1096	2	geeze	
1097	2	ye	
1098	2	dangit	
1099	2	mark	
1100	2	west	
1101	2	matt	
1102	2	ice	
1103	2	girl	
1104	2	budo	
1105	2	lmao	
1106	2	cultpens	
1107	2	machine	
1108	2	third	
1109	2	newbie	
1110	2	cards	
1111	2	180	
1112	2	battery	
1113	2	911	
1114	2	distance	
1115	2	bulletproof	
1116	2	inspired	
1117	2	n.	
1118	2	ii	
1119	2	stores	
1120	2	21k	
1121	2	pelikans	
1122	2	ups	
1123	2	1997	
1124	2	christoph	
1125	2	noir	
1126	2	polish	
1127	2	om	
1128	2	5](http://imgur.com	
1129	2	fills	
1130	2	scratchiness	
1131	2	unseen	
1132	2	autumn	
1133	2	condolences	
1134	2	silicone	
1135	2	retina	
1136	2	poly	
1137	2	comments/2ootzi	
1138	2	as	
1139	2	reserve	
1140	2	ground	
1141	2	designs	
1142	2	damage	
1143	2	danitrio	
1144	2	spear	
1145	2	drama	
1146	2	jerk	
1147	2	subreddit	
1148	2	petrol](http://i.imgur.com	
1149	2	topaz](http://i.imgur.com	
1150	2	k3eozga.jpg	
1151	2	bubble	
1152	2	skipping	
1153	2	anatomy	
1154	2	pity	
1155	2	440	
1156	2	disassemble	
1157	2	cooler	
1158	2	cleaner	
1159	2	suuuper	
1160	2	rakuten	
1161	2	1/4	
1162	2	~$100	
1163	2	vanness	
1164	2	gt;however	
1165	2	nibs.com	
1166	2	fast	
1167	2	ultra	
1168	2	someone	
1169	2	fade	
1170	2	brand%3anoodlers	
1171	2	alternatives	
1172	2	edition	
1173	2	effect	
1174	2	jherbin	
1175	2	foam	
1176	2	brand%3agoulet	
1177	2	taiwan	
1178	2	scissors	
1179	2	keywords	
1180	2	bc	
1181	2	h	
1182	2	woops	
1183	2	table	
1184	2	quote	
1185	2	toronto	
1186	2	x2	
1187	2	mile	
1188	2	in	
1189	2	edit?usp	
1190	2	togi	
1191	2	nicer	
1192	2	aircraft	
1193	2	grats	
1194	2	pseudo	
1195	2	101](https://www.youtube.com	
1196	2	combination	
1197	2	digits	
1198	2	realo	
1199	2	ffs	
1200	2	sacs	
1201	2	surface	
1202	2	grenat	
1203	2	finer	
1204	2	gt;so	
1205	2	screw	
1206	2	krishna	
1207	2	product	
1208	2	midori	
1209	2	score	
1210	2	en	
1211	2	street	
1212	2	sentence	
1213	2	gt;can	
1214	2	yellow	
1215	2	least	
1216	2	apricot	
1217	2	jewel	
1218	2	return	
1219	2	912	
1220	2	crisp	
1221	2	mendel	
1222	2	jet	
1223	2	700	
1224	2	lightweight	
1225	2	nylon	
1226	2	1200	
1227	2	computer	
1228	2	graphite	
1229	2	crescent	
1230	2	leaf	
1231	2	bench	
1232	2	petroleum	
1233	2	era	
1234	2	demi	
1235	2	nathan	
1236	2	pointer	
1237	2	kit	
1238	2	pitch	
1239	2	germany	
1240	2	b5	
1241	2	butter	
1242	2	400	
1243	2	sentences	
1244	2	ago](http://imgur.com	
1245	2	gt;not	
1246	2	1960s	
1247	2	gt;will	
1248	2	14	
1249	2	worlds	
1250	2	suspect	
1251	2	cow	
1252	2	grip	
1253	2	grayish	
1254	2	ourselves	
1255	2	sample](https://imgur.com	
1256	2	xxf	
1257	2	bleeding	
1258	2	notebook-10th	
1259	2	mini	
1260	2	penmanship	
1261	2	gt;thanks	
1262	2	thicker	
1263	2	lover	
1264	2	thoughts	
1265	2	omg	
1266	2	right	
1267	2	retro	
1268	2	ranga	
1269	2	mica	
1270	2	durability	
1271	2	guilt	
1272	2	m120-black	
1273	2	hike	
1274	2	fan	
1275	2	daedalus	
1276	2	they	
1277	2	51s	
1278	2	demonstrators	
1279	2	syringe	
1280	2	cork	
1281	2	canada	
1282	2	grade	
1283	2	small	
1284	2	road	
1285	2	2016	
1286	2	suggestions	
1287	2	trifle	
1288	2	vat	
1289	2	y	
1290	2	albums	
1291	2	edison	
1292	2	bilberry-80ml	
1293	2	rare	
1294	2	excellent	
1295	2	odd	
1296	2	permanent	
1297	2	1st	
1298	2	hook	
1299	2	myus	
1300	2	key	
1301	2	mail	
1302	2	notice	
1303	2	18	
1304	2	😊	
1305	2	every	
1306	2	bday	
1307	2	pairing	
1308	2	35	
1309	2	feeds	
1310	2	thousand	
1311	2	tortoise	
1312	2	dr	
1313	2	spencerian	
1314	2	voice	
1315	2	browse	
1316	2	leftie	
1317	2	silk	
1318	2	skill	
1319	2	nick	
1320	2	stream	
1321	2	€	
1322	2	sooooo	
1323	2	grail	
1324	2	davefalcon73	
1325	2	sef	
1326	2	topic/140533-pilot	
1327	2	consideration	
1328	2	terminology	
1329	2	mentioned](http://imgur.com	
1330	2	ruthenium	
1331	2	fold	
1332	2	1918	
1333	2	labor	
1334	2	laser	
1335	2	https://www.gouletpens.com/nib-comparison-tool	
1336	2	tube	
1337	2	nemosine	
1338	2	violet	
1339	2	lemon	
1340	2	collectibles.com	
1341	2	gt;what	
1342	2	logo	
1343	2	diary	
1344	2	f.	
1345	2	skeleton	
1346	2	tool	
1347	2	syogun	
1348	2	swap	
1349	2	petrol	
1350	2	ha	
1351	2	cute	
1352	2	safaris	
1353	2	uber	
1354	2	psst	
1355	2	heron	
1356	2	version	
1357	2	lie	
1358	2	masters	
1359	2	loom	
1360	2	center	
1361	2	math	
1362	2	2018	
1363	2	wether	
1364	2	wing	
1365	2	nanami	
1366	2	passport	
1367	2	pal	
1368	2	pens](https://www.cultpens.com	
1369	2	vacumatic	
1370	2	t	
1371	2	x450	
1372	2	urushi	
1373	2	cough	
1374	2	earl	
1375	2	hr	
1376	2	sm	
1377	2	ohh	
1378	2	sizes	
1379	2	session	
1380	2	j	
1381	2	aluminum	
1382	2	works	
1383	2	60s	
1384	2	resac.htm	
1385	2	bend	
1386	2	店	
1387	2	852)-2367	
1388	2	7303	
1389	2	goulet-6-steel	
1390	2	boxes	
1391	2	funny	
1392	2	-&gt	
1393	2	oooooh	
1394	2	maruman	
1395	2	highlighter	
1396	2	bacas	
1397	2	opposite	
1398	2	p51	
1399	2	past	
1400	2	po	
1401	2	323	
1402	2	14c	
1403	2	copper	
1404	2	muji	
1405	2	perpendicular	
1406	2	nozac	
1407	2	lookin	
1408	2	moonman	
1409	2	wancai	
1410	2	3000	
1411	2	yer	
1412	2	willvintage	
1413	2	super	
1414	2	http://www.karaskustoms.com	
1415	2	care	
1416	2	bbs	
1417	2	\-	
1418	2	wear	
1419	2	vs	
1420	2	naw	
1421	2	climate	
1422	2	nights	
1423	2	sample!](https://imgur.com	
1424	2	go](https://imgur.com	
1425	2	dawg	
1426	2	bilberry	
1427	2	lilac	
1428	2	lt;---	
1429	2	length	
1430	2	stubby	
1431	2	edge	
1432	2	thank	
1433	2	rain	
1434	2	centuries	
1435	2	sigh	
1436	2	canyon	
1437	1	here](http://www.richardspens.com/	
1438	1	pennstateind.com	
1439	1	creepy	
1440	1	http://www.chinapenking.com/144.whitefeather.htm	
1441	1	danvers	
1442	1	rebecca	
1443	1	smearing	
1444	1	criteria	
1445	1	parts](http://lamyusa.com	
1446	1	aaaaaaand	
1447	1	5th	
1448	1	pen($60	
1449	1	baoer	
1450	1	comings	
1451	1	1](http://i.imgur.com	
1452	1	do	
1453	1	libelle	
1454	1	flair	
1455	1	isolated	
1456	1	native	
1457	1	dammit	
1458	1	cotton	
1459	1	removal](http://www.instructables.com	
1460	1	electrolytic	
1461	1	handwritten	
1462	1	navel	
1463	1	gt;20	
1464	1	http://badgerandblade.com/gallery/displayimage.php?imageid=39999	
1465	1	tabs	
1466	1	twice	
1467	1	60+shipping	
1468	1	index.php?/topic/192640-pen	
1469	1	posts.html	
1470	1	romwell	
1471	1	comments/195zfw	
1472	1	aaaaand	
1473	1	control	
1474	1	overstock	
1475	1	topic/132772-the	
1476	1	relax	
1477	1	page](http://carmenriverapens.com	
1478	1	vanishing_point.htm	
1479	1	piece](http://carmenriverapens.com	
1480	1	detail?no=506	
1481	1	categories	
1482	1	sky	
1483	1	twsbi_diamond_580_clear_fountain_pen_f_p	
1484	1	abyssal	
1485	1	figures	
1486	1	copy	
1487	1	0.5	
1488	1	log	
1489	1	http://www.richardspens.com/ref/repair/sac_replacement.htm	
1490	1	meaning	
1491	1	review/	
1492	1	arkansas	
1493	1	kataish	
1494	1	here](http://www.gergyor.com	
1495	1	nibs](http://penhero.com	
1496	1	1/4th	
1497	1	pens](http://www.reddit.com	
1498	1	brick	
1499	1	greyish	
1500	1	b0088nnb0	
1501	1	1930	
1502	1	worker	
1503	1	forms	
1504	1	separately](http://www.xfountainpens.com	
1505	1	e506	
1506	1	=d	
1507	1	graph	
1508	1	bottom](http://www.richardspens.com/?page	
1509	1	corps	
1510	1	southpaw	
1511	1	here](http://www.nibs.com	
1512	1	check	
1513	1	http://i.imgur.com/phembtj.jpg	
1514	1	gt;clip	
1515	1	whiz	
1516	1	prima	
1517	1	western	
1518	1	et	
1519	1	77](https://farm4.staticflickr.com/3166/3063220932_da02bd4b0e_b.jpg	
1520	1	noodlers_qternity_ink_3oz_p	
1521	1	smudge	
1522	1	yaw	
1523	1	tn15134006.htm	
1524	1	xfountainpen.com	
1525	1	nib](http://www.gouletpens.com	
1526	1	papper	
1527	1	gt;this	
1528	1	base	
1529	1	gallon	
1530	1	gt;&gt;just	
1531	1	alright	
1532	1	wet	
1533	1	topic/206179-help	
1534	1	drawing	
1535	1	gillot	
1536	1	cocoon	
1537	1	grey](http://www.amazon.com	
1538	1	metropolitan.html	
1539	1	http://www.amazon.com/gp/product/b002f5ckec/ref=oh_details_o05_s00_i00?ie=utf8&amp;psc=1	
1540	1	sydney	
1541	1	killer	
1542	1	shot-2011	
1543	1	http://www.inkonhand.com/2013/10/fountain-pen-day-2013/	
1544	1	gt;when	
1545	1	bluh	
1546	1	sketching	
1547	1	falken	
1548	1	max	
1549	1	78g](http://www.ebay.com	
1550	1	seal	
1551	1	nevermakesamistake	
1552	1	3776](http://www.gouletpens.com	
1553	1	pads](http://www.amazon.com	
1554	1	needles	
1555	1	omfg	
1556	1	300-$400	
1557	1	leuchtterm	
1558	1	tyler	
1559	1	cincinnati	
1560	1	oh	
1561	1	blues	
1562	1	aromatic	
1563	1	paper](http://www.gouletpens.com	
1564	1	im	
1565	1	http://www.gouletpens.com/nib_nook_s/1114.htm	
1566	1	parker-51/	
1567	1	http://www.gouletpens.com/articles.asp?id=309	
1568	1	trash	
1569	1	nagasawa](http://www.kobe	
1570	1	bottom-&gt;top	
1571	1	pelahale	
1572	1	boon	
1573	1	~$7	
1574	1	res)](http://redditenhancementsuite.com	
1575	1	ootb	
1576	1	simentov	
1577	1	madeyouink.com	
1578	1	5x	
1579	1	market	
1580	1	bleedthrough	
1581	1	got	
1582	1	http://farm3.static.flickr.com/2484/3983407281_b8c068d6ec_o.jpg	
1583	1	ache	
1584	1	dunas	
1585	1	pearl	
1586	1	standard_international_cartridge_converter_p	
1587	1	merit	
1588	1	spyderco	
1589	1	alllll	
1590	1	gt;try	
1591	1	topic/259784-noodlers	
1592	1	here](http://inkofmefondly.blogspot.com/2013/03	
1593	1	black](http://www.wonderpens.ca	
1594	1	pentalic	
1595	1	t.t	
1596	1	stone	
1597	1	24lb](http://www.amazon.com	
1598	1	brightness	
1599	1	vintagenib.com	
1600	1	vnw5yx9	
1601	1	ex	
1602	1	classier	
1603	1	affiliation	
1604	1	ur	
1605	1	http://www.youtube.com/watch?feature=player_embedded&amp;v=gqo3wrmk6da	
1606	1	particulate	
1607	1	items	
1608	1	n.b	
1609	1	valor](http://penhero.com	
1610	1	2](http://penaddict.com	
1611	1	sp	
1612	1	1.50	
1613	1	paper](http://i.imgur.com	
1614	1	ftfy	
1615	1	9318	
1616	1	9314	
1617	1	shouldnt	
1618	1	attachments/9475	
1619	1	7-x-9.8-normal	
1620	1	apeshit](http://www.jetpens.com	
1621	1	http://www.parkerpens.net/codekey.html	
1622	1	novelty	
1623	1	office/-/products	
1624	1	snap	
1625	1	frontpage	
1626	1	edelstein	
1627	1	upsides	
1628	1	sf	
1629	1	recommend	
1630	1	store](http://stores.ebay.com	
1631	1	from](http://www.gouletpens.com	
1632	1	75-$80	
1633	1	out!](http://www.gouletpens.com	
1634	1	scripto	
1635	1	325	
1636	1	tone	
1637	1	supershow	
1638	1	salix](http://edjelley.com/2014/04/08	
1639	1	lithium	
1640	1	link](http://item.rakuten.co.jp	
1641	1	itself	
1642	1	vote	
1643	1	point](http://fpgeeks.com	
1644	1	taranis](http://cdn3.volusion.com	
1645	1	http://i.imgur.com/w166jnd.jpg	
1646	1	here](http://www.reddit.com	
1647	1	moral	
1648	1	you!](http://i.imgur.com	
1649	1	w1oawmm.jpg	
1650	1	10,000	
1651	1	valiant	
1652	1	mainly	
1653	1	bulow.jpg	
1654	1	whereabouts	
1655	1	http://homeguides.sfgate.com/replace-jbend-bathroom-sink-50055.html	
1656	1	mosaic	
1657	1	topic/36303-sailor-1911-or	
1658	1	bt	
1659	1	matrs	
1660	1	2013	
1661	1	http://www.pentrace.net/article012901050.html	
1662	1	now](https://img1.etsystatic.com/027/1/8071155	
1663	1	minty	
1664	1	procolor500	
1665	1	here](http://www.esterbrook.net	
1666	1	05	
1667	1	pinks	
1668	1	note-5-sets-5-color	
1669	1	umm	
1670	1	counterparts	
1671	1	better	
1672	1	shoe	
1673	1	manual	
1674	1	ptl-5000	
1675	1	http://goodwriterspens.com/?s=snake+skin	
1676	1	jury	
1677	1	nows	
1678	1	100.](http://www.gouletpens.com	
1679	1	king	
1680	1	al_star/025_al	
1681	1	thx	
1682	1	mom	
1683	1	soviet	
1684	1	lambert	
1685	1	320	
1686	1	art](http://imgur.com	
1687	1	brbru#0	
1688	1	leagues	
1689	1	32a	
1690	1	bro](http://i.imgur.com	
1691	1	tendency	
1692	1	maggies	
1693	1	forest	
1694	1	comments/283dwi	
1695	1	170	
1696	1	comments/29a7pv	
1697	1	gear](http://imgur.com	
1698	1	forest.](http://www.levenger.com	
1699	1	unflexed	
1700	1	ammonia+water	
1701	1	smell	
1702	1	toledo	
1703	1	insight	
1704	1	knifeclub	
1705	1	pre	
1706	1	https://www.massdrop.com/buy/pilot-mr-fountain-pen	
1707	1	ahem	
1708	1	kingdomnote	
1709	1	itoya	
1710	1	2-$5	
1711	1	fpr	
1712	1	http://youtu.be/pujsnfpockg	
1713	1	\(i	
1714	1	cyr0tsg	
1715	1	gb	
1716	1	permission	
1717	1	http://i.imgur.com/yl4arga.png	
1718	1	duofold	
1719	1	👌	
1720	1	mint	
1721	1	incl	
1722	1	ehehe	
1723	1	http://penpaperinkletter.com/fountain-pen-review-lamy-studio-imperial-blue-ef/	
1724	1	polish|	
1725	1	yorkville	
1726	1	topic/148225-in	
1727	1	praise	
1728	1	17	
1729	1	ooohhhh	
1730	1	wax	
1731	1	-noodlers	
1732	1	ldr	
1733	1	orz	
1734	1	http://i1.kym-cdn.com/photos/images/newsfeed/000/641/298/448.jpg	
1735	1	date	
1736	1	tape	
1737	1	ago:](https://www.reddit.com	
1738	1	580](http://www.gouletpens.com	
1739	1	with](http://www.ebay.com	
1740	1	gt;let	
1741	1	swab_shop_turquoise_s/821.htm	
1742	1	pink	
1743	1	http://www.reddit.com/r/fountainpens/wiki/index	
1744	1	quill	
1745	1	practitioner(wrll	
1746	1	thicker-	
1747	1	oliverkrystal	
1748	1	brasstown	
1749	1	dr.	
1750	1	affinis	
1751	1	cement	
1752	1	opinion	
1753	1	resistant](https://www.reddit.com	
1754	1	here](http://kcavers.blogspot.com/2012/09	
1755	1	destruction	
1756	1	clba4sv	
1757	1	persist	
1758	1	easterbrook	
1759	1	comments/2js9eb	
1760	1	scroll	
1761	1	http://www.fountainpennetwork.com/forum/index.php/topic/209380-noodlers-ahab-flex-adjustment-tips/	
1762	1	congratulatipons	
1763	1	www.penaddict.com	
1764	1	omni	
1765	1	wise	
1766	1	hello^my^fellow^clock^friend	
1767	1	doctor	
1768	1	noodlers_bad_blue_heron_ink_3oz_p	
1769	1	touchdown	
1770	1	thinner	
1771	1	homepage_logo_1.jpg	
1772	1	apogee	
1773	1	http://www.wetcanvas.com/community/images/09-sep-2011/12504-grey_samps_close.jpg	
1774	1	http://bung-box.com/products/list23.html	
1775	1	windows	
1776	1	pen](http://ackermanpens.com	
1777	1	http://fountainpenhistory.blogspot.com.br/2014/06/alan-turings-fountain-pen.html	
1778	1	205](http://www.amazon.com	
1779	1	post-5946	
1780	1	http://i.imgur.com/hjqbsp8.jpg	
1781	1	oooh	
1782	1	yws8j0w&amp;sig2	
1783	1	brand%3anoodlers&amp;categoryid=14	
1784	1	0.4	
1785	1	wetness	
1786	1	stillman	
1787	1	watery	
1788	1	delivers	
1789	1	13.22	
1790	1	mass.](http://www.gouletpens.com	
1791	1	kingfisher](http://www.gouletpens.com	
1792	1	fm	
1793	1	mxx	
1794	1	threaded	
1795	1	schmidt	
1796	1	k2-international	
1797	1	stylus](http://www.amazon.com	
1798	1	unsure	
1799	1	oohhh	
1800	1	iphone	
1801	1	knob	
1802	1	brad	
1803	1	na	
1804	1	forming](http://imgur.com	
1805	1	xfnv21y.jpg	
1806	1	mont+blanc+irish+green)⎯not	
1807	1	tug	
1808	1	hebrew	
1809	1	subscriptions](http://mommysplurge.com	
1810	1	service	
1811	1	345	
1812	1	walnut	
1813	1	artists	
1814	1	20-$50	
1815	1	sunlight	
1816	1	breaks	
1817	1	comments/2p0sef	
1818	1	1010101010	
1819	1	;-)	
1820	1	1911s	
1821	1	arco	
1822	1	http://amazon.com/aston-roll-case-luggage-accessory/dp/b004nr9214	
1823	1	1250	
1824	1	gbp	
1825	1	poonanipounder	
1826	1	2008	
1827	1	soy	
1828	1	599	
1829	1	255	
1830	1	ulta	
1831	1	sr_1_1?ie	
1832	1	http://www.gouletpens.com/pilot-prera/c/192	
1833	1	http://i.imgur.com/ubuhrdm.jpg	
1834	1	http://i.imgur.com/8yttvty.jpg	
1835	1	damnit	
1836	1	uploads	
1837	1	link.](http://www.reddit.com	
1838	1	https://www.youtube.com/watch?v=qn5v2mx9wp8	
1839	1	habit	
1840	1	epinard	
1841	1	4:1	
1842	1	sailorlaunderednibbefore.jpg	
1843	1	notebook](http://chotoku.cocolog	
1844	1	nifty.com	
1845	1	mineral	
1846	1	barack	
1847	1	apica	
1848	1	yama	
1849	1	http://parkerpens.net/duofold.html	
1850	1	kokuyo	
1851	1	secret	
1852	1	chart	
1853	1	fret	
1854	1	sheet](http://noodlersink.com	
1855	1	iguanasell	
1856	1	combos	
1857	1	luxury	
1858	1	series	
1859	1	errr	
1860	1	pdt2/1/0/8/1/700x700	
1861	1	momobi	
1862	1	gel	
1863	1	orders	
1864	1	whch	
1865	1	shipping}](http://www.amazon.ca	
1866	1	product/1208	
1867	1	most_beautiful_pen_i_own_urushi_and_makie_cant/	
1868	1	l	
1869	1	merlot	
1870	1	rektpotatoe	
1871	1	pheasant	
1872	1	hatobanezu	
1873	1	psoqhqm	
1874	1	lubrication	
1875	1	:0	
1876	1	topic/206845-light	
1877	1	tests](http://2.bp.blogspot.com/-ibp3z	
1878	1	bleu	
1879	1	https://www.flickr.com/photos/21805716@n03/3554627984/	
1880	1	http://imgur.com/a/jq4tc	
1881	1	la	
1882	1	fines	
1883	1	177-year	
1884	1	image005.jpg	
1885	1	accessories	
1886	1	midoris	
1887	1	squid	
1888	1	paper](http://www.amazon.com	
1889	1	attendance	
1890	1	lzt2a	
1891	1	mover	
1892	1	projects/598840290	
1893	1	fear	
1894	1	list	
1895	1	default.asp	
1896	1	tan	
1897	1	2000](http://www.gouletpens.com	
1898	1	blog/2013/8/19	
1899	1	camera	
1900	1	filigree	
1901	1	cheap	
1902	1	moderation	
1903	1	ptl-5000a	
1904	1	dfc3	
1905	1	r0010494-thumb-480x360	
1906	1	pretentiousness	
1907	1	haematite	
1908	1	joe	
1909	1	topic/281067-edison	
1910	1	goldnibs.com	
1911	1	pen](http://www.gouletpens.com	
1912	1	80ml	
1913	1	isellpens	
1914	1	woo	
1915	1	special	
1916	1	https://www.youtube.com/watch?v=rrvkrrzdxls&amp;list=ple417xddjbsbaqoaua56qzd0ofp-bokyh	
1917	1	picture](http://www.leighreyes.com	
1918	1	posts	
1919	1	guns	
1920	1	top-5-fountain	
1921	1	hrm	
1922	1	sealant	
1923	1	youeself	
1924	1	cracks	
1925	1	73	
1926	1	glow	
1927	1	mead	
1928	1	tint	
1929	1	training	
1930	1	14kgp	
1931	1	france	
1932	1	viewport	
1933	1	except	
1934	1	mp_s_a_1_3?qid=1426310009&amp;sr=8	
1935	1	^/u	
1936	1	^trouble	
1937	1	amazon.ca	
1938	1	vials	
1939	1	centimeter	
1940	1	awkward](http://i.imgur.com	
1941	1	topic/271278	
1942	1	kg	
1943	1	16	
1944	1	amp	
1945	1	2](http://www.createwritedrink.com/2013/01	
1946	1	finish/?p=2235849	
1947	1	tipped	
1948	1	pens](http://www.nibs.com/	
1949	1	tenths	
1950	1	awesk	
1951	1	it.](http://idleexpatter.com/2014/03/22	
1952	1	joke	
1953	1	from~$5	
1954	1	wipe	
1955	1	uploads/2009/12	
1956	1	inkjet	
1957	1	paycheck	
1958	1	weekends	
1959	1	укручканцпром	
1960	1	eyeroll	
1961	1	appealing](https://www.reddit.com	
1962	1	reward	
1963	1	sovereign	
1964	1	eww	
1965	1	link](http://www.reddit.com	
1966	1	pilot_metropolitan_taken_to_its_bones/	
1967	1	thin	
1968	1	101.](http://www.youtube.com	
1969	1	gt;no	
1970	1	lt;edit&gt	
1971	1	pen-%28m%29	
1972	1	nibnook	
1973	1	xxxx	
1974	1	comments/31cmou	
1975	1	pumpkin	
1976	1	saturated](http://inklode.com	
1977	1	fair	
1978	1	truimph	
1979	1	http://www.peter-bock.com/content/e4/e894/index_eng.html	
1980	1	x2tkt8j.jpg	
1981	1	nearer	
1982	1	convenience	
1983	1	mini](http://www.gouletpens.com	
1984	1	problems	
1985	1	http://parkerpens.net/arrow.html	
1986	1	scot	
1987	1	collector	
1988	1	hole	
1989	1	amd	
1990	1	model-20-marietta.html	
1991	1	five	
1992	1	justice	
1993	1	30ml	
1994	1	2.99	
1995	1	99	
1996	1	2550yen	
1997	1	cashy	
1998	1	mock	
1999	1	n81koml.jpg	
2000	1	dlnvwge.jpg	
2001	1	zy7fr6l.jpg	
2002	1	bordeaux](http://i.imgur.com	
2003	1	1987	
2004	1	item/32768-pelikan	
2005	1	sample.jpg	
2006	1	exchange	
2007	1	2000-makrolon	
2008	1	i.	
2009	1	adamsw216	
2010	1	song	
2011	1	thurs	
2012	1	model](http://www.richardspens.com/?page	
2013	1	tops	
2014	1	showthread.php/1433-vintage	
2015	1	don't-	
2016	1	http://www.purepens.co.uk/acatalog/pilot-mr-collection.html	
2017	1	australia	
2018	1	highlighters	
2019	1	1.2ml	
2020	1	100-	
2021	1	butane	
2022	1	centrifuge	
2023	1	1041	
2024	1	http://www.sheaffertarga.com/technical%20info/classic%20and%20slim%20size.html	
2025	1	wsphoto	
2026	1	bitcoin	
2027	1	find	
2028	1	diamond-580-green	
2029	1	comments/340zwr	
2030	1	thkmx#0	
2031	1	pictures](http://imgur.com	
2032	1	steam	
2033	1	soul	
2034	1	bs	
2035	1	specifics	
2036	1	qpi4jlk.jpg	
2037	1	here\	
2038	1	wallet	
2039	1	converter(medium	
2040	1	145	
2041	1	18](http://i.imgur.com	
2042	1	demonstratornmf	
2043	1	runners	
2044	1	zircon	
2045	1	52	
2046	1	c9g3eaa.jpg	
2047	1	cares?!](http://memeorama.com	
2048	1	bilbury	
2049	1	me](http://www.reddit.com	
2050	1	sine	
2051	1	gods	
2052	1	ocean	
2053	1	one](http://suptg.thisisnotatrueending.com	
2054	1	kent	
2055	1	stainless	
2056	1	after?](https://www.dropbox.com	
2057	1	shizuoka	
2058	1	7th	
2059	1	z6gxjk6	
2060	1	maglight	
2061	1	pencils	
2062	1	owner	
2063	1	passages	
2064	1	post/22131227213	
2065	1	win	
2066	1	kop	
2067	1	fox](http://imgur.com	
2068	1	microsoft	
2069	1	in"](http://i.imgur.com	
2070	1	prices](http://shop.j	
2071	1	ref-3538-/231575594397?pt	
2072	1	http://www.silverpenparts.com/	
2073	1	gt;the	
2074	1	ariastic	
2075	1	profiles/45.htm	
2076	1	content](http://imgur.com	
2077	1	heheh	
2078	1	tl;dw	
2079	1	raven	
2080	1	moar	
2081	1	wall	
2082	1	depression	
2083	1	offices	
2084	1	reminder	
2085	1	kai	
2086	1	uncap	
2087	1	here.](https://www.flickr.com	
2088	1	instance	
2089	1	0.99	
2090	1	standard"/"1911	
2091	1	en_us_intl.fwi.displayshop.91548./souveraen	
2092	1	rohner	
2093	1	topic/260409-salix	
2094	1	m)](http://i.imgur.com/2osrdtc.jpg	
2095	1	2014and	
2096	1	pen](http://stores.ebay.de	
2097	1	azur-30ml	
2098	1	podcast	
2099	1	model](http://imgur.com	
2100	1	boards	
2101	1	purepens.co.uk	
2102	1	ykm4dmvima8	
2103	1	inks~~	
2104	1	jmo	
2105	1	recycled	
2106	1	pic](http://i.imgur.com/8xbbwlx.jpg	
2107	1	fibers	
2108	1	here](https://www.zeemaps.com	
2109	1	everest	
2110	1	csmjebg?context=3	
2111	1	moons	
2112	1	woman	
2113	1	tischler](http://www.penkala.net	
2114	1	www.youtube.com/watch?v=3rlcc0xhscm	
2115	1	jot	
2116	1	get	
2117	1	blue-60ml	
2118	1	blue-50ml	
2119	1	3/32	
2120	1	https://instagram.com/p/3mzlkkdmhx/	
2121	1	glance	
2122	1	metros	
2123	1	feel	
2124	1	freight	
2125	1	inconvenient	
2126	1	qlsub	
2127	1	ing	
2128	1	railroading	
2129	1	boss	
2130	1	loving	
2131	1	mins	
2132	1	justus	
2133	1	ago.](http://penmakers.com/?page_id=5	
2134	1	its_probably_me	
2135	1	lamy2000	
2136	1	clamp	
2137	1	talk	
2138	1	doric	
2139	1	lj	
2140	1	lamy+safari&amp;condition	
2141	1	millimetres	
2142	1	http://imgur.com/moywlwa	
2143	1	hcbgt	
2144	1	「	
2145	1	」	
2146	1	twsbi.com	
2147	1	firday	
2148	1	castell](http://imgur.com	
2149	1	http://www.peytonstreetpens.com	
2150	1	classifieds](http://www.fountainpennetwork.com	
2151	1	ftw	
2152	1	3ml	
2153	1	metro	
2154	1	2521	
2155	1	engeika	
2156	1	materials	
2157	1	page](http://www.peytonstreetpens.com	
2158	1	noooo	
2159	1	jonszanto	
2160	1	darling	
2161	1	rave	
2162	1	black&amp;blue	
2163	1	vocs	
2164	1	women	
2165	1	gt;hey	
2166	1	mb	
2167	1	pumice	
2168	1	disappointing	
2169	1	silly	
2170	1	cameras	
2171	1	snorkels	
2172	1	concepts	
2173	1	le	
2174	1	twsbiinc@gmail.com	
2175	1	gorillas	
2176	1	f2	
2177	1	help](http://www.rosspens.com	
2178	1	http://nockco.com	
2179	1	sacrifice	
2180	1	pen_11.jpg	
2181	1	0500	
2182	1	here](http://www.sailorpen.com	
2183	1	binder	
2184	1	sigma)](http://www.sailor.co.jp	
2185	1	http://www.daisojapan.com/c-9-stationery.aspx	
2186	1	usa	
2187	1	hoornpatroon	
2188	1	inkthevel	
2189	1	drop	
2190	1	everybody	
2191	1	800	
2192	1	786	
2193	1	deregulation	
2194	1	http://palmermethod.com/	
2195	1	nib-/371145771356?hash	
2196	1	green-75ml	
2197	1	40-$90	
2198	1	http://www.exacompta.com/record-cards--01401050	
2199	1	here.](http://i.imgur.com	
2200	1	minimalistic	
2201	1	erm	
2202	1	's	
2203	1	tengwar	
2204	1	~£130	
2205	1	konrads(1	
2206	1	smith	
2207	1	580als	
2208	1	88	
2209	1	cms	
2210	1	12.50	
2211	1	mustard	
2212	1	denim-80ml	
2213	1	raden	
2214	1	paper.](http://i.imgur.com	
2215	1	visconti_limited_edition_opera_crystal_demonstrator_tubular_fountain_pen_6896.html	
2216	1	http://www.amazon.com/gp/aw/d/b004y7ckt4/	
2217	1	blauw	
2218	1	noodles	
2219	1	baystate	
2220	1	lilac](http://i.imgur.com	
2221	1	orange](http://i.imgur.com	
2222	1	djhi8vu.jpg	
2223	1	e95zlxa.jpg	
2224	1	mr	
2225	1	jpqot	
2226	1	toy	
2227	1	fixer	
2228	1	lt;wink&gt	
2229	1	oooooooooh	
2230	1	bits	
2231	1	fpn	
2232	1	clean	
2233	1	uploads/2011/10	
2234	1	backstory	
2235	1	cosmopolitan	
2236	1	1929	
2237	1	cdn.com	
2238	1	\(and	
2239	1	146\)](https://instagram.com	
2240	1	can't	
2241	1	4497-bef1	
2242	1	jr	
2243	1	r&amp;k	
2244	1	brain	
2245	1	shld	
2246	1	wouldn't	
2247	1	ynab	
2248	1	508](https://instagram.com	
2249	1	whoo	
2250	1	anxiety	
2251	1	chip	
2252	1	kay	
2253	1	1920's	
2254	1	res	
2255	1	kidding	
2256	1	california	
2257	1	long	
2258	1	video](https://www.youtube.com	
2259	1	sonofabitch	
2260	1	greasyclown	
2261	1	one.](https://www.reddit.com	
2262	1	stealth	
2263	1	newtonpens	
2264	1	fpgeeks	
2265	1	occasionaly	
2266	1	http://gouletpens.com/nib-nook	
2267	1	gt;=$45	
2268	1	comparison](http://i.imgur.com	
2269	1	coffee	
2270	1	ottoman	
2271	1	chart](http://www.nibs.com	
2272	1	trigger	
2273	1	165](https://wonderpens.wordpress.com/2013/11/19	
2274	1	sand	
2275	1	props	
2276	1	9:1	
2277	1	comparison](https://instagram.com	
2278	1	he	
2279	1	eastman	
2280	1	factories	
2281	1	topic/299147-conid	
2282	1	hahahahaha	
2283	1	name	
2284	1	2015	
2285	1	h-(size	
2286	1	meat	
2287	1	leo	
2288	1	judgment	
2289	1	kara	
2290	1	printer	
2291	1	~$40	
2292	1	md	
2293	1	scan](http://imgur.com	
2294	1	zoom	
2295	1	oz	
2296	1	flower	
2297	1	straight	
2298	1	http://imgur.com/mdk5oin	
2299	1	amex	
2300	1	improvement	
2301	1	free	
2302	1	https://www.reddit.com/r/penretailerreviews/	
2303	1	sherlock	
2304	1	n19014	
2305	1	blue](http://www.gouletpens.com	
2306	1	garnet	
2307	1	19	
2308	1	2](http://i.imgur.com/5p5xrpnundefined.jpg	
2309	1	5kcb18a	
2310	1	eyebrow	
2311	1	way.](https://np.reddit.com	
2312	1	pens](http://edisonpen.com	
2313	1	stilwell	
2314	1	shots](http://imgur.com	
2315	1	topic/287813-help	
2316	1	now](http://www.ebay.com	
2317	1	frustrating	
2318	1	fkk1000rb	
2319	1	pen-22kgp	
2320	1	s?keyword	
2321	1	underwriter	
2322	1	ukaokkcyrfi	
2323	1	15$.	
2324	1	purpose	
2325	1	mamoulides	
2326	1	dino	
2327	1	model%3apilot	
2328	1	brand%3afaber_castell%2ctenant	
2329	1	black-50ml	
2330	1	tomitio	
2331	1	holmes	
2332	1	sucks	
2333	1	.4	
2334	1	www.ebay.com.sg/usr/polcarrasco	
2335	1	swoon	
2336	1	satin	
2337	1	purple](https://www.instagram.com	
2338	1	#	
2339	1	finishes	
2340	1	pad	
2341	1	http://newtonpens.com/nib-grinds/	
2342	1	topic/197339-waterman	
2343	1	indus	
2344	1	this?](https://www.lucrin.com	
2345	1	faq	
2346	1	glitter	
2347	1	tuition	
2348	1	1](http://www.ebay.com	
2349	1	2](http://www.ebay.com	
2350	1	striker	
2351	1	pop](http://www.gouletpens.com	
2352	1	1200](http://i.imgur.com	
2353	1	eyedropper	
2354	1	eversharps](http://www.vintagepen.net/-wahl	
2355	1	brand%3apilot	
2356	1	125-$150	
2357	1	5.6	
2358	1	weather	
2359	1	reservoir	
2360	1	counterfeit	
2361	1	salix-50ml	
2362	1	astronaut	
2363	1	decent--*much	
2364	1	call	
2365	1	dcmembermap.php	
2366	1	finger	
2367	1	https://www.reddit.com/r/pen_swap/comments/3zbsvd/wts_many_vintage_pens_and_estie_nibs_a1d/	
2368	1	rosefedern	
2369	1	i8duoz	
2370	1	saskatchewan	
2371	1	yamadori	
2372	1	youtself	
2373	1	vroman	
2374	1	townsend?](http://newtonpens.com	
2375	1	avocado-66ml	
2376	1	anyhoo	
2377	1	59](http://imgur.com	
2378	1	here](https://en.wikipedia.org	
2379	1	diabolical_engineer	
2380	1	gt;ok	
2381	1	subset	
2382	1	ghostrider	
2383	1	last_sailor_purchase_for_a_while_sailor_leiji/	
2384	1	tendresse-30ml	
2385	1	gratz	
2386	1	cf	
2387	1	462	
2388	1	realign	
2389	1	desca04	
2390	1	personaly	
2391	1	comments/40azv7	
2392	1	containers	
2393	1	capital	
2394	1	pens](https://www.google.com	
2395	1	isn't	
2396	1	videogame	
2397	1	gaaaaaaayyyyyyyy	
2398	1	24h	
2399	1	here](http://pentulant.blogspot.com/2014/04	
2400	1	vs.html	
2401	1	frost	
2402	1	c/14/?facetvaluefilter	
2403	1	wallpaper	
2404	1	crispy	
2405	1	eel	
2406	1	map](https://www.zeemaps.com	
2407	1	209](http://www.ebay.com	
2408	1	bri7man	
2409	1	ooo	
2410	1	edkolev	
2411	1	inc.	
2412	1	388](http://www.isellpens.com	
2413	1	shipped	
2414	1	yanno	
2415	1	intensity	
2416	1	scotland	
2417	1	350	
2418	1	http://imgur.com/bgrnmwx	
2419	1	figboot11	
2420	1	http://www.twsbi.com/collections/fountain-pens/products/twsbi-diamond-580al-blue-fountain-pen	
2421	1	https://gfycat.com/sociablegargantuanaddax	
2422	1	3272	
2423	1	1080	
2424	1	soap	
2425	1	index_m.html	
2426	1	20$.	
2427	1	awh	
2428	1	festival	
2429	1	redder	
2430	1	daylight	
2431	1	months~~	
2432	1	113	
2433	1	workplace	
2434	1	thar	
2435	1	tripod	
2436	1	ask	
2437	1	conklin	
2438	1	400nn	
2439	1	notes!](http://www.richardspens.com	
2440	1	express	
2441	1	fluffy	
2442	1	yr16xjrh.jpg	
2443	1	10-year	
2444	1	decoband	
2445	1	http://imgur.com/7tfaj40	
2446	1	sites	
2447	1	kms	
2448	1	scarlet	
2449	1	https://chatterleyluxuries.com/product/danitrio-fountain-pen-black-gold-trim/	
2450	1	parsons	
2451	1	intrinsic	
2452	1	springiness	
2453	1	showthread.php/6393-ink	
2454	1	products&amp;sr=1	
2455	1	c/20	
2456	1	c/365	
2457	1	http://imgur.com/a/ipk9c	
2458	1	specialty	
2459	1	copperplate	
2460	1	juicy	
2461	1	economical	
2462	1	generation	
2463	1	milliseconds	
2464	1	1985	
2465	1	goodbye	
2466	1	restored	
2467	1	n00b	
2468	1	kanji	
2469	1	gt;speaking	
2470	1	110th	
2471	1	3.26	
2472	1	oblique	
2473	1	http://i.imgur.com/ickauos.jpg	
2474	1	soaking	
2475	1	liz	
2476	1	bern	
2477	1	plazman30	
2478	1	wgbem0e.jpg?1	
2479	1	http://www.penaddict.com/blog/2015/9/18/j-herbin-emerald-of-chivor-ink-review	
2480	1	antique	
2481	1	schrade	
2482	1	tray	
2483	1	experiences	
2484	1	viii	
2485	1	mean](http://www.ruettinger	
2486	1	circles	
2487	1	strawberry-80ml	
2488	1	looks	
2489	1	tour](http://www.amazon.co.uk	
2490	1	beartoothwoods.com	
2491	1	here](http://www.gouletpens.com	
2492	1	butt	
2493	1	23	
2494	1	dialogue	
2495	1	a4	
2496	1	notepad-%28127x76%29	
2497	1	reamer](http://www.beartoothwoods.com	
2498	1	chrome	
2499	1	til	
2500	1	infinitum	
2501	1	environment	
2502	1	topic/293815-parker	
2503	1	understand](http://penhabit.com	
2504	1	bcyj	
2505	1	neon	
2506	1	withouth	
2507	1	topic/14148-rk	
2508	1	titanium	
2509	1	vegetable	
2510	1	nishijima	
2511	1	russo	
2512	1	starrider	
2513	1	below](https://www.reddit.com	
2514	1	shots](https://imgur.com	
2515	1	"nib	
2516	1	play	
2517	1	taos	
2518	1	sucky	
2519	1	say	
2520	1	cult	
2521	1	https://c2.staticflickr.com/2/1710/25319887971_2ccda7fe93_b.jpg	
2522	1	twilight	
2523	1	lebanese	
2524	1	hummm	
2525	1	paragraph	
2526	1	thesciencenut	
2527	1	http://imgur.com/pikem7c	
2528	1	black-80ml	
2529	1	refill	
2530	1	https://www.youtube.com/watch?v=fcbsmgnhagq	
2531	1	books](http://www.johnnealbooks.com	
2532	1	pdf-)page	
2533	1	dm	
2534	1	floral	
2535	1	limited	
2536	1	a+	
2537	1	lmk	
2538	1	750	
2539	1	cheque	
2540	1	beverly	
2541	1	frankenpen	
2542	1	yellow.](http://i.imgur.com	
2543	1	heliosantus	
2544	1	noob	
2545	1	maker	
2546	1	https://www.youtube.com/watch?v=xolztdcpnce	
2547	1	stresemann	
2548	1	fountainpenrevolution	
2549	1	tolkien	
2550	1	2-day	
2551	1	66	
2552	1	uploads/2012/12	
2553	1	us](http://www.amazon.com	
2554	1	oulii	
2555	1	celluloid	
2556	1	preeeeety	
2557	1	tomoe	
2558	1	allison	
2559	1	greenish	
2560	1	feedbacky	
2561	1	buzz	
2562	1	majke	
2563	1	upgrade	
2564	1	here.](http://carmenriverapens.com	
2565	1	fox	
2566	1	review](http://www.gourmetpens.com/2013/05	
2567	1	http://blog.gouletpens.com/2014/03/heat-setting-noodlers-ebonite-feed.html?m=1	
2568	1	codekey.html	
2569	1	gouletpens.com	
2570	1	varnish	
2571	1	bucks](http://www.michaels.com	
2572	1	mandarin	
2573	1	ion	
2574	1	squeezable	
2575	1	fpn_1437579825__sailor	
2576	1	nerd	
2577	1	300-&gt;$600	
2578	1	17th	
2579	1	b00xiars54	
2580	1	tanager	
2581	1	dudes	
2582	1	mine	
2583	1	him	
2584	1	topic/266039-old	
2585	1	war	
2586	1	again	
2587	1	oxblood-80ml	
2588	1	pink-80ml	
2589	1	proposal/	
2590	1	coin	
2591	1	beats	
2592	1	http://blog.gouletpens.com/p/fountain-pen-101.html	
2593	1	bravo	
2594	1	jinhao-8802-rollerball	
2595	1	1&amp;keywords	
2596	1	corner	
2597	1	eyes	
2598	1	milage	
2599	1	bomber	
2600	1	jaja	
2601	1	da1404	
2602	1	cleaning	
2603	1	recommendations	
2604	1	stance	
2605	1	elegance	
2606	1	prospector	
2607	1	writing](http://imgur.com	
2608	1	4hrs	
2609	1	else	
2610	1	2500	
2611	1	hole~~	
2612	1	http://www.gouletpens.com/nib-nook	
2613	1	eco](http://www.gouletpens.com	
2614	1	response.](http://puu.sh	
2615	1	carsknivesbeer	
2616	1	crud	
2617	1	granite	
2618	1	enhance	
2619	1	200~300	
2620	1	theperplexingparadox/26332635723	
2621	1	sizes](http://www.richardspens.com/?page	
2622	1	ladies	
2623	1	juddperl	
2624	1	mountainmanc.	
2625	1	https://www.instagram.com/newtonpens/	
2626	1	joy	
2627	1	australian	
2628	1	emperor	
2629	1	32	
2630	1	writable	
2631	1	thumb_1	
2632	1	http://www.gouletpens.com/ink-sample-packages/c/23	
2633	1	here](http://estilofilos.blogspot.com/2014/01	
2634	1	sometime	
2635	1	docman	
2636	1	cat_view/80-reference	
2637	1	sooooooooo	
2638	1	imitation	
2639	1	hilt	
2640	1	aventura	
2641	1	strange	
2642	1	danng	
2643	1	armani	
2644	1	:p	
2645	1	explanation	
2646	1	2010	
2647	1	hipsters	
2648	1	res](http://www.redditenhancementsuite.com/	
2649	1	attache	
2650	1	here](https://www.youtube.com	
2651	1	reinforcement	
2652	1	https://www.youtube.com/watch?v=ujjmz3qcv8y	
2653	1	hooray	
2654	1	https://imgur.com/nyrp8yv	
2655	1	lined	
2656	1	murflegirl	
2657	1	spacing	
2658	1	section.](http://imgur.com	
2659	1	cylindrical](http://cdn2.bigcommerce.com	
2660	1	mastering	
2661	1	white-35ml	
2662	1	lacquer	
2663	1	downstroke	
2664	1	aaaaah	
2665	1	cousin	
2666	1	bummer	
2667	1	upload	
2668	1	chkkpuy.jpg	
2669	1	alley	
2670	1	dab	
2671	1	another	
2672	1	perfection	
2673	1	pleasant_vibes	
2674	1	doggo	
2675	1	trivia	
2676	1	cheng	
2677	1	weave	
2678	1	gregor	
2679	1	chlorophyll	
2680	1	eurobox	
2681	1	540	
2682	1	tariff	
2683	1	60ml	
2684	1	basicly	
2685	1	racmanninoff	
2686	1	luster	
2687	1	johnnealbooks.com	
2688	1	too--	
2689	1	cristoph	
2690	1	opinions	
2691	1	turquoise](http://cdn	
2692	1	cms/8588	
2693	1	gt;_&lt	
2694	1	yeeeaaars	
2695	1	brazil	
2696	1	black'n'red	
2697	1	preras	
2698	1	shiny	
2699	1	one](https://i.imgur.com	
2700	1	cover)](http://www.jetpens.com	
2701	1	metres	
2702	1	pam	
2703	1	https://www.google.com/search?q=calligraffiti+pens&amp;biw=1228&amp;bih=655&amp;tbm=isch&amp;tbo=u&amp;source=univ&amp;sa=x&amp;sqi=2&amp;ved=0ahukewi9qlnj8flnahubucykhuh7dpqqsaqigw#imgrc=9p9vu7sne55vvm%3a	
2704	1	darker	
2705	1	edisonpenco	
2706	1	https://www.youtube.com/watch?v=meolgc4g-vc	
2707	1	pen.^i'll	
2708	1	thaaanks	
2709	1	vid	
2710	1	hold	
2711	1	theirs	
2712	1	raptastrophe	
2713	1	80gsm	
2714	1	http://theinkcyclopedia.com	
2715	1	slender	
2716	1	kdieick	
2717	1	folks	
2718	1	envy	
2719	1	six	
2720	1	a/2azze	
2721	1	ft86	
2722	1	put	
2723	1	grap	
2724	1	2000](http://www.lamy.com	
2725	1	taste	
2726	1	douchey	
2727	1	nature	
2728	1	palette	
2729	1	https://upload.wikimedia.org/wikipedia/commons/0/09/parker-51s.jpg	
2730	1	helianthus](http://i.imgur.com	
2731	1	1998	
2732	1	ideal	
2733	1	keyboard	
2734	1	dryness	
2735	1	testing	
2736	1	bourgogne	
2737	1	chartres	
2738	1	stella	
2739	1	lil	
2740	1	experimentation	
2741	1	sanko	
2742	1	bw2hefp.jpg	
2743	1	topic/20628-windsor	
2744	1	peasy--	
2745	1	c/14/?sortby	
2746	1	episode	
2747	1	psychology	
2748	1	clone	
2749	1	crack	
2750	1	nibs.html	
2751	1	http://www.vintagepensacsandparts.com/product.php/16/1/shellac_for_ink_sacs	
2752	1	x6ocypd	
2753	1	schaftfabe	
2754	1	149	
2755	1	tsukiyo	
2756	1	august	
2757	1	sexiest	
2758	1	tables	
2759	1	kits](http://www.gouletpens.com	
2760	1	nancy	
2761	1	anatomy](http://blog.gouletpens.com/2015/07	
2762	1	pen.html	
2763	1	molecule	
2764	1	b01bvlavic/	
2765	1	ink-80ml	
2766	1	http://www.franklin-christoph.com/penvelope-six.html	
2767	1	mr2	
2768	1	8.7/2	
2769	1	brand%3aapica	
2770	1	http://www.gouletpens.com/swab-shop-brown	
2771	1	vps](http://i.imgur.com	
2772	1	food	
2773	1	downside	
2774	1	tapers	
2775	1	clairefontane	
2776	1	cities	
2777	1	delhi	
2778	1	undonee	
2779	1	https://www.handymanhowto.com/wp-content/uploads/2009/08/dsc03463b.jpg	
2780	1	nickel	
2781	1	10-$15	
2782	1	twsbi(self	
2783	1	1992	
2784	1	1/5th	
2785	1	what](http://imgur.com	
2786	1	handle	
2787	1	https://www.amazon.com/namiki-vanishing-rhodium-medium-converter/dp/b00821othy	
2788	1	crow	
2789	1	nib](http://i.imgur.com	
2790	1	http://www.jetpens.com/calligraphy-brush-pens/ct/3115	
2791	1	asp	
2792	1	aaaaaand	
2793	1	franz	
2794	1	protein	
2795	1	go.](https://www.chapters.indigo.ca	
2796	1	m.	
2797	1	overall_size%3aa4	
2798	1	150616](http://i.imgur.com	
2799	1	ocagz42.jpg	
2800	1	burp	
2801	1	blue](https://ffpaint.wordpress.com/2014/01/08	
2802	1	pi	
2803	1	e95s	
2804	1	https://www.youtube.com/watch?v=oxh5vs9beo8	
2805	1	comments/540g0h	
2806	1	img_8125.jpg	
2807	1	sz9kf&amp;pd_rd_wg	
2808	1	engine	
2809	1	tenner	
2810	1	chain	
2811	1	umeda](http://kobe	
2812	1	yuuuusss	
2813	1	data_returns	
2814	1	korean	
2815	1	iwhy	
2816	1	uploads/2015/07	
2817	1	meters	
2818	1	rose	
2819	1	apple	
2820	1	http://www.youtube.com/watch?v=uuq9tukrbcy	
2821	1	thread](https://www.reddit.com	
2822	1	dry	
2823	1	fist	
2824	1	souleater3vanz	
2825	1	grammy	
2826	1	smoothness	
2827	1	jab	
2828	1	1934	
2829	1	tuckaways	
2830	1	her	
2831	1	inky	
2832	1	yen	
2833	1	saddle	
2834	1	discover	
2835	1	ivory	
2836	1	chlorine	
2837	1	tricky	
2838	1	26g|	
2839	1	✓	
2840	1	185|	
2841	1	hundred	
2842	1	peach	
2843	1	performer	
2844	1	http://diamineinks.co.uk/listings.aspx?brandid=3	
2845	1	fanfare	
2846	1	floor	
2847	1	p2047675.c100005.m1851&amp;_trkparms	
2848	1	fsc	
2849	1	no.-19-a4	
2850	1	followup	
2851	1	we	
2852	1	teeny	
2853	1	update	
2854	1	situation	
2855	1	hawkflames/	
2856	1	clog	
2857	1	http://imgur.com/rrkijst	
2858	1	imperial	
2859	1	biggest	
2860	1	730	
2861	1	812	
2862	1	metals	
2863	1	shrinks	
2864	1	^interwebz	
2865	1	mmpf	
2866	1	1990s	
2867	1	toumeikan.](http://imgur.com	
2868	1	p/7bybzomfth/	
2869	1	green-35ml	
2870	1	armies-3oz	
2871	1	smoke	
2872	1	shinola	
2873	1	lt;shrug&gt	
2874	1	http://scriptustoronto.com/limited-edition-2016-t-shirt/	
2875	1	holder	
2876	1	alot	
2877	1	complaint	
2878	1	http://imgur.com/a/50jgq	
2879	1	http://www.gouletpens.com/swab-shop-blue	
2880	1	titch	
2881	1	trading	
2882	1	al	
2883	1	vinegar	
2884	1	styrene	
2885	1	waterman](http://imgur.com	
2886	1	520	
2887	1	spoon	
2888	1	waterman7_ad.jpg	
2889	1	trim-14k	
2890	1	firm	
2891	1	board	
2892	1	owner.](http://i.imgur.com	
2893	1	i.e	
2894	1	cultpens](http://www.cultpens.com	
2895	1	feature	
2896	1	muh	
2897	1	a/6lb8n	
2898	1	career	
2899	1	umfh	
2900	1	50x	
2901	1	hiragana	
2902	1	daughter	
2903	1	figure	
2904	1	plenty	
2905	1	cratejoy	
2906	1	wash	
2907	1	nagasawa	
2908	1	midday	
2909	1	nib'ed	
2910	1	fickle	
2911	1	go](http://i.imgur.com	
2912	1	https://www.amazon.com/dp/088062082x/ref=cm_sw_r_cp_api_6hblyb1btws0e	
2913	1	trim](https://www.amazon.co.uk	
2914	1	aoyama	
2915	1	marunouchi	
2916	1	rollup	
2917	1	sailor-1970-s	
2918	1	joy](https://www.gouletpens.com	
2919	1	ipsilon	
2920	1	topic/262287-retina	
2921	1	jetpens](http://www.jetpens.com	
2922	1	lines	
2923	1	c/10/?sortby	
2924	1	flexiest	
2925	1	sky](https://mehandiratta.wordpress.com/2016/04/07	
2926	1	xxxf	
2927	1	you.](https://imgur.com	
2928	1	lagoon	
2929	1	http://imgur.com/xhy8v3s	
2930	1	used	
2931	1	https://www.reddit.com/r/fountainpens/comments/4oi8gw/new_pen_day/	
2932	1	15s	
2933	1	character	
2934	1	111	
2935	1	kuramae	
2936	1	vhs	
2937	1	counselor	
2938	1	yr	
2939	1	380	
2940	1	kickstarter	
2941	1	greens	
2942	1	www.thewritingdesk.co.uk	
2943	1	https://www.amazon.com/platinum-3776-century-bourgogne-nib/dp/b007r9z3uo	
2944	1	ahab](https://www.gouletpens.com	
2945	1	sincerity	
2946	1	250	
2947	1	experiments_in_mica_albumnovelofapost_in_comments/	
2948	1	shroud	
2949	1	example](http://imgur.com	
2950	1	nicer(materials	
2951	1	poe	
2952	1	sequoia	
2953	1	gt;now	
2954	1	unica	
2955	1	shui	
2956	1	@5	
2957	1	olive	
2958	1	con20	
2959	1	information	
2960	1	esties	
2961	1	blah	
2962	1	prob	
2963	1	here's](https://i.imgur.com	
2964	1	capsule	
2965	1	total	
2966	1	yessssss	
2967	1	https://fpquest.com/2013/08/20/my-first-pen-repairs/	
2968	1	20pages	
2969	1	coppery	
2970	1	what_is_a_grail_pen/	
2971	1	doohikey](https://www.amazon.com	
2972	1	guilloche](http://imgur.com	
2973	1	instant	
2974	1	bi	
2975	1	hoods	
2976	1	torpedo	
2977	1	agent	
2978	1	fog	
2979	1	flowers	
2980	1	purple-80ml	
2981	1	wampum-3oz	
2982	1	atramentis	
2983	1	budo-50ml	
2984	1	purple-50ml	
2985	1	lune-30ml	
2986	1	resort	
2987	1	steal	
2988	1	ss	
2989	1	celebration	
2990	1	marble	
2991	1	baoer-519-fountain	
2992	1	https://reddit.com/r/fountainpens/comments/5kg7pc/my_super_subjective_pens_of_the_year_2016/	
2993	1	platignum	
2994	1	paragon	
2995	1	wider	
2996	1	oyogen	
2997	1	sailor-10	
2998	1	bronze	
2999	1	here's](http://m.imgur.com	
3000	1	vaibhav	
3001	1	lt;sigh&gt	
3002	1	mabie	
3003	1	todd	
3004	1	-even	
3005	1	praha	
3006	1	diamineinks.co.uk	
3007	1	cypher	
3008	1	comparison](http://imgur.com	
3009	1	resource.](https://www.amazon.com	
3010	1	http://www.andersonpens.com	
3011	1	gt;i'm	
3012	1	styles	
3013	1	isnt	
3014	1	link](http://palmermethod.com/	
3015	1	pluginalong	
3016	1	hobonichi	
3017	1	comments/44yqch	
3018	1	bugger	
3019	1	fpaus/)?~~	
3020	1	jumbo	
3021	1	https://www.gouletpens.com/maruman-mnemosyne/c/365	
3022	1	capless	
3023	1	cranes	
3024	1	kina	
3025	1	eyedroppering	
3026	1	old	
3027	1	alkaline](http://www.richardspens.com/?care	
3028	1	vey	
3029	1	2001	
3030	1	https://www.youtube.com/watch?v=uzxkqlasvwy	
3031	1	models.](http://i.imgur.com	
3032	1	moores	
3033	1	transmission	
3034	1	party	
3035	1	http://connards.co.uk/product/retro-fountain-pen/	
3036	1	back.](http://imgur.com	
3037	1	kick	
3038	1	otoh	
3039	1	http://www.richardspens.com/index_m.html?page=ref/nibs/flex_italic.htm	
3040	1	http://www.colesoflondon.com	
3041	1	1](https://www.reddit.com	
3042	1	2](https://www.reddit.com	
3043	1	pen-1940s	
3044	1	flexible	
3045	1	ruler	
3046	1	right-	
3047	1	myurex	
3048	1	davefalcon	
3049	1	overlays	
3050	1	priority	
3051	1	sheesh	
3052	1	cursive	
3053	1	breath	
3054	1	irosh	
3055	1	muuuuch	
3056	1	ˈpräs(ə)ləˌtīz/	
3057	1	49	
3058	1	dylan	
3059	1	https://www.gouletpens.com/pen-plaza	
3060	1	store.](http://stores.ebay.com	
3061	1	http://www.chicagopenshow.com/	
3062	1	cloissone	
3063	1	toothpaste	
3064	1	shorter	
3065	1	lady	
3066	1	motion	
3067	1	www.purepens.co.uk	
3068	1	https://www.google.ca/search?q=waterman+laureat&amp;safe=off&amp;source=lnms&amp;tbm=isch&amp;sa=x	
3069	1	1917	
3070	1	cranberry	
3071	1	deals	
3072	1	in](http://www.tenso.com	
3073	1	nook](https://www.gouletpens.com	
3074	1	.3	
3075	1	ruby	
3076	1	instrument	
3077	1	450/750	
3078	1	http://www.thewritepen.net/index.html	
3079	1	14kt	
3080	1	5x5	
3081	1	rolex	
3082	1	5&amp;keywords	
3083	1	madison	
3084	1	kits	
3085	1	humidmark	
3086	1	ghosting	
3087	1	https://www.instagram.com/brianratti/?hl=en	
3088	1	kid	
3089	1	360	
3090	1	bones	
3091	1	counter	
3092	1	sincei	
3093	1	12kt	
3094	1	743	
3095	1	nib](http://fountainpenrevolution.com	
3096	1	naked	
3097	1	victorian	
3098	1	http://www.andys-pens.co.uk/varuna.shtml	
3099	1	http://imgur.com/neu7cnv	
3100	1	broad	
3101	1	modern	
3102	1	stroke	
3103	1	chemistry	
3104	1	falls	
3105	1	colors	
3106	1	accent	
3107	1	~$9	
3108	1	shakier	
3109	1	topic/215593	
3110	1	postable/	
3111	1	t51.2885	
3112	1	compatible.](http://reviews.shopwritersbloc.com	
3113	1	sciences	
3114	1	123stylo	
3115	1	razors	
3116	1	hacksaw	
3117	1	jigsaw	
3118	1	http://www.ebay.com/itm/252550032422	
3119	1	subramaniam	
3120	1	acquisition	
3121	1	engage	
3122	1	olivey	
3123	1	75/85	
3124	1	lisa	
3125	1	itm/122345865007?_trksid	
3126	1	stress	
3127	1	particle	
3128	1	castell	
3129	1	http://www.bertramsinkwell.com	
3130	1	superior	
3131	1	jade	
3132	1	http://www.photoscape.org/ps/main/help.php?id=whitebalance	
3133	1	amigo	
3134	1	gymothycharles	
3135	1	nonsense	
3136	1	desiderata	
3137	1	curve	
3138	1	https://www.gouletpens.com/apica-cd-5-pastel-lined-notebook/p/ap-cd5n	
3139	1	lance	
3140	1	christoph.com	
3141	1	spot	
3142	1	-flex	
3143	1	reasonable--	
3144	1	waay	
3145	1	x474862612	
3146	1	theory	
3147	1	fcwhsec	
3148	1	post.](https://www.reddit.com	
3149	1	izlben9c&amp;sh=7e975ffb	
3150	1	salt	
3151	1	comte	
3152	1	conglomerate	
3153	1	when_you_help_your_human_clean_a_fountain_pen_and/?st	
3154	1	amounts	
3155	1	https://www.amazon.com/gp/product/b00b3ol8rg/ref=oh_aui_detailpage_o00_s00?ie=utf8&amp;psc=1	
3156	1	nibgrinder	
3157	1	flare	
3158	1	clunky	
3159	1	~$120	
3160	1	penstagram	
3161	1	several	
3162	1	here](http://www.cultpens.com	
3163	1	hint	
3164	1	organic	
3165	1	remorse	
3166	1	e.g	
3167	1	https://munsonpens.wordpress.com/category/waltham-pens/	
3168	1	probably_your_wife	
3169	1	lawlzstomp	
3170	1	mchamp9	
3171	1	slower	
3172	1	adrenalin	
3173	1	http://i.imgur.com/gooj30z.jpg	
3174	1	basic	
3175	1	go!](https://www.reddit.com	
3176	1	kustoms	
3177	1	sinclair	
3178	1	top-7-shading	
3179	1	calepino	
3180	1	gear/1911	
3181	1	schimpf.de	
3182	1	flasks	
3183	1	index#wiki_vendors	
3184	1	burst	
3185	1	b.	
3186	1	wrong	
3187	1	match	
3188	1	genius](https://itunes.apple.com	
3189	1	alarm	
3190	1	bot](https://itunes.apple.com	
3191	1	616s	
3192	1	trips	
3193	1	quail	
3194	1	atoma	
3195	1	refillable	
3196	1	humidity	
3197	1	mold	
3198	1	burning	
3199	1	sounds	
3200	1	decimo	
3201	1	address	
3202	1	kyoto	
3203	1	bar	
3204	1	bundle	
3205	1	wa2u5	
3206	1	https://redd.it/5y1k68	
3207	1	einen	
3208	1	hack	
3209	1	angles	
3210	1	trait	
3211	1	gray	
3212	1	vellum	
3213	1	topic/274241-jinhao-500-yet	
3214	1	92](https://youtu.be/9smlpbtu74u	
3215	1	km	
3216	1	news	
3217	1	cut	
3218	1	tourist	
3219	1	poison	
3220	1	electricity	
3221	1	layer	
3222	1	br9sv_san0k/?taken	
3223	1	185	
3224	1	students	
3225	1	https://www.jetpens.com/search?q=pilot+plumix+fountain+pen+-+black+body+-+medium+italic+nib&amp;v=2	
3226	1	aaaah	
3227	1	50-$70	
3228	1	christoph](http://www.franklin	
3229	1	christoph.com/1	
3230	1	m-	
3231	1	cot	
3232	1	pen](http://i.imgur.com	
3233	1	a/2wkcp	
3234	1	here](http://www.ebay.com	
3235	1	cover	
3236	1	https://www.youtube.com/watch?v=tqufbcklqh8	
3237	1	industry	
3238	1	mentmore	
3239	1	a/7unlm	
3240	1	again(came	
3241	1	pens](https://imgur.com	
3242	1	guide](https://www.reddit.com	
3243	1	wisconsin	
3244	1	bogdanatwonderpens	
3245	1	canola	
3246	1	st	
3247	1	cyclamen	
3248	1	joy](http://www.lizsteel.com	
3249	1	hobby	
3250	1	penpals	
3251	1	correspondence	
3252	1	motorsports	
3253	1	742s	
3254	1	europeans	
3255	1	twsbis	
3256	1	roots	
3257	1	orrr	
3258	1	galactic](https://youtu.be/4wn_arkiwsm	
3259	1	comparison](https://www.gouletpens.com	
3260	1	goulet](https://www.gouletpens.com/	
3261	1	http://www.staples.com/cross-aventura-fountain-pen-black-chrome-at0156s-1ms-/product_821664	
3262	1	auctions/21041	
3263	1	5"1/4	
3264	1	wish	
3265	1	pens](https://blog.wonderpens.ca	
3266	1	pur	
3267	1	topic/307987-kwzi	
3268	1	charcoal	
3269	1	teller	
3270	1	slimfold	
3271	1	duragraph	
3272	1	bpvj37kud9cx.jpg	
3273	1	http://www.office-japan.com/store/index.php?main_page=contact_us	
3274	1	p-660-roll	
3275	1	comments/3j5p6t	
3276	1	aw	
3277	1	comments/185ees	
3278	1	palmer	
3279	1	shorthand	
3280	1	bookwormzombie	
3281	1	fantastic--	
3282	1	more](http://imgur.com	
3283	1	img_4158.jpg	
3284	1	person	
3285	1	justin	
3286	1	randomactsofcards	
3287	1	thousands	
3288	1	clarifontaine	
3289	1	www.peytonstreetpens.com	
3290	1	now](https://i.imgur.com	
3291	1	airplane	
3292	1	bog	
3293	1	rembrandt	
3294	1	premiere	
3295	1	part.~~	
3296	1	fp--	
3297	1	250+$	
3298	1	lint	
3299	1	doll	
3300	1	15-year	
3301	1	goddammit	
3302	1	3.5	
3303	1	pen"](http://www.handoverthatpen.com/	
3304	1	junk	
3305	1	.58	
3306	1	1/3	
3307	1	episodes	
3308	1	singgle	
3309	1	penmanship](https://www.iampeth.com	
3310	1	https://www.amazon.com/dp/b001p35a74/ref=cm_sw_r_cp_apa_ctxbzb8mr1a5a	
3311	1	purplish	
3312	1	fuyushogun	
3313	1	green/	
3314	1	doodling	
3315	1	uhhhhh	
3316	1	de	
3317	1	http://parkerpens.net/parker180.html	
3318	1	ant	
3319	1	time](https://www.reddit.com	
3320	1	https://www.reddit.com/r/fountainpens/comments/50nv2x/accidental_twsbi_etching/	
3321	1	this.](http://imgur.com	
3322	1	pipettes](http://www.ebay.com	
3323	1	fude](https://www.youtube.com	
3324	1	7.5	
3325	1	inks](http://imgur.com	
3326	1	evem	
3327	1	wahl	
3328	1	coz	
3329	1	duelf	
3330	1	ey	
3331	1	240	
3332	1	paint	
3333	1	voyager	
3334	1	chair	
3335	1	hearts	
3336	1	tardiff	
3337	1	pictires	
3338	1	congratz	
3339	1	packs	
3340	1	aliexpress	
3341	1	b?node=11096409011	
3342	1	http://www.ebay.com/itm/122454503095?_trksid=p2057872.m2749.l2649&amp;sspagename=strk%3amebidx%3ait	
3343	1	http://www.fpnibs.com/en/	
3344	1	azizah	
3345	1	e6000	
3346	1	again~~	
3347	1	ballpointers	
3348	1	nvm	
3349	1	ages	
3350	1	fermo	
3351	1	box](https://www.amazon.com	
3352	1	cone	
3353	1	lt;3	
3354	1	nooo	
3355	1	http://en.wikipedia.org/wiki/iron_gall_ink	
3356	1	favorites	
3357	1	orange	
3358	1	^may	
3359	1	antietam-3oz	
3360	1	padawan	
3361	1	worry	
3362	1	http://imgur.com/fnhtc81	
3363	1	leuchtturm1917-master	
3364	1	sheening/	
3365	1	vanness](http://vanness1938.com/	
3366	1	no-37-island	
3367	1	https://www.jetpens.com/smudgeguard-sg1-1-finger-glove-cool-black-medium/pd/13658	
3368	1	this](http://www.myperfectcolor.com	
3369	1	pelikano	
3370	1	1.5	
3371	1	daaaaaamn	
3372	1	48	
3373	1	grin	
3374	1	m(edium	
3375	1	above](https://www.reddit.com	
3376	1	size(#5	
3377	1	pack](https://www.gouletpens.com	
3378	1	pth	
3379	1	shops](http://estilofilos.blogspot.jp	
3380	1	slighter	
3381	1	forkner	
3382	1	shape	
3383	1	yamabudo	
3384	1	shimmertastic	
3385	1	515	
3386	1	257	
3387	1	https://www.youtube.com/watch?v=2aeahpwhmgc	
3388	1	bu4kzarbrja/?taken	
3389	1	viewer	
3390	1	followed](https://nopenintended.wordpress.com/2017/05/31	
3391	1	close](https://www.reddit.com	
3392	1	https://www.gouletpens.com/goulet-empty-ink-sample-vials/p/gp-10006	
3393	1	narwhal	
3394	1	pad](https://www.jetpens.com	
3395	1	dad	
3396	1	memories	
3397	1	fot	
3398	1	fleur	
3399	1	fp_3.jpg	
3400	1	enjoyable	
3401	1	ummm	
3402	1	http://twitter.com/penhabit	
3403	1	105	
3404	1	before](http://www.ebay.com	
3405	1	double	
3406	1	mens	
3407	1	artisan	
3408	1	1900	
3409	1	colourless	
3410	1	feathers	
3411	1	altho	
3412	1	sorokwa	
3413	1	there.](https://nibsmith.com/	
3414	1	denim-50ml	
3415	1	http://imgur.com/a/hkodq	
3416	1	nononsense](http://www.penhero.com	
3417	1	thing!but	
3418	1	indigo	
3419	1	go](https://www.jetpens.com	
3420	1	agotl	
3421	1	brésil](http://i.imgur.com	
3422	1	comte](https://www.lacouronneducomte.nl	
3423	1	main	
3424	1	paper](https://imgur.com	
3425	1	paypal	
3426	1	:)	
3427	1	http://www.fountainpenaddict.com/review-wing-sung-698/	
3428	1	臺北市大安區瑞安街208巷76號1樓	
3429	1	shin	
3430	1	albiet	
3431	1	t.	
3432	1	page](http://www.richardspens.com/?page	
3433	1	here](https://youtu.be	
3434	1	12th	
3435	1	http://www.richardspens.com/?page=ref/design/dip_less.htm	
3436	1	talent	
3437	1	grace	
3438	1	n	
3439	1	nurebairo	
3440	1	voting	
3441	1	guanghwamoon	
3442	1	asian	
3443	1	zippered	
3444	1	solvent	
3445	1	igevo	
3446	1	smal	
3447	1	prices	
3448	1	80-$150	
3449	1	y'	
3450	1	fill	
3451	1	fire	
3452	1	registrars-30ml	
3453	1	fortnum	
3454	1	martyr	
3455	1	de14d2bd	
3456	1	https://www.reddit.com/r/fountainpens/comments/6l8z7b/npd_twsbi_eco_xxf/	
3457	1	2.50	
3458	1	negative	
3459	1	up!](http://www.peneconomics.com	
3460	1	jungle	
3461	1	itm/20x-2ml	
3462	1	hahahah	
3463	1	staplebound	
3464	1	mishap	
3465	1	love	
3466	1	cartoon	
3467	1	cvs	
3468	1	25.00	
3469	1	103	
3470	1	csi	
3471	1	dot	
3472	1	wonder	
3473	1	otto	
3474	1	5.00	
3475	1	go](https://thepelikansperch.com/2016/04/20	
3476	1	9	
3477	1	11	
3478	1	bbb	
3479	1	sheen](https://imgur.com	
3480	1	zurich	
3481	1	med	
3482	1	llama	
3483	1	brand%3aclairefontaine	
3484	1	kokuyo](https://www.jetpens.com	
3485	1	8.5	
3486	1	one?](https://giphy.com	
3487	1	celemo	
3488	1	^^[creator](https://np.reddit.com	
3489	1	http://www.cabelas.com/product/mtm-case-guard-s-round-shotshell-boxes/733651.uts	
3490	1	goofy	
3491	1	ab40dfa5895d901a258fcc93f2c8ad6f.jpg	
3492	1	spiral	
3493	1	775	
3494	1	yooniper	
3495	1	tunnel	
3496	1	http://incompetech.com/graphpaper/trianglehex.html	
3497	1	https://www.thoughtco.com/bleach-and-ammonia-chemical-reaction-609280	
3498	1	kanadier	
3499	1	where	
3500	1	tier	
3501	1	d6	
3502	1	https://www.pencollectorsofamerica.com	
3503	1	pleasant	
3504	1	waaaaaay	
3505	1	http://stutler.cc/pens/murex/index.html	
3506	1	gorgeous	
3507	1	con-50	
3508	1	hp	
3509	1	:)))	
3510	1	deatramentis	
3511	1	you](http://www.fountainpenhospital.com	
3512	1	dgerson	
3513	1	temperature	
3514	1	microns	
3515	1	https://docs.google.com/forms/d/1vo8ncubmb1j1oggjifxpk1depltvuiwnmkan4t74ix8/viewanalytics	
3516	1	friendliness	
3517	1	show(my	
3518	1	configuration	
3519	1	mrmojorisingi	
3520	1	writink	
3521	1	fam	
3522	1	m90s	
3523	1	pond	
3524	1	smile	
3525	1	billberry	
3526	1	crikey	
3527	1	fin	
3528	1	andy	
3529	1	voilà	
3530	1	charlie	
3531	1	aspen	
3532	1	medici	
3533	1	same-50ml	
3534	1	shaffer	
3535	1	🤔	
3536	1	jetpens](https://www.jetpens.com	
3537	1	wyvern	
3538	1	malice	
3539	1	sidewriter	
3540	1	details	
3541	1	stormtrooper	
3542	1	klundtasaurs_inkcyclopedia_for_rfountainpens/	
3543	1	forensics	
3544	1	timing	
3545	1	aqua	
3546	1	me?~~	
3547	1	nt$	
3548	1	methinks	
3549	1	1962	
3550	1	quickly](http://imgur.com	
3551	1	chrap	
3552	1	post](https://janeblundellart.blogspot.com/2014/11	
3553	1	https://www.reddit.com/r/fountainpens/comments/5tgoyy/how_do_you_make_fountain_pen_ink_yourself/	
3554	1	micarta	
3555	1	a.m.%20hill%20new%20orleans%20pen&amp;f	
3556	1	http://imgur.com/a/4suuy	
3557	1	jeans	
3558	1	fpen	
3559	1	engg	
3560	1	mep	
3561	1	niiice	
3562	1	🤓	
3563	1	dropper	
3564	1	idiot_savant_tinker	
3565	1	too-	
3566	1	additional	
3567	1	somethings	
3568	1	joseph	
3569	1	maruzen	
3570	1	filmhax	
3571	1	watercolor	
3572	1	versions	
3573	1	http://penhabit.com/wp-content/uploads/2014/01/img_6105_resized.jpg	
3574	1	extra	
3575	1	topic/326229-zycc	
3576	1	dak_ink	
3577	1	sample.](https://imgur.com	
3578	1	ferro	
3579	1	http://kencrooker.com/igink/amp/	
3580	1	restorations	
3581	1	journaling	
3582	1	itm/5pcs	
3583	1	page)](http://www.vintagepens.com	
3584	1	evenings	
3585	1	vhweabryryox0uou7ngu_sailor%20jentle%20yama	
3586	1	battle	
3587	1	floydandpink	
3588	1	perko	
3589	1	and-4-cloudy	
3590	1	here's](https://imgur.com	
3591	1	gallery.aspx?body	
3592	1	css	
3593	1	tool](https://www.gouletpens.com	
3594	1	infra	
3595	1	-.-	
3596	1	lot！and	
3597	1	pentuner	
3598	1	maine	
3599	1	rn(plus	
3600	1	release	
3601	1	j'habite	
3602	1	claw	
3603	1	yeaj	
3604	1	https://youtu.be/tnckmia6oso	
3605	1	slew	
3606	1	gents	
3607	1	saliva	
3608	1	sheets	
3609	1	https://www.amazon.com/dp/b006cqt87w/ref=cm_sw_r_cp_apa_v2dvzbjvtcmme	
3610	1	italic](https://imgur.com	
3611	1	comps	
3612	1	ross	
3613	1	http://www.vintagepen.net/	
3614	1	sub](https://www.reddit.com	
3615	1	large	
3616	1	hairline	
3617	1	flexy	
3618	1	sanford	
3619	1	strokes	
3620	1	qualities	
3621	1	dreamtouch	
3622	1	6-packs	
3623	1	https://i.imgur.com/vvu5jp2.jpg	
3624	1	snap](https://imgur.com	
3625	1	pa1wg4d	
3626	1	brainfart	
3627	1	11.50	
3628	1	dollars](https://global.rakuten.com	
3629	1	bulk	
3630	1	accident	
3631	1	gap	
3632	1	midwest	
3633	1	http://cdn-tp1.mozu.com/6639-m1/cms/files/75b60060-c32e-4387-8a23-ec0961efbfa7	
3634	1	1k	
3635	1	estienibs.htm	
3636	1	cd11	
3637	1	fine-0	
3638	1	notebooks-1-subject	
3639	1	waaaaay	
3640	1	backheavy	
3641	1	out](https://www.gouletpens.com	
3642	1	pick	
3643	1	d	
3644	1	man~~	
3645	1	https://i.imgur.com/21efjlv.jpg~~	
3646	1	lt;/cynicism&gt	
3647	1	hao	
3648	1	daniel	
3649	1	scale	
3650	1	phone	
3651	1	possibility	
3652	1	hippo	
3653	1	stiloestile2004?_trksid	
3654	1	tingo	
3655	1	milk	
3656	1	is](https://imgur.com	
3657	1	https://www.gouletpens.com/leuchtturm1917-medium-a5-notebook-nordic-blue-dot-grid/p/lt-354586	
3658	1	http://www.emptybooksberlin.com/fotoalbum.html	
3659	1	metric_units&amp;subject	
3660	1	needlepoint	
3661	1	share	
3662	1	niiiice	
3663	1	venice	
3664	1	light](https://static1.squarespace.com	
3665	1	kryptikguy	
3666	1	lt;.&lt	
3667	1	education	
3668	1	220	
3669	1	https://www.youtube.com/watch?v=1ggxzspp0j0	
3670	1	cuz	
3671	1	fillers	
3672	1	https://fr.wikipedia.org/wiki/plume_sergent-major	
3673	1	spinning	
3674	1	aircorp	
3675	1	http://www.gourmetpens.com/2014/09/two-tines-three-tines-symphony-of-music.html#.vdvkqfnf_pc	
3676	1	blog/2017/10	
3677	1	https://www.instagram.com/p.t.balan/more	
3678	1	nope	
3679	1	ksneedlework	
3680	1	round	
3681	1	fdm	
3682	1	https://www.pentuner.com/about/#widths	
3683	1	ajisai	
3684	1	technically	
3685	1	frame	
3686	1	pixels	
3687	1	features	
3688	1	http://www.monteverdepens.com/diva-lipstick-pen.html	
3689	1	satan	
3690	1	comments](https://np.reddit.com	
3691	1	wholesome	
3692	1	account	
3693	1	tension	
3694	1	darkness	
3695	1	oooo	
3696	1	91	
3697	1	"nope	
3698	1	hoewver	
3699	1	week](https://www.reddit.com	
3700	1	goodluck	
3701	1	fpg	
3702	1	~1.2	
3703	1	scabiosa](https://dl.airtable.com	
3704	1	leuchtturm1917	
3705	1	calendar	
3706	1	506x.	
3707	1	duster	
3708	1	https://frankunderwater.com/	
3709	1	https://thebai.taobao.com/shop/view_shop.htm	
3710	1	not	
3711	1	sheeley	
3712	1	datation	
3713	1	group	
3714	1	starvation	
3715	1	stage	
3716	1	checkers512	
3717	1	oak](https://dl.airtable.com	
3718	1	stick	
3719	1	camscanner	
3720	1	soooo	
3721	1	polar	
3722	1	brown-3oz	
3723	1	juuuust	
3724	1	asia	
3725	1	shanghai	
3726	1	moxie	
3727	1	×	
3728	1	give	
3729	1	nauka	
3730	1	orange](http://asapens.in	
3731	1	fah	
3732	1	hommage	
3733	1	c/298	
3734	1	ah	
3735	1	abso	
3736	1	narrower	
3737	1	post](https://www.penaddict.com	
3738	1	teaching	
3739	1	mention	
3740	1	works(https://www.instagram.com	
3741	1	angeles	
3742	1	midway	
3743	1	100gsm	
3744	1	jp	
3745	1	ackerman	
3746	1	reporters	
3747	1	sans	
3748	1	a/000/037/37658.jpg?mark64	
3749	1	acrylic](https://mehandiratta.files.wordpress.com/2015/03	
3750	1	dubay	
3751	1	vibrant	
3752	1	jobe	
3753	1	659	
3754	1	investmen	
3755	1	ceruleanesk	
3756	1	comments/7ilkd6	
3757	1	2668	
3758	1	argh	
3759	1	rip	
3760	1	periwinkle	
3761	1	to.](https://i.imgur.com	
3762	1	caliarts	
3763	1	threshold	
3764	1	overall_size%3aa5	
3765	1	post-72614	
3766	1	floris2707	
3767	1	1029	
3768	1	gooey	
3769	1	1911l	
3770	1	http%253a%252f%252frover.ebay.com%252frover%252f1%252f711	
3771	1	expert	
3772	1	stubs](https://imgur.com	
3773	1	review](https://www.penaddict.com	
3774	1	rome	
3775	1	ol'	
3776	1	sheaffer_vs_eagle_3pens900a.jpg	
3777	1	spill	
3778	1	yaumati	
3779	1	1008	
3780	1	nib](http://www.beaufortink.co.uk	
3781	1	bocksize5.html	
3782	1	kurikawa	
3783	1	sample/281880651830?sspagename	
3784	1	onimward	
3785	1	forum](http://www.fountainpennetwork.com	
3786	1	macro	
3787	1	210	
3788	1	0127	
3789	1	comments/7jzc3z/12_bottles_of_noodlers_black_ink_on_the_wall_12/	
3790	1	ish	
3791	1	stand	
3792	1	quid	
3793	1	comparison	
3794	1	government	
3795	1	classics	
3796	1	ebonite	
3797	1	model-5	
3798	1	supreme](http://asapens.in	
3799	1	supreme	
3800	1	sniper	
3801	1	5](https://www.nibs.com	
3802	1	fountainpenner	
3803	1	only$5	
3804	1	http://www.fountainpennetwork.com/forum/index.php/topic/209494-sepia-toned-ink-comparison-32-inks	
3805	1	birdie	
3806	1	https://www.youtube.com/watch?v=at0zf0fdnso	
3807	1	eval	
3808	1	up	
3809	1	danilo_dk	
3810	1	bunch	
3811	1	sux	
3812	1	game	
3813	1	marietta	
3814	1	p51s	
3815	1	market](https://www.amazon.com	
3816	1	vinci	
3817	1	margot	
3818	1	ontario	
3819	1	together](https://i2.wp.com	
3820	1	facebook	
3821	1	i/71ercckvkql._sl1500_.jpg	
3822	1	dark	
3823	1	package](https://www.ebay.com	
3824	1	yeah	
3825	1	https://www.cvs.com/shop/cvs-health-children-s-easy-syringe-prodid-916633?skuid=916633	
3826	1	delike	
3827	1	architeckt	
3828	1	fahrneys	
3829	1	penmanshiporn	
3830	1	drawings	
3831	1	wrench	
3832	1	http://www.fountainpennetwork.com/forum/topic/302368-344-the-humble-montblanc/	
3833	1	pirat	
3834	1	eraser	
3835	1	742	
3836	1	viagra	
3837	1	http://www.fountainpennetwork.com/forum/forum/30-sheaffer/	
3838	1	stiffer	
3839	1	pouch	
3840	1	answer	
3841	1	fpfan	
3842	1	jake__from_statefarm	
3843	1	led	
3844	1	one](https://www.picclickimg.com	
3845	1	yeees	
3846	1	nibs](http://richardspens.com/?page	
3847	1	skin	
3848	1	lavender	
3849	1	matts.](https://np.reddit.com	
3850	1	cp1	
3851	1	organizer](https://www.amazon.com	
3852	1	waaaaaaaaaaaaaaaaaay	
3853	1	yards	
3854	1	c.	
3855	1	350ml	
3856	1	p4wh6t4	
3857	1	brown10	
3858	1	fine](https://i.imgur.com	
3859	1	city	
3860	1	m805s	
3861	1	5ml	
3862	1	worksheets](http://www.k5learning.com	
3863	1	perth	
3864	1	replace	
3865	1	conid	
3866	1	graf	
3867	1	wmvilb_m0y4&amp;t=2m29s	
3868	1	micro	
3869	1	pricier	
3870	1	soooooo	
3871	1	1952	
3872	1	size](https://imgur.com	
3873	1	headphones	
3874	1	https://www.buitendelijntjesshop.com/c-3601344/tomoe-river-paper/	
3875	1	here.](https://m.youtube.com	
3876	1	variant](https://www.pelikan	
3877	1	revised	
3878	1	ayyy	
3879	1	ws	
3880	1	washable	
3881	1	daaaaayum	
3882	1	veeeery	
3883	1	dache-849-fountain	
3884	1	this?](https://www.reddit.com	
3885	1	00668	
3886	1	gt;by	
3887	1	ronda	
3888	1	348	
3889	1	advocate	
3890	1	kakuno	
3891	1	vacumatics](https://imgur.com	
3892	1	trio	
3893	1	בהצלחה	
3894	1	replacement	
3895	1	prety	
3896	1	www.birminghampens.com	
3897	1	twisbi	
3898	1	arabic	
3899	1	https://i.imgur.com/tgu4eaw.jpg	
3900	1	aggie	
3901	1	https://imgur.com/ymz9qgt	
3902	1	closes	
3903	1	pricewise	
3904	1	1960	
3905	1	140	
3906	1	sheafferimperialsearly.htm	
3907	1	oob	
3908	1	koofle	
3909	1	309	
3910	1	green-3oz	
3911	1	ink-3oz	
3912	1	username	
3913	1	longterm	
3914	1	to.me	
3915	1	https://blog.gouletpens.com/2017/06/fountain-pen-nib-size-overview	
3916	1	mmh	
3917	1	vac-700	
3918	1	wellington	
3919	1	adventure	
3920	1	triplet	
3921	1	20x	
3922	1	nook	
3923	1	bump	
3924	1	tinker	
3925	1	videos	
3926	1	https://www.amazon.de/gp/aw/d/b00s66eyne/ref=ox_sc_saved_image_5?smid=aeks62zghs8ri&amp;psc=1	
3927	1	°	
3928	1	https://youtu.be/ioq3odipi6o	
3929	1	507	
3930	1	mahogany	
3931	1	https://imgur.com/gallery/tvoab	
3932	1	http://www.pendemonium.com/dippennibs.htm#fh	
3933	1	https://www.jetpens.com/rhodia-pad-no.-10-2-x-2.9-lined-black/pd/4106	
3934	1	nit	
3935	1	uuuhghdgjkfhg	
3936	1	u/_alisaki	
3937	1	handoverthatpen.com	
3938	1	beaufort	
3939	1	fisher	
3940	1	usd](https://global.rakuten.com	
3941	1	item/38693/	
3942	1	1m.	
3943	1	napsforlife	
3944	1	mean	
3945	1	now:-	
3946	1	12757	
3947	1	unfoundedplanetman	
3948	1	payday	
3949	1	.01	
3950	1	feelsgoodman	
3951	1	15~20	
3952	1	closely](http://kencrooker.com	
3953	1	lock	
3954	1	20th	
3955	1	shallow	
3956	1	😢	
3957	1	bangkok	
3958	1	language	
3959	1	pic](https://imgur.com	
3960	1	djfszvw	
3961	1	secondhand	
3962	1	268	
3963	1	updated	
3964	1	baystates	
3965	1	tweak	
3966	1	seremo	
3967	1	3-fkmr0&amp;keywords	
3968	1	wishes	
3969	1	vac700r	
3970	1	mountain	
3971	1	bingo	
3972	1	jeffraffe	
3973	1	2.97	
3974	1	sheens	
3975	1	strk%3amebidx%3ait&amp;var=582289154581&amp;_trksid	
3976	1	1500	
3977	1	171	
3978	1	workhorse	
3979	1	industrialisation	
3980	1	plastic)-	
3981	1	tournon	
3982	1	terms	
3983	1	labour	
3984	1	ten	
3985	1	weeeks	
3986	1	observations	
3987	1	visibility	
3988	1	gt;worse	
3989	1	shot](https://imgur.com	
3990	1	drlilviv	
3991	1	be8zcfwnsom/	
3992	1	signo	
3993	1	https://www.jetpens.com/blog/fountain-pen-inks/ct/71	
3994	1	berryweaver	
3995	1	bungubako	
3996	1	vol.11	
3997	1	streetfair	
3998	1	yramagicman	
3999	1	ingenieur*in	
4000	1	typography	
4001	1	601	
4002	1	kahakai](http://penhabit.com	
4003	1	ego	
4004	1	mesh-3-x-4-finishing	
4005	1	https://www.parkerpens.net/parker25.html	
4006	1	books	
4007	1	result	
4008	1	samwise	
4009	1	dis	
4010	1	teacher	
4011	1	fci	
4012	1	1](https://i.imgur.com	
4013	1	3](https://i.imgur.com	
4014	1	boyfriend	
4015	1	1670	
4016	1	thinkthursday	
4017	1	black/	
4018	1	pssssst	
4019	1	charoite-90ml	
4020	1	gosh	
4021	1	metropolitan&lt;f&gt	
4022	1	geauxbulldogs	
4023	1	https://global.rakuten.com/en/store/penroom/item/38693/	
4024	1	650	
4025	1	699	
4026	1	1300	
4027	1	gnejf	
4028	1	album](https://imgur.com	
4029	1	slime	
4030	1	walker	
4031	1	612a-728	
4032	1	patterns	
4033	1	well.html	
4034	1	berg	
4035	1	buts	
4036	1	rublev	
4037	1	really	
4038	1	diaphragm	
4039	1	ahhhh	
4040	1	a/000/090/90554.jpg?mark64	
4041	1	laban	
4042	1	😃	
4043	1	hey	
4044	1	88s	
4045	1	真っ直ぐ(massugu	
4046	1	straightforward	
4047	1	this](https://www.amazon.com	
4048	1	downvote	
4049	1	imperial%20and%20triumph	
4050	1	mathurins	
4051	1	lol](https://www.ebay.com	
4052	1	l2k.	
4053	1	️	
4054	1	portofino	
4055	1	bauhaus	
4056	1	therekanbonly1	
4057	1	clearance	
4058	1	milords	
4059	1	one](http://blog.andersonpens.com	
4060	1	colorwise	
4061	1	gator	
4062	1	dealer	
4063	1	aluminium	
4064	1	x.	
4065	1	/day	
4066	1	yessss	
4067	1	averillfwk	
4068	1	widths	
4069	1	brace	
4070	1	stoopid	
4071	1	gt;well	
4072	1	http://m.ebay.com/sch/wgpenco/m.html	
4073	1	face	
4074	1	8th	
4075	1	9th	
4076	1	4th	
4077	1	https://www.nibs.com/pens/platinum/platinum-celluloid-tortoise	
4078	1	pen](https://www.vulpennen.nl	
4079	1	undeterred	
4080	1	reflex	
4081	1	tabletop	
4082	1	sign	
4083	1	🙃	
4084	1	carpentry	
4085	1	haujffh.jpg	
4086	1	fabriano	
4087	1	master	
4088	1	parker/	
4089	1	using	
4090	1	nock	
4091	1	https://www.jetpens.com/lihit-lab-smart-fit-cover-notebook-a5-olive/pd/18341	
4092	1	56	
4093	1	chief	
4094	1	nib](https://imgur.com/1ceghet	
4095	1	aligned](https://imgur.com	
4096	1	afaict	
4097	1	k.	
4098	1	tsk	
4099	1	10(i	
4100	1	feb	
4101	1	more.](https://imgur.com	
4102	1	saddlebrown	
4103	1	before\	
4104	1	any\	
4105	1	nib!](https://gyazo.com	
4106	1	https://www.gouletpens.com/package-notebooksampler/p/package-notebooksampler	
4107	1	durr	
4108	1	ink](https://www.gouletpens.com	
4109	1	dood	
4110	1	jetpens.com](https://jetpens.com	
4111	1	https://www.amazon.com/dp/b017nef8aw	
4112	1	blog	
4113	1	theye	
4114	1	jinhaos	
4115	1	customize	
4116	1	profile	
4117	1	broseph	
4118	1	blackstone	
4119	1	brisbane	
4120	1	excl	
4121	1	4387-ad7d	
4122	1	mall	
4123	1	filters	
4124	1	https://imgur.com/a/zsc9jao	
4125	1	https://i.imgur.com/ybfyaht.jpg	
4126	1	encounter	
4127	1	ph	
4128	1	offhand	
4129	1	body/	
4130	1	fuck	
4131	1	wts_b_pelikan_m800_discontinued_red_stripe_with/	
4132	1	envelopes	
4133	1	beauty	
4134	1	vadis	
4135	1	ideas	
4136	1	doc	
4137	1	bottles](https://smile.amazon.com	
4138	1	verrry	
4139	1	townsend	
4140	1	seyes	
4141	1	unit](https://www.ikea.com	
4142	1	nov	
4143	1	samples](https://imgur.com	
4144	1	parenthetical	
4145	1	oleum	
4146	1	gently	
4147	1	gt;am	
4148	1	https://imgur.com/a/vlhafxi	
4149	1	xfountainpens	
4150	1	live	
4151	1	fude	
4152	1	preserver	
4153	1	256	
4154	1	bam	
4155	1	https://pattern-collections.com/index.php/patterns-by-framework/.	
4156	1	donut	
4157	1	bitching	
4158	1	amethyst	
4159	1	moonlight	
4160	1	1:9	
4161	1	fl	
4162	1	florida	
4163	1	https://www.ebay.com/usr/office_supplies_pen	
4164	1	daily	
4165	1	salsa	
4166	1	frdiay	
4167	1	https://old.reddit.com/r/fountainpens	
4168	1	title	
4169	1	topic/335955-new	
4170	1	6359	
4171	1	626	
4172	1	sj	
4173	1	18th	
4174	1	calc	
4175	1	https://www.jetpens.com/global-art-pencil-case-canvas-48-pencil-capacity-oli	
4176	1	https://www.jetpens.com/kokuyo-c2-tray-type-pencil-case-khaki-green-yellow/pd/4810	
4177	1	https://www.jetpens.com/lihit-lab-teffa-pen-case-book-style-yellow-green/pd/7668	
4178	1	physics	
4179	1	ujh	
4180	1	buying_ink_samples_in_europe/	
4181	1	monster	
4182	1	ooooo	
4183	1	macgyver	
4184	1	torture--	
4185	1	global.com	
4186	1	picture](https://imgur.com	
4187	1	fuji	
4188	1	fit	
4189	1	drunk	
4190	1	2017	
4191	1	navy	
4192	1	presense	
4193	1	metallic	
4194	1	gt;anyhow	
4195	1	gut	
4196	1	680	
4197	1	ago.](https://i.imgur.com	
4198	1	retailer	
4199	1	by	
4200	1	jespers	
4201	1	bristle	
4202	1	uhoh	
4203	1	classy	
4204	1	markup	
4205	1	advertisements.com	
4206	1	uploads/2/1/8/4/21844100	
4207	1	https://www.gouletpens.com/collections/jinhao](https://www.gouletpens.com/collections/jinhao	
4208	1	^fuckmylar	
4209	1	straighter	
4210	1	https://www.cultpens.com/c/q/brands/atoma](https://www.cultpens.com/c/q/brands/atoma	
4211	1	mornings	
4212	1	aim	
4213	1	permenant	
4214	1	colorado	
4215	1	tigers	
4216	1	necessitates	
4217	1	screws	
4218	1	gt;have	
4219	1	10/10	
4220	1	noodle	
4221	1	comments/8fjw22/_/	
4222	1	jeweled	
4223	1	opus	
4224	1	http://bung-box.com/products/detail2146.html	
4225	1	converters	
4226	1	/ml	
4227	1	https://www.gouletpens.com/products/lamy-vibrantpink-50ml-bottled-ink?variant=11884712984619	
4228	1	aaaahahaha	
4229	1	cardioid	
4230	1	http://www.richardspens.com/?page=ref/misc/chroma.htm	
4231	1	deckle	
4232	1	$4.95	
4233	1	sora	
4234	1	vector	
4235	1	1:1	
4236	1	precision	
4237	1	baikoucha	
4238	1	tune	
4239	1	soo	
4240	1	fpnibs.com](https://www.fpnibs.com	
4241	1	spanish	
4242	1	exclusive](https://global.rakuten.com	
4243	1	~~print	
4244	1	event	
4245	1	fuchsin	
4246	1	nahco	
4247	1	with](https://www.reddit.com	
4248	1	kingsize	
4249	1	vase	
4250	1	anyone_know_an_easy_way_to_remove_rust_from_the/	
4251	1	scrub	
4252	1	img_7658.jpg	
4253	1	way](https://i.pinimg.com	
4254	1	forgiving	
4255	1	toll	
4256	1	aht	
4257	1	ci	
4258	1	ob	
4259	1	customizations	
4260	1	jessica	
4261	1	http://imgur.com/gallery/jyh0lft	
4262	1	nibmeister	
4263	1	addict	
4264	1	em2e9etw	
4265	1	69	
4266	1	park	
4267	1	yorks	
4268	1	flow](https://www.youtube.com	
4269	1	bromfields	
4270	1	bacon	
4271	1	pros	
4272	1	kanwrite	
4273	1	tail	
4274	1	kaigelu	
4275	1	😮	
4276	1	t**ask	
4277	1	house](https://global.rakuten.com	
4278	1	12-year	
4279	1	products/8830/43163	
4280	1	stylist	
4281	1	text	
4282	1	350ish	
4283	1	dear	
4284	1	studios	
4285	1	inks](http://noodlersink.com	
4286	1	travel	
4287	1	fml	
4288	1	hahahaha	
4289	1	facts	
4290	1	myu	
4291	1	nib](https://fountainpenlove.com	
4292	1	our	
4293	1	restoration	
4294	1	pd	
4295	1	garth	
4296	1	b00135jvkq	
4297	1	https://www.amazon.com/fountain-transparent-capacity-signature-business/dp/b07d66w29z	
4298	1	91s	
4299	1	seiko	
4300	1	short	
4301	1	zero	
4302	1	post](https://7hedaniel.wordpress.com/2018/08/13	
4303	1	child	
4304	1	klara	
4305	1	weird	
4306	1	bihn	
4307	1	glassy	
4308	1	jsubculture	
4309	1	n00by	
4310	1	http://commonwealthpenshow.com	
4311	1	kryptik	
4312	1	kon	
4313	1	ashireno	
4314	1	https://youtube.com/watch?v=jpxvgfh9e6a	
4315	1	medium&gt;platinum	
4316	1	montblancs	
4317	1	journey	
4318	1	magnum	
4319	1	pghwzmvfingjwu	
4320	1	https://www.jetpens.com/blog/the-best-waterproof-fountain-pen-inks/pt/829	
4321	1	closed](https://orig00.deviantart.net/20e9	
4322	1	f71_custom_combo_open_crop_by_voidelemental	
4323	1	longer	
4324	1	144	
4325	1	hyper	
4326	1	minuscule	
4327	1	hm	
4328	1	2.4	
4329	1	toyota	
4330	1	sides	
4331	1	manufacturing	
4332	1	photography	
4333	1	soapy	
4334	1	s4	
4335	1	yamazaki	
4336	1	brah	
4337	1	thou	
4338	1	boheme	
4339	1	writers	
4340	1	https://janeblundellart.blogspot.com/2014/11/mixing-document-inks.html	
4341	1	maki	
4342	1	https://appelboom.com/visconti-dreamtouch-pen-pouch-triple/	
4343	1	https://www.levenger.com/pens-refills-8/pen-cases-stands-92/bomber-jacket-pen-wrap-5906.aspx	
4344	1	show](https://fountainpenlove.com	
4345	1	bot	
4346	1	https://www.amazon.com/parker-quink-fountain-refill-cartridges/dp/b0012317f6	
4347	1	patent	
4348	1	its_kuri	
4349	1	zeroneuro	
4350	1	pluminix	
4351	1	wandlco	
4352	1	murasame	
4353	1	oto	
4354	1	hisoku	
4355	1	lad	
4356	1	almamater	
4357	1	ahahah	
4358	1	consumer	
4359	1	seller	
4360	1	grind	
4361	1	c823	
4362	1	0121	
4363	1	viv	
4364	1	pelikan/94-pelikan	
4365	1	serenity	
4366	1	topic/324383-what	
4367	1	poposting	
4368	1	counterpoint	
4369	1	circumference	
4370	1	gallery	
4371	1	pentagon	
4372	1	convenient	
4373	1	spain	
4374	1	variation	
4375	1	1](https://www.amazon.ca	
4376	1	gt;length	
4377	1	oof	
4378	1	noblesse	
4379	1	valthero	
4380	1	years_ago_i_took_a_pen_turning_lesson_at_a/	
4381	1	wrist	
4382	1	oranges	
4383	1	picture	
4384	1	）	
4385	1	excellence	
4386	1	mission	
4387	1	comments/9hddbh	
4388	1	my_lamy_safaris_5th_bday_5_years_of_abuse/	
4389	1	alpinecurve	
4390	1	uploads/2017/03	
4391	1	alchohol	
4392	1	847a	
4393	1	whaaaaaat	
4394	1	editions	
4395	1	sku	
4396	1	roller	
4397	1	interested.](https://www.reddit.com	
4398	1	penwise	
4399	1	neither	
4400	1	define	
4401	1	cardboard	
4402	1	lust	
4403	1	https://www.penheaven.co.uk/blog/parker-sonnet-fountain-pen-nib-size-comparison/	
4404	1	cmon	
4405	1	https://imgur.com/a/prz0ktw	
4406	1	switzerland	
4407	1	4ml	
4408	1	bandit	
4409	1	mannen	
4410	1	b06w9kqxq5	
4411	1	year+	
4412	1	https://thumbs.gfycat.com/unacceptableposhcub-size_restricted.gif	
4413	1	https://www.whsmith.co.uk/products/whsmith-matt-chrome-fountain-pen-blue-ink/33155951	
4414	1	drag	
4415	1	chill	
4416	1	runningstitch	
4417	1	yzbriap.jpg	
4418	1	https://imgur.com/gallery/datbece	
4419	1	looseleaf	
4420	1	dealbreaker	
4421	1	haibao	
4422	1	https://www.nibs.com/pens/platinum/platinum-century-black-diamond	
4423	1	recommendations](https://thepelikansperch.com/2014/11/22	
4424	1	aesthetics	
4425	1	slightly	
4426	1	ahhhhhhh	
4427	1	finally_found_an_australian_substitute_for_goulet/	
4428	1	https://archive.org/details/palmermethod1935/page/n0	
4429	1	casein	
4430	1	alkaline	
4431	1	beam	
4432	1	makrolon	
4433	1	trump	
4434	1	bloomberg	
4435	1	trade	
4436	1	articles/2018	
4437	1	postal	
4438	1	ferrari	
4439	1	credit	
4440	1	🏻	
4441	1	progear	
4442	1	from](https://www.amazon.com	
4443	1	dominus	
4444	1	nibs](https://rover.ebay.com	
4445	1	charoite	
4446	1	noble	
4447	1	fahrenheit	
4448	1	lotte	
4449	1	sorta	
4450	1	maaan	
4451	1	paris	
4452	1	gt;2.where	
