#Word types: 2423
#Word tokens: 13227
#Search results: 0
1	599	made	
2	354	used	
3	234	inked	
4	213	called	
5	202	using	
6	153	left	
7	149	based	
8	148	is	
9	142	get	
10	132	filled	
11	124	going	
12	121	coming	
13	112	write	
14	111	be	
15	107	buy	
16	107	looking	
17	105	written	
18	101	writing	
19	93	being	
20	89	set	
21	89	sold	
22	83	are	
23	82	sitting	
24	81	have	
25	79	make	
26	76	known	
27	74	done	
28	73	use	
29	71	named	
30	68	trying	
31	66	getting	
32	66	making	
33	63	saying	
34	61	required	
35	60	shipped	
36	60	designed	
37	59	needed	
38	59	posted	
39	57	doing	
40	56	involved	
41	56	listed	
42	55	showing	
43	54	asking	
44	54	's	
45	53	attached	
46	50	produced	
47	48	try	
48	48	put	
49	48	selling	
50	46	given	
51	44	was	
52	44	working	
53	43	having	
54	43	filling	
55	41	do	
56	41	keep	
57	40	built	
58	40	see	
59	40	starting	
60	40	finding	
61	40	buying	
62	40	running	
63	39	found	
64	39	taking	
65	38	associated	
66	38	go	
67	37	depending	
68	35	mentioned	
69	35	find	
70	35	wondering	
71	34	keeping	
72	34	combined	
73	34	lying	
74	30	spent	
75	29	taken	
76	28	provided	
77	28	created	
78	28	take	
79	28	meant	
80	27	holding	
81	27	tuned	
82	27	printed	
83	26	dedicated	
84	25	shown	
85	24	mixed	
86	24	damaged	
87	23	related	
88	23	talking	
89	23	pictured	
90	23	seen	
91	23	shaped	
92	23	floating	
93	23	offered	
94	23	containing	
95	23	compared	
96	23	giving	
97	22	loaded	
98	22	look	
99	22	held	
100	22	included	
101	21	ranging	
102	21	post	
103	21	thinking	
104	20	stuck	
105	20	laying	
106	20	missing	
107	20	explaining	
108	20	living	
109	19	intended	
110	19	carrying	
111	19	posting	
112	19	purchased	
113	19	restored	
114	19	seeing	
115	19	clean	
116	19	sent	
117	19	released	
118	18	plated	
119	18	changing	
120	18	come	
121	18	feel	
122	18	spend	
123	18	considering	
124	18	change	
125	18	requiring	
126	18	engraved	
127	17	wanting	
128	17	create	
129	17	removed	
130	17	wrapped	
131	17	manufactured	
132	17	ask	
133	17	wearing	
134	17	followed	
135	17	has	
136	17	leaking	
137	16	waiting	
138	16	putting	
139	16	stolen	
140	16	show	
141	16	check	
142	16	caused	
143	16	featuring	
144	16	inspired	
145	15	marked	
146	15	covered	
147	15	fix	
148	15	priced	
149	15	run	
150	15	like	
151	14	added	
152	14	owned	
153	14	give	
154	14	imported	
155	14	hold	
156	14	lost	
157	13	facing	
158	13	involving	
159	13	flex	
160	13	causing	
161	13	prevent	
162	13	remove	
163	13	pushing	
164	13	want	
165	13	add	
166	13	asked	
167	13	bring	
168	13	cut	
169	13	handed	
170	13	listing	
171	12	reading	
172	12	fill	
173	12	installed	
174	12	got	
175	12	'm	
176	12	broken	
177	12	last	
178	12	justify	
179	12	bought	
180	12	read	
181	12	leading	
182	12	offering	
183	12	located	
184	12	picking	
185	11	breaking	
186	11	test	
187	11	pick	
188	11	delivered	
189	11	complaining	
190	11	cleaning	
191	11	're	
192	11	ruined	
193	11	refill	
194	11	stating	
195	11	saved	
196	11	playing	
197	11	tuning	
198	11	own	
199	11	marketed	
200	11	standing	
201	11	know	
202	11	recommended	
203	10	replace	
204	10	mentioning	
205	10	looks	
206	10	costing	
207	10	learn	
208	10	surrounding	
209	10	start	
210	10	were	
211	10	call	
212	10	flush	
213	10	save	
214	10	supplied	
215	10	walking	
216	10	producing	
217	10	say	
218	10	achieve	
219	10	expecting	
220	10	sized	
221	10	pull	
222	10	assuming	
223	10	trapped	
224	10	stopping	
225	10	comparing	
226	10	hidden	
227	9	caught	
228	9	share	
229	9	need	
230	9	move	
231	9	falling	
232	9	purchase	
233	9	turning	
234	9	understanding	
235	9	bringing	
236	9	throw	
237	9	visit	
238	9	pulling	
239	9	dealing	
240	9	speaking	
241	9	send	
242	9	leave	
243	9	damage	
244	9	calling	
245	9	fit	
246	9	drawn	
247	9	sell	
248	9	formed	
249	9	work	
250	9	match	
251	9	makes	
252	9	suspended	
253	9	nibbed	
254	9	sharing	
255	9	ink	
256	9	identifying	
257	9	disassemble	
258	9	hanging	
259	8	upgrade	
260	8	raised	
261	8	growing	
262	8	borrowing	
263	8	supposed	
264	8	pay	
265	8	tested	
266	8	allowing	
267	8	checking	
268	8	preventing	
269	8	thrown	
270	8	coupled	
271	8	ordering	
272	8	had	
273	8	featured	
274	8	order	
275	8	trim	
276	8	support	
277	8	flying	
278	8	carry	
279	8	sticking	
280	8	discussing	
281	8	applied	
282	8	fitted	
283	8	consider	
284	8	let	
285	8	knowing	
286	8	avoid	
287	8	replaced	
288	8	introduced	
289	8	embedded	
290	8	drop	
291	7	disassembled	
292	7	relating	
293	7	soaking	
294	7	help	
295	7	customized	
296	7	collect	
297	7	learning	
298	7	labeled	
299	7	adjusted	
300	7	placed	
301	7	signing	
302	7	open	
303	7	regarding	
304	7	happening	
305	7	wanted	
306	7	recommend	
307	7	advertised	
308	7	spending	
309	7	shipping	
310	7	paired	
311	7	laid	
312	7	downvoted	
313	7	pressing	
314	7	stored	
315	7	organized	
316	7	learned	
317	7	dying	
318	7	telling	
319	7	moving	
320	7	resembling	
321	7	adding	
322	7	become	
323	7	sealed	
324	7	mess	
325	7	finish	
326	7	figuring	
327	7	branded	
328	7	lined	
329	7	linked	
330	7	protect	
331	7	think	
332	7	offer	
333	7	break	
334	6	addressed	
335	6	push	
336	6	meet	
337	6	removing	
338	6	helping	
339	6	tell	
340	6	received	
341	6	suggesting	
342	6	stained	
343	6	scheduled	
344	6	justifying	
345	6	draw	
346	6	grabbing	
347	6	feeling	
348	6	surrounded	
349	6	sit	
350	6	introduce	
351	6	dipped	
352	6	creating	
353	6	approaching	
354	6	seem	
355	6	turn	
356	6	treat	
357	6	carried	
358	6	overpriced	
359	6	saturated	
360	6	mixing	
361	6	passing	
362	6	discontinued	
363	6	blowing	
364	6	tucked	
365	6	resulting	
366	6	hiding	
367	6	cause	
368	6	considered	
369	6	spread	
370	6	engraving	
371	6	touching	
372	6	downvoting	
373	6	matching	
374	6	polished	
375	6	wipe	
376	6	clog	
377	6	heading	
378	6	eating	
379	6	pass	
380	6	return	
381	6	reach	
382	6	swapped	
383	6	handle	
384	6	dried	
385	6	aimed	
386	6	consisting	
387	6	marking	
388	6	hoping	
389	6	satisfying	
390	6	enjoy	
391	6	corrected	
392	6	acquired	
393	6	seems	
394	6	borrowed	
395	6	stick	
396	5	screw	
397	5	lurking	
398	5	etc	
399	5	clipped	
400	5	diluted	
401	5	dating	
402	5	modified	
403	5	swap	
404	5	unattended	
405	5	fixed	
406	5	adjust	
407	5	allowed	
408	5	identify	
409	5	referring	
410	5	burning	
411	5	bottled	
412	5	dropping	
413	5	leaving	
414	5	reacting	
415	5	suited	
416	5	labelled	
417	5	visiting	
418	5	acting	
419	5	watching	
420	5	went	
421	5	fall	
422	5	gone	
423	5	studying	
424	5	planned	
425	5	been	
426	5	soaked	
427	5	paid	
428	5	molding	
429	5	sending	
430	5	rotring	
431	5	linking	
432	5	stop	
433	5	losing	
434	5	shading	
435	5	meaning	
436	5	came	
437	5	seated	
438	5	covering	
439	5	flowing	
440	5	shut	
441	5	picked	
442	5	improve	
443	5	stand	
444	5	experienced	
445	5	thought	
446	5	clogged	
447	5	converted	
448	5	restoring	
449	5	produce	
450	5	needing	
451	5	gets	
452	5	stain	
453	5	masquerading	
454	5	needs	
455	5	ending	
456	5	kept	
457	5	ensure	
458	5	researching	
459	5	provide	
460	5	arriving	
461	5	opening	
462	5	concerning	
463	5	thank	
464	5	unused	
465	5	deciding	
466	5	thanking	
467	5	ordered	
468	5	ended	
469	5	utilising	
470	4	end	
471	4	pen	
472	4	grind	
473	4	praising	
474	4	click	
475	4	type	
476	4	repaired	
477	4	signed	
478	4	switch	
479	4	appealing	
480	4	back	
481	4	stuffed	
482	4	stamped	
483	4	dated	
484	4	traveling	
485	4	molded	
486	4	blocking	
487	4	unposted	
488	4	grown	
489	4	hate	
490	4	connected	
491	4	play	
492	4	fixing	
493	4	pointing	
494	4	hitting	
495	4	takes	
496	4	practice	
497	4	attempting	
498	4	setting	
499	4	described	
500	4	ruining	
501	4	owning	
502	4	downvote	
503	4	receive	
504	4	glued	
505	4	invested	
506	4	snapping	
507	4	letting	
508	4	smooth	
509	4	dissolved	
510	4	disassembling	
511	4	exist	
512	4	worked	
513	4	coated	
514	4	dry	
515	4	rotating	
516	4	am	
517	4	geared	
518	4	judging	
519	4	notice	
520	4	folded	
521	4	cap	
522	4	compare	
523	4	hand	
524	4	cover	
525	4	devoted	
526	4	remaining	
527	4	pelikan	
528	4	drawing	
529	4	testing	
530	4	dressed	
531	4	concerned	
532	4	determine	
533	4	cracked	
534	4	waste	
535	4	paying	
536	4	attending	
537	4	guaranteed	
538	4	cracking	
539	4	speak	
540	4	prefer	
541	4	enjoying	
542	4	eyedroppered	
543	4	claiming	
544	4	spreading	
545	4	protecting	
546	4	obsessed	
547	4	expressing	
548	4	demanding	
549	4	participate	
550	4	shot	
551	4	contained	
552	4	choosing	
553	4	develop	
554	4	wear	
555	4	spilled	
556	4	live	
557	4	riding	
558	4	submitted	
559	4	serving	
560	4	brought	
561	4	allow	
562	4	powered	
563	4	formatting	
564	4	representing	
565	4	ship	
566	4	screaming	
567	4	represent	
568	4	limited	
569	4	feed	
570	4	commenting	
571	4	mention	
572	4	indicating	
573	4	lead	
574	4	took	
575	4	control	
576	4	capturing	
577	4	sheening	
578	4	themed	
579	4	jump	
580	4	acquire	
581	4	liking	
582	4	afforded	
583	4	promoting	
584	4	bend	
585	4	pens	
586	4	stated	
587	4	minimize	
588	3	include	
589	3	warrant	
590	3	form	
591	3	uses	
592	3	equipped	
593	3	exposed	
594	3	disappointed	
595	3	fulfill	
596	3	measuring	
597	3	tried	
598	3	sterling	
599	3	gushing	
600	3	pigmented	
601	3	twisting	
602	3	experimenting	
603	3	goes	
604	3	hooked	
605	3	selected	
606	3	answer	
607	3	packed	
608	3	composed	
609	3	worn	
610	3	educate	
611	3	lay	
612	3	changed	
613	3	melting	
614	3	acquiring	
615	3	building	
616	3	green	
617	3	announcing	
618	3	turned	
619	3	leak	
620	3	translated	
621	3	shimmering	
622	3	fucking	
623	3	lasting	
624	3	hating	
625	3	welded	
626	3	abusing	
627	3	stealing	
628	3	edit	
629	3	banned	
630	3	colored	
631	3	represented	
632	3	packing	
633	3	reduced	
634	3	purchasing	
635	3	spoken	
636	3	forming	
637	3	connecting	
638	3	searching	
639	3	demonstrating	
640	3	describe	
641	3	happen	
642	3	black	
643	3	fighting	
644	3	communicate	
645	3	comprised	
646	3	melt	
647	3	exported	
648	3	caked	
649	3	not	
650	3	started	
651	3	arrived	
652	3	smoothing	
653	3	showcasing	
654	3	passed	
655	3	lacking	
656	3	beat	
657	3	engineered	
658	3	diluting	
659	3	inspecting	
660	3	journaling	
661	3	sung	
662	3	lining	
663	3	explain	
664	3	topped	
665	3	barring	
666	3	modeled	
667	3	destroyed	
668	3	steal	
669	3	reduce	
670	3	absorb	
671	3	collecting	
672	3	hit	
673	3	repair	
674	3	solved	
675	3	catch	
676	3	tied	
677	3	questioning	
678	3	talk	
679	3	specializing	
680	3	rolling	
681	3	appreciated	
682	3	missed	
683	3	decide	
684	3	scattered	
685	3	defend	
686	3	expanding	
687	3	pissing	
688	3	reflecting	
689	3	restore	
690	3	review	
691	3	produces	
692	3	clarify	
693	3	seeking	
694	3	focusing	
695	3	wasted	
696	3	sealing	
697	3	collected	
698	3	bending	
699	3	join	
700	3	wielding	
701	3	published	
702	3	leaning	
703	3	track	
704	3	fulfilled	
705	3	detailing	
706	3	touch	
707	3	sporting	
708	3	answering	
709	3	pretending	
710	3	squeezing	
711	3	explore	
712	3	feels	
713	3	obtain	
714	3	burp	
715	3	comment	
716	3	slip	
717	3	combining	
718	3	arrive	
719	3	customize	
720	3	arranged	
721	3	teach	
722	3	sorry	
723	3	red	
724	3	locked	
725	3	saving	
726	3	tying	
727	3	locking	
728	3	attend	
729	3	rubbing	
730	3	noted	
731	3	exists	
732	3	crawling	
733	3	buried	
734	3	aligned	
735	3	advocating	
736	3	following	
737	3	born	
738	3	backed	
739	3	employed	
740	3	titled	
741	3	entitled	
742	3	win	
743	3	frustrated	
744	3	complain	
745	3	poking	
746	3	replacing	
747	3	talked	
748	3	capped	
749	3	stocked	
750	3	account	
751	3	evidenced	
752	3	exploring	
753	3	shit	
754	3	pink	
755	3	gliding	
756	3	shared	
757	2	free	
758	2	offset	
759	2	catering	
760	2	ensued	
761	2	secured	
762	2	pushed	
763	2	sing	
764	2	continue	
765	2	updated	
766	2	coating	
767	2	forgiving	
768	2	targeting	
769	2	lend	
770	2	commit	
771	2	blame	
772	2	tossing	
773	2	copying	
774	2	format	
775	2	counting	
776	2	print	
777	2	browse	
778	2	says	
779	2	swear	
780	2	mix	
781	2	deposited	
782	2	ease	
783	2	extending	
784	2	rushing	
785	2	rival	
786	2	littered	
787	2	closed	
788	2	cutting	
789	2	screwed	
790	2	squared	
791	2	digging	
792	2	driving	
793	2	fading	
794	2	tighten	
795	2	drinking	
796	2	respond	
797	2	killed	
798	2	processing	
799	2	rubbed	
800	2	played	
801	2	floated	
802	2	developing	
803	2	nib	
804	2	transfer	
805	2	snap	
806	2	blown	
807	2	extend	
808	2	originating	
809	2	shade	
810	2	introducing	
811	2	continues	
812	2	transporting	
813	2	broke	
814	2	exhibiting	
815	2	zoom	
816	2	discovering	
817	2	confirming	
818	2	informing	
819	2	affording	
820	2	charge	
821	2	behaved	
822	2	repairing	
823	2	chipping	
824	2	attempt	
825	2	squeeze	
826	2	deny	
827	2	engage	
828	2	forged	
829	2	gotten	
830	2	inserting	
831	2	lubricated	
832	2	defined	
833	2	reporting	
834	2	select	
835	2	drive	
836	2	shopping	
837	2	perpetuated	
838	2	impress	
839	2	affected	
840	2	suggest	
841	2	replied	
842	2	receiving	
843	2	crying	
844	2	occurring	
845	2	keeps	
846	2	surfing	
847	2	hide	
848	2	tend	
849	2	switched	
850	2	sandwiched	
851	2	brown	
852	2	bent	
853	2	descending	
854	2	returned	
855	2	dictated	
856	2	varies	
857	2	pertaining	
858	2	ignoring	
859	2	appreciate	
860	2	differed	
861	2	scored	
862	2	host	
863	2	packaged	
864	2	crossing	
865	2	voting	
866	2	requested	
867	2	contact	
868	2	noting	
869	2	spelled	
870	2	viewed	
871	2	taught	
872	2	treated	
873	2	occupying	
874	2	scanned	
875	2	correct	
876	2	improving	
877	2	burned	
878	2	complete	
879	2	ticked	
880	2	expressed	
881	2	derived	
882	2	jerking	
883	2	inscribed	
884	2	raise	
885	2	price	
886	2	popped	
887	2	feeding	
888	2	imprinted	
889	2	bashing	
890	2	decided	
891	2	observed	
892	2	believe	
893	2	illustrating	
894	2	accepting	
895	2	felt	
896	2	sizing	
897	2	specialized	
898	2	build	
899	2	smearing	
900	2	listening	
901	2	judge	
902	2	choose	
903	2	taped	
904	2	discuss	
905	2	wrote	
906	2	shop	
907	2	convert	
908	2	backing	
909	2	edited	
910	2	emailing	
911	2	discarded	
912	2	draining	
913	2	stripped	
914	2	lending	
915	2	outlining	
916	2	landed	
917	2	gain	
918	2	means	
919	2	damaging	
920	2	verifying	
921	2	contribute	
922	2	coded	
923	2	sound	
924	2	unscrewing	
925	2	discovered	
926	2	abridge	
927	2	dripped	
928	2	bound	
929	2	remembered	
930	2	depicting	
931	2	dotted	
932	2	spelling	
933	2	care	
934	2	unscrew	
935	2	encouraging	
936	2	bearing	
937	2	constructed	
938	2	targeted	
939	2	earned	
940	2	ground	
941	2	dip	
942	2	expanded	
943	2	utilized	
944	2	threatening	
945	2	remember	
946	2	becoming	
947	2	submitting	
948	2	fascinated	
949	2	practicing	
950	2	claim	
951	2	robbing	
952	2	decorated	
953	2	vanishing	
954	2	flecked	
955	2	expand	
956	2	disguised	
957	2	jumping	
958	2	fits	
959	2	influenced	
960	2	wedged	
961	2	protruding	
962	2	attach	
963	2	manage	
964	2	mind	
965	2	referencing	
966	2	innovate	
967	2	flexing	
968	2	believing	
969	2	deserves	
970	2	curved	
971	2	annoying	
972	2	smuggled	
973	2	uncap	
974	2	affecting	
975	2	examine	
976	2	answered	
977	2	trade	
978	2	dump	
979	2	painted	
980	2	unscrewed	
981	2	staining	
982	2	fused	
983	2	prove	
984	2	recommending	
985	2	depicted	
986	2	handling	
987	2	place	
988	2	bordering	
989	2	generate	
990	2	destroy	
991	2	referred	
992	2	presented	
993	2	asks	
994	2	walk	
995	2	denying	
996	2	colliding	
997	2	fiddle	
998	2	boost	
999	2	separated	
1000	2	imply	
1001	2	branding	
1002	2	ruin	
1003	2	rolled	
1004	2	displayed	
1005	2	sharpen	
1006	2	express	
1007	2	suck	
1008	2	accepts	
1009	2	served	
1010	2	belonging	
1011	2	rhyming	
1012	2	regarded	
1013	2	repeated	
1014	2	describing	
1015	2	rid	
1016	2	appear	
1017	2	does	
1018	2	charging	
1019	2	alternating	
1020	2	else-	
1021	2	flushing	
1022	2	ripped	
1023	2	ignore	
1024	2	realize	
1025	2	excited	
1026	2	blotted	
1027	2	dude	
1028	2	hunting	
1029	2	measured	
1030	2	worry	
1031	2	completed	
1032	2	chatting	
1033	2	loading	
1034	2	staying	
1035	2	bragging	
1036	2	educated	
1037	2	knew	
1038	2	throwing	
1039	2	sacrificed	
1040	2	reducing	
1041	2	bleed	
1042	2	reported	
1043	2	uploaded	
1044	2	screwing	
1045	2	commemorating	
1046	2	faceted	
1047	2	deceive	
1048	2	cheer	
1049	2	dilute	
1050	2	survive	
1051	2	warranted	
1052	2	sample	
1053	2	experience	
1054	2	s	
1055	2	prepared	
1056	2	sketch	
1057	2	shaking	
1058	2	wzchh44.jpg?1	
1059	2	dyed	
1060	2	broader	
1061	2	require	
1062	2	re	
1063	2	copy	
1064	2	shake	
1065	2	encouraged	
1066	2	kissing	
1067	2	meeting	
1068	2	fail	
1069	2	freak	
1070	2	upvoting	
1071	2	adhered	
1072	2	looked	
1073	2	close	
1074	2	vac	
1075	2	pin	
1076	2	performing	
1077	2	force	
1078	2	stretched	
1079	2	pounding	
1080	2	cleaned	
1081	2	said	
1082	2	stonewashed	
1083	2	joining	
1084	2	blue	
1085	2	flaking	
1086	2	lose	
1087	2	pop	
1088	2	suggested	
1089	2	grinding	
1090	2	spring	
1091	2	messing	
1092	2	styled	
1093	2	washing	
1094	2	parked	
1095	2	coloring	
1096	2	moulded	
1097	2	mildlyinfuriating	
1098	2	hunt	
1099	2	inherited	
1100	2	lol	
1101	2	hurt	
1102	2	opposed	
1103	2	dismantle	
1104	2	issued	
1105	2	inking	
1106	2	signified	
1107	2	fund	
1108	2	harm	
1109	2	agree	
1110	2	scraping	
1111	2	ride	
1112	2	leaked	
1113	2	commissioned	
1114	2	managed	
1115	2	licensed	
1116	2	triggered	
1117	2	freaking	
1118	2	stay	
1119	2	grip	
1120	2	bother	
1121	2	matched	
1122	2	mimicking	
1123	2	discussed	
1124	2	pressed	
1125	2	sought	
1126	2	dripping	
1127	2	committed	
1128	2	follow	
1129	2	topic/312943-bottled	
1130	2	fashioned	
1131	2	failing	
1132	2	settling	
1133	2	celebrating	
1134	2	preserve	
1135	2	salvaged	
1136	2	rendered	
1137	2	indulge	
1138	2	awaiting	
1139	2	crystallising	
1140	2	abuse	
1141	1	achieved	
1142	1	destined	
1143	1	tugging	
1144	1	rivaling	
1145	1	wagging	
1146	1	finds	
1147	1	dipping	
1148	1	link	
1149	1	manufacture	
1150	1	enclosed	
1151	1	verify	
1152	1	weighing	
1153	1	reselling	
1154	1	flexed	
1155	1	indicate	
1156	1	wants	
1157	1	handcrafted	
1158	1	gouges	
1159	1	sorted	
1160	1	specify	
1161	1	optimized	
1162	1	space	
1163	1	detailed	
1164	1	spamming	
1165	1	rumbling	
1166	1	popping	
1167	1	tacked	
1168	1	evolved	
1169	1	discontinue	
1170	1	dispute	
1171	1	punctuated	
1172	1	carved	
1173	1	serviced	
1174	1	googling	
1175	1	clutched	
1176	1	tooling	
1177	1	derailed	
1178	1	captioning	
1179	1	cry	
1180	1	calculated	
1181	1	flailing	
1182	1	finishing	
1183	1	compile	
1184	1	exchanging	
1185	1	buildup	
1186	1	charges	
1187	1	polishing	
1188	1	punched	
1189	1	thestruggle	
1190	1	portrayed	
1191	1	teaching	
1192	1	hobbyist	
1193	1	partake	
1194	1	estimate	
1195	1	assembling	
1196	1	ngqchvk.jpg	
1197	1	document	
1198	1	subdued	
1199	1	calming	
1200	1	dulling	
1201	1	instituted	
1202	1	farted	
1203	1	names	
1204	1	reviewing	
1205	1	packaging	
1206	1	reserved	
1207	1	performed	
1208	1	outlined	
1209	1	stirring	
1210	1	distilled	
1211	1	screws	
1212	1	cataloguing	
1213	1	blaming	
1214	1	encourage	
1215	1	insinuate	
1216	1	aired	
1217	1	trust	
1218	1	caring	
1219	1	after	
1220	1	sort	
1221	1	reflect	
1222	1	blot	
1223	1	bleeding	
1224	1	shitting	
1225	1	soak	
1226	1	supported	
1227	1	lashed	
1228	1	vote	
1229	1	pasted	
1230	1	wish	
1231	1	encourages	
1232	1	centring	
1233	1	reefing	
1234	1	plug	
1235	1	demolishing	
1236	1	subsided	
1237	1	fear	
1238	1	slashing	
1239	1	approved	
1240	1	championing	
1241	1	usurp	
1242	1	saturate	
1243	1	rounding	
1244	1	banning	
1245	1	summed	
1246	1	distinguishable	
1247	1	warning	
1248	1	rustling	
1249	1	showering	
1250	1	insulting	
1251	1	shed	
1252	1	spinning	
1253	1	beginning	
1254	1	threads	
1255	1	downvotes	
1256	1	sees	
1257	1	\(shipping	
1258	1	sneezed	
1259	1	bumped	
1260	1	bashed	
1261	1	drying	
1262	1	revived	
1263	1	evaporate	
1264	1	feathered	
1265	1	research	
1266	1	retire	
1267	1	crap	
1268	1	liquid	
1269	1	disliked	
1270	1	counteract	
1271	1	mottled	
1272	1	vomited	
1273	1	squirreled	
1274	1	encased	
1275	1	pour	
1276	1	dissolve	
1277	1	striped	
1278	1	fiddling	
1279	1	buff	
1280	1	bottles](http://www.andersonpens.com	
1281	1	propped	
1282	1	jutting	
1283	1	apologise	
1284	1	noticing	
1285	1	unscathed	
1286	1	refund	
1287	1	browsing	
1288	1	recovered	
1289	1	stimulate	
1290	1	rewarding	
1291	1	subtracting	
1292	1	release	
1293	1	figure	
1294	1	troll	
1295	1	pissed	
1296	1	trolling	
1297	1	redirecting	
1298	1	pasting	
1299	1	grinded	
1300	1	spanning	
1301	1	distinguishing	
1302	1	waterproofing	
1303	1	relearn	
1304	1	indoctrinate	
1305	1	rebadged	
1306	1	spearheading	
1307	1	existed	
1308	1	finger	
1309	1	gather	
1310	1	pierced	
1311	1	tells	
1312	1	shouting	
1313	1	sinking	
1314	1	arise	
1315	1	lessening	
1316	1	reinvent	
1317	1	shoot	
1318	1	blasts	
1319	1	framed	
1320	1	fillers	
1321	1	repossessing	
1322	1	deform	
1323	1	heed	
1324	1	eluding	
1325	1	dishonouring	
1326	1	rate	
1327	1	mined	
1328	1	lack	
1329	1	warrantied	
1330	1	cushions	
1331	1	manifesting	
1332	1	programmed	
1333	1	curated	
1334	1	jacking	
1335	1	front	
1336	1	disintegrated	
1337	1	compromise	
1338	1	measure	
1339	1	wait	
1340	1	gradating	
1341	1	sum	
1342	1	remain	
1343	1	round	
1344	1	spare	
1345	1	reminds	
1346	1	cool	
1347	1	settle	
1348	1	feathers	
1349	1	illustrated	
1350	1	images2	
1351	1	whooshing	
1352	1	iding	
1353	1	screening	
1354	1	frequented	
1355	1	compromising	
1356	1	earning	
1357	1	fp	
1358	1	worrying	
1359	1	led	
1360	1	flamed	
1361	1	ritualize	
1362	1	shaken	
1363	1	top	
1364	1	bailed	
1365	1	pulled	
1366	1	tipping	
1367	1	rated	
1368	1	divided	
1369	1	gifting	
1370	1	subscribe	
1371	1	aquired	
1372	1	distracted	
1373	1	crushed	
1374	1	supplying	
1375	1	works	
1376	1	devalue	
1377	1	enrich	
1378	1	reqire	
1379	1	snooping	
1380	1	available	
1381	1	handmade	
1382	1	branch	
1383	1	obscure	
1384	1	activate	
1385	1	posed	
1386	1	thicken	
1387	1	contesting	
1388	1	stub	
1389	1	unmatched	
1390	1	vanished	
1391	1	liked	
1392	1	rise	
1393	1	drooling	
1394	1	report	
1395	1	prey	
1396	1	directing	
1397	1	smell	
1398	1	yielding	
1399	1	housed	
1400	1	disagreeing	
1401	1	oozing	
1402	1	exerted	
1403	1	invented	
1404	1	unappealing	
1405	1	erase	
1406	1	succeeded	
1407	1	distorting	
1408	1	misusing	
1409	1	wrapping	
1410	1	avoided	
1411	1	conducted	
1412	1	biased	
1413	1	blacken	
1414	1	granted	
1415	1	rocking	
1416	1	stressing	
1417	1	hone	
1418	1	smack	
1419	1	stylized	
1420	1	mounted	
1421	1	enjoyed	
1422	1	aiding	
1423	1	signaling	
1424	1	drenched	
1425	1	boned	
1426	1	experiment	
1427	1	disparaging	
1428	1	incurred	
1429	1	absorbing	
1430	1	specifying	
1431	1	sweating	
1432	1	switching	
1433	1	instilled	
1434	1	shirk	
1435	1	discipline	
1436	1	punish	
1437	1	personalize	
1438	1	knocking	
1439	1	unbuttoned	
1440	1	dye	
1441	1	hands	
1442	1	subscribed	
1443	1	autographing	
1444	1	fucked	
1445	1	listen	
1446	1	suing	
1447	1	revealing	
1448	1	pushes	
1449	1	advertise	
1450	1	slipping	
1451	1	honoring	
1452	1	cancelled	
1453	1	manipulate	
1454	1	delete	
1455	1	question	
1456	1	shackled	
1457	1	starts	
1458	1	profit	
1459	1	refusing	
1460	1	talented	
1461	1	vac700	
1462	1	drags	
1463	1	opinionate	
1464	1	becomes	
1465	1	messed	
1466	1	operate	
1467	1	invoke	
1468	1	grease	
1469	1	patting	
1470	1	established	
1471	1	bagged	
1472	1	utensil	
1473	1	implying	
1474	1	circulating	
1475	1	expected	
1476	1	withdrawn	
1477	1	staving	
1478	1	white	
1479	1	spanking	
1480	1	died	
1481	1	battle	
1482	1	implies	
1483	1	cmprd	
1484	1	obtained	
1485	1	adapting	
1486	1	http://blog.gouletpens.com/2015/07/answering-your-twsbi-eco-questions.html	
1487	1	coloured	
1488	1	shaming	
1489	1	recovering	
1490	1	conceived	
1491	1	b"s	
1492	1	vexing	
1493	1	relabeled	
1494	1	tear	
1495	1	etched	
1496	1	addicted	
1497	1	bulking	
1498	1	misunderstanding	
1499	1	quote	
1500	1	bodied	
1501	1	donning	
1502	1	weeds	
1503	1	rip	
1504	1	pining	
1505	1	searched	
1506	1	distribute	
1507	1	apologize	
1508	1	populated	
1509	1	brag	
1510	1	ranting	
1511	1	filtering	
1512	1	forcing	
1513	1	encroaching	
1514	1	dishwashing	
1515	1	counted	
1516	1	baited	
1517	1	lived	
1518	1	understand	
1519	1	refreshing	
1520	1	p	
1521	1	exceeding	
1522	1	authorized	
1523	1	trashing	
1524	1	venting	
1525	1	pratice	
1526	1	contracted	
1527	1	honor	
1528	1	glow	
1529	1	complicate	
1530	1	sparked	
1531	1	threaded	
1532	1	confiscated	
1533	1	imposed	
1534	1	vanish	
1535	1	embossed	
1536	1	lit	
1537	1	shades	
1538	1	contrasting	
1539	1	appeal	
1540	1	gathers	
1541	1	basing	
1542	1	visualizing	
1543	1	expel	
1544	1	shelled	
1545	1	milking	
1546	1	specialize	
1547	1	coasting	
1548	1	scaled	
1549	1	annodized	
1550	1	maintining	
1551	1	differentiate	
1552	1	copied	
1553	1	remind	
1554	1	pending	
1555	1	declared	
1556	1	marred	
1557	1	irritated	
1558	1	souten	
1559	1	dulled	
1560	1	quit	
1561	1	facilitate	
1562	1	pattern	
1563	1	transmitted	
1564	1	reply	
1565	1	determined	
1566	1	mount	
1567	1	worried	
1568	1	rub	
1569	1	funded	
1570	1	eco	
1571	1	insulating	
1572	1	coding	
1573	1	design	
1574	1	depict	
1575	1	fasten	
1576	1	overlays	
1577	1	shell	
1578	1	critique	
1579	1	readjust	
1580	1	positioning	
1581	1	gauge	
1582	1	chipped	
1583	1	glittering	
1584	1	coordinated	
1585	1	tortured	
1586	1	gained	
1587	1	ca	
1588	1	machined	
1589	1	fleeing	
1590	1	ruled	
1591	1	perform	
1592	1	expose	
1593	1	prime	
1594	1	differentiated	
1595	1	fueled	
1596	1	splurge	
1597	1	penmanshipporn	
1598	1	marketing	
1599	1	swinging	
1600	1	a/9a2fe	
1601	1	peddling	
1602	1	tutting	
1603	1	scrawled	
1604	1	something	
1605	1	repurpose	
1606	1	aided	
1607	1	blemished	
1608	1	coked	
1609	1	loosened	
1610	1	acknowledging	
1611	1	warmed	
1612	1	calm	
1613	1	sunken	
1614	1	temped	
1615	1	spilling	
1616	1	waxing	
1617	1	nearing	
1618	1	closing	
1619	1	resisting	
1620	1	rescued	
1621	1	dissembled	
1622	1	accomplished	
1623	1	independence	
1624	1	possess	
1625	1	eye	
1626	1	processed	
1627	1	yakking	
1628	1	reproducing	
1629	1	bn11hbogni_/?taken	
1630	1	eyedropper	
1631	1	denied	
1632	1	eyedroppering	
1633	1	dialed	
1634	1	joking	
1635	1	abandoned	
1636	1	adjusting	
1637	1	welling	
1638	1	transfixed	
1639	1	please	
1640	1	bolded	
1641	1	departing	
1642	1	polish	
1643	1	catalog	
1644	1	fitting	
1645	1	comments/5kpta3	
1646	1	cellulose	
1647	1	direct	
1648	1	error	
1649	1	highlighted	
1650	1	pleading	
1651	1	alternative	
1652	1	loved	
1653	1	soothing	
1654	1	press	
1655	1	burping	
1656	1	pours	
1657	1	plugged	
1658	1	denoted	
1659	1	rmgqoi5.jpg	
1660	1	accommodate	
1661	1	harmed	
1662	1	complained	
1663	1	fatcats	
1664	1	flattening	
1665	1	ahah	
1666	1	sucked	
1667	1	revising	
1668	1	sided	
1669	1	overheard	
1670	1	deformed	
1671	1	reciting	
1672	1	suckered	
1673	1	dive	
1674	1	visited	
1675	1	intimidated	
1676	1	judged	
1677	1	full	
1678	1	accessing	
1679	1	scented	
1680	1	insted	
1681	1	migrated	
1682	1	founded	
1683	1	infused	
1684	1	-fnished	
1685	1	wet	
1686	1	scratch	
1687	1	enter	
1688	1	devouring	
1689	1	hoard	
1690	1	inhabiting	
1691	1	passes	
1692	1	diagnose	
1693	1	extolling	
1694	1	matter	
1695	1	photobombing	
1696	1	commented	
1697	1	affiliated	
1698	1	bypass	
1699	1	transitioning	
1700	1	prefilled	
1701	1	kill	
1702	1	continuing	
1703	1	transformed	
1704	1	transcribe	
1705	1	fountain	
1706	1	pontificating	
1707	1	fessing	
1708	1	lacquering	
1709	1	coat	
1710	1	scoring	
1711	1	holds	
1712	1	hang	
1713	1	compete	
1714	1	digressed	
1715	1	computer	
1716	1	gridded	
1717	1	realyl	
1718	1	bjvwmvobbrg/?taken	
1719	1	discover	
1720	1	narrow	
1721	1	dsmantle	
1722	1	repay	
1723	1	contaminate	
1724	1	refueled	
1725	1	sniffing	
1726	1	altered	
1727	1	illuminated	
1728	1	discouraged	
1729	1	rehash	
1730	1	dreaming	
1731	1	suit	
1732	1	including	
1733	1	bursting	
1734	1	clinging	
1735	1	bitch	
1736	1	forego	
1737	1	oriented	
1738	1	sunk	
1739	1	embrace	
1740	1	crossed	
1741	1	enduring	
1742	1	deploy	
1743	1	extensible	
1744	1	screen	
1745	1	evaporating	
1746	1	stashed	
1747	1	mashing	
1748	1	drowned	
1749	1	mates	
1750	1	blessed	
1751	1	promoted	
1752	1	channeling	
1753	1	devised	
1754	1	delayed	
1755	1	categorized	
1756	1	reissued	
1757	1	mesmerising	
1758	1	rebuilt	
1759	1	ravaging	
1760	1	flooding	
1761	1	struggling	
1762	1	requires	
1763	1	recruiting	
1764	1	amateur	
1765	1	fanatic	
1766	1	guess	
1767	1	confused	
1768	1	leaching	
1769	1	insult	
1770	1	generated	
1771	1	load	
1772	1	capping	
1773	1	sampling	
1774	1	logic	
1775	1	biting	
1776	1	maximize	
1777	1	file	
1778	1	fellow	
1779	1	operating	
1780	1	streaming	
1781	1	highlight	
1782	1	speed	
1783	1	railroading	
1784	1	initiate	
1785	1	gripping	
1786	1	split	
1787	1	inform	
1788	1	rattling	
1789	1	date	
1790	1	knows	
1791	1	submerged	
1792	1	traveled	
1793	1	access	
1794	1	stubs	
1795	1	researched	
1796	1	smoothen	
1797	1	shelling	
1798	1	updating	
1799	1	releasing	
1800	1	subjugated	
1801	1	curtail	
1802	1	search	
1803	1	desired	
1804	1	rooted	
1805	1	scrolls	
1806	1	mirrored	
1807	1	rage	
1808	1	inducing	
1809	1	adapt	
1810	1	pricing	
1811	1	voice	
1812	1	up	
1813	1	fronted	
1814	1	glean	
1815	1	admonish	
1816	1	travel	
1817	1	charged	
1818	1	sloshing	
1819	1	reasoning	
1820	1	personalizing	
1821	1	retained	
1822	1	https://www.reddit.com/r/fountainpens/comments/6kfvbt/introducing_the_serendipity_hybrid_pen/	
1823	1	aged	
1824	1	apply	
1825	1	upload	
1826	1	developed	
1827	1	laughing	
1828	1	flavoured	
1829	1	unbox	
1830	1	guy	
1831	1	winning	
1832	1	wielded	
1833	1	murder	
1834	1	corresponding	
1835	1	imagining	
1836	1	drown	
1837	1	accepted	
1838	1	autogenerated	
1839	1	a5	
1840	1	cast	
1841	1	crack	
1842	1	smear	
1843	1	photograph	
1844	1	mid	
1845	1	arising	
1846	1	issuing	
1847	1	translating	
1848	1	recall	
1849	1	fps	
1850	1	concentrating	
1851	1	singing	
1852	1	stabbed	
1853	1	flooring	
1854	1	mean	
1855	1	smelling	
1856	1	failed	
1857	1	hurting	
1858	1	interviewing	
1859	1	seal	
1860	1	loosening	
1861	1	mashed	
1862	1	violating	
1863	1	dremel	
1864	1	togi	
1865	1	connect	
1866	1	flip	
1867	1	berating	
1868	1	kidding	
1869	1	browning	
1870	1	recoup	
1871	1	stapled	
1872	1	empty	
1873	1	sacrificing	
1874	1	lingering	
1875	1	stage	
1876	1	sheen	
1877	1	https://www.youtube.com/watch?v=fotw5pyjxak	
1878	1	vouching	
1879	1	confirmed	
1880	1	pre-1997	
1881	1	ranking	
1882	1	id'ing	
1883	1	ramble	
1884	1	skilled	
1885	1	budgeted	
1886	1	repositioned	
1887	1	frequenting	
1888	1	grouped	
1889	1	glides	
1890	1	drain	
1891	1	stacking	
1892	1	gush	
1893	1	finishes	
1894	1	inlayed	
1895	1	filmed	
1896	1	sunlight	
1897	1	buffer	
1898	1	reflected	
1899	1	inquiring	
1900	1	purloined	
1901	1	empathizing	
1902	1	disregarded	
1903	1	wide	
1904	1	handwriting	
1905	1	modifying	
1906	1	chucking	
1907	1	mistaken	
1908	1	latching	
1909	1	impressed	
1910	1	diverged	
1911	1	presume	
1912	1	stock	
1913	1	slop	
1914	1	fuel	
1915	1	heard	
1916	1	recognized	
1917	1	stiffer	
1918	1	ejected	
1919	1	expect	
1920	1	confusing	
1921	1	preceding	
1922	1	store	
1923	1	belonged	
1924	1	suffering	
1925	1	love	
1926	1	entail	
1927	1	told	
1928	1	swing	
1929	1	preparing	
1930	1	cling	
1931	1	satisfy	
1932	1	succeed	
1933	1	twist	
1934	1	admire	
1935	1	mailed	
1936	1	cushioned	
1937	1	refilling	
1938	1	slept	
1939	1	stamping	
1940	1	perusing	
1941	1	subscribing	
1942	1	captivate	
1943	1	overlooking	
1944	1	lopped	
1945	1	gamecollecting	
1946	1	contradicting	
1947	1	selecting	
1948	1	submerging	
1949	1	attested	
1950	1	webnotebook	
1951	1	sourced	
1952	1	improves	
1953	1	idea	
1954	1	respect	
1955	1	discounted	
1956	1	nab	
1957	1	pronouncing	
1958	1	discolored	
1959	1	visible	
1960	1	gouging	
1961	1	cursive	
1962	1	registered	
1963	1	wrap	
1964	1	counterintuitive	
1965	1	immersed	
1966	1	minimises	
1967	1	now](http://www.usinflationcalculator.com/	
1968	1	corrode	
1969	1	degraded	
1970	1	brewed	
1971	1	perceived	
1972	1	grounded	
1973	1	gawking	
1974	1	demonstrated	
1975	1	proceeds	
1976	1	en	
1977	1	totalling	
1978	1	pimp	
1979	1	capture	
1980	1	mull	
1981	1	afaik	
1982	1	seeping	
1983	1	chew	
1984	1	unsubscribe	
1985	1	pare	
1986	1	shifting	
1987	1	logged	
1988	1	layered	
1989	1	approves	
1990	1	jammed	
1991	1	scale	
1992	1	praises	
1993	1	age	
1994	1	broad	
1995	1	reground	
1996	1	headed	
1997	1	convicted	
1998	1	comforting	
1999	1	wasting	
2000	1	study	
2001	1	labelling	
2002	1	smoothed	
2003	1	coauthored	
2004	1	drool	
2005	1	insured	
2006	1	handwritten	
2007	1	splashing	
2008	1	refused	
2009	1	door	
2010	1	persuade	
2011	1	increase	
2012	1	pouring	
2013	1	explode	
2014	1	decides	
2015	1	’s	
2016	1	trimming	
2017	1	dunked	
2018	1	blamed	
2019	1	pinned	
2020	1	injects	
2021	1	ridiculous	
2022	1	storing	
2023	1	hosted	
2024	1	wingsung	
2025	1	stepping	
2026	1	snail	
2027	1	yacking	
2028	1	smash	
2029	1	realign	
2030	1	borrow	
2031	1	rummaging	
2032	1	delivering	
2033	1	modding	
2034	1	point	
2035	1	product/936	
2036	1	spoke	
2037	1	quibble	
2038	1	unlocked	
2039	1	participating	
2040	1	decapitate	
2041	1	slicing	
2042	1	forbidden	
2043	1	designated	
2044	1	alter	
2045	1	wicked	
2046	1	luck	
2047	1	oversized	
2048	1	eyeballing	
2049	1	dumped	
2050	1	reshape	
2051	1	rested	
2052	1	hire	
2053	1	3c-4c/	
2054	1	versed	
2055	1	wedding	
2056	1	emptied	
2057	1	recruit	
2058	1	pairing	
2059	1	obliterated	
2060	1	protesting	
2061	1	staffed	
2062	1	deleting	
2063	1	ages	
2064	1	expelled	
2065	1	colouring	
2066	1	piercing	
2067	1	retipped	
2068	1	solder	
2069	1	burgeon	
2070	1	watermarked	
2071	1	uncovers	
2072	1	cares	
2073	1	referenced	
2074	1	resac	
2075	1	corroding	
2076	1	deducted	
2077	1	badmouthing	
2078	1	discontinuing	
2079	1	sharpened	
2080	1	formulate	
2081	1	pointed	
2082	1	spliced	
2083	1	passionate	
2084	1	dries	
2085	1	bullying	
2086	1	rusting	
2087	1	celebrate	
2088	1	gave	
2089	1	blinded	
2090	1	nature	
2091	1	shining	
2092	1	rugged	
2093	1	impeding	
2094	1	attributed	
2095	1	clearing	
2096	1	numbered	
2097	1	blended	
2098	1	fascinating	
2099	1	bookmarked	
2100	1	legitimize	
2101	1	dial	
2102	1	imitating	
2103	1	solve	
2104	1	grab	
2105	1	moulding	
2106	1	bowel	
2107	1	influencing	
2108	1	ripping	
2109	1	lock	
2110	1	possessing	
2111	1	differing	
2112	1	modded	
2113	1	honking	
2114	1	’d	
2115	1	appearing	
2116	1	implemented	
2117	1	harassing	
2118	1	highlighting	
2119	1	spoiling	
2120	1	dictate	
2121	1	rule	
2122	1	retain	
2123	1	varying	
2124	1	enforced	
2125	1	prohibiting	
2126	1	encountered	
2127	1	watch	
2128	1	fling	
2129	1	announced	
2130	1	fold	
2131	1	inventing	
2132	1	faced	
2133	1	submit	
2134	1	did	
2135	1	eyeing	
2136	1	licking	
2137	1	drew	
2138	1	horrified	
2139	1	flipping	
2140	1	diving	
2141	1	chambered	
2142	1	baystateblue	
2143	1	snuggled	
2144	1	compiled	
2145	1	declare	
2146	1	profiting	
2147	1	repurposed	
2148	1	falls	
2149	1	avoiding	
2150	1	tilted	
2151	1	inherit	
2152	1	conveyed	
2153	1	annotating	
2154	1	stalled	
2155	1	slide	
2156	1	react	
2157	1	digitize	
2158	1	sheaffer	
2159	1	skip	
2160	1	lefty	
2161	1	characterize	
2162	1	replicate	
2163	1	pair	
2164	1	forget	
2165	1	shout	
2166	1	predating	
2167	1	upturned	
2168	1	graduating	
2169	1	begging	
2170	1	tune	
2171	1	backordered	
2172	1	exchange	
2173	1	contributing	
2174	1	cloning	
2175	1	leeching	
2176	1	lubricate	
2177	1	rinsing	
2178	1	cred	
2179	1	budge	
2180	1	rusted	
2181	1	saw	
2182	1	reassembled	
2183	1	returning	
2184	1	wind	
2185	1	tailored	
2186	1	bomb	
2187	1	solving	
2188	1	splash	
2189	1	remaking	
2190	1	degrading	
2191	1	elite	
2192	1	annihilating	
2193	1	insure	
2194	1	delving	
2195	1	smashing	
2196	1	affixed	
2197	1	outdated	
2198	1	adorning	
2199	1	twirling	
2200	1	correcting	
2201	1	boiled	
2202	1	bulging	
2203	1	maintained	
2204	1	wedge	
2205	1	distributed	
2206	1	debubble	
2207	1	stacked	
2208	1	frozen	
2209	1	lower	
2210	1	guaranteeing	
2211	1	textured	
2212	1	animated	
2213	1	lie	
2214	1	acknowledge	
2215	1	professional	
2216	1	commission	
2217	1	burn	
2218	1	’re	
2219	1	tootsie	
2220	1	convey	
2221	1	numbering	
2222	1	stumbling	
2223	1	comes	
2224	1	mandating	
2225	1	title	
2226	1	witchy	
2227	1	murdered	
2228	1	basting	
2229	1	padded	
2230	1	snug	
2231	1	upvote	
2232	1	wax	
2233	1	bounce	
2234	1	scoop	
2235	1	configure	
2236	1	owing	
2237	1	thew	
2238	1	dropped	
2239	1	personalized	
2240	1	streaked	
2241	1	scratching	
2242	1	inspiring	
2243	1	tearing	
2244	1	fool	
2245	1	pandering	
2246	1	shoehorn	
2247	1	preach	
2248	1	unrestricted	
2249	1	doodling	
2250	1	commanded	
2251	1	whoring	
2252	1	coax	
2253	1	dodging	
2254	1	undergo	
2255	1	guiding	
2256	1	sewn	
2257	1	training	
2258	1	glanced	
2259	1	handled	
2260	1	withing	
2261	1	delay	
2262	1	vexed	
2263	1	drops	
2264	1	accompanies	
2265	1	mastering	
2266	1	ensuring	
2267	1	donated	
2268	1	coursing	
2269	1	clockwise	
2270	1	ballpoints	
2271	1	fades	
2272	1	name	
2273	1	float	
2274	1	overflow	
2275	1	handing	
2276	1	heros	
2277	1	situated	
2278	1	procrastinating	
2279	1	relax	
2280	1	slapping	
2281	1	scammed	
2282	1	interact	
2283	1	annoyed	
2284	1	smudges	
2285	1	deemed	
2286	1	hear	
2287	1	disqualified	
2288	1	flammenwerfer	
2289	1	feedback	
2290	1	begin	
2291	1	hakd5	
2292	1	masquarading	
2293	1	modify	
2294	1	declining	
2295	1	punctured	
2296	1	pinning	
2297	1	oddlysatisfying	
2298	1	supervising	
2299	1	wash	
2300	1	recognize	
2301	1	intertwining	
2302	1	washed	
2303	1	inverted	
2304	1	illustrate	
2305	1	dabbling	
2306	1	uploads/2017/11/13001052	
2307	1	cringing	
2308	1	appreciating	
2309	1	loving	
2310	1	snag	
2311	1	balancing	
2312	1	emulate	
2313	1	contain	
2314	1	elected	
2315	1	colluding	
2316	1	points	
2317	1	crammed	
2318	1	rammed	
2319	1	consuming	
2320	1	injected	
2321	1	announce	
2322	1	hurry	
2323	1	misguided	
2324	1	cheaped	
2325	1	colorverse	
2326	1	render	
2327	1	inspect	
2328	1	kicking	
2329	1	seized	
2330	1	donate	
2331	1	wronged	
2332	1	designating	
2333	1	rotate	
2334	1	stationed	
2335	1	lent	
2336	1	occur	
2337	1	composing	
2338	1	refered	
2339	1	stabbing	
2340	1	multiplied	
2341	1	confirm	
2342	1	entering	
2343	1	chosen	
2344	1	crafted	
2345	1	observe	
2346	1	cranking	
2347	1	roaming	
2348	1	ranked	
2349	1	sketched	
2350	1	searing	
2351	1	promising	
2352	1	evolving	
2353	1	rendering	
2354	1	favored	
2355	1	smears	
2356	1	trembling	
2357	1	soften	
2358	1	vintage	
2359	1	fountainpens	
2360	1	sub	
2361	1	emulating	
2362	1	picturing	
2363	1	imaged	
2364	1	estimated	
2365	1	enforce	
2366	1	threatened	
2367	1	consisted	
2368	1	resembles	
2369	1	zoomed	
2370	1	sanding	
2371	1	cried	
2372	1	esterbrook	
2373	1	scribbled	
2374	1	gunking	
2375	1	bends	
2376	1	deal	
2377	1	bid	
2378	1	flies	
2379	1	happens	
2380	1	occupied	
2381	1	executed	
2382	1	bouncing	
2383	1	spot	
2384	1	catfished	
2385	1	poked	
2386	1	risk	
2387	1	censored	
2388	1	prescribed	
2389	1	condensed	
2390	1	providing	
2391	1	emitted	
2392	1	sizes	
2393	1	parker61.html	
2394	1	deliver	
2395	1	reno	
2396	1	ring	
2397	1	eat	
2398	1	compressed	
2399	1	rebranded	
2400	1	supporting	
2401	1	lettering	
2402	1	hooded	
2403	1	lording	
2404	1	gumming	
2405	1	repeat	
2406	1	ambered	
2407	1	soda	
2408	1	appears	
2409	1	penbbs	
2410	1	misaligned	
2411	1	glinting	
2412	1	freaked	
2413	1	prowling	
2414	1	boring	
2415	1	adapted	
2416	1	span	
2417	1	drilled	
2418	1	splayed	
2419	1	shittyhandlettering	
2420	1	consume	
2421	1	clipping	
2422	1	beheld	
2423	1	unmoved	
