#Word types: 1438
#Word tokens: 3287
#Search results: 0
1	57	fine	
2	54	open	
3	47	dry	
4	47	black	
5	41	nib	
6	40	handed	
7	36	nice	
8	33	good	
9	32	wrong	
10	29	pen	
11	29	sure	
12	23	great	
13	23	clean	
14	22	blue	
15	21	perfect	
16	20	inked	
17	20	red	
18	18	uncapped	
19	18	interesting	
20	17	safe	
21	17	wet	
22	17	in	
23	16	pens	
24	16	cool	
25	15	smooth	
26	15	close	
27	15	right	
28	15	different	
29	15	lol	
30	15	small	
31	14	better	
32	14	alone	
33	13	new	
34	13	dark	
35	13	other	
36	13	bad	
37	13	cheap	
38	13	scratchy	
39	12	difficult	
40	12	eco	
41	12	flex	
42	12	crazy	
43	12	upright	
44	11	similar	
45	11	clear	
46	11	practical	
47	11	appropriate	
48	11	available	
49	11	odd	
50	10	weird	
51	10	easier	
52	10	low	
53	10	unposted	
54	9	interested	
55	9	vintage	
56	9	hard	
57	9	paper	
58	9	quick	
59	9	loose	
60	9	light	
61	9	expensive	
62	9	ink	
63	9	worth	
64	9	easy	
65	8	alive	
66	8	strange	
67	8	haha	
68	8	that	
69	8	full	
70	8	heavy	
71	8	legit	
72	8	;)	
73	8	fair	
74	8	reasonable	
75	8	ok	
76	8	broad	
77	7	reliable	
78	7	gold	
79	7	medium	
80	7	brown	
81	7	awesome	
82	7	happy	
83	7	durable	
84	7	intact	
85	7	updated	
86	7	free	
87	7	short	
88	7	green	
89	7	simple	
90	7	wise	
91	6	sturdy	
92	6	smoother	
93	6	busy	
94	6	solid	
95	6	cursive	
96	6	quality	
97	6	higher	
98	6	white	
99	6	obvious	
100	6	alright	
101	6	btw	
102	6	darker	
103	6	high	
104	6	etc	
105	5	f	
106	5	flat	
107	5	boring	
108	5	yellow	
109	5	tho	
110	5	fitting	
111	5	unique	
112	5	tight	
113	5	flexible	
114	5	excessive	
115	5	amazing	
116	5	fit	
117	5	nibs	
118	5	wetter	
119	5	big	
120	5	possible	
121	5	likely	
122	5	made	
123	5	equal	
124	5	custom	
125	5	peeled	
126	5	capped	
127	5	finer	
128	5	mixed	
129	4	stuck	
130	4	due	
131	4	thicker	
132	4	😅	
133	4	consistent	
134	4	one	
135	4	more	
136	4	ef	
137	4	fancy	
138	4	like	
139	4	comparable	
140	4	long	
141	4	nuts	
142	4	aligned	
143	4	comfortable	
144	4	off	
145	4	popular	
146	4	unused	
147	4	feedback	
148	4	worse	
149	4	steep	
150	4	fun	
151	4	purple	
152	4	promising	
153	4	okay	
154	4	point	
155	4	what	
156	4	💖	
157	4	gray	
158	4	unlikely	
159	4	secret	
160	4	empty	
161	4	cheaper	
162	4	positive	
163	4	friendly	
164	4	original	
165	4	organized	
166	4	acrylic	
167	4	old	
168	4	silver	
169	4	little	
170	4	closer	
171	4	neat	
172	4	separate	
173	3	warm	
174	3	deal	
175	3	soft	
176	3	saturated	
177	3	helpful	
178	3	way	
179	3	aesthetic	
180	3	complete	
181	3	dead	
182	3	correct	
183	3	pristine	
184	3	brand	
185	3	much	
186	3	occupied	
187	3	pink	
188	3	experience	
189	3	subtle	
190	3	fresh	
191	3	aware	
192	3	inks	
193	3	rn	
194	3	beautiful	
195	3	shut	
196	3	handy	
197	3	rough	
198	3	affordable	
199	3	plausible	
200	3	sung	
201	3	common	
202	3	useful	
203	3	real	
204	3	sharp	
205	3	sorry	
206	3	unknown	
207	3	straight	
208	3	ish	
209	3	on	
210	3	useless	
211	3	same	
212	3	balanced	
213	3	size	
214	3	converter	
215	3	thinner	
216	3	active	
217	3	fragile	
218	3	steady	
219	3	broader	
220	3	thin	
221	3	whatever	
222	3	man	
223	3	capless	
224	3	posted	
225	3	mate	
226	3	nicer	
227	3	metropolitan	
228	3	impossible	
229	3	steel	
230	3	risky	
231	2	convenient	
232	2	model	
233	2	shorter	
234	2	diary	
235	2	rings	
236	2	awful	
237	2	unv76620	
238	2	damaged	
239	2	tempermental	
240	2	lower	
241	2	lucky	
242	2	broken	
243	2	put	
244	2	writing	
245	2	bulky	
246	2	card	
247	2	secure	
248	2	grail	
249	2	love	
250	2	identifiable	
251	2	remain	
252	2	brass	
253	2	noodle	
254	2	supplies	
255	2	darn	
256	2	sloppy	
257	2	sticky	
258	2	slim	
259	2	visible	
260	2	untouched	
261	2	legible	
262	2	😉	
263	2	bolder	
264	2	crown	
265	2	museum	
266	2	random	
267	2	normal	
268	2	young	
269	2	larger	
270	2	hero	
271	2	unremarkable	
272	2	tempting	
273	2	cold	
274	2	sunset	
275	2	notes	
276	2	ku	
277	2	stiff	
278	2	sport	
279	2	be	
280	2	dangerous	
281	2	generic	
282	2	watery	
283	2	overjoyed	
284	2	disappointed	
285	2	blood	
286	2	vial	
287	2	leans	
288	2	clearer	
289	2	😊	
290	2	eager	
291	2	stupid	
292	2	dryer	
293	2	suitable	
294	2	slow	
295	2	smaller	
296	2	falcon	
297	2	logical	
298	2	minimal	
299	2	overpriced	
300	2	calm	
301	2	aswell	
302	2	priced	
303	2	platinum	
304	2	funny	
305	2	so	
306	2	manuscript	
307	2	rude	
308	2	mad	
309	2	trustworthy	
310	2	minimalistic	
311	2	structured	
312	2	sealed	
313	2	writer	
314	2	equivalent	
315	2	metal	
316	2	acceptable	
317	2	quill	
318	2	g	
319	2	slower	
320	2	amiss	
321	2	looser	
322	2	edition	
323	2	large	
324	2	sublime	
325	2	stationery	
326	2	mean	
327	2	forgiving	
328	2	two	
329	2	worthy	
330	2	trim	
331	2	up	
332	2	manipulation	
333	2	genuine	
334	2	action	
335	2	flashy	
336	2	bookmarked	
337	2	orange	
338	2	reputable	
339	2	absorbent	
340	2	identical	
341	2	raw	
342	2	accessible	
343	2	bit	
344	2	precise	
345	2	simpler	
346	2	natural	
347	2	narrow	
348	2	round	
349	2	professional	
350	2	acryloid	
351	2	rare	
352	2	😀	
353	2	longer	
354	2	honest	
355	2	less	
356	2	duofold	
357	2	neutral	
358	2	580al	
359	2	flush	
360	2	thing	
361	2	service	
362	2	behaved	
363	2	mini	
364	2	store	
365	2	submerged	
366	2	stationary	
367	2	pricey	
368	2	😄	
369	2	polished	
370	2	😁	
371	2	incomplete	
372	2	uncomfortable	
373	2	lot	
374	2	precious	
375	2	fountainpens	
376	2	appointments	
377	2	press	
378	2	top	
379	2	world	
380	2	idk	
381	2	color	
382	2	pretty	
383	2	smoke	
384	2	city	
385	2	slippery	
386	2	shop	
387	2	brittle	
388	2	shiraz	
389	2	sky	
390	2	satisfied	
391	2	limited	
392	2	paranoid	
393	2	out	
394	2	cheaply	
395	2	asleep	
396	2	folks	
397	2	complicated	
398	2	vibrant	
399	2	side	
400	2	dollar	
401	2	decent	
402	2	pad	
403	2	true	
404	2	road	
405	2	negligible	
406	2	borealis	
407	2	artpencil	
408	1	behemoth	
409	1	weak	
410	1	passato	
411	1	straighter	
412	1	marble	
413	1	impressions	
414	1	camelcamelcamel	
415	1	cute	
416	1	amateur	
417	1	aldi	
418	1	wave	
419	1	midori	
420	1	clockwise	
421	1	mafia	
422	1	goya	
423	1	2.0	
424	1	jam	
425	1	oceania	
426	1	🤔	
427	1	front	
428	1	excess	
429	1	lazuli	
430	1	upset	
431	1	shy	
432	1	ruined	
433	1	eagle	
434	1	insane	
435	1	twinguin	
436	1	fatter	
437	1	https://www.reddit.com/r/fountainpens/comments/6o6oac/wonderpens_exclusive_the_superior_labor_leather/	
438	1	clunky	
439	1	lamé	
440	1	nepotism	
441	1	beware	
442	1	i_used_to_be_a_machinist_in_college_and_loved/	
443	1	4d38e5196008	
444	1	pure	
445	1	👍	
446	1	alpha	
447	1	note	
448	1	inaccurate	
449	1	architect	
450	1	option	
451	1	practice	
452	1	designed	
453	1	lines	
454	1	premier	
455	1	well	
456	1	pocket	
457	1	improbable	
458	1	mr	
459	1	hidden	
460	1	egg	
461	1	germany	
462	1	aiko	
463	1	impervious	
464	1	larry	
465	1	tortas	
466	1	trade	
467	1	network	
468	1	lizard	
469	1	exclusive	
470	1	compatible	
471	1	masters	
472	1	hunnyhut	
473	1	unusual	
474	1	site	
475	1	brian	
476	1	goo	
477	1	x2ep7m4sd-8	
478	1	ro	
479	1	quapaw	
480	1	umbrella	
481	1	issue	
482	1	afraid	
483	1	amount	
484	1	counterclockwise	
485	1	blackbird	
486	1	defect	
487	1	namisu	
488	1	luxor	
489	1	pisuke	
490	1	moldy	
491	1	jewlerymathematics	
492	1	reviewed	
493	1	flimsy	
494	1	ornamental	
495	1	resin	
496	1	locked	
497	1	safer(as	
498	1	oversight	
499	1	queen	
500	1	welcome	
501	1	kroontjespen	
502	1	thinks	
503	1	plumage	
504	1	restful	
505	1	hitherto	
506	1	conceited	
507	1	leather	
508	1	environmental	
509	1	junk	
510	1	rupp	
511	1	conventional	
512	1	frankenpen	
513	1	quiiiiiite	
514	1	humble	
515	1	incoherent	
516	1	their	
517	1	worn	
518	1	lighter	
519	1	oxblood	
520	1	usable	
521	1	prohlem	
522	1	pointless	
523	1	own	
524	1	versatile	
525	1	awake	
526	1	softer	
527	1	chill	
528	1	minty	
529	1	crystal	
530	1	sane	
531	1	cab	
532	1	tinker	
533	1	confused	
534	1	built	
535	1	soyuz	
536	1	kinokuniya	
537	1	leaked	
538	1	choice	
539	1	boheme	
540	1	coarse	
541	1	instant	
542	1	nibmeisters	
543	1	raised	
544	1	dragon	
545	1	organizer	
546	1	looked	
547	1	https://i.imgur.com/rubg72v.jpg	
548	1	egypt	
549	1	noticeable	
550	1	customer	
551	1	overwhelming	
552	1	lmfao	
553	1	weekend	
554	1	petrified	
555	1	absurd	
556	1	run	
557	1	originally-	
558	1	foolproof	
559	1	boilerplate	
560	1	ass	
561	1	unprotected	
562	1	selling	
563	1	unclean	
564	1	whiny	
565	1	mmmm	
566	1	tower	
567	1	november	
568	1	lefthanded	
569	1	shallow	
570	1	unsaid	
571	1	zoom-505-fp/	
572	1	cleaned	
573	1	garden	
574	1	arrow	
575	1	geha	
576	1	chrome	
577	1	roxy	
578	1	roxanne	
579	1	unshaken	
580	1	yachingstyle	
581	1	enjoyable	
582	1	imaginable	
583	1	colorado	
584	1	hehe	
585	1	書名號	
586	1	ground	
587	1	poser	
588	1	chinese	
589	1	silly	
590	1	operate	
591	1	90s.	
592	1	something	
593	1	fearful	
594	1	knockoff	
595	1	piston	
596	1	😮	
597	1	ton	
598	1	plumix	
599	1	surprising	
600	1	company	
601	1	u	
602	1	quink	
603	1	reform	
604	1	unic	
605	1	springy	
606	1	project](http://himalayanstoveproject.org	
607	1	recent	
608	1	patthar	
609	1	bortoletti	
610	1	😌	
611	1	modified	
612	1	drier	
613	1	bust	
614	1	christ	
615	1	tribe	
616	1	bug	
617	1	0.5	
618	1	luxuries	
619	1	cils	
620	1	shiny	
621	1	scriptus	
622	1	catawiki	
623	1	_	
624	1	gimmicky	
625	1	penne	
626	1	autumnal	
627	1	erasability	
628	1	upped	
629	1	guruma	
630	1	sad	
631	1	important	
632	1	modern	
633	1	mithai	
634	1	tomorrow	
635	1	case	
636	1	superflex	
637	1	monster	
638	1	feathers	
639	1	thick	
640	1	refined	
641	1	unread	
642	1	misaligned	
643	1	ultra	
644	1	steal	
645	1	cbc	
646	1	feeling	
647	1	three	
648	1	pushy	
649	1	victornet.com	
650	1	splatter	
651	1	enabler	
652	1	calli	
653	1	such	
654	1	severe	
655	1	hyperfocus	
656	1	relaxing	
657	1	delicate	
658	1	closed	
659	1	ones	
660	1	jobex	
661	1	lifecovers	
662	1	raspberry	
663	1	accounting	
664	1	elite	
665	1	domestic	
666	1	carry	
667	1	manifold	
668	1	seal	
669	1	unit	
670	1	italia	
671	1	insurer	
672	1	t	
673	1	con	
674	1	plain	
675	1	edelstain	
676	1	gye0kav.png	
677	1	comparisons	
678	1	corroded	
679	1	mediated	
680	1	translucent	
681	1	lanbitou	
682	1	amber	
683	1	goldenrod	
684	1	bearable	
685	1	skin	
686	1	bookstore	
687	1	performance	
688	1	888	
689	1	cut	
690	1	sheppard	
691	1	scarce	
692	1	olive	
693	1	facebook	
694	1	outside	
695	1	cristal	
696	1	schreibgeräte	
697	1	padfield	
698	1	bluer	
699	1	matt	
700	1	lavender	
701	1	muji	
702	1	feather	
703	1	masculine	
704	1	wrap	
705	1	sheen	
706	1	eye	
707	1	consolidation	
708	1	🙃	
709	1	uninspired	
710	1	contentment	
711	1	dismissive	
712	1	tidy	
713	1	craft	
714	1	co.	
715	1	saffron	
716	1	alien	
717	1	senior	
718	1	class	
719	1	automaton	
720	1	curious	
721	1	primavia	
722	1	zimbo	
723	1	fruit	
724	1	dishonest	
725	1	b	
726	1	left	
727	1	boss	
728	1	scared	
729	1	norcom	
730	1	inconsistent	
731	1	untill	
732	1	cartridge	
733	1	connector	
734	1	bulkfiller	
735	1	stem	
736	1	uncertain	
737	1	flax	
738	1	jewel	
739	1	bronze	
740	1	bottom	
741	1	ginga	
742	1	terrible	
743	1	nutcracker	
744	1	colorverse	
745	1	x	
746	1	kinokunya	
747	1	crappy	
748	1	exhaustive	
749	1	futuristic	
750	1	refillable	
751	1	n	
752	1	appealing	
753	1	pacific	
754	1	iirc	
755	1	unni	
756	1	lx	
757	1	gidania	
758	1	insignificant	
759	1	heartbroken	
760	1	special	
761	1	present	
762	1	mathematica	
763	1	cardin	
764	1	creepy	
765	1	wild	
766	1	reported	
767	1	chic	
768	1	extra	
769	1	turquoise	
770	1	crimson	
771	1	private	
772	1	gay	
773	1	spek	
774	1	untightened	
775	1	design	
776	1	tommorow	
777	1	carved	
778	1	lightest	
779	1	entertaining	
780	1	cabinet	
781	1	rosier	
782	1	shade	
783	1	succinct	
784	1	balmain	
785	1	representative	
786	1	pmma	
787	1	them	
788	1	sweet	
789	1	stand	
790	1	steiner	
791	1	guard	
792	1	perpendicular	
793	1	dirty	
794	1	waverly	
795	1	fude	
796	1	titanium	
797	1	damage	
798	1	ease	
799	1	blurry	
800	1	pd/5519	
801	1	moses	
802	1	ancora	
803	1	finicky	
804	1	safaris	
805	1	prudent	
806	1	origami	
807	1	artlite	
808	1	able	
809	1	stylo.ca	
810	1	athena	
811	1	penagora.com	
812	1	counterintuitive	
813	1	chayamachi	
814	1	constructed	
815	1	problem	
816	1	lecai	
817	1	pale	
818	1	orderly	
819	1	couple	
820	1	research	
821	1	limitlesspens	
822	1	ed	
823	1	-line	
824	1	magical	
825	1	proportionate	
826	1	subdued	
827	1	larrypost.com.au	
828	1	ridiculous	
829	1	spencerian	
830	1	semi	
831	1	12/01	
832	1	squeezed	
833	1	itoya	
834	1	compact	
835	1	carene	
836	1	flatter	
837	1	specific	
838	1	birmingham	
839	1	fickle	
840	1	lettering	
841	1	here-	
842	1	advantage	
843	1	create	
844	1	travelers	
845	1	hobby	
846	1	naked	
847	1	uncleaned	
848	1	aurora	
849	1	change	
850	1	toenail	
851	1	oversize	
852	1	militarie	
853	1	l'ecritoire	
854	1	stolen	
855	1	manduella	
856	1	memories	
857	1	sacs	
858	1	flexy	
859	1	number	
860	1	quiet	
861	1	grene	
862	1	shelf	
863	1	pangram	
864	1	wider	
865	1	day	
866	1	unit-	
867	1	unfair	
868	1	awkward	
869	1	angled	
870	1	lamy	
871	1	teeth	
872	1	kahakai	
873	1	untrue	
874	1	quits	
875	1	sm	
876	1	prototype	
877	1	sitting	
878	1	incredible	
879	1	finish	
880	1	pain	
881	1	stub	
882	1	hollow	
883	1	bungbox	
884	1	need	
885	1	sided	
886	1	down	
887	1	leak	
888	1	word	
889	1	excellent	
890	1	discomfort	
891	1	undersized	
892	1	payments	
893	1	inkworm	
894	1	camerafi	
895	1	dated	
896	1	aggressive	
897	1	notebook	
898	1	misleading	
899	1	alpine	
900	1	us	
901	1	trinket	
902	1	miquelrius	
903	1	preferable	
904	1	student	
905	1	skb	
906	1	iro	
907	1	fan	
908	1	uniform	
909	1	challenging	
910	1	satisfying	
911	1	y	
912	1	solo	
913	1	riskier	
914	1	conid	
915	1	https://imgur.com/a/a6aqh	
916	1	hinder	
917	1	lost	
918	1	anonymous	
919	1	innovation	
920	1	pelikan	
921	1	barf	
922	1	snakewang	
923	1	negoro	
924	1	wrinkles	
925	1	illegible	
926	1	uxpblve.jpg	
927	1	resistant	
928	1	flowing	
929	1	bailey	
930	1	revolution	
931	1	curran	
932	1	haibara	
933	1	mypen	
934	1	continental	
935	1	1st	
936	1	write	
937	1	gentle	
938	1	friend	
939	1	smell	
940	1	officeworks	
941	1	nightshade	
942	1	http://www.gourmetpens.com/2017/04/review-winkpens-glass-nib-pen-from.html#.wq80p46qptq	
943	1	uxzprswtcho	
944	1	scratchiness	
945	1	a	
946	1	interchangeable	
947	1	veneer	
948	1	unopened	
949	1	graveyard	
950	1	oblique	
951	1	tricky	
952	1	sketchink	
953	1	punch	
954	1	varini	
955	1	blocked	
956	1	c3po	
957	1	dainty	
958	1	grey	
959	1	clipless	
960	1	bureaudirect	
961	1	lousy	
962	1	fuel	
963	1	assets	
964	1	skinnier	
965	1	opinion	
966	1	latina	
967	1	elements	
968	1	eggs	
969	1	drinks	
970	1	duder	
971	1	watch?v=0lniwum1jhm&amp;t=16s	
972	1	show	
973	1	calligraphy	
974	1	checks	
975	1	clip	
976	1	brick	
977	1	fil	
978	1	fantasy	
979	1	packaged	
980	1	penhood	
981	1	펜후드	
982	1	syogun	
983	1	field	
984	1	oomph	
985	1	kingfisherclawstudios	
986	1	coupon	
987	1	ideal	
988	1	senseless	
989	1	daedalus	
990	1	masterpiece	
991	1	pentaloons	
992	1	kaweco+sage	
993	1	enlight	
994	1	os	
995	1	produce	
996	1	fluid	
997	1	thoughtful	
998	1	mesnevi	
999	1	frontier	
1000	1	vista	
1001	1	sound	
1002	1	recipe	
1003	1	smoothness	
1004	1	oens	
1005	1	tedious	
1006	1	chiren	
1007	1	specs](https://specs.lamy.com	
1008	1	while	
1009	1	dull	
1010	1	fake	
1011	1	sales	
1012	1	arco	
1013	1	no	
1014	1	speed	
1015	1	t1-k7vywshg	
1016	1	@geralastel	
1017	1	pfm	
1018	1	ear	
1019	1	skater	
1020	1	here](7hedaniel.wordpress.com/	
1021	1	inky	
1022	1	fantastic	
1023	1	stabilized	
1024	1	exciting	
1025	1	580	
1026	1	story	
1027	1	unsuitable	
1028	1	jr.	
1029	1	reflective	
1030	1	matte	
1031	1	greener	
1032	1	penn	
1033	1	blazer	
1034	1	link	
1035	1	kristrup	
1036	1	source	
1037	1	humor	
1038	1	flow	
1039	1	plebeian	
1040	1	hahah	
1041	1	recommendable	
1042	1	sketchy	
1043	1	unreliable	
1044	1	colour	
1045	1	jinhao	
1046	1	hisoku	
1047	1	regular	
1048	1	psychology	
1049	1	fuliwen	
1050	1	purpblugh	
1051	1	garde	
1052	1	compare	
1053	1	reluctant	
1054	1	under	
1055	1	20	
1056	1	fingertight	
1057	1	offguard	
1058	1	unusable	
1059	1	untreated	
1060	1	nibmeister	
1061	1	serenity	
1062	1	relevant	
1063	1	freddie	
1064	1	nerd	
1065	1	clairefontaine	
1066	1	juicy	
1067	1	brillo	
1068	1	文野さんの文具な日常	
1069	1	なれるｓｅ	
1070	1	mango	
1071	1	mordecai	
1072	1	sir	
1073	1	bllarkin	
1074	1	bellow	
1075	1	dried	
1076	1	suspended	
1077	1	efficient	
1078	1	costly	
1079	1	pilot	
1080	1	blueish	
1081	1	named	
1082	1	variable	
1083	1	dinosaur	
1084	1	direct	
1085	1	2k	
1086	1	xxgf	
1087	1	yachts	
1088	1	galaxy	
1089	1	his	
1090	1	allure	
1091	1	graduate	
1092	1	secured	
1093	1	washing	
1094	1	deeper	
1095	1	madam	
1096	1	fingers	
1097	1	moment	
1098	1	ops	
1099	1	l’ecritoire	
1100	1	jian	
1101	1	lao	
1102	1	scribe	
1103	1	branding	
1104	1	opaque	
1105	1	shu	
1106	1	on\-topic	
1107	1	minimalist	
1108	1	m.	
1109	1	freehand	
1110	1	sketch	
1111	1	inside	
1112	1	abstract	
1113	1	in:/	
1114	1	scenario	
1115	1	public	
1116	1	xdp	
1117	1	newer	
1118	1	thor	
1119	1	hmm	
1120	1	collector	
1121	1	24k	
1122	1	kawaii	
1123	1	mint	
1124	1	fanatical	
1125	1	sized	
1126	1	czip	
1127	1	ronde	
1128	1	feminine	
1129	1	donkey	
1130	1	intuitive	
1131	1	gunk	
1132	1	japan	
1133	1	horizontal	
1134	1	gigantic	
1135	1	extreme	
1136	1	ballpoint	
1137	1	secretive	
1138	1	fading	
1139	1	horrendous	
1140	1	feed	
1141	1	pricier	
1142	1	school	
1143	1	baron	
1144	1	t&amp;t	
1145	1	cuz	
1146	1	sometime	
1147	1	ie	
1148	1	canyon	
1149	1	kimonos	
1150	1	liquify	
1151	1	draftech	
1152	1	feathery	
1153	1	promotion	
1154	1	hunch	
1155	1	comte	
1156	1	caps	
1157	1	knowledgeable	
1158	1	papirum	
1159	1	flopping	
1160	1	taiwan	
1161	1	rockon	
1162	1	history	
1163	1	salvaged	
1164	1	rougher	
1165	1	strong	
1166	1	exquisite	
1167	1	unmarred	
1168	1	fillers	
1169	1	iconic	
1170	1	ausgangsschrift	
1171	1	daunting	
1172	1	victapen	
1173	1	blank	
1174	1	lamp	
1175	1	truecolor	
1176	1	syringe	
1177	1	homeless	
1178	1	of	
1179	1	ahab	
1180	1	maintained	
1181	1	tanigawadake	
1182	1	smeary	
1183	1	keen	
1184	1	summer	
1185	1	duckling	
1186	1	queue	
1187	1	raden	
1188	1	stateside	
1189	1	eversharp	
1190	1	dynasty	
1191	1	kryptonite	
1192	1	excelsiod	
1193	1	based	
1194	1	flutter	
1195	1	wind	
1196	1	ripple	
1197	1	inc.	
1198	1	accountable	
1199	1	valid	
1200	1	intimidating	
1201	1	slimmer	
1202	1	guys	
1203	1	anastasia	
1204	1	mizuki	
1205	1	cheapest	
1206	1	center	
1207	1	reps	
1208	1	tintenkiller	
1209	1	rodgers	
1210	1	hook	
1211	1	peterdraws	
1212	1	diesel	
1213	1	dux	
1214	1	biltwel	
1215	1	abundant	
1216	1	plastic	
1217	1	maldives	
1218	1	back	
1219	1	hyperhidrosis	
1220	1	glass	
1221	1	inc	
1222	1	g2	
1223	1	labradorite	
1224	1	concise	
1225	1	specialized	
1226	1	waifs	
1227	1	complex	
1228	1	inkflow	
1229	1	process	
1230	1	imperator	
1231	1	3952pen	
1232	1	edit	
1233	1	favorite	
1234	1	tray	
1235	1	verde	
1236	1	e95s	
1237	1	adolfson	
1238	1	wifey	
1239	1	heart	
1240	1	mykombini	
1241	1	ic100	
1242	1	vague	
1243	1	😭	
1244	1	engineering	
1245	1	snowflake	
1246	1	nicethings	
1247	1	frodo	
1248	1	plaza	
1249	1	unrelatable	
1250	1	look	
1251	1	intuative	
1252	1	plains	
1253	1	arebom	
1254	1	paperchase	
1255	1	shadowrun	
1256	1	bargain	
1257	1	stamps	
1258	1	standard	
1259	1	tiny	
1260	1	trouble	
1261	1	rust	
1262	1	yama	
1263	1	industries	
1264	1	adult	
1265	1	vermouth	
1266	1	abnormal	
1267	1	toys	
1268	1	impressive	
1269	1	fill	
1270	1	post-1968	
1271	1	attached	
1272	1	guy	
1273	1	contingent	
1274	1	juma	
1275	1	universal	
1276	1	opart	
1277	1	xiao	
1278	1	siman	
1279	1	luxurious	
1280	1	restrictive	
1281	1	pal	
1282	1	bladder	
1283	1	behavior	
1284	1	brocade	
1285	1	enough	
1286	1	graffiti	
1287	1	dpwms	
1288	1	touching	
1289	1	templar	
1290	1	middle	
1291	1	damascus	
1292	1	woohoo	
1293	1	picky	
1294	1	inappropriate	
1295	1	strict	
1296	1	tertia	
1297	1	1.qual	
1298	1	why	
1299	1	target	
1300	1	nah	
1301	1	penvelope	
1302	1	gall	
1303	1	invite	
1304	1	marketplaats	
1305	1	motivated	
1306	1	gift	
1307	1	series	
1308	1	pinart	
1309	1	ready	
1310	1	self	
1311	1	protected	
1312	1	toothy	
1313	1	hyped	
1314	1	spiral	
1315	1	here](https://www.mcwoodturnings.com/	
1316	1	complaint	
1317	1	excited	
1318	1	valuable	
1319	1	scary	
1320	1	petty	
1321	1	segregated	
1322	1	arcane	
1323	1	luxury	
1324	1	pleasant	
1325	1	3008	
1326	1	deep	
1327	1	inexpensive	
1328	1	250mxn	
1329	1	keeton	
1330	1	prob	
1331	1	3952	
1332	1	obtuse	
1333	1	gills	
1334	1	stiffer	
1335	1	classy	
1336	1	williampenn	
1337	1	unchanged	
1338	1	classic	
1339	1	twsbi	
1340	1	homeboy	
1341	1	colorful	
1342	1	shortened	
1343	1	dishsoap	
1344	1	shades	
1345	1	clipped	
1346	1	all	
1347	1	lavande	
1348	1	kai	
1349	1	smurf	
1350	1	conversational	
1351	1	cap	
1352	1	android	
1353	1	radite	
1354	1	certain	
1355	1	copper	
1356	1	autocorrect	
1357	1	swirl	
1358	1	convoluted	
1359	1	openable	
1360	1	mindset	
1361	1	water	
1362	1	ironic	
1363	1	shimmer	
1364	1	aeromatic	
1365	1	prettiest	
1366	1	huge	
1367	1	cheesy	
1368	1	automatic	
1369	1	bigger	
1370	1	m	
1371	1	blasphemous	
1372	1	chris	
1373	1	misalignment	
1374	1	best	
1375	1	edc	
1376	1	tines	
1377	1	challenger	
1378	1	pattern	
1379	1	ebay	
1380	1	gensou	
1381	1	woodcraft	
1382	1	stranger	
1383	1	duty	
1384	1	hot	
1385	1	straightforward	
1386	1	9626	
1387	1	unflexed	
1388	1	ocean	
1389	1	41	
1390	1	drags	
1391	1	k	
1392	1	canada	
1393	1	bandit	
1394	1	(:	
1395	1	marvelous	
1396	1	pliable	
1397	1	pretentious	
1398	1	contour	
1399	1	wide	
1400	1	nuage	
1401	1	gorgeous	
1402	1	hardcore	
1403	1	virdigris	
1404	1	midnight	
1405	1	collegeblock	
1406	1	xd	
1407	1	m400	
1408	1	spring	
1409	1	50	
1410	1	bold	
1411	1	powder	
1412	1	mcinkface	
1413	1	evans	
1414	1	overkill	
1415	1	mix	
1416	1	regarded	
1417	1	hahaha	
1418	1	pecan	
1419	1	gamble	
1420	1	useul	
1421	1	kmart	
1422	1	montblanc	
1423	1	lab	
1424	1	radioactive	
1425	1	apart](https://i.imgur.com/52r5oor.jpg	
1426	1	flabbergasted	
1427	1	frugal	
1428	1	sands	
1429	1	upturned	
1430	1	nelson	
1431	1	understandable	
1432	1	bernard	
1433	1	slug	
1434	1	retail	
1435	1	schmidt	
1436	1	locks	
1437	1	box	
1438	1	hmmm	
