#Word types: 189
#Word tokens: 247
#Search results: 0
1	20	Parker 51	
2	12	the Custom 74	
3	6	De Atramentis Document Ink Black	
4	6	Sailor	
5	6	the Custom 823	
6	4	The Custom 74	
7	3	the CH 92	
8	3	Model 02	
9	2	CH 92	
10	2	De Atramentis Document	
11	2	Sailor 21k	
12	2	Constitution	
13	2	The Man 21	
14	2	HP 32	
15	1	the Royal Gold	
16	1	Food, Fashion	
17	1	3D	
18	1	Legno 89s	
19	1	CH 912	
20	1	JoWo	
21	1	Topaz Sailor	
22	1	Aurora 88	
23	1	the Classic Centuries	
24	1	Fresca	
25	1	Leuchtterm 1917	
26	1	LAMY 2000	
27	1	the F. Scott Fitzgerald Montblanc pen	
28	1	the "Lamy Safaris"	
29	1	the Preppy 02	
30	1	Pelikan Edlestein Amber	
31	1	a "Mont Blanc"	
32	1	the Custom 74 and 91	
33	1	the Faber Castell Loom	
34	1	100th	
35	1	Clairefontaine Basic Clothbound	
36	1	Diamine 80ml	
37	1	Atleast 25	
38	1	Sailor Steel Fude nib	
39	1	the nib 4	
40	1	the Custom 742	
41	1	the Form 1	
42	1	a EF Preppy	
43	1	Esterbrook 1550	
44	1	post](https://www.reddit.com/r/Handwriting/comments/70o9zk	
45	1	the "Top 10 Bots"	
46	1	parker 17	
47	1	R&amp;K Alt Gold Grun	
48	1	Sailor Shikiori	
49	1	Baoer 801	
50	1	Jinhao 250	
51	1	the OHTO Rook	
52	1	Blue  Edit 2	
53	1	PLATINUM 18	
54	1	Tsutsuji +	
55	1	Custom 74	
56	1	a Faber-Castell Loom	
57	1	Carter 55mm long - 12.85	
58	1	Confirmation Bias	
59	1	the X-Feather	
60	1	Metropolitan 2	
61	1	the TWBSI 530	
62	1	the "Lamy 2000"	
63	1	my Retro 51 Tornado	
64	1	Girologio 12	
65	1	Taobao Global Consolidation	
66	1	a "US Rakuten"	
67	1	the Silent Night	
68	1	the "Professional Series	
69	1	Rule 60 elementary cellular automaton	
70	1	~~victim~~ *	
71	1	PM-ME-STEAM-GAMES	
72	1	the KK Ink	
73	1	Pilot Custom 74	
74	1	a Fine Pilot Metropolitan	
75	1	a Rotring 2000	
76	1	Baystate	
77	1	Kaweco 55	
78	1	the Code &amp	
79	1	CH 912 with PO nib	
80	1	the Palmer Method of Business Writing	
81	1	the Hero 338	
82	1	the Retro 51 Tornado	
83	1	Pilot Custom 67	
84	1	EoC	
85	1	the Custom 912	
86	1	the Dark Lilac	
87	1	the Classic Century	
88	1	OD 11	
89	1	Model 31	
90	1	De Atramentis Document Ink - Fog Grey      	
91	1	a Faber Castell Student	
92	1	the Organic Ink	
93	1	Sailor Grenade	
94	1	McDonalds *	
95	1	Parker 75	
96	1	a *Preppy*	
97	1	the Dan Smith'd Lamy 2000	
98	1	Iro and Sailor	
99	1	Energel Euro 0.35	
100	1	Pure Black	
101	1	the Waterman 20	
102	1	Noir et	
103	1	a Noodler's Ahab in Jade	
104	1	the Faber Castell Deep Sea Green	
105	1	the Platinum Preppy Eyedropper Conversion	
106	1	MB 22	
107	1	a Karas Kustoms Ink	
108	1	Custom 823	
109	1	Custom 74 series	
110	1	https://i.imgur.com/rwd7COR.jpg  	
111	1	the Diamine 30ml	
112	1	https://imgur.com/a/WGKW7bA  	
113	1	the Monteverde Documental Black	
114	1	the Treaty of San Francisco	
115	1	a Faber Castell Loom	
116	1	the Parker 51	
117	1	a Rhodia	
118	1	Roses and Calligraphy Passion Ink	
119	1	the Sheaffer Compact	
120	1	the Sheaffer Compact I	
121	1	the Sheaffer Compact II	
122	1	Franklin Christoph Model 31	
123	1	my SF 74	
124	1	MY OTHER 51	
125	1	my Osmiroid Calligraphy	
126	1	the CH 74	
127	1	Section 2	
128	1	a Faber Castell Ambition	
129	1	Custom 100	
130	1	Custom Heritage 92	
131	1	54th/document ink	
132	1	Franklin Christoph Model 65	
133	1	Series A6 Light Blue	
134	1	the Conid Regular	
135	1	my Custom 823s EF	
136	1	Montblanc 2	
137	1	the Kyoto Station Itoya 12 hours ago	
138	1	the Castellano Midnight Blue	
139	1	F nib Century	
140	1	a Waterman 512V	
141	1	this Visconti Flagship Store	
142	1	1st Euro	
143	1	the "Mikado Round Top w/o clip"	
144	1	the Visconti Travelling Inkwell	
145	1	the French Rule	
146	1	Rhodia/	
147	1	the XPS 13	
148	1	De Atramentis Document Black Ink	
149	1	Franklin Christoph Model 02	
150	1	the Bungbox Ebisu Gold	
151	1	Custom 742 and 7	
152	1	Pens	
153	1	Parker 51's	
154	1	Amazon fare](https://www.amazon.com/Sealing-Yoption-Manuscript-Multi-Color-Postage	
155	1	UTF8&amp;qid=1534633015&amp;sr=8-3&amp;keywords	
156	1	fluro	
157	1	the SF Pen Show	
158	1	De Atramentis Document Ink Dark Blue	
159	1	Parker 61	
160	1	The Montblanc 14	
161	1	algebra 2	
162	1	Custom 742	
163	1	the Jurassic Amber	
164	1	the Visconti Traveling Inkwell	
165	1	the CH 92 though	
166	1	😬😬😬😬	
167	1	the CH 91s SM	
168	1	Retro 51 Declaration Signatures FP	
169	1	the **	
170	1	the Great Moment of the	
171	1	normal"-nibs	
172	1	Tsutsuji	
173	1	a Faber Castell Loom M	
174	1	GTC 70 sheets 1	
175	1	Slack	
176	1	the "Le Grand"	
177	1	the Tariff Act	
178	1	a Tide To Go Pen	
179	1	the Night Edition	
180	1	Contour 22	
181	1	a M Pilot Prera	
182	1	Metropolitan * Resin	
183	1	Iroshizuku 15ml	
184	1	Zebra V301 3 Series	
185	1	PEN 15	
186	1	the Starry Night Blue	
187	1	collect demonstrators](https://www.reddit.com/r/fountainpens/	
188	1	Edelstein= usd 0.22	
189	1	ArtPencil	
