#Word types: 60
#Word tokens: 50368
#Search results: 0
1	12970	if	
2	10961	that	
3	5114	as	
4	4721	because	
5	2474	since	
6	2054	so	
7	2027	like	
8	1424	while	
9	1422	though	
10	1201	than	
11	981	before	
12	939	for	
13	794	although	
14	752	until	
15	604	after	
16	599	once	
17	395	unless	
18	296	whether	
19	126	cause	
20	124	with	
21	84	whereas	
22	59	in	
23	51	except	
24	51	till	
25	16	cuz	
26	14	whilst	
27	12	which	
28	10	til	
29	10	without	
30	10	'cause	
31	9	albeit	
32	9	the	
33	5	about	
34	4	on	
35	4	besides	
36	4	what	
37	4	versus	
38	3	at	
39	3	despite	
40	3	considering	
41	2	lest	
42	2	through	
43	2	above	
44	2	between	
45	2	of	
46	1	nope	
47	1	these	
48	1	beyond	
49	1	by	
50	1	past	
51	1	dance	
52	1	becase	
53	1	no	
54	1	less	
55	1	sorry	
56	1	this	
57	1	minus	
58	1	twsbi	
59	1	given	
60	1	athough	
