#Word types: 1899
#Word tokens: 94442
#Search results: 0
1	20519	was	
2	7324	did	
3	6239	had	
4	5929	got	
5	2932	were	
6	2233	bought	
7	1984	thought	
8	1760	came	
9	1604	found	
10	1601	wanted	
11	1572	used	
12	1325	said	
13	1272	made	
14	1243	went	
15	1173	tried	
16	1172	took	
17	1150	saw	
18	832	ordered	
19	800	started	
20	747	decided	
21	745	looked	
22	686	put	
23	615	wrote	
24	562	picked	
25	553	gave	
26	509	figured	
27	493	knew	
28	483	ended	
29	475	posted	
30	424	liked	
31	418	felt	
32	391	noticed	
33	353	asked	
34	343	worked	
35	338	sent	
36	330	needed	
37	330	arrived	
38	313	seemed	
39	309	heard	
40	306	inked	
41	304	told	
42	299	left	
43	293	happened	
44	286	meant	
45	286	forgot	
46	283	received	
47	278	paid	
48	275	mentioned	
49	261	purchased	
50	258	turned	
51	242	sold	
52	242	loved	
53	236	checked	
54	233	expected	
55	227	filled	
56	224	fell	
57	223	kept	
58	218	realized	
59	218	cleaned	
60	209	read	
61	199	spent	
62	194	added	
63	194	learned	
64	188	helped	
65	185	managed	
66	171	included	
67	167	chose	
68	166	showed	
69	163	brought	
70	152	pulled	
71	150	broke	
72	137	set	
73	137	ran	
74	133	missed	
75	132	dropped	
76	132	’d	
77	131	lost	
78	129	became	
79	121	stopped	
80	120	opened	
81	119	'd	
82	115	tested	
83	114	called	
84	112	changed	
85	105	swapped	
86	103	cost	
87	100	suggested	
88	99	enjoyed	
89	98	assumed	
90	98	discovered	
91	97	switched	
92	95	replaced	
93	94	finished	
94	93	shipped	
95	92	flushed	
96	92	grabbed	
97	90	offered	
98	88	let	
99	87	watched	
100	85	considered	
101	84	cut	
102	84	recommended	
103	84	caught	
104	83	hit	
105	83	threw	
106	79	surprised	
107	78	held	
108	77	emailed	
109	77	fixed	
110	74	removed	
111	70	visited	
112	67	restored	
113	67	contacted	
114	66	remembered	
115	64	drew	
116	64	pushed	
117	63	won	
118	63	moved	
119	62	cracked	
120	62	crossed	
121	62	stuck	
122	62	saved	
123	61	waited	
124	60	stumbled	
125	57	passed	
126	55	mixed	
127	55	dried	
128	54	jumped	
129	53	hated	
130	53	existed	
131	53	grew	
132	53	linked	
133	52	behaved	
134	52	messed	
135	51	met	
136	51	pointed	
137	51	wondered	
138	50	agreed	
139	50	replied	
140	50	followed	
141	49	walked	
142	49	talked	
143	49	sat	
144	49	caused	
145	48	commented	
146	47	rose	
147	47	screw	
148	46	searched	
149	46	washed	
150	46	owned	
151	46	plated	
152	46	created	
153	45	lined	
154	45	ruled	
155	45	uncapped	
156	45	carried	
157	45	began	
158	44	required	
159	43	googled	
160	43	reminded	
161	42	screwed	
162	42	sanded	
163	41	failed	
164	41	popped	
165	41	dipped	
166	40	hoped	
167	39	realised	
168	39	stayed	
169	38	ground	
170	38	returned	
171	38	acquired	
172	38	snapped	
173	38	described	
174	37	released	
175	37	soaked	
176	37	led	
177	37	loaded	
178	37	placed	
179	36	answered	
180	36	listed	
181	36	spoke	
182	36	applied	
183	36	bent	
184	36	lived	
185	35	stated	
186	35	closed	
187	35	leaked	
188	35	convinced	
189	35	smoothed	
190	34	settled	
191	34	compared	
192	34	handed	
193	34	refilled	
194	34	opted	
195	33	snagged	
196	33	inspired	
197	32	shook	
198	32	responded	
199	31	understood	
200	31	shared	
201	31	reached	
202	31	adjusted	
203	31	gifted	
204	31	shot	
205	30	taught	
206	30	tuned	
207	30	provided	
208	30	unscrew	
209	29	rinsed	
210	29	played	
211	29	imagined	
212	29	wanna	
213	28	skipped	
214	28	pressed	
215	28	explained	
216	28	produced	
217	27	preferred	
218	27	designed	
219	26	blew	
220	26	disassembled	
221	26	appreciated	
222	26	wiped	
223	26	solved	
224	26	nailed	
225	26	slipped	
226	26	polished	
227	25	unscrewed	
228	25	seen	
229	25	branded	
230	24	touched	
231	24	rolled	
232	24	cared	
233	24	belonged	
234	24	intended	
235	24	stole	
236	23	edited	
237	23	died	
238	23	developed	
239	23	sounded	
240	23	marked	
241	23	performed	
242	23	tossed	
243	23	stamped	
244	23	spilled	
245	23	feared	
246	23	uploaded	
247	23	joined	
248	22	delivered	
249	22	emptied	
250	22	appeared	
251	22	ruined	
252	22	lucked	
253	22	matched	
254	22	built	
255	22	planned	
256	21	bleed	
257	21	wished	
258	21	knocked	
259	21	lasted	
260	21	survived	
261	21	learnt	
262	20	guessed	
263	20	allowed	
264	20	copied	
265	20	printed	
266	20	signed	
267	20	landed	
268	20	laid	
269	20	split	
270	20	voted	
271	20	spotted	
272	20	bothered	
273	19	damaged	
274	19	smelled	
275	19	drove	
276	19	converted	
277	19	claimed	
278	19	graduated	
279	19	sucked	
280	19	inherited	
281	19	occurred	
282	18	measured	
283	18	introduced	
284	18	experienced	
285	17	confirmed	
286	17	stood	
287	17	deleted	
288	17	struck	
289	17	noted	
290	17	recognized	
291	17	stored	
292	17	updated	
293	17	scratched	
294	17	refused	
295	16	covered	
296	16	accepted	
297	16	dug	
298	16	drilled	
299	16	requested	
300	16	fitted	
301	16	rubbed	
302	16	worried	
303	15	upgraded	
304	15	coated	
305	15	d	
306	15	charged	
307	15	spread	
308	15	downvoted	
309	15	proceeded	
310	15	ate	
311	15	messaged	
312	15	lol	
313	15	-	
314	15	announced	
315	15	’s	
316	15	anticipated	
317	14	improved	
318	14	clogged	
319	14	installed	
320	14	contained	
321	14	disappeared	
322	14	eyedroppered	
323	14	handled	
324	14	gotten	
325	14	slid	
326	14	wrapped	
327	14	engraved	
328	14	feathered	
329	14	modified	
330	14	raised	
331	13	expressed	
332	13	corrected	
333	13	promised	
334	13	suspected	
335	13	exchanged	
336	13	confused	
337	13	remained	
338	13	flossed	
339	13	striped	
340	13	poured	
341	13	sung	
342	13	folded	
343	13	treated	
344	12	lay	
345	12	cried	
346	12	scored	
347	12	sprayed	
348	12	paired	
349	12	stained	
350	12	shaped	
351	12	beat	
352	12	scented	
353	12	entered	
354	12	tightened	
355	12	caved	
356	12	unposted	
357	12	dumped	
358	12	tipped	
359	12	traded	
360	12	browsed	
361	12	avoided	
362	12	flowed	
363	12	focused	
364	12	colored	
365	12	loosened	
366	12	spelled	
367	12	reviewed	
368	12	typed	
369	12	inserted	
370	11	bit	
371	11	studied	
372	11	flexed	
373	11	borrowed	
374	11	mailed	
375	11	bled	
376	11	continued	
377	11	exploded	
378	11	collected	
379	11	re	
380	11	attached	
381	11	scared	
382	11	wound	
383	11	separated	
384	11	sealed	
385	11	laughed	
386	11	reassembled	
387	11	hurt	
388	11	twisted	
389	11	discontinued	
390	11	flipped	
391	10	glued	
392	10	proved	
393	10	salvaged	
394	10	attempted	
395	10	smeared	
396	10	painted	
397	10	increased	
398	10	forced	
399	10	recieved	
400	10	advertised	
401	10	lubricated	
402	10	labeled	
403	10	capped	
404	10	killed	
405	10	pictured	
406	10	supposed	
407	10	attended	
408	10	exceeded	
409	9	involved	
410	9	cheated	
411	9	debated	
412	9	prompted	
413	9	featured	
414	9	greased	
415	9	etched	
416	9	experimented	
417	9	packed	
418	9	misunderstood	
419	9	refunded	
420	9	kicked	
421	9	disliked	
422	9	appealed	
423	9	shoved	
424	9	researched	
425	9	squeezed	
426	9	stripped	
427	9	tracked	
428	9	flew	
429	9	rounded	
430	9	cleared	
431	9	shopped	
432	9	tended	
433	9	stocked	
434	9	resulted	
435	9	named	
436	8	taped	
437	8	regretted	
438	8	reseated	
439	8	trusted	
440	8	referred	
441	8	narrowed	
442	8	warned	
443	8	sorted	
444	8	snatched	
445	8	selected	
446	8	lent	
447	8	swore	
448	8	chipped	
449	8	wore	
450	8	worded	
451	8	reported	
452	8	diluted	
453	8	brushed	
454	8	dragged	
455	8	served	
456	8	backed	
457	8	woke	
458	7	lacked	
459	7	sought	
460	7	motivated	
461	7	struggled	
462	7	resisted	
463	7	subscribed	
464	7	scraped	
465	7	declined	
466	7	impressed	
467	7	interested	
468	7	committed	
469	7	splashed	
470	7	grinded	
471	7	destroyed	
472	7	payed	
473	7	contributed	
474	7	traveled	
475	7	adapted	
476	7	hooded	
477	7	complimented	
478	7	been	
479	7	splurged	
480	7	costed	
481	7	wasted	
482	7	bumped	
483	7	reposted	
484	7	misspelled	
485	7	specified	
486	7	launched	
487	7	freaked	
488	7	afaik	
489	7	filed	
490	7	listened	
491	7	clicked	
492	6	ignored	
493	6	excited	
494	6	misplaced	
495	6	escalated	
496	6	revealed	
497	6	determined	
498	6	clipped	
499	6	fucked	
500	6	expanded	
501	6	weighed	
502	6	published	
503	6	wandered	
504	6	trained	
505	6	hesitated	
506	6	complained	
507	6	submitted	
508	6	rebuilt	
509	6	believed	
510	6	aligned	
511	6	seated	
512	6	limited	
513	6	nabbed	
514	6	dealt	
515	6	hyped	
516	6	intrigued	
517	6	mounted	
518	6	succeeded	
519	6	rushed	
520	6	indicated	
521	6	repaired	
522	6	donated	
523	6	stepped	
524	6	fiddled	
525	6	encouraged	
526	6	suffered	
527	6	bid	
528	6	commissioned	
529	6	overlooked	
530	6	recorded	
531	6	shout	
532	6	concluded	
533	6	weighted	
534	6	supplied	
535	6	bound	
536	6	squared	
537	6	gsm	
538	6	demonstrated	
539	6	hopped	
540	6	punched	
541	6	burped	
542	6	gathered	
543	6	tweaked	
544	6	stacked	
545	5	dripped	
546	5	lied	
547	5	droppered	
548	5	dated	
549	5	bodied	
550	5	sheened	
551	5	doubled	
552	5	questioned	
553	5	slept	
554	5	saturated	
555	5	retired	
556	5	completed	
557	5	captured	
558	5	sewed	
559	5	accelerated	
560	5	sampled	
561	5	tore	
562	5	discussed	
563	5	granted	
564	5	reduced	
565	5	chucked	
566	5	practiced	
567	5	swabbed	
568	5	notified	
569	5	trimmed	
570	5	scrubbed	
571	5	advised	
572	5	swatched	
573	5	depended	
574	5	melted	
575	5	disappointed	
576	5	shattered	
577	5	stalked	
578	5	chased	
579	5	rescued	
580	5	realigned	
581	5	punctured	
582	5	misaligned	
583	5	encountered	
584	5	buffed	
585	5	slapped	
586	5	rotated	
587	5	upvoted	
588	5	run	
589	5	insisted	
590	5	contemplated	
591	5	sized	
592	5	burned	
593	5	translated	
594	5	graded	
595	5	hooked	
596	5	shut	
597	5	pissed	
598	5	faceted	
599	5	ripped	
600	5	packaged	
601	5	headed	
602	5	deepened	
603	5	initiated	
604	5	attracted	
605	5	snuck	
606	5	organized	
607	5	counted	
608	5	unboxed	
609	4	discounted	
610	4	achieved	
611	4	tucked	
612	4	autocorrected	
613	4	averaged	
614	4	marketed	
615	4	priced	
616	4	toned	
617	4	banned	
618	4	formed	
619	4	fascinated	
620	4	poked	
621	4	dyed	
622	4	botched	
623	4	informed	
624	4	straightened	
625	4	arranged	
626	4	sparked	
627	4	sketched	
628	4	justified	
629	4	tempted	
630	4	cropped	
631	4	adopted	
632	4	modded	
633	4	positioned	
634	4	organised	
635	4	established	
636	4	neglected	
637	4	pre	
638	4	fit	
639	4	earned	
640	4	differed	
641	4	redid	
642	4	stared	
643	4	swirled	
644	4	balanced	
645	4	proposed	
646	4	gel	
647	4	slowed	
648	4	smudged	
649	4	yielded	
650	4	crossfield	
651	4	spoiled	
652	4	molded	
653	4	blacked	
654	4	soldered	
655	4	thanked	
656	4	rn	
657	4	phased	
658	4	approved	
659	4	epoxied	
660	4	identified	
661	4	addressed	
662	4	rebranded	
663	4	escaped	
664	4	cast	
665	4	scribbled	
666	4	alright	
667	4	acted	
668	4	shined	
669	4	flattened	
670	4	flaked	
671	4	goofed	
672	4	subbed	
673	4	downloaded	
674	4	shocked	
675	4	robbed	
676	4	bore	
677	4	prevented	
678	4	dismantled	
679	4	improvised	
680	4	assured	
681	4	sacrificed	
682	4	overtightened	
683	4	examined	
684	4	eyedropped	
685	4	butchered	
686	4	fought	
687	4	displayed	
688	4	fancied	
689	4	skimmed	
690	4	bookmarked	
691	4	estimated	
692	4	sprung	
693	4	hung	
694	4	viewed	
695	4	retracted	
696	4	apologized	
697	4	transplanted	
698	4	based	
699	4	evolved	
700	4	expired	
701	4	pigmented	
702	3	arose	
703	3	spurred	
704	3	coloured	
705	3	blasted	
706	3	denied	
707	3	topped	
708	3	sped	
709	3	casted	
710	3	accumulated	
711	3	panicked	
712	3	whipped	
713	3	mispelled	
714	3	subdued	
715	3	demanded	
716	3	leaned	
717	3	swung	
718	3	spaced	
719	3	framed	
720	3	outta	
721	3	incorporated	
722	3	drained	
723	3	invited	
724	3	hinted	
725	3	banged	
726	3	pronounced	
727	3	travelled	
728	3	poke	
729	3	tinkered	
730	3	deserved	
731	3	jammed	
732	3	baked	
733	3	watered	
734	3	invested	
735	3	sandpapered	
736	3	triggered	
737	3	pleased	
738	3	hid	
739	3	abt	
740	3	exposed	
741	3	stabbed	
742	3	lurked	
743	3	smoked	
744	3	prefered	
745	3	discarded	
746	3	dedicated	
747	3	syringed	
748	3	stuffed	
749	3	cooled	
750	3	seized	
751	3	muted	
752	3	warped	
753	3	dismissed	
754	3	frosted	
755	3	stitched	
756	3	locked	
757	3	bottled	
758	3	loaned	
759	3	resigned	
760	3	primed	
761	3	ceased	
762	3	amazed	
763	3	raved	
764	3	hardened	
765	3	guaranteed	
766	3	banded	
767	3	lacquered	
768	3	inverted	
769	3	cursed	
770	3	spied	
771	3	faded	
772	3	issued	
773	3	toyed	
774	3	stonewashed	
775	3	observed	
776	3	rusted	
777	3	numbered	
778	3	submerged	
779	3	risked	
780	3	shaded	
781	3	ranged	
782	3	enabled	
783	3	highlighted	
784	3	transitioned	
785	3	smashed	
786	3	assembled	
787	3	pumped	
788	3	refreshed	
789	3	underestimated	
790	3	distracted	
791	3	inspected	
792	3	transformed	
793	3	warmed	
794	3	humbled	
795	3	attacked	
796	3	dreamed	
797	3	mucked	
798	3	surpassed	
799	3	dusted	
800	3	evaporated	
801	3	vanished	
802	3	combined	
803	3	rediscovered	
804	3	understated	
805	3	winged	
806	3	interpreted	
807	3	upped	
808	3	chatted	
809	3	lit	
810	3	dared	
811	3	heated	
812	3	speculated	
813	3	tasted	
814	3	distributed	
815	3	shelved	
816	3	pooled	
817	3	revived	
818	3	imported	
819	3	lifted	
820	3	argued	
821	3	swiped	
822	3	compressed	
823	3	showcase	
824	3	quit	
825	3	thinned	
826	3	stabilized	
827	3	ruptured	
828	3	brew	
829	3	spun	
830	3	crashed	
831	3	gravitated	
832	3	prepared	
833	3	slit	
834	3	extended	
835	3	smoothened	
836	3	blended	
837	2	founded	
838	2	interacted	
839	2	stressed	
840	2	resolved	
841	2	planted	
842	2	timed	
843	2	shellacked	
844	2	handcrafted	
845	2	conducted	
846	2	reassured	
847	2	delayed	
848	2	originated	
849	2	accused	
850	2	suited	
851	2	defeated	
852	2	peeked	
853	2	depleted	
854	2	slashed	
855	2	approached	
856	2	embossed	
857	2	stashed	
858	2	formatted	
859	2	sourced	
860	2	defended	
861	2	favored	
862	2	remarked	
863	2	relied	
864	2	boasted	
865	2	tired	
866	2	climbed	
867	2	balled	
868	2	eyed	
869	2	enhanced	
870	2	joked	
871	2	dived	
872	2	bundled	
873	2	hired	
874	2	constructed	
875	2	mocha	
876	2	overpaid	
877	2	customised	
878	2	protected	
879	2	tarnished	
880	2	pried	
881	2	reinked	
882	2	posed	
883	2	quoted	
884	2	rated	
885	2	doodled	
886	2	quipped	
887	2	tumbled	
888	2	dialed	
889	2	deterred	
890	2	mislabeled	
891	2	recalled	
892	2	gained	
893	2	dubbed	
894	2	reinserted	
895	2	irritated	
896	2	lubed	
897	2	pounced	
898	2	resonated	
899	2	microwaved	
900	2	nibbed	
901	2	rehydrated	
902	2	squashed	
903	2	liliput	
904	2	regreased	
905	2	juxtaposed	
906	2	tilted	
907	2	crafted	
908	2	crusted	
909	2	offended	
910	2	roughed	
911	2	stubbed	
912	2	rocked	
913	2	marbled	
914	2	indulged	
915	2	dry	
916	2	merged	
917	2	filmed	
918	2	thrilled	
919	2	bonded	
920	2	postponed	
921	2	texted	
922	2	camped	
923	2	snipped	
924	2	customized	
925	2	cred	
926	2	retweeted	
927	2	scoured	
928	2	branched	
929	2	bugged	
930	2	drizzled	
931	2	amassed	
932	2	thougt	
933	2	ticked	
934	2	cancelled	
935	2	judged	
936	2	docked	
937	2	fired	
938	2	boiled	
939	2	volunteered	
940	2	projected	
941	2	outlined	
942	2	generated	
943	2	modeled	
944	2	reinstalled	
945	2	sided	
946	2	consulted	
947	2	reflected	
948	2	investigated	
949	2	penned	
950	2	wiggled	
951	2	con-50	
952	2	smiled	
953	2	grown	
954	2	lowered	
955	2	trapped	
956	2	celebrated	
957	2	obliged	
958	2	crushed	
959	2	though	
960	2	parted	
961	2	rewatched	
962	2	breathed	
963	2	succumbed	
964	2	hosted	
965	2	alerted	
966	2	puzzled	
967	2	coincided	
968	2	man	
969	2	instigated	
970	2	endured	
971	2	tolerated	
972	2	admitted	
973	2	retrieved	
974	2	encrusted	
975	2	homebrew	
976	2	inlaid	
977	2	bagged	
978	2	photoshopped	
979	2	steered	
980	2	chanced	
981	2	bummed	
982	2	zoomed	
983	2	operated	
984	2	crumbled	
985	2	sunk	
986	2	burnished	
987	2	baffled	
988	2	permitted	
989	2	paused	
990	2	outfitted	
991	2	manufactured	
992	2	admired	
993	2	retained	
994	2	outweighed	
995	2	spit	
996	2	photographed	
997	2	honored	
998	2	threaded	
999	2	yanked	
1000	2	married	
1001	2	guided	
1002	2	annoyed	
1003	2	blurred	
1004	2	gushed	
1005	2	valued	
1006	2	sculpted	
1007	2	mistook	
1008	2	shuffled	
1009	2	seeped	
1010	2	haha	
1011	2	upset	
1012	2	envisioned	
1013	2	restocked	
1014	2	concerned	
1015	2	credited	
1016	2	strayed	
1017	2	relegated	
1018	2	peaked	
1019	2	misremembered	
1020	2	contracted	
1021	2	integrated	
1022	2	retrofitted	
1023	2	red	
1024	2	propped	
1025	2	pared	
1026	2	resorted	
1027	2	conflicted	
1028	2	prime	
1029	2	striated	
1030	2	persisted	
1031	2	damned	
1032	2	defaulted	
1033	2	phrased	
1034	2	pieced	
1035	2	fooled	
1036	2	affected	
1037	2	stop	
1038	2	chimed	
1039	2	preserved	
1040	2	glided	
1041	2	reacted	
1042	2	drank	
1043	2	hunted	
1044	2	nicknamed	
1045	2	advanced	
1046	2	previewed	
1047	2	wrecked	
1048	2	hugged	
1049	2	reimbursed	
1050	2	cured	
1051	2	drawn	
1052	2	repurposed	
1053	2	irked	
1054	2	transferred	
1055	2	confessed	
1056	2	dawned	
1057	2	plugged	
1058	2	plopped	
1059	2	tapped	
1060	2	knit	
1061	2	kickstarted	
1062	2	traced	
1063	2	waffled	
1064	2	undid	
1065	2	wicked	
1066	2	fished	
1067	2	drooled	
1068	2	blocked	
1069	2	dose	
1070	2	bottomed	
1071	2	wil	
1072	2	reccomended	
1073	2	weakened	
1074	2	manga	
1075	2	murdered	
1076	2	sawed	
1077	2	progressed	
1078	2	influenced	
1079	2	related	
1080	2	frustrated	
1081	2	nudged	
1082	2	relieved	
1083	2	hacked	
1084	2	devised	
1085	2	splotched	
1086	2	earl	
1087	2	machined	
1088	2	forbade	
1089	2	qualified	
1090	2	referenced	
1091	2	voided	
1092	2	compelled	
1093	2	shifted	
1094	2	scrolled	
1095	2	erased	
1096	2	refined	
1097	2	railroaded	
1098	2	fused	
1099	2	carved	
1100	2	whittled	
1101	1	resumed	
1102	1	stemmed	
1103	1	rooted	
1104	1	cinched	
1105	1	skirted	
1106	1	treasured	
1107	1	emphasised	
1108	1	intefere	
1109	1	boggled	
1110	1	ruggedized	
1111	1	recreated	
1112	1	teased	
1113	1	steeped	
1114	1	bemed	
1115	1	elected	
1116	1	always(ended	
1117	1	catered	
1118	1	implied	
1119	1	coveted	
1120	1	refrained	
1121	1	hyperx	
1122	1	precipitated	
1123	1	hemmed	
1124	1	boheme	
1125	1	thrown	
1126	1	dissapeared	
1127	1	retraced	
1128	1	textured	
1129	1	overestimated	
1130	1	concentrated	
1131	1	gasped	
1132	1	grained	
1133	1	https://www.fahrneyspens.com/item--i-361161	
1134	1	tyoed	
1135	1	manhandled	
1136	1	sprang	
1137	1	chuck	
1138	1	babied	
1139	1	regrinded	
1140	1	instructed	
1141	1	ribbed	
1142	1	newfangled	
1143	1	sacced	
1144	1	waived	
1145	1	remedied	
1146	1	shelled	
1147	1	lloked	
1148	1	presented	
1149	1	cranked	
1150	1	hammered	
1151	1	book	
1152	1	willed	
1153	1	scrambled	
1154	1	interviewed	
1155	1	prayed	
1156	1	companied	
1157	1	restyled	
1158	1	pilled	
1159	1	allocated	
1160	1	oopsed	
1161	1	registered	
1162	1	rode	
1163	1	unsettled	
1164	1	stretched	
1165	1	pleaded	
1166	1	rearranged	
1167	1	enlightened	
1168	1	usa	
1169	1	untaped	
1170	1	stifled	
1171	1	canceled	
1172	1	redacted	
1173	1	merited	
1174	1	road-	
1175	1	maggot	
1176	1	leaven	
1177	1	marred	
1178	1	declared	
1179	1	cxled	
1180	1	hero-50-cloisonne	
1181	1	eliminated	
1182	1	encapsulated	
1183	1	spat	
1184	1	qnd	
1185	1	shloshed	
1186	1	dreaded	
1187	1	garnered	
1188	1	enclosed	
1189	1	equipped	
1190	1	sculptured	
1191	1	deccided	
1192	1	corresponded	
1193	1	piqued	
1194	1	stowed	
1195	1	abbreviated	
1196	1	http://www.instagram.com/ashton_creative	
1197	1	authorized	
1198	1	dove	
1199	1	sniffed	
1200	1	dirtied	
1201	1	rejoiced	
1202	1	unclogged	
1203	1	humored	
1204	1	pitched	
1205	1	3d	
1206	1	jiggled	
1207	1	1.gold	
1208	1	cptjeff	
1209	1	styled	
1210	1	stub	
1211	1	fright	
1212	1	misspoke	
1213	1	blunted	
1214	1	geeked	
1215	1	retailed	
1216	1	consisted	
1217	1	presumed	
1218	1	fluttered	
1219	1	pmed	
1220	1	decanted	
1221	1	reformulated	
1222	1	reeked	
1223	1	superglued	
1224	1	submersed	
1225	1	discolored	
1226	1	maintained	
1227	1	unsubscribed	
1228	1	metioned	
1229	1	embraced	
1230	1	summarised	
1231	1	https://en.m.wikipedia.org/wiki/fountain_pen	
1232	1	defined	
1233	1	bothe	
1234	1	spiraled	
1235	1	delended	
1236	1	alluded	
1237	1	tagged	
1238	1	recoiled	
1239	1	snooped	
1240	1	scaled	
1241	1	accomplished	
1242	1	smooshed	
1243	1	astonished	
1244	1	grazed	
1245	1	graphed	
1246	1	agitated	
1247	1	pegged	
1248	1	balked	
1249	1	ughhhh	
1250	1	broken	
1251	1	designated	
1252	1	overwhelmed	
1253	1	leased	
1254	1	werd	
1255	1	cheapened	
1256	1	ignited	
1257	1	equaled	
1258	1	charmed	
1259	1	downplayed	
1260	1	maneuvered	
1261	1	renovated	
1262	1	scatterbrained	
1263	1	scarred	
1264	1	themed	
1265	1	gunsight	
1266	1	projects/2016143253	
1267	1	ranked	
1268	1	frisky	
1269	1	is(claimed	
1270	1	trekked	
1271	1	journaled	
1272	1	documented	
1273	1	90gsm	
1274	1	bubbled	
1275	1	gunk	
1276	1	omitted	
1277	1	specialized	
1278	1	muck	
1279	1	dab	
1280	1	housed	
1281	1	conceded	
1282	1	scribbed	
1283	1	heft	
1284	1	realligned	
1285	1	reused	
1286	1	matured	
1287	1	blued	
1288	1	terned	
1289	1	stoped	
1290	1	lasered	
1291	1	revised	
1292	1	abandoned	
1293	1	hurled	
1294	1	clinged	
1295	1	reapplied	
1296	1	b)did	
1297	1	assigned	
1298	1	chopped	
1299	1	cvan	
1300	1	rendered	
1301	1	redrew	
1302	1	swamped	
1303	1	moulded	
1304	1	lierre	
1305	1	zeroed	
1306	1	drowned	
1307	1	scrutinized	
1308	1	torqued	
1309	1	infield	
1310	1	absorbed	
1311	1	totaled	
1312	1	septated	
1313	1	tricked	
1314	1	crumpled	
1315	1	intuited	
1316	1	recapped	
1317	1	interrupted	
1318	1	floeed	
1319	1	cycled	
1320	1	enrolled	
1321	1	swished	
1322	1	patched	
1323	1	wriggled	
1324	1	amounted	
1325	1	crystallised	
1326	1	flattered	
1327	1	unopened	
1328	1	squealed	
1329	1	souped	
1330	1	weghaalt	
1331	1	frowned	
1332	1	brewed	
1333	1	taken	
1334	1	varied	
1335	1	farmed	
1336	1	muddled	
1337	1	infected	
1338	1	crept	
1339	1	cheaped	
1340	1	coined	
1341	1	froze	
1342	1	spelt	
1343	1	rid	
1344	1	database](http://atlas.wolfram.com/01/01/	
1345	1	lid	
1346	1	reinforced	
1347	1	demolished	
1348	1	brainfarted	
1349	1	black'n'red	
1350	1	choked	
1351	1	participated	
1352	1	tickled	
1353	1	finial	
1354	1	pitted	
1355	1	roped	
1356	1	purchesed	
1357	1	shifty	
1358	1	🤦	
1359	1	hypothesized	
1360	1	surrendered	
1361	1	repositioned	
1362	1	likey	
1363	1	powdered	
1364	1	decorated	
1365	1	o	
1366	1	mumified	
1367	1	overspent	
1368	1	hidden	
1369	1	spectated	
1370	1	chosen	
1371	1	demurred	
1372	1	buckled	
1373	1	snob	
1374	1	soothed	
1375	1	sort	
1376	1	grouped	
1377	1	fwiw	
1378	1	inclined	
1379	1	woupd	
1380	1	med	
1381	1	untightened	
1382	1	exited	
1383	1	scammed	
1384	1	yucked	
1385	1	shop/286482841	
1386	1	seconded	
1387	1	wishlisted	
1388	1	located	
1389	1	clashed	
1390	1	induced	
1391	1	flicked	
1392	1	revewed	
1393	1	sacked	
1394	1	dictated	
1395	1	compounded	
1396	1	shouted	
1397	1	reallized	
1398	1	oblique	
1399	1	loosed	
1400	1	conspired	
1401	1	emphasized	
1402	1	embedded	
1403	1	extruded	
1404	1	-kindof-	
1405	1	restrainted	
1406	1	invented	
1407	1	sheared	
1408	1	budgeted	
1409	1	adhered	
1410	1	mattered	
1411	1	competed	
1412	1	majored	
1413	1	blogged	
1414	1	desired	
1415	1	fumbled	
1416	1	jostled	
1417	1	tells	
1418	1	while	
1419	1	-pelikan	
1420	1	-omas	
1421	1	tortured	
1422	1	dissembled	
1423	1	duofold	
1424	1	satin	
1425	1	freehanded	
1426	1	summoned	
1427	1	wingsung	
1428	1	splintered	
1429	1	muttered	
1430	1	delved	
1431	1	resembled	
1432	1	donned	
1433	1	licensed	
1434	1	centered	
1435	1	rattled	
1436	1	alinged	
1437	1	hampered	
1438	1	fireblued	
1439	1	overcame	
1440	1	misused	
1441	1	unpackaged	
1442	1	shhhh	
1443	1	regulated	
1444	1	chuffed	
1445	1	raided	
1446	1	accessorized	
1447	1	dressed	
1448	1	chiseled	
1449	1	ensured	
1450	1	patinas	
1451	1	thwarted	
1452	1	akesio	
1453	1	bordered	
1454	1	infuriated	
1455	1	logged	
1456	1	bough	
1457	1	brightened	
1458	1	immigrated	
1459	1	slunk	
1460	1	chuckled	
1461	1	canabalized	
1462	1	erupted	
1463	1	cushioned	
1464	1	ensnared	
1465	1	shaved	
1466	1	correlated	
1467	1	twitched	
1468	1	ensued	
1469	1	shuddered	
1470	1	embarrased	
1471	1	overdid	
1472	1	monogrammed	
1473	1	gutted	
1474	1	sheered	
1475	1	speeled	
1476	1	burnt	
1477	1	-themed	
1478	1	diagnosed	
1479	1	quarantined	
1480	1	streamlined	
1481	1	fried	
1482	1	collared	
1483	1	hanged	
1484	1	tailored	
1485	1	lighted	
1486	1	correct-	
1487	1	transmitted	
1488	1	resealed	
1489	1	shone	
1490	1	hollowed	
1491	1	sponged	
1492	1	reintroduced	
1493	1	associated	
1494	1	exhausted	
1495	1	assisted	
1496	1	buried	
1497	1	cremated	
1498	1	chickened	
1499	1	decreased	
1500	1	elicited	
1501	1	stapled	
1502	1	afik	
1503	1	repelled	
1504	1	creaked	
1505	1	collapsed	
1506	1	implyed	
1507	1	overflowed	
1508	1	complemented	
1509	1	stapler	
1510	1	meistered	
1511	1	channeled	
1512	1	maid	
1513	1	gaudy	
1514	1	faced	
1515	1	harvested	
1516	1	overfilled	
1517	1	innovated	
1518	1	patented	
1519	1	done	
1520	1	commodified	
1521	1	succumb	
1522	1	harassed	
1523	1	implemented	
1524	1	amoung	
1525	1	ooohhh	
1526	1	signaled	
1527	1	inflamed	
1528	1	busted	
1529	1	underpaid	
1530	1	adored	
1531	1	reckoned	
1532	1	weep-	
1533	1	recessed	
1534	1	complicated	
1535	1	rifled	
1536	1	mandated	
1537	1	tugged	
1538	1	scrawled	
1539	1	serialized	
1540	1	overengineered	
1541	1	abused	
1542	1	doubted	
1543	1	invoiced	
1544	1	dinged	
1545	1	18kgp	
1546	1	calibrated	
1547	1	cringed	
1548	1	faked	
1549	1	gobbled	
1550	1	serviced	
1551	1	tamed	
1552	1	fumed	
1553	1	sienna	
1554	1	compiled	
1555	1	deteriorated	
1556	1	scrapped	
1557	1	unprompted	
1558	1	mirrored	
1559	1	lodged	
1560	1	project-	
1561	1	misted	
1562	1	odered	
1563	1	welded	
1564	1	buggered	
1565	1	divided	
1566	1	nook	
1567	1	blanked	
1568	1	prized	
1569	1	overstated	
1570	1	thumbscrew	
1571	1	luck	
1572	1	threatened	
1573	1	----updated	
1574	1	frankensteined	
1575	1	moonlight	
1576	1	electoplated	
1577	1	chunked	
1578	1	copped	
1579	1	horrified	
1580	1	repeated	
1581	1	hauled	
1582	1	est	
1583	1	consoled	
1584	1	liken	
1585	1	hemisphere	
1586	1	strapped	
1587	1	reaffirmed	
1588	1	shimmed	
1589	1	ratio-	
1590	1	unzipped	
1591	1	zipped	
1592	1	prior	
1593	1	anodized	
1594	1	overpacked	
1595	1	directed	
1596	1	retipped	
1597	1	reinstated	
1598	1	wrested	
1599	1	fetched	
1600	1	jogged	
1601	1	hiked	
1602	1	disintegrated	
1603	1	enticed	
1604	1	powered	
1605	1	massaged	
1606	1	minded	
1607	1	hatched	
1608	1	spilt	
1609	1	clenched	
1610	1	fed	
1611	1	smokey	
1612	1	delisted	
1613	1	maximized	
1614	1	unpacked	
1615	1	mummified	
1616	1	gripped	
1617	1	snorted	
1618	1	unowned	
1619	1	stypend	
1620	1	havin'	
1621	1	pinstripped	
1622	1	squeak	
1623	1	wetten	
1624	1	dorked	
1625	1	blotted	
1626	1	rechecked	
1627	1	satisfied	
1628	1	checkered	
1629	1	\(1984\	
1630	1	revisited	
1631	1	imaged	
1632	1	deigned	
1633	1	isn't	
1634	1	hunched	
1635	1	ussssssss^s^^s^^^s^^^^s	
1636	1	widened	
1637	1	belated	
1638	1	discouraged	
1639	1	relisted	
1640	1	tapered	
1641	1	outdid	
1642	1	tanned	
1643	1	termed	
1644	1	obtained	
1645	1	collaborated	
1646	1	pixelated	
1647	1	ed	
1648	1	bargained	
1649	1	vacuumatic	
1650	1	yelled	
1651	1	roasted	
1652	1	calculated	
1653	1	fessed	
1654	1	darken	
1655	1	mangled	
1656	1	sifted	
1657	1	thatbwas	
1658	1	domed	
1659	1	pickled	
1660	1	affixed	
1661	1	advocated	
1662	1	vomited	
1663	1	pry	
1664	1	screenshoted	
1665	1	awaited	
1666	1	exaggerated	
1667	1	exhibited	
1668	1	ushered	
1669	1	uninked	
1670	1	swayed	
1671	1	clone	
1672	1	likened	
1673	1	snickered	
1674	1	readjusted	
1675	1	becase	
1676	1	flubbered	
1677	1	despised	
1678	1	procrastinated	
1679	1	coordinated	
1680	1	thew	
1681	1	humid	
1682	1	appropriated	
1683	1	debuted	
1684	1	flopped	
1685	1	galled	
1686	1	disciovered	
1687	1	streaked	
1688	1	shaked	
1689	1	wafted	
1690	1	agonised	
1691	1	desided	
1692	1	fluted	
1693	1	shithoused	
1694	1	curled	
1695	1	splattered	
1696	1	greeted	
1697	1	restrained	
1698	1	blamed	
1699	1	touted	
1700	1	uninstalled	
1701	1	clouded	
1702	1	screenshot	
1703	1	manged	
1704	1	gazed	
1705	1	miscounted	
1706	1	graced	
1707	1	calmed	
1708	1	accommodated	
1709	1	stirred	
1710	1	reasoned	
1711	1	slimmed	
1712	1	rained	
1713	1	recognised	
1714	1	seasoned	
1715	1	splurted	
1716	1	works	
1717	1	nicked	
1718	1	activated	
1719	1	eluded	
1720	1	reticulated	
1721	1	eased	
1722	1	convertered	
1723	1	skipps(is	
1724	1	beveled	
1725	1	shied	
1726	1	teamed	
1727	1	astounded	
1728	1	fabled	
1729	1	licked	
1730	1	shitted	
1731	1	racked	
1732	1	outgrew	
1733	1	deburred	
1734	1	hurried	
1735	1	restricted	
1736	1	regressed	
1737	1	~~probably~~	
1738	1	misinterpreted	
1739	1	relized	
1740	1	propagated	
1741	1	deemed	
1742	1	aside-	
1743	1	halfpipe	
1744	1	enjoy-	
1745	1	rugged	
1746	1	attributed	
1747	1	recommed	
1748	1	confronted	
1749	1	affiliated	
1750	1	surprisied	
1751	1	tined	
1752	1	peered	
1753	1	depressed	
1754	1	funded	
1755	1	shed	
1756	1	infused	
1757	1	darned	
1758	1	ghosted	
1759	1	singled	
1760	1	collaged	
1761	1	resparked	
1762	1	gebed	
1763	1	sank	
1764	1	demured	
1765	1	jotted	
1766	1	nighted	
1767	1	shredded	
1768	1	plunged	
1769	1	skyrocketed	
1770	1	bungled	
1771	1	cramped	
1772	1	wavered	
1773	1	redipped	
1774	1	muled	
1775	1	sphere	
1776	1	homebrewed	
1777	1	wancai	
1778	1	complied	
1779	1	refurbished	
1780	1	squirted	
1781	1	rehashed	
1782	1	stoked	
1783	1	pipped	
1784	1	noped	
1785	1	liquidated	
1786	1	classified	
1787	1	i’ve	
1788	1	pressured	
1789	1	perceived	
1790	1	unloaded	
1791	1	cited	
1792	1	pinstriped	
1793	1	triumphed	
1794	1	m	
1795	1	hailed	
1796	1	masked	
1797	1	spearheaded	
1798	1	sliced	
1799	1	disabled	
1800	1	dissolved	
1801	1	rustled	
1802	1	factored	
1803	1	randomised	
1804	1	overcomplicated	
1805	1	deposited	
1806	1	smushed	
1807	1	tinted	
1808	1	biased	
1809	1	jutted	
1810	1	breezed	
1811	1	betrayed	
1812	1	cuted	
1813	1	puted	
1814	1	dumbfounded	
1815	1	abstained	
1816	1	jacked	
1817	1	necessitated	
1818	1	discorvered	
1819	1	clotted	
1820	1	bother	
1821	1	snuggled	
1822	1	ingested	
1823	1	creeped	
1824	1	bounced	
1825	1	aquired	
1826	1	tryed	
1827	1	disclosed	
1828	1	reoriented	
1829	1	detested	
1830	1	dislodged	
1831	1	verified	
1832	1	caked	
1833	1	slotted	
1834	1	pad	
1835	1	swooped	
1836	1	translucent	
1837	1	nibbled	
1838	1	cruised	
1839	1	dotted	
1840	1	perked	
1841	1	sila	
1842	1	routed	
1843	1	fps	
1844	1	emitted	
1845	1	smuggle	
1846	1	zoned	
1847	1	imitated	
1848	1	executed	
1849	1	doctored	
1850	1	chewed	
1851	1	toke	
1852	1	pocketed	
1853	1	conquered	
1854	1	quilt	
1855	1	bowed	
1856	1	fulfilled	
1857	1	obsessed	
1858	1	naught	
1859	1	staplered	
1860	1	mashed	
1861	1	rin	
1862	1	rummaged	
1863	1	persuaded	
1864	1	impregnated	
1865	1	emigrated	
1866	1	danced	
1867	1	dilluted	
1868	1	consumed	
1869	1	welcomed	
1870	1	standardized	
1871	1	fashioned	
1872	1	written	
1873	1	begged	
1874	1	pullled	
1875	1	looovvvvvvvve	
1876	1	secured	
1877	1	fil	
1878	1	borked	
1879	1	peeled	
1880	1	occured	
1881	1	battered	
1882	1	reignited	
1883	1	jeweled	
1884	1	accounted	
1885	1	ditched	
1886	1	unsealed	
1887	1	hv	
1888	1	suprised	
1889	1	disgruntled	
1890	1	rang	
1891	1	thorough	
1892	1	screamed	
1893	1	ridged	
1894	1	everyone-	
1895	1	uppgiften	
1896	1	shortened	
1897	1	forwarded	
1898	1	992,(light	
1899	1	groped	
