#Word types: 1903
#Word tokens: 75513
#Search results: 0
1	13991	was	
2	5769	did	
3	5455	had	
4	4615	got	
5	3668	were	
6	1840	bought	
7	1684	used	
8	1629	said	
9	1332	found	
10	1258	made	
11	1229	came	
12	1062	wanted	
13	945	thought	
14	941	took	
15	843	went	
16	769	started	
17	703	put	
18	702	tried	
19	691	wrote	
20	650	saw	
21	486	ordered	
22	471	mentioned	
23	432	posted	
24	426	looked	
25	392	gave	
26	372	worked	
27	359	picked	
28	354	liked	
29	338	ended	
30	333	felt	
31	310	asked	
32	302	sent	
33	297	decided	
34	281	left	
35	279	purchased	
36	263	happened	
37	248	paid	
38	248	meant	
39	243	needed	
40	227	loved	
41	226	turned	
42	226	knew	
43	225	sold	
44	219	seemed	
45	213	noticed	
46	212	received	
47	202	heard	
48	197	helped	
49	197	arrived	
50	193	told	
51	189	learned	
52	185	checked	
53	180	read	
54	179	forgot	
55	157	kept	
56	155	set	
57	154	figured	
58	150	broke	
59	147	realized	
60	147	spent	
61	146	enjoyed	
62	144	became	
63	140	ran	
64	140	stopped	
65	139	called	
66	137	included	
67	133	filled	
68	133	added	
69	132	screw	
70	128	changed	
71	123	cost	
72	122	inked	
73	122	chose	
74	121	fell	
75	120	cut	
76	117	suggested	
77	115	replaced	
78	114	pulled	
79	112	fixed	
80	108	lost	
81	107	switched	
82	107	expected	
83	106	dropped	
84	105	linked	
85	105	cleaned	
86	105	unscrew	
87	104	showed	
88	101	managed	
89	96	brought	
90	94	recommended	
91	93	missed	
92	91	discovered	
93	89	held	
94	89	uncapped	
95	84	moved	
96	83	'd	
97	82	behaved	
98	81	removed	
99	79	swapped	
100	76	shipped	
101	75	emailed	
102	75	listed	
103	75	ruled	
104	74	hit	
105	73	let	
106	70	restored	
107	68	tested	
108	67	cracked	
109	65	owned	
110	65	pushed	
111	64	pointed	
112	64	threw	
113	63	opened	
114	62	rose	
115	62	watched	
116	60	hated	
117	60	stuck	
118	59	plated	
119	58	finished	
120	56	produced	
121	56	followed	
122	55	began	
123	55	bleed	
124	54	created	
125	53	passed	
126	53	closed	
127	52	offered	
128	52	jumped	
129	50	caused	
130	50	dried	
131	49	sat	
132	49	ground	
133	49	grew	
134	49	returned	
135	48	lay	
136	46	compared	
137	46	failed	
138	45	answered	
139	45	drew	
140	45	carried	
141	45	flushed	
142	43	required	
143	43	described	
144	43	released	
145	42	messed	
146	42	waited	
147	41	mixed	
148	41	lined	
149	41	adjusted	
150	40	grabbed	
151	39	leaked	
152	39	placed	
153	39	lived	
154	38	replied	
155	38	assumed	
156	38	saved	
157	37	met	
158	37	popped	
159	37	contacted	
160	37	won	
161	37	talked	
162	36	experienced	
163	36	branded	
164	36	’d	
165	35	spread	
166	35	considered	
167	35	led	
168	34	introduced	
169	34	spoke	
170	34	skipped	
171	34	searched	
172	34	applied	
173	33	soaked	
174	33	tuned	
175	33	washed	
176	33	smoothed	
177	32	visited	
178	32	explained	
179	31	stamped	
180	31	bent	
181	31	remembered	
182	30	responded	
183	29	stated	
184	29	googled	
185	29	taught	
186	29	caught	
187	29	shot	
188	29	opted	
189	29	sung	
190	28	solved	
191	28	walked	
192	28	surprised	
193	28	provided	
194	28	realised	
195	28	voted	
196	28	crossed	
197	27	stumbled	
198	27	understood	
199	27	pressed	
200	27	ruined	
201	27	edited	
202	27	shared	
203	26	bled	
204	26	lasted	
205	26	continued	
206	26	stayed	
207	26	measured	
208	26	screwed	
209	26	gifted	
210	25	handed	
211	25	converted	
212	25	afaik	
213	25	shaped	
214	24	wondered	
215	24	loaded	
216	24	played	
217	24	capped	
218	24	signed	
219	24	improved	
220	24	reminded	
221	23	commented	
222	22	feathered	
223	22	snapped	
224	22	marked	
225	22	noted	
226	22	polished	
227	22	developed	
228	22	designed	
229	21	appeared	
230	21	allowed	
231	21	performed	
232	21	clicked	
233	21	disassembled	
234	21	preferred	
235	21	wanna	
236	20	acquired	
237	20	inherited	
238	20	emptied	
239	20	confirmed	
240	20	wrapped	
241	20	discontinued	
242	20	covered	
243	19	bodied	
244	19	fitted	
245	19	joined	
246	19	copied	
247	18	stood	
248	18	hoped	
249	18	wore	
250	18	survived	
251	18	misaligned	
252	18	hooded	
253	18	intended	
254	18	spilled	
255	18	pigmented	
256	18	matched	
257	18	resulted	
258	18	requested	
259	17	nailed	
260	17	reached	
261	17	clipped	
262	17	agreed	
263	17	practiced	
264	17	entered	
265	17	typed	
266	17	reported	
267	17	existed	
268	17	sounded	
269	17	claimed	
270	16	dug	
271	16	recognized	
272	16	dipped	
273	16	killed	
274	16	flossed	
275	16	mailed	
276	16	twisted	
277	16	tossed	
278	16	striped	
279	16	saturated	
280	16	died	
281	16	beat	
282	16	focused	
283	16	shook	
284	16	touched	
285	16	graduated	
286	16	drilled	
287	16	scrub	
288	16	misunderstood	
289	15	settled	
290	15	stole	
291	15	sanded	
292	15	printed	
293	15	updated	
294	15	downvoted	
295	15	sized	
296	15	sampled	
297	15	promised	
298	15	handled	
299	15	increased	
300	15	delivered	
301	15	backed	
302	15	shut	
303	15	corrected	
304	15	refilled	
305	15	colored	
306	14	lubricated	
307	14	snagged	
308	14	modded	
309	14	flew	
310	14	blew	
311	14	modified	
312	14	cared	
313	14	stained	
314	14	rubbed	
315	14	occurred	
316	14	seen	
317	14	referred	
318	14	rotated	
319	14	upgraded	
320	13	damaged	
321	13	reviewed	
322	13	wound	
323	13	submitted	
324	13	slipped	
325	13	split	
326	13	deleted	
327	13	faded	
328	13	folded	
329	13	tipped	
330	13	encountered	
331	13	coated	
332	13	installed	
333	13	captured	
334	13	advertised	
335	13	rebranded	
336	13	smeared	
337	13	sprung	
338	13	inspired	
339	13	laid	
340	13	confused	
341	13	wiped	
342	13	sorted	
343	12	destroyed	
344	12	lucked	
345	12	traded	
346	12	scented	
347	12	upvoted	
348	12	clogged	
349	12	cleared	
350	12	struck	
351	12	slid	
352	12	bothered	
353	12	subscribed	
354	12	unposted	
355	12	spotted	
356	12	laughed	
357	11	disliked	
358	11	bit	
359	11	unscrewed	
360	11	scratched	
361	11	landed	
362	11	ate	
363	11	inserted	
364	11	spelled	
365	11	d	
366	11	rounded	
367	11	dumped	
368	11	warned	
369	11	disappeared	
370	10	exchanged	
371	10	flowed	
372	10	payed	
373	10	granted	
374	10	invented	
375	10	formed	
376	10	built	
377	10	sucked	
378	10	stocked	
379	10	engraved	
380	10	insisted	
381	10	launched	
382	10	proceeded	
383	10	painted	
384	10	attempted	
385	10	melted	
386	10	charged	
387	10	smelled	
388	10	convinced	
389	10	rolled	
390	10	scored	
391	10	imported	
392	10	uploaded	
393	10	repaired	
394	10	greased	
395	10	indicated	
396	10	machined	
397	10	-	
398	10	eyedroppered	
399	9	labeled	
400	9	attached	
401	9	expressed	
402	9	stepped	
403	9	traveled	
404	9	overlooked	
405	9	named	
406	9	woke	
407	9	earned	
408	9	bid	
409	9	flipped	
410	9	tweaked	
411	9	specified	
412	9	complained	
413	9	refunded	
414	9	forced	
415	9	flexed	
416	9	contributed	
417	9	belonged	
418	9	treated	
419	9	busted	
420	9	tightened	
421	9	bore	
422	9	remained	
423	9	limited	
424	9	admitted	
425	9	suffered	
426	9	drove	
427	9	adopted	
428	9	rusted	
429	9	tended	
430	8	discussed	
431	8	raised	
432	8	filed	
433	8	suspected	
434	8	messaged	
435	8	served	
436	8	manufactured	
437	8	reduced	
438	8	appealed	
439	8	weighted	
440	8	flattened	
441	8	diluted	
442	8	separated	
443	8	exhibited	
444	8	recieved	
445	8	squared	
446	8	quoted	
447	8	slit	
448	8	sealed	
449	8	studied	
450	8	supplied	
451	8	sought	
452	8	struggled	
453	8	appreciated	
454	7	packed	
455	7	verified	
456	7	bounced	
457	7	lied	
458	7	weighed	
459	7	invested	
460	7	proved	
461	7	drooled	
462	7	learnt	
463	7	packaged	
464	7	aligned	
465	7	railroaded	
466	7	worded	
467	7	attracted	
468	7	regretted	
469	7	presented	
470	7	researched	
471	7	bottled	
472	7	brushed	
473	7	retired	
474	7	punched	
475	7	imagined	
476	7	scrubbed	
477	7	prompted	
478	7	completed	
479	7	bookmarked	
480	7	run	
481	7	glued	
482	7	believed	
483	7	extended	
484	7	demonstrated	
485	7	referenced	
486	7	trimmed	
487	7	sourced	
488	7	adapted	
489	7	gained	
490	7	prevented	
491	7	involved	
492	7	coloured	
493	7	sewed	
494	7	gunked	
495	7	debated	
496	7	shifted	
497	7	warmed	
498	7	accepted	
499	6	listened	
500	6	squeezed	
501	6	affected	
502	6	assured	
503	6	addressed	
504	6	scanned	
505	6	worried	
506	6	loosened	
507	6	molded	
508	6	reacted	
509	6	blanc	
510	6	hurt	
511	6	zoomed	
512	6	connected	
513	6	stretched	
514	6	timed	
515	6	evaporated	
516	6	unrestored	
517	6	guessed	
518	6	etched	
519	6	pre	
520	6	collected	
521	6	shoved	
522	6	poured	
523	6	ripped	
524	6	straightened	
525	6	widened	
526	6	borrowed	
527	6	tucked	
528	6	uninked	
529	6	browsed	
530	6	progressed	
531	6	misspelled	
532	6	rinsed	
533	6	ignored	
534	6	contained	
535	6	announced	
536	6	published	
537	6	arranged	
538	6	scrolled	
539	6	impressed	
540	6	refused	
541	6	faced	
542	6	inquired	
543	6	avoided	
544	6	knocked	
545	6	cast	
546	6	photographed	
547	6	burped	
548	6	exposed	
549	6	trusted	
550	6	varied	
551	6	advised	
552	6	recorded	
553	6	’s	
554	6	darken	
555	5	transferred	
556	5	angled	
557	5	redesigned	
558	5	observed	
559	5	translated	
560	5	inlaid	
561	5	reversed	
562	5	deserved	
563	5	scribbled	
564	5	snatched	
565	5	based	
566	5	trained	
567	5	founded	
568	5	repeated	
569	5	maintained	
570	5	sparked	
571	5	exploded	
572	5	labelled	
573	5	tracked	
574	5	wished	
575	5	declared	
576	5	wiggled	
577	5	mounted	
578	5	threaded	
579	5	headed	
580	5	implied	
581	5	sketched	
582	5	tapered	
583	5	heated	
584	5	seated	
585	5	numbered	
586	5	stored	
587	5	consisted	
588	5	marketed	
589	5	stitched	
590	5	chased	
591	5	alluded	
592	5	smudged	
593	5	experimented	
594	5	sheened	
595	5	rushed	
596	5	reassembled	
597	5	frosted	
598	5	lacked	
599	5	salvaged	
600	5	shopped	
601	5	submerged	
602	4	stared	
603	4	recycled	
604	4	dripped	
605	4	tempted	
606	4	cramped	
607	4	digs	
608	4	fished	
609	4	alright	
610	4	obtained	
611	4	ranged	
612	4	jacked	
613	4	donated	
614	4	subdued	
615	4	cried	
616	4	taped	
617	4	expelled	
618	4	plugged	
619	4	frustrated	
620	4	thanked	
621	4	persisted	
622	4	utilized	
623	4	gathered	
624	4	dragged	
625	4	canceled	
626	4	cured	
627	4	admired	
628	4	thinned	
629	4	discolored	
630	4	dreamed	
631	4	tinkered	
632	4	themed	
633	4	dealt	
634	4	outlined	
635	4	stapled	
636	4	exceeded	
637	4	expired	
638	4	flaked	
639	4	participated	
640	4	|	
641	4	boiled	
642	4	con-50	
643	4	accomplished	
644	4	doubled	
645	4	divided	
646	4	leaned	
647	4	transitioned	
648	4	outta	
649	4	marbled	
650	4	encouraged	
651	4	assembled	
652	4	featured	
653	4	selected	
654	4	primed	
655	4	sprang	
656	4	anticipated	
657	4	hyped	
658	4	scuffed	
659	4	corroded	
660	4	caved	
661	4	re	
662	4	dab	
663	4	dated	
664	4	nabbed	
665	4	chucked	
666	4	winged	
667	4	planned	
668	4	padded	
669	4	organized	
670	4	stalked	
671	4	apologized	
672	4	supposed	
673	4	hesitated	
674	4	freaked	
675	4	cropped	
676	4	hid	
677	4	restocked	
678	4	feared	
679	4	commissioned	
680	4	coded	
681	4	panicked	
682	4	originated	
683	4	lifted	
684	4	pasted	
685	4	annoyed	
686	4	stabilized	
687	4	edged	
688	4	achieved	
689	3	ditched	
690	3	gripped	
691	3	swore	
692	3	tuck	
693	3	crushed	
694	3	yielded	
695	3	poked	
696	3	scraped	
697	3	deepened	
698	3	prefered	
699	3	highlighted	
700	3	simplified	
701	3	customised	
702	3	quit	
703	3	bugged	
704	3	balanced	
705	3	scared	
706	3	prepared	
707	3	crafted	
708	3	approved	
709	3	renamed	
710	3	gilded	
711	3	depended	
712	3	detected	
713	3	blocked	
714	3	retained	
715	3	costed	
716	3	priced	
717	3	butchered	
718	3	authorized	
719	3	aired	
720	3	supported	
721	3	enhanced	
722	3	lol	
723	3	enacted	
724	3	bound	
725	3	swabbed	
726	3	proposed	
727	3	yanked	
728	3	expanded	
729	3	ensured	
730	3	resolved	
731	3	wrecked	
732	3	wasted	
733	3	emulated	
734	3	locked	
735	3	demanded	
736	3	scrapped	
737	3	spun	
738	3	gel	
739	3	stripped	
740	3	totaled	
741	3	registered	
742	3	chewed	
743	3	hinted	
744	3	poke	
745	3	disappointed	
746	3	serviced	
747	3	slowed	
748	3	flooded	
749	3	ranked	
750	3	vanished	
751	3	attended	
752	3	lacquered	
753	3	boxed	
754	3	reworked	
755	3	rod	
756	3	pronounced	
757	3	estimated	
758	3	tweeted	
759	3	fulfilled	
760	3	username	
761	3	downloaded	
762	3	blacked	
763	3	misplaced	
764	3	translucent	
765	3	pinned	
766	3	perceived	
767	3	rescued	
768	3	slapped	
769	3	identified	
770	3	cringed	
771	3	shaded	
772	3	resisted	
773	3	spawned	
774	3	stickered	
775	3	incorporated	
776	3	peeled	
777	3	dremel	
778	3	curved	
779	3	dry	
780	3	regarded	
781	3	striated	
782	3	leveled	
783	3	recognised	
784	3	escaped	
785	3	positioned	
786	3	illustrated	
787	3	phrased	
788	3	preordered	
789	3	chipped	
790	3	distilled	
791	3	welded	
792	3	interested	
793	3	suckered	
794	3	pooled	
795	3	whipped	
796	3	represented	
797	3	hung	
798	3	aforementioned	
799	3	lit	
800	3	stub	
801	3	lubed	
802	3	rattled	
803	3	logged	
804	3	planted	
805	3	fit	
806	3	fiddled	
807	3	chimed	
808	3	wingsung	
809	3	piqued	
810	3	coveted	
811	3	obsessed	
812	3	paired	
813	3	kicked	
814	2	rummaged	
815	2	outsourced	
816	2	freed	
817	2	approached	
818	2	rang	
819	2	filmed	
820	2	teased	
821	2	lightened	
822	2	upped	
823	2	tied	
824	2	shellacked	
825	2	fuck	
826	2	sliced	
827	2	averaged	
828	2	pinched	
829	2	topped	
830	2	dunked	
831	2	sniped	
832	2	gouged	
833	2	gotten	
834	2	crusted	
835	2	dressed	
836	2	enclosed	
837	2	burned	
838	2	blunted	
839	2	cheated	
840	2	committed	
841	2	warped	
842	2	banned	
843	2	bored	
844	2	overtightened	
845	2	reintroduced	
846	2	disciplined	
847	2	r	
848	2	brightened	
849	2	penned	
850	2	overcame	
851	2	stoked	
852	2	substituted	
853	2	reformulated	
854	2	wrinkled	
855	2	fired	
856	2	abandoned	
857	2	plummeted	
858	2	banged	
859	2	seized	
860	2	dawned	
861	2	structured	
862	2	relocated	
863	2	married	
864	2	come	
865	2	spat	
866	2	counted	
867	2	cooperated	
868	2	evoked	
869	2	swished	
870	2	relearned	
871	2	tilted	
872	2	overdid	
873	2	sprayed	
874	2	triggered	
875	2	lasered	
876	2	exaggerated	
877	2	meantioned	
878	2	patented	
879	2	issued	
880	2	complicated	
881	2	pumped	
882	2	tinged	
883	2	misspoke	
884	2	functioned	
885	2	overpaid	
886	2	belted	
887	2	splashed	
888	2	licensed	
889	2	slammed	
890	2	discounted	
891	2	puzzled	
892	2	partnered	
893	2	jostled	
894	2	desired	
895	2	accumulated	
896	2	waffled	
897	2	sided	
898	2	slanted	
899	2	intrigued	
900	2	really	
901	2	cheapo	
902	2	merged	
903	2	directed	
904	2	concluded	
905	2	sandwiched	
906	2	collapsed	
907	2	spilt	
908	2	cancelled	
909	2	piled	
910	2	faceted	
911	2	fascinated	
912	2	enabled	
913	2	black	
914	2	imho	
915	2	dismissed	
916	2	gummed	
917	2	resembled	
918	2	pissed	
919	2	blue	
920	2	consumed	
921	2	revealed	
922	2	shined	
923	2	viewed	
924	2	squeaked	
925	2	syringed	
926	2	summoned	
927	2	damned	
928	2	defined	
929	2	centered	
930	2	titled	
931	2	documented	
932	2	wicked	
933	2	narrowed	
934	2	acted	
935	2	90gsm	
936	2	practised	
937	2	loves	
938	2	punctured	
939	2	styled	
940	2	cited	
941	2	reposted	
942	2	wayyy	
943	2	speculated	
944	2	overused	
945	2	retailed	
946	2	reassured	
947	2	rediscovered	
948	2	congratulated	
949	2	rocked	
950	2	rn	
951	2	dubbed	
952	2	declined	
953	2	filtered	
954	2	mangled	
955	2	flung	
956	2	buffed	
957	2	induced	
958	2	slimmed	
959	2	lopped	
960	2	shaved	
961	2	customized	
962	2	rejected	
963	2	spaced	
964	2	misremembered	
965	2	surpassed	
966	2	calculated	
967	2	justified	
968	2	reinforced	
969	2	scheduled	
970	2	dabbed	
971	2	diaphragm	
972	2	morphed	
973	2	watercolored	
974	2	skimmed	
975	2	shout	
976	2	scoured	
977	2	arose	
978	2	valued	
979	2	rippled	
980	2	resonated	
981	2	latched	
982	2	judged	
983	2	fueled	
984	2	fucked	
985	2	mashed	
986	2	communicated	
987	2	squished	
988	2	desaturated	
989	2	sniffed	
990	2	dinged	
991	2	resented	
992	2	squirted	
993	2	suited	
994	2	surmised	
995	2	gsm	
996	2	lent	
997	2	stuffed	
998	2	been	
999	2	satisfied	
1000	2	displayed	
1001	2	textured	
1002	2	thrilled	
1003	2	recalled	
1004	2	hovered	
1005	2	pictured	
1006	2	dislodged	
1007	2	subbed	
1008	2	ranted	
1009	2	praised	
1010	2	relied	
1011	2	travelled	
1012	2	celebrated	
1013	2	poly	
1014	2	trapped	
1015	2	doodled	
1016	2	alternated	
1017	2	hunted	
1018	2	rembrandt	
1019	2	underestimated	
1020	2	dived	
1021	2	accelerated	
1022	2	greeted	
1023	2	monitored	
1024	2	oriented	
1025	2	revisited	
1026	2	ventured	
1027	2	splattered	
1028	2	trumped	
1029	2	dodged	
1030	2	transformed	
1031	2	facebook	
1032	2	determined	
1033	2	contemplated	
1034	2	absorbed	
1035	2	informed	
1036	2	burnt	
1037	2	watershed	
1038	2	benefited	
1039	2	inverted	
1040	2	reissued	
1041	2	aced	
1042	2	clarified	
1043	2	stacked	
1044	2	upset	
1045	2	resurrected	
1046	2	softened	
1047	2	dented	
1048	2	swung	
1049	2	repurchase	
1050	2	robbed	
1051	2	combined	
1052	2	erased	
1053	2	delayed	
1054	2	constructed	
1055	2	droppered	
1056	2	grinded	
1057	2	eyedropped	
1058	2	piped	
1059	2	bumped	
1060	2	sang	
1061	2	dialed	
1062	2	given	
1063	2	misinterpreted	
1064	2	pried	
1065	2	bet	
1066	2	melded	
1067	2	preceded	
1068	2	realigned	
1069	2	insured	
1070	2	gasped	
1071	2	detailed	
1072	2	invoiced	
1073	2	inflamed	
1074	2	evolved	
1075	2	standardized	
1076	2	confessed	
1077	2	kickstarted	
1078	2	concentrated	
1079	2	fingered	
1080	1	accidentallied	
1081	1	drummed	
1082	1	fill	
1083	1	bashed	
1084	1	hired	
1085	1	specialized	
1086	1	instilled	
1087	1	curdled	
1088	1	tired	
1089	1	bypassed	
1090	1	sipped	
1091	1	repacked	
1092	1	resaced	
1093	1	http://www.richardspens.com/	
1094	1	binderized	
1095	1	flared	
1096	1	reordered	
1097	1	misproportioned	
1098	1	labled	
1099	1	blossomed	
1100	1	loled	
1101	1	injured	
1102	1	inebriated	
1103	1	recapped	
1104	1	http://www.ebay.com/itm/soviet-russian-fountain-pen-soyuz-big-gold-point-box-/120566926283	
1105	1	offended	
1106	1	downsized	
1107	1	stockpiled	
1108	1	whittled	
1109	1	chickened	
1110	1	satin	
1111	1	surfaced	
1112	1	majored	
1113	1	depicted	
1114	1	reuploaded	
1115	1	dedicated	
1116	1	formulated	
1117	1	overreacted	
1118	1	unused	
1119	1	slept	
1120	1	blamed	
1121	1	wedged	
1122	1	tailored	
1123	1	fantasized	
1124	1	fared	
1125	1	analyzed	
1126	1	holepunched	
1127	1	enlisted	
1128	1	swirled	
1129	1	distinguished	
1130	1	revamped	
1131	1	strangled	
1132	1	dissassembled	
1133	1	durned	
1134	1	perfected	
1135	1	choked	
1136	1	affirmed	
1137	1	nominated	
1138	1	rigged	
1139	1	adored	
1140	1	organised	
1141	1	oversized	
1142	1	commandeered	
1143	1	bagged	
1144	1	池宮城秀栄	
1145	1	severed	
1146	1	pounded	
1147	1	stabbed	
1148	1	recomended	
1149	1	funded	
1150	1	bootstrapped	
1151	1	flocked	
1152	1	hounded	
1153	1	advanced	
1154	1	engineered	
1155	1	levered	
1156	1	👽	
1157	1	can*~~	
1158	1	motivated	
1159	1	nudged	
1160	1	promoted	
1161	1	spit	
1162	1	outdid	
1163	1	stunned	
1164	1	journaled	
1165	1	dsrvs	
1166	1	fucking	
1167	1	decorated	
1168	1	tripled	
1169	1	controlled	
1170	1	welled	
1171	1	cursed	
1172	1	breakdanced	
1173	1	showeed	
1174	1	scarred	
1175	1	frankensteined	
1176	1	shelled	
1177	1	unexplained	
1178	1	rebounded	
1179	1	seeped	
1180	1	sewn	
1181	1	perused	
1182	1	instructed	
1183	1	hugged	
1184	1	possessed	
1185	1	diffused	
1186	1	spurred	
1187	1	spreaded	
1188	1	intimated	
1189	1	weaved	
1190	1	torqued	
1191	1	fastened	
1192	1	disrupted	
1193	1	bolded	
1194	1	unbranded	
1195	1	correct	
1196	1	fullscreened	
1197	1	spared	
1198	1	-there	
1199	1	glossed	
1200	1	pens-	
1201	1	precipitated	
1202	1	steered	
1203	1	lusted	
1204	1	sprouted	
1205	1	underwent	
1206	1	questioned	
1207	1	objected	
1208	1	intrested	
1209	1	shimmered	
1210	1	vintaged	
1211	1	implemented	
1212	1	dispensed	
1213	1	klundtasaur	
1214	1	debossed	
1215	1	spook	
1216	1	mated	
1217	1	counseled	
1218	1	borked	
1219	1	spead	
1220	1	perforated	
1221	1	theyr'e	
1222	1	cussed	
1223	1	hindered	
1224	1	competed	
1225	1	blinked	
1226	1	ravaged	
1227	1	misbehaved	
1228	1	gravitated	
1229	1	recovered	
1230	1	reconsidered	
1231	1	clattered	
1232	1	watered	
1233	1	revived	
1234	1	~~pigments~~.	
1235	1	predated	
1236	1	brokered	
1237	1	rewatched	
1238	1	redid	
1239	1	subsrcribed	
1240	1	faulted	
1241	1	sorowka	
1242	1	goofed	
1243	1	love	
1244	1	underfilled	
1245	1	impregnated	
1246	1	scooped	
1247	1	dispersed	
1248	1	bpost	
1249	1	rename	
1250	1	lettered	
1251	1	plagued	
1252	1	isolated	
1253	1	valved	
1254	1	likened	
1255	1	hound	
1256	1	tryed	
1257	1	hosed	
1258	1	pondered	
1259	1	recommed	
1260	1	moulded	
1261	1	exhaled	
1262	1	executed	
1263	1	glanced	
1264	1	employed	
1265	1	caréne	
1266	1	zippered	
1267	1	http://www.jinhaopen.com/en/product.asp?id=134	
1268	1	handcrafted	
1269	1	breathed	
1270	1	coined	
1271	1	enameled	
1272	1	rested	
1273	1	whispered	
1274	1	classified	
1275	1	overnighted	
1276	1	jammed	
1277	1	subsidized	
1278	1	blurted	
1279	1	apprenticed	
1280	1	undercut	
1281	1	flopped	
1282	1	mandated	
1283	1	imprinted	
1284	1	evened	
1285	1	pledged	
1286	1	fake-	
1287	1	globbed	
1288	1	exerted	
1289	1	unflexed	
1290	1	warrented	
1291	1	creeped	
1292	1	related	
1293	1	http://www.amazon.co.uk/dp/b00govunw4/	
1294	1	cpu	
1295	1	strained	
1296	1	complemented	
1297	1	domed	
1298	1	designated	
1299	1	drank	
1300	1	shrank	
1301	1	blasphemed	
1302	1	beautiful-	
1303	1	wandered	
1304	1	aquired	
1305	1	undermarked	
1306	1	classique	
1307	1	shoul	
1308	1	written	
1309	1	reignited	
1310	1	prohibited	
1311	1	bolted	
1312	1	thumbed	
1313	1	relaxed	
1314	1	ammended	
1315	1	wadded	
1316	1	modeled	
1317	1	eyeballed	
1318	1	grouped	
1319	1	vented	
1320	1	personalized	
1321	1	divorced	
1322	1	guilded	
1323	1	copyrighted	
1324	1	http://www.desideratapens.com/	
1325	1	purposed	
1326	1	sf2	
1327	1	well-	
1328	1	interlinked	
1329	1	intervened	
1330	1	strut	
1331	1	mattered	
1332	1	talented	
1333	1	crossfield	
1334	1	nib+feed	
1335	1	sandragm	
1336	1	constricted	
1337	1	traced	
1338	1	freehanded	
1339	1	botched	
1340	1	mispoke	
1341	1	daiso	
1342	1	compiled	
1343	1	mag	
1344	1	waived	
1345	1	nib	
1346	1	hacked	
1347	1	wel	
1348	1	/	
1349	1	bike	
1350	1	fumed	
1351	1	lives	
1352	1	prime	
1353	1	graded	
1354	1	devised	
1355	1	bankrupted	
1356	1	burst	
1357	1	teached	
1358	1	dilluted	
1359	1	coupled	
1360	1	can't	
1361	1	tell	
1362	1	looooved	
1363	1	stylized	
1364	1	soured	
1365	1	binged	
1366	1	pawned	
1367	1	washi	
1368	1	obliged	
1369	1	chamfered	
1370	1	unlearned	
1371	1	unfucked	
1372	1	echoed	
1373	1	phased	
1374	1	pioneered	
1375	1	braised	
1376	1	homed	
1377	1	disregarded	
1378	1	sailed	
1379	1	restricted	
1380	1	disagreed	
1381	1	murdered	
1382	1	terrified	
1383	1	influenced	
1384	1	shocked	
1385	1	upturned	
1386	1	キングイーグル	
1387	1	cranked	
1388	1	romanised	
1389	1	ensued	
1390	1	froze	
1391	1	unripened	
1392	1	shrunk	
1393	1	eased	
1394	1	dove	
1395	1	tethered	
1396	1	reminisced	
1397	1	vaped	
1398	1	sinned	
1399	1	smashed	
1400	1	caked	
1401	1	rephrased	
1402	1	subtracted	
1403	1	jobbed	
1404	1	shaken	
1405	1	http://imgur.com/ytkjqhr	
1406	1	frequented	
1407	1	romanized	
1408	1	forked	
1409	1	deactivated	
1410	1	weakened	
1411	1	tinted	
1412	1	expierenced	
1413	1	overstated	
1414	1	protested	
1415	1	geeked	
1416	1	rendered	
1417	1	rid	
1418	1	sued	
1419	1	puchased	
1420	1	~~edit	
1421	1	embarrassed	
1422	1	workhorse	
1423	1	protected	
1424	1	calibrated	
1425	1	transfered	
1426	1	r3	
1427	1	desinged	
1428	1	resized	
1429	1	certified	
1430	1	unfolded	
1431	1	dose	
1432	1	reopened	
1433	1	fried	
1434	1	done	
1435	1	smelt	
1436	1	smiled	
1437	1	enlarged	
1438	1	post-1942	
1439	1	pleased	
1440	1	hypothesized	
1441	1	accommodated	
1442	1	legged	
1443	1	mushed	
1444	1	slotted	
1445	1	中田屋	
1446	1	kakunos	
1447	1	stiffened	
1448	1	workbook	
1449	1	prefaced	
1450	1	boasted	
1451	1	sacred	
1452	1	exclaimed	
1453	1	blobs	
1454	1	tooled	
1455	1	floored	
1456	1	floated	
1457	1	fused	
1458	1	ceased	
1459	1	overexposed	
1460	1	contrived	
1461	1	nocked	
1462	1	layered	
1463	1	flinched	
1464	1	destructed	
1465	1	doublewood	
1466	1	unlocked	
1467	1	indexed	
1468	1	mutilated	
1469	1	immigrated	
1470	1	undermined	
1471	1	gushed	
1472	1	https://www.amazon.com/dp/b01b3hgyey/ref=cm_sw_r_cp_api_mviyybdwbx775	
1473	1	peeked	
1474	1	accrued	
1475	1	unmoved	
1476	1	laminated	
1477	1	raved	
1478	1	prestretched	
1479	1	challenged	
1480	1	impacted	
1481	1	nook	
1482	1	doomed	
1483	1	cheap	
1484	1	abused	
1485	1	plum	
1486	1	mouthed	
1487	1	begun	
1488	1	ticked	
1489	1	texted	
1490	1	shelved	
1491	1	restarted	
1492	1	though-	
1493	1	powered	
1494	1	agitated	
1495	1	clued	
1496	1	suspect	
1497	1	recogized	
1498	1	flirted	
1499	1	concerned	
1500	1	insulted	
1501	1	sank	
1502	1	mistyped	
1503	1	lingered	
1504	1	misalligned	
1505	1	forwarded	
1506	1	refurbished	
1507	1	posed	
1508	1	nibbled	
1509	1	shed	
1510	1	relayed	
1511	1	scooted	
1512	1	banked	
1513	1	stammered	
1514	1	singed	
1515	1	cred	
1516	1	skated	
1517	1	splended	
1518	1	expounded	
1519	1	fainted	
1520	1	unboxed	
1521	1	fluttered	
1522	1	resided	
1523	1	crept	
1524	1	farmed	
1525	1	dithered	
1526	1	orange/	
1527	1	confiscated	
1528	1	sleeved	
1529	1	spurt	
1530	1	reinserted	
1531	1	beaded	
1532	1	interacted	
1533	1	deteriorated	
1534	1	wouldn	
1535	1	commemorated	
1536	1	x450	
1537	1	rationalised	
1538	1	http://imgur.com/qezv7nm	
1539	1	crowded	
1540	1	reaped	
1541	1	mastered	
1542	1	transplanted	
1543	1	clamped	
1544	1	anodized	
1545	1	interpreted	
1546	1	fled	
1547	1	whistled	
1548	1	tumbled	
1549	1	lolled	
1550	1	quadrupled	
1551	1	stoned	
1552	1	deeped	
1553	1	bragged	
1554	1	analysed	
1555	1	defeated	
1556	1	rammed	
1557	1	knitted	
1558	1	binned	
1559	1	'better	
1560	1	thrown	
1561	1	deluxe](http://www.pensdeluxe.ashop.com.au	
1562	1	relented	
1563	1	activated	
1564	1	ramped	
1565	1	upsated	
1566	1	pounced	
1567	1	conditioned	
1568	1	psyched	
1569	1	farted	
1570	1	debuted	
1571	1	toned	
1572	1	sharpened	
1573	1	mislabelled	
1574	1	stemmed	
1575	1	buckled	
1576	1	minded	
1577	1	soften	
1578	1	shorted	
1579	1	flavoured	
1580	1	kimono	
1581	1	loooooooved	
1582	1	resigned	
1583	1	heared	
1584	1	sweated	
1585	1	alleviated	
1586	1	toyed	
1587	1	bulldoze	
1588	1	co	
1589	1	2k(got	
1590	1	overlaid	
1591	1	reseated	
1592	1	soldered	
1593	1	unwanted	
1594	1	hijacked	
1595	1	supplanted	
1596	1	sported	
1597	1	swiped	
1598	1	flicked	
1599	1	engorged	
1600	1	groped	
1601	1	joked	
1602	1	reflected	
1603	1	lurked	
1604	1	steeped	
1605	1	always(ended	
1606	1	crammed	
1607	1	broken	
1608	1	remodelled	
1609	1	bat	
1610	1	quieted	
1611	1	inspected	
1612	1	https://www.fahrneyspens.com/item--i-361161	
1613	1	chuck	
1614	1	tamed	
1615	1	grated	
1616	1	reserved	
1617	1	uncleaned	
1618	1	nipped	
1619	1	swarmed	
1620	1	blob	
1621	1	companied	
1622	1	grib	
1623	1	pilled	
1624	1	preformed	
1625	1	established	
1626	1	quivered	
1627	1	keyed	
1628	1	l.a.came	
1629	1	usa	
1630	1	jam	
1631	1	sandpapered	
1632	1	abt	
1633	1	shattered	
1634	1	walmart_heavyweight_index_cards188shows_sheen/	
1635	1	sculptured	
1636	1	prejudiced	
1637	1	despised	
1638	1	tore	
1639	1	threatened	
1640	1	cadd	
1641	1	dotted	
1642	1	trekked	
1643	1	stowed	
1644	1	resorted	
1645	1	branched	
1646	1	excited	
1647	1	3d	
1648	1	pulverized	
1649	1	refreshed	
1650	1	embossed	
1651	1	pierced	
1652	1	contracted	
1653	1	stubbed	
1654	1	loaned	
1655	1	skilled	
1656	1	overtook	
1657	1	repositioned	
1658	1	liken	
1659	1	hoarded	
1660	1	succumb	
1661	1	renovated	
1662	1	asserted	
1663	1	overwhelmed	
1664	1	associated	
1665	1	lurk	
1666	1	coughed	
1667	1	splurged	
1668	1	ganked	
1669	1	proportioned	
1670	1	projects/2016143253	
1671	1	rhodinated	
1672	1	mistook	
1673	1	visulated	
1674	1	alligned	
1675	1	privileged	
1676	1	muted	
1677	1	retracted	
1678	1	thougt	
1679	1	conveyed	
1680	1	compressed	
1681	1	cushioned	
1682	1	un**posted	
1683	1	winced	
1684	1	enveloped	
1685	1	lierre	
1686	1	consulted	
1687	1	bagan	
1688	1	chopped	
1689	1	escalated	
1690	1	reinvented	
1691	1	sarted	
1692	1	educated	
1693	1	repainted	
1694	1	risked	
1695	1	https://www.birminghampens.com/collections/nibs/nemosine_brandfp	
1696	1	bungled	
1697	1	reengineered	
1698	1	reloaded	
1699	1	t&amp;session=000922f159ffa7b30007229f000005fc0&amp;x=101&amp;y=53	
1700	1	here-	
1701	1	lengthwise	
1702	1	loathed	
1703	1	oxidized	
1704	1	finial	
1705	1	alerted	
1706	1	stashed	
1707	1	tagged	
1708	1	exported	
1709	1	---&gt	
1710	1	rakuten	
1711	1	urged	
1712	1	slosh	
1713	1	plunged	
1714	1	https://www.etsy.com/uk/listing/286442555/taroko-mystique-a5-notebook-v3-dotted	
1715	1	snob	
1716	1	humbled	
1717	1	rundt	
1718	1	grafted	
1719	1	flagged	
1720	1	scolded	
1721	1	detach	
1722	1	crested	
1723	1	seconded	
1724	1	supplemented	
1725	1	kingsized	
1726	1	burnished	
1727	1	prolonged	
1728	1	reused	
1729	1	junked	
1730	1	dehydrated	
1731	1	sez	
1732	1	pensemble	
1733	1	unaligned	
1734	1	manga	
1735	1	collaborated	
1736	1	regreased	
1737	1	eliminated	
1738	1	guaranteed	
1739	1	underrated	
1740	1	axed	
1741	1	dismantled	
1742	1	said‘s	
1743	1	located	
1744	1	appraised	
1745	1	shown	
1746	1	fireblued	
1747	1	cooled	
1748	1	generated	
1749	1	focussed	
1750	1	depleted	
1751	1	outgrew	
1752	1	peaked	
1753	1	opposed	
1754	1	https://www.etsy.com/shop/galenousleather?ref=s2-header-shopname	
1755	1	dulled	
1756	1	decreased	
1757	1	tacked	
1758	1	roasted	
1759	1	counterfeited	
1760	1	monogrammed	
1761	1	hopped	
1762	1	diagnosed	
1763	1	interviewed	
1764	1	crunched	
1765	1	develped	
1766	1	reinfored	
1767	1	balked	
1768	1	aquas	
1769	1	posited	
1770	1	proffered	
1771	1	vaginas	
1772	1	tackled	
1773	1	drifted	
1774	1	harvested	
1775	1	contradicted	
1776	1	pearlised	
1777	1	hardened	
1778	1	budged	
1779	1	commuted	
1780	1	https://www.reddit.com/r/calligraphy/wiki/getinvolved	
1781	1	understated	
1782	1	overcharged	
1783	1	dominated	
1784	1	hooked	
1785	1	camped	
1786	1	irked	
1787	1	argued	
1788	1	nemed	
1789	1	luck	
1790	1	humped	
1791	1	seasoned	
1792	1	woodshed	
1793	1	buried	
1794	1	processed	
1795	1	unsubscribed	
1796	1	forged	
1797	1	gleened	
1798	1	rinse	
1799	1	puked	
1800	1	dusted	
1801	1	resumed	
1802	1	preserved	
1803	1	complimented	
1804	1	bundled	
1805	1	overpriced	
1806	1	liberalised	
1807	1	lessen	
1808	1	hatched	
1809	1	wancai	
1810	1	curated	
1811	1	betrayed	
1812	1	emerged	
1813	1	pelikan	
1814	1	wetted	
1815	1	marred	
1816	1	pry	
1817	1	denied	
1818	1	insinuated	
1819	1	gambled	
1820	1	shred	
1821	1	curled	
1822	1	clouded	
1823	1	screenshot	
1824	1	tapped	
1825	1	splayed	
1826	1	derived	
1827	1	muddied	
1828	1	remedied	
1829	1	purged	
1830	1	loosen	
1831	1	consolidated	
1832	1	works	
1833	1	shellaced	
1834	1	eluded	
1835	1	neglected	
1836	1	jeweled	
1837	1	envisioned	
1838	1	aided	
1839	1	untipped	
1840	1	toured	
1841	1	halfpipe	
1842	1	retighten	
1843	1	gridded	
1844	1	tasted	
1845	1	splotched	
1846	1	deionized	
1847	1	bounded	
1848	1	complied	
1849	1	transcribed	
1850	1	fought	
1851	1	succeeded	
1852	1	disheartened	
1853	1	i’ve	
1854	1	glowed	
1855	1	wth	
1856	1	masked	
1857	1	drained	
1858	1	disabled	
1859	1	effected	
1860	1	embellished	
1861	1	pocked	
1862	1	fallen	
1863	1	jutted	
1864	1	catered	
1865	1	whitelisted	
1866	1	scammed	
1867	1	shamed	
1868	1	abstained	
1869	1	unveiled	
1870	1	nibbed	
1871	1	imaged	
1872	1	peeped	
1873	1	c823	
1874	1	impeded	
1875	1	deformed	
1876	1	laced	
1877	1	showcase	
1878	1	gt;[**red	
1879	1	dared	
1880	1	extracted	
1881	1	imitated	
1882	1	scripto	
1883	1	conducted	
1884	1	steamrolled	
1885	1	flawed	
1886	1	book	
1887	1	vowed	
1888	1	dreaded	
1889	1	subsided	
1890	1	haggled	
1891	1	lurv	
1892	1	propped	
1893	1	coordinated	
1894	1	raced	
1895	1	rekindled	
1896	1	decoupaged	
1897	1	haha	
1898	1	パイロット	
1899	1	unsealed	
1900	1	become	
1901	1	ummed	
1902	1	ahhhed	
1903	1	letterhead	
