#Word types: 2772
#Word tokens: 32221
#Search results: 0
1	1717	is	
2	1301	have	
3	749	use	
4	604	do	
5	573	had	
6	538	used	
7	537	get	
8	534	are	
9	505	got	
10	495	was	
11	422	like	
12	387	be	
13	381	want	
14	374	write	
15	369	bought	
16	363	has	
17	360	came	
18	342	made	
19	310	seen	
20	301	see	
21	281	go	
22	256	think	
23	253	know	
24	253	find	
25	234	own	
26	232	make	
27	231	makes	
28	229	need	
29	228	found	
30	228	's	
31	206	tried	
32	194	look	
33	191	looks	
34	183	put	
35	176	love	
36	166	buy	
37	165	try	
38	165	come	
39	157	did	
40	155	writes	
41	151	wanted	
42	143	looking	
43	143	using	
44	140	keep	
45	137	work	
46	136	comes	
47	134	say	
48	125	take	
49	109	'm	
50	106	going	
51	104	been	
52	104	hold	
53	103	ordered	
54	101	fit	
55	101	saw	
56	97	enjoy	
57	97	sell	
58	97	works	
59	95	seems	
60	93	mentioned	
61	91	posted	
62	90	heard	
63	88	thought	
64	84	give	
65	83	recommend	
66	82	went	
67	82	gave	
68	82	purchased	
69	81	took	
70	79	done	
71	78	were	
72	78	compare	
73	77	wrote	
74	77	uses	
75	75	does	
76	75	sells	
77	74	said	
78	74	start	
79	73	read	
80	72	sold	
81	71	post	
82	70	am	
83	69	feel	
84	68	live	
85	67	goes	
86	67	received	
87	66	choose	
88	65	looked	
89	65	fits	
90	64	included	
91	64	show	
92	64	needed	
93	63	started	
94	62	consider	
95	62	clean	
96	61	fill	
97	61	feels	
98	60	carry	
99	59	picked	
100	59	guess	
101	59	takes	
102	59	needs	
103	58	inked	
104	58	help	
105	55	believe	
106	54	’s	
107	53	play	
108	52	means	
109	51	owned	
110	51	liked	
111	50	trying	
112	48	seem	
113	48	sent	
114	48	fix	
115	47	learn	
116	47	writing	
117	47	pick	
118	47	cost	
119	46	says	
120	46	gives	
121	45	holds	
122	45	knows	
123	45	add	
124	44	tell	
125	44	offer	
126	44	working	
127	44	helps	
128	43	prefer	
129	43	noticed	
130	43	left	
131	43	gets	
132	43	spend	
133	42	paid	
134	42	worked	
135	40	test	
136	39	shows	
137	38	happen	
138	38	likes	
139	38	written	
140	38	talking	
141	38	ask	
142	37	gotten	
143	36	wants	
144	35	check	
145	35	asked	
146	35	happened	
147	35	restored	
148	34	pay	
149	34	getting	
150	33	puts	
151	33	linked	
152	33	can	
153	33	knew	
154	33	match	
155	33	care	
156	32	let	
157	32	recommended	
158	32	appreciate	
159	31	helped	
160	31	remember	
161	30	suggested	
162	30	order	
163	30	decided	
164	30	given	
165	30	supposed	
166	30	doing	
167	29	leave	
168	29	listed	
169	28	brought	
170	28	purchase	
171	28	felt	
172	27	run	
173	27	happens	
174	27	having	
175	27	last	
176	26	plan	
177	26	told	
178	25	ship	
179	25	tested	
180	25	draw	
181	24	turn	
182	24	matches	
183	24	describe	
184	24	expect	
185	24	set	
186	24	’m	
187	23	ink	
188	23	caught	
189	23	filled	
190	23	end	
191	23	require	
192	23	chose	
193	23	taken	
194	23	prevent	
195	23	shipped	
196	23	considering	
197	23	bring	
198	23	mention	
199	23	replace	
200	22	pass	
201	22	allows	
202	22	turned	
203	22	break	
204	22	screws	
205	22	lying	
206	22	laying	
207	22	produce	
208	22	managed	
209	21	experienced	
210	21	're	
211	21	handle	
212	21	wish	
213	21	designed	
214	21	begin	
215	21	afford	
216	21	dry	
217	21	tend	
218	21	change	
219	21	rid	
220	20	provided	
221	20	suggest	
222	20	thinking	
223	20	coming	
224	20	visited	
225	20	swap	
226	20	selling	
227	20	open	
228	20	making	
229	20	kept	
230	20	share	
231	20	lost	
232	20	worry	
233	20	keeps	
234	20	released	
235	19	throw	
236	19	improve	
237	19	checked	
238	19	ended	
239	19	practice	
240	19	could	
241	18	learned	
242	18	deal	
243	18	send	
244	18	runs	
245	18	s	
246	18	cut	
247	18	sounds	
248	18	understand	
249	18	loved	
250	18	hoping	
251	18	held	
252	18	remove	
253	17	lose	
254	17	spent	
255	17	known	
256	17	showed	
257	17	hope	
258	17	meet	
259	17	based	
260	17	refill	
261	16	shades	
262	16	lives	
263	16	buying	
264	16	visit	
265	16	talk	
266	16	broke	
267	16	carries	
268	16	considered	
269	16	seemed	
270	16	avoid	
271	16	hear	
272	16	giving	
273	16	replaced	
274	16	missing	
275	16	sits	
276	16	gone	
277	16	produced	
278	16	offers	
279	16	expected	
280	16	pull	
281	16	provide	
282	16	’ve	
283	15	follow	
284	15	sit	
285	15	flows	
286	15	call	
287	15	notice	
288	15	explain	
289	15	meant	
290	15	figure	
291	15	offered	
292	15	dried	
293	15	suits	
294	15	putting	
295	15	arrived	
296	15	cleaned	
297	14	sheen	
298	14	restore	
299	14	appears	
300	14	grip	
301	14	imagine	
302	14	cause	
303	14	stop	
304	14	protect	
305	14	save	
306	14	meets	
307	14	trust	
308	14	asking	
309	14	catch	
310	14	pop	
311	14	owns	
312	14	starting	
313	14	dries	
314	14	provides	
315	14	forgot	
316	14	waiting	
317	13	allow	
318	13	sucks	
319	13	encountered	
320	13	brings	
321	13	existed	
322	13	arrive	
323	13	sitting	
324	13	handled	
325	13	note	
326	13	twist	
327	13	required	
328	13	answer	
329	13	costs	
330	13	repair	
331	13	reach	
332	13	screwed	
333	13	eyeing	
334	12	mind	
335	12	decide	
336	12	speak	
337	12	lets	
338	12	changed	
339	12	tends	
340	12	acquired	
341	12	built	
342	12	bleed	
343	12	mean	
344	12	include	
345	12	carried	
346	12	collect	
347	12	realized	
348	12	comment	
349	12	asks	
350	12	cover	
351	12	screw	
352	12	manage	
353	12	seeing	
354	12	turns	
355	11	pictured	
356	11	serve	
357	11	requires	
358	11	produces	
359	11	identify	
360	11	created	
361	11	bother	
362	11	fell	
363	11	swapped	
364	11	fall	
365	11	touch	
366	11	loves	
367	11	hoped	
368	11	adds	
369	11	taking	
370	11	dislike	
371	11	shown	
372	11	wait	
373	11	commented	
374	11	added	
375	11	bothers	
376	11	referring	
377	11	touches	
378	11	store	
379	11	survived	
380	11	wear	
381	10	seal	
382	10	stand	
383	10	holding	
384	10	stuck	
385	10	stated	
386	10	mess	
387	10	called	
388	10	drew	
389	10	intend	
390	10	stay	
391	10	assume	
392	10	removed	
393	10	missed	
394	10	caused	
395	10	expecting	
396	10	contains	
397	10	tuned	
398	10	matched	
399	10	suppose	
400	10	wanting	
401	10	lol	
402	10	become	
403	10	gon	
404	9	touched	
405	9	popped	
406	9	catches	
407	9	create	
408	9	pen	
409	9	sketch	
410	9	allowed	
411	9	behold	
412	9	planning	
413	9	intended	
414	9	adore	
415	9	matters	
416	9	perform	
417	9	expensive	
418	9	passed	
419	9	travel	
420	9	ground	
421	9	leads	
422	9	justify	
423	9	includes	
424	9	figured	
425	9	fixed	
426	9	hate	
427	9	converted	
428	9	discontinued	
429	9	leaning	
430	9	stopped	
431	9	tells	
432	9	ends	
433	9	flex	
434	9	dropped	
435	9	lays	
436	9	showcase	
437	9	gifted	
438	9	’re	
439	8	finished	
440	8	causes	
441	8	cracked	
442	8	stands	
443	8	led	
444	8	flush	
445	8	exposed	
446	8	deserve	
447	8	speaks	
448	8	donated	
449	8	inspired	
450	8	interests	
451	8	disassemble	
452	8	watch	
453	8	experiment	
454	8	described	
455	8	enjoyed	
456	8	resembles	
457	8	hand	
458	8	leaked	
459	8	met	
460	8	smear	
461	8	being	
462	8	leak	
463	8	disassembled	
464	8	regret	
465	8	convinced	
466	8	flow	
467	8	treat	
468	8	encounter	
469	8	feathers	
470	8	pair	
471	8	saying	
472	8	saved	
473	8	push	
474	8	contained	
475	8	carrying	
476	8	search	
477	8	achieve	
478	8	unscrew	
479	8	deserves	
480	7	remind	
481	7	explains	
482	7	appreciated	
483	7	stick	
484	7	finish	
485	7	sees	
486	7	reading	
487	7	shared	
488	7	plays	
489	7	print	
490	7	drop	
491	7	feather	
492	7	developed	
493	7	reads	
494	7	slide	
495	7	rotate	
496	7	contact	
497	7	thrown	
498	7	miss	
499	7	returned	
500	7	cap	
501	7	threw	
502	7	dig	
503	7	breaks	
504	7	pulled	
505	7	exist	
506	7	located	
507	7	occur	
508	7	belonged	
509	7	will	
510	7	discovered	
511	7	celebrate	
512	7	switched	
513	7	hit	
514	7	became	
515	7	sign	
516	7	talked	
517	7	reminds	
518	7	paint	
519	7	starts	
520	7	pushed	
521	7	bleeds	
522	7	opened	
523	7	mixed	
524	6	dealt	
525	6	connected	
526	6	pops	
527	6	associate	
528	6	nib	
529	6	moves	
530	6	requested	
531	6	stood	
532	6	delivered	
533	6	surprise	
534	6	return	
535	6	shopped	
536	6	feed	
537	6	present	
538	6	keeping	
539	6	connects	
540	6	agree	
541	6	surprised	
542	6	appear	
543	6	hits	
544	6	much	
545	6	rest	
546	6	prove	
547	6	apply	
548	6	move	
549	6	suck	
550	6	burn	
551	6	responded	
552	6	recognize	
553	6	sheens	
554	6	stub	
555	6	wanna	
556	6	focus	
557	6	smell	
558	6	lead	
559	6	covered	
560	6	wondering	
561	6	slip	
562	6	list	
563	6	attend	
564	6	shaped	
565	6	ran	
566	6	stain	
567	6	correct	
568	6	matter	
569	6	causing	
570	6	reported	
571	6	leaves	
572	6	placed	
573	6	meaning	
574	6	split	
575	6	grew	
576	6	place	
577	6	realize	
578	6	attaches	
579	6	pens	
580	6	solve	
581	6	lay	
582	6	suggests	
583	6	spare	
584	6	behaves	
585	6	behave	
586	6	becomes	
587	6	marked	
588	6	learning	
589	6	hide	
590	5	paired	
591	5	thinks	
592	5	ordering	
593	5	exists	
594	5	saving	
595	5	signed	
596	5	referencing	
597	5	switch	
598	5	moved	
599	5	stained	
600	5	intrigued	
601	5	sample	
602	5	beat	
603	5	sampled	
604	5	fail	
605	5	ships	
606	5	resist	
607	5	buff	
608	5	enjoying	
609	5	accomplish	
610	5	may	
611	5	ruin	
612	5	stays	
613	5	grabbed	
614	5	creates	
615	5	performed	
616	5	adjust	
617	5	leans	
618	5	in	
619	5	acts	
620	5	lists	
621	5	shop	
622	5	experience	
623	5	stored	
624	5	attached	
625	5	worries	
626	5	expressed	
627	5	sat	
628	5	loving	
629	5	closed	
630	5	liking	
631	5	deliver	
632	5	weigh	
633	5	related	
634	5	attach	
635	5	represents	
636	5	study	
637	5	separates	
638	5	green	
639	5	smoothed	
640	5	pursue	
641	5	display	
642	5	paying	
643	5	collected	
644	5	watched	
645	5	reflect	
646	5	opens	
647	5	forgotten	
648	5	uploaded	
649	5	follows	
650	5	sound	
651	5	form	
652	5	cares	
653	5	fills	
654	5	downvoted	
655	5	appeal	
656	5	drive	
657	5	convert	
658	5	connect	
659	5	review	
660	5	enjoys	
661	5	available	
662	5	indicate	
663	5	unscrews	
664	5	accept	
665	5	clog	
666	5	damaged	
667	5	sticks	
668	5	line	
669	5	organize	
670	5	accepted	
671	5	translates	
672	5	shines	
673	5	walk	
674	5	frequent	
675	5	priced	
676	5	desired	
677	5	replied	
678	5	doubt	
679	4	answered	
680	4	shade	
681	4	spoke	
682	4	laid	
683	4	slides	
684	4	changes	
685	4	browse	
686	4	performs	
687	4	leaking	
688	4	marketed	
689	4	refer	
690	4	won	
691	4	contributed	
692	4	tolerate	
693	4	back	
694	4	broken	
695	4	reduce	
696	4	package	
697	4	gather	
698	4	cared	
699	4	value	
700	4	collecting	
701	4	taught	
702	4	benefit	
703	4	glued	
704	4	improved	
705	4	assumed	
706	4	thread	
707	4	played	
708	4	threaded	
709	4	calls	
710	4	recognized	
711	4	accommodate	
712	4	damage	
713	4	involved	
714	4	wondered	
715	4	eat	
716	4	loaded	
717	4	increase	
718	4	involves	
719	4	design	
720	4	replicate	
721	4	name	
722	4	expand	
723	4	hesitate	
724	4	finding	
725	4	vote	
726	4	printed	
727	4	grab	
728	4	m	
729	4	resemble	
730	4	stocks	
731	4	drives	
732	4	maintain	
733	4	grind	
734	4	buys	
735	4	advertise	
736	4	claimed	
737	4	fallen	
738	4	address	
739	4	disliked	
740	4	impulse	
741	4	drawn	
742	4	jump	
743	4	pushes	
744	4	reminded	
745	4	lean	
746	4	bothered	
747	4	complain	
748	4	wet	
749	4	seals	
750	4	stumbled	
751	4	drooling	
752	4	receive	
753	4	ruined	
754	4	soak	
755	4	wash	
756	4	joined	
757	4	flexes	
758	4	remedy	
759	4	interact	
760	4	mix	
761	4	clings	
762	4	draws	
763	4	showing	
764	4	stolen	
765	4	journal	
766	4	wonder	
767	4	posts	
768	4	occurred	
769	4	planned	
770	4	inherited	
771	4	acquire	
772	4	threads	
773	4	that	
774	4	dip	
775	4	traded	
776	4	compares	
777	4	depends	
778	4	spread	
779	4	drill	
780	4	benefits	
781	4	modify	
782	4	hurt	
783	4	annoying	
784	4	belong	
785	4	settled	
786	4	source	
787	4	reviewed	
788	4	install	
789	4	empty	
790	4	prevents	
791	4	react	
792	4	prompted	
793	4	behaved	
794	4	verify	
795	4	update	
796	4	press	
797	4	smooth	
798	4	applied	
799	4	contribute	
800	4	living	
801	4	admit	
802	4	snap	
803	4	checks	
804	4	shine	
805	4	handed	
806	4	stole	
807	4	served	
808	4	uncap	
809	4	roll	
810	3	stopping	
811	3	desire	
812	3	employ	
813	3	attempt	
814	3	investigate	
815	3	pays	
816	3	wears	
817	3	lasted	
818	3	chat	
819	3	messed	
820	3	speed	
821	3	rests	
822	3	ca	
823	3	accompany	
824	3	travelling	
825	3	delayed	
826	3	forget	
827	3	forms	
828	3	sealed	
829	3	disappointed	
830	3	lies	
831	3	knocked	
832	3	loses	
833	3	scream	
834	3	wearing	
835	3	devote	
836	3	interest	
837	3	attract	
838	3	deals	
839	3	blows	
840	3	fold	
841	3	rely	
842	3	edited	
843	3	crack	
844	3	engraved	
845	3	cure	
846	3	graduate	
847	3	extends	
848	3	published	
849	3	spill	
850	3	complained	
851	3	experimented	
852	3	fountain	
853	3	scroll	
854	3	select	
855	3	salvage	
856	3	dumped	
857	3	measure	
858	3	formed	
859	3	contrasts	
860	3	presume	
861	3	teach	
862	3	new	
863	3	appealed	
864	3	invested	
865	3	trim	
866	3	pointed	
867	3	pooled	
868	3	struggling	
869	3	lent	
870	3	grown	
871	3	hunt	
872	3	splurge	
873	3	suit	
874	3	color	
875	3	lived	
876	3	build	
877	3	directed	
878	3	dipped	
879	3	snapped	
880	3	stayed	
881	3	explore	
882	3	repaired	
883	3	failed	
884	3	feathered	
885	3	fear	
886	3	agreed	
887	3	about	
888	3	specializes	
889	3	glows	
890	3	feared	
891	3	chosen	
892	3	advertised	
893	3	respect	
894	3	reply	
895	3	smelled	
896	3	suspect	
897	3	scratchy	
898	3	locks	
899	3	pink	
900	3	drawing	
901	3	adjusted	
902	3	of	
903	3	research	
904	3	upgrade	
905	3	admire	
906	3	solved	
907	3	spot	
908	3	attended	
909	3	experiencing	
910	3	judge	
911	3	knock	
912	3	remains	
913	3	soaks	
914	3	sought	
915	3	participate	
916	3	lust	
917	3	confirm	
918	3	introduce	
919	3	hunting	
920	3	confirms	
921	3	obsess	
922	3	explained	
923	3	clicks	
924	3	dissolve	
925	3	motivated	
926	3	worried	
927	3	pulls	
928	3	squeezed	
929	3	posting	
930	3	compliments	
931	3	exchange	
932	3	lend	
933	3	squeeze	
934	3	grow	
935	3	adapted	
936	3	lasts	
937	3	handles	
938	3	offering	
939	3	load	
940	3	inserted	
941	3	washed	
942	3	smears	
943	3	absorbs	
944	3	scratched	
945	3	photograph	
946	3	covers	
947	3	capture	
948	3	smudge	
949	3	increases	
950	3	feeds	
951	3	features	
952	3	waste	
953	3	stubbed	
954	3	dedicated	
955	3	cross	
956	3	apologize	
957	3	wipe	
958	3	restores	
959	3	operate	
960	3	invest	
961	3	align	
962	3	support	
963	3	concerns	
964	3	fails	
965	3	raise	
966	3	belongs	
967	3	import	
968	3	confusing	
969	3	operates	
970	3	better	
971	3	to	
972	3	on	
973	3	lined	
974	3	would	
975	3	good	
976	3	drying	
977	3	notes	
978	3	destroyed	
979	3	sets	
980	3	appealing	
981	3	rub	
982	3	impress	
983	3	shipping	
984	3	confuses	
985	3	scratch	
986	3	eyedropped	
987	3	trade	
988	3	arrives	
989	3	glides	
990	3	link	
991	3	staying	
992	3	attracts	
993	3	prefers	
994	3	service	
995	3	scares	
996	3	clipped	
997	3	modified	
998	3	widen	
999	3	tossed	
1000	3	realised	
1001	3	chase	
1002	3	refilled	
1003	3	producing	
1004	3	house	
1005	3	recieved	
1006	3	fiddle	
1007	3	accepts	
1008	3	stops	
1009	3	experimenting	
1010	3	collects	
1011	3	chip	
1012	3	appreciates	
1013	3	faced	
1014	3	responds	
1015	3	saturated	
1016	3	hanging	
1017	3	named	
1018	3	whip	
1019	3	polish	
1020	3	submitted	
1021	3	fades	
1022	3	drink	
1023	3	dedicate	
1024	3	polished	
1025	3	adapt	
1026	3	installed	
1027	3	stuffed	
1028	2	begins	
1029	2	checking	
1030	2	scoff	
1031	2	weep	
1032	2	view	
1033	2	finds	
1034	2	falls	
1035	2	escape	
1036	2	treasured	
1037	2	preserve	
1038	2	sharing	
1039	2	vintage	
1040	2	plugs	
1041	2	refuse	
1042	2	searching	
1043	2	prioritize	
1044	2	dances	
1045	2	points	
1046	2	supplies	
1047	2	conducted	
1048	2	biased	
1049	2	function	
1050	2	charge	
1051	2	captured	
1052	2	reside	
1053	2	drove	
1054	2	spoil	
1055	2	remembered	
1056	2	wind	
1057	2	striped	
1058	2	extra	
1059	2	promise	
1060	2	botched	
1061	2	blew	
1062	2	longing	
1063	2	frowned	
1064	2	protrudes	
1065	2	annoys	
1066	2	cringe	
1067	2	snaps	
1068	2	interacting	
1069	2	differ	
1070	2	voted	
1071	2	refering	
1072	2	bust	
1073	2	swatch	
1074	2	swear	
1075	2	distract	
1076	2	kill	
1077	2	counts	
1078	2	spins	
1079	2	functions	
1080	2	sheened	
1081	2	secures	
1082	2	dealing	
1083	2	ghost	
1084	2	process	
1085	2	discussing	
1086	2	pours	
1087	2	joins	
1088	2	displayed	
1089	2	worth	
1090	2	chipped	
1091	2	flowed	
1092	2	uninked	
1093	2	erase	
1094	2	results	
1095	2	crave	
1096	2	cherish	
1097	2	determine	
1098	2	close	
1099	2	handmade	
1100	2	enter	
1101	2	type	
1102	2	browsed	
1103	2	selected	
1104	2	able	
1105	2	playing	
1106	2	suffering	
1107	2	impacted	
1108	2	donate	
1109	2	affected	
1110	2	hang	
1111	2	recommending	
1112	2	price	
1113	2	swab	
1114	2	angle	
1115	2	ought	
1116	2	gliding	
1117	2	states	
1118	2	venture	
1119	2	blacked	
1120	2	pressed	
1121	2	mass	
1122	2	die	
1123	2	bet	
1124	2	bugs	
1125	2	bringing	
1126	2	understood	
1127	2	fine	
1128	2	concluded	
1129	2	impressed	
1130	2	insert	
1131	2	closes	
1132	2	lock	
1133	2	disappeared	
1134	2	continue	
1135	2	boast	
1136	2	walks	
1137	2	grips	
1138	2	shoots	
1139	2	moving	
1140	2	copied	
1141	2	act	
1142	2	mixes	
1143	2	utilized	
1144	2	houses	
1145	2	phased	
1146	2	resolve	
1147	2	sweat	
1148	2	serves	
1149	2	disagree	
1150	2	estimated	
1151	2	repairs	
1152	2	borrow	
1153	2	enables	
1154	2	jumped	
1155	2	displays	
1156	2	decides	
1157	2	compliment	
1158	2	unscrewed	
1159	2	tapers	
1160	2	discolor	
1161	2	slot	
1162	2	charges	
1163	2	rivals	
1164	2	running	
1165	2	delivers	
1166	2	compensate	
1167	2	aiming	
1168	2	rounded	
1169	2	secured	
1170	2	upload	
1171	2	documented	
1172	2	bankrupt	
1173	2	clogged	
1174	2	balanced	
1175	2	realign	
1176	2	nailed	
1177	2	shares	
1178	2	misplaced	
1179	2	dragged	
1180	2	zoom	
1181	2	survive	
1182	2	featured	
1183	2	enable	
1184	2	entices	
1185	2	point	
1186	2	exudes	
1187	2	changing	
1188	2	fancy	
1189	2	wraps	
1190	2	smudges	
1191	2	falling	
1192	2	curl	
1193	2	protects	
1194	2	puncture	
1195	2	twisted	
1196	2	loosen	
1197	2	repost	
1198	2	appeals	
1199	2	hop	
1200	2	fight	
1201	2	cheap	
1202	2	reproduce	
1203	2	skips	
1204	2	discusses	
1205	2	glue	
1206	2	bent	
1207	2	erased	
1208	2	blame	
1209	2	report	
1210	2	charging	
1211	2	arise	
1212	2	trusted	
1213	2	observed	
1214	2	competes	
1215	2	eying	
1216	2	advise	
1217	2	light	
1218	2	shy	
1219	2	compresses	
1220	2	prevented	
1221	2	visiting	
1222	2	begun	
1223	2	prints	
1224	2	convince	
1225	2	frame	
1226	2	reflects	
1227	2	typing	
1228	2	pine	
1229	2	complimented	
1230	2	pools	
1231	2	talks	
1232	2	colour	
1233	2	presents	
1234	2	soaked	
1235	2	uncapped	
1236	2	interested	
1237	2	neglected	
1238	2	procrastinate	
1239	2	rinse	
1240	2	fitted	
1241	2	punches	
1242	2	established	
1243	2	continues	
1244	2	approach	
1245	2	release	
1246	2	bothering	
1247	2	relate	
1248	2	plug	
1249	2	card	
1250	2	lighten	
1251	2	painted	
1252	2	signifies	
1253	2	reached	
1254	2	bounce	
1255	2	attracted	
1256	2	bottom	
1257	2	approve	
1258	2	resists	
1259	2	indulge	
1260	2	rescued	
1261	2	researching	
1262	2	ogle	
1263	2	cart	
1264	2	scratches	
1265	2	increased	
1266	2	admired	
1267	2	sailor	
1268	2	long	
1269	2	subscribe	
1270	2	drinking	
1271	2	download	
1272	2	slots	
1273	2	sports	
1274	2	promised	
1275	2	picturing	
1276	2	confound	
1277	2	spotted	
1278	2	leaks	
1279	2	annoyed	
1280	2	feedback	
1281	2	drag	
1282	2	plated	
1283	2	incorporates	
1284	2	state	
1285	2	specify	
1286	2	concerned	
1287	2	clot	
1288	2	following	
1289	2	filling	
1290	2	steal	
1291	2	i	
1292	2	reacts	
1293	2	offended	
1294	2	broad	
1295	2	sorted	
1296	2	lines	
1297	2	spilled	
1298	2	've	
1299	2	traveling	
1300	2	clip	
1301	2	integrated	
1302	2	lubricated	
1303	2	preferred	
1304	2	question	
1305	2	click	
1306	2	trapped	
1307	2	hooked	
1308	2	gush	
1309	2	retrieve	
1310	2	struck	
1311	2	track	
1312	2	bottled	
1313	2	becoming	
1314	2	fly	
1315	2	utilize	
1316	2	hurts	
1317	2	banned	
1318	2	eyedropper	
1319	2	fantastic	
1320	2	died	
1321	2	spending	
1322	2	withstand	
1323	2	refunded	
1324	2	stacked	
1325	2	introduced	
1326	2	claim	
1327	2	identified	
1328	2	secure	
1329	2	demonstrated	
1330	2	chimed	
1331	2	harm	
1332	2	revisit	
1333	2	competing	
1334	2	bugging	
1335	2	refilling	
1336	2	overlooked	
1337	2	inspire	
1338	2	reveals	
1339	2	imported	
1340	2	spreads	
1341	2	examine	
1342	2	melt	
1343	2	ci	
1344	2	settle	
1345	2	toss	
1346	2	driving	
1347	2	fool	
1348	2	arriving	
1349	2	hated	
1350	2	sends	
1351	2	big	
1352	2	diluted	
1353	2	slow	
1354	2	answers	
1355	2	special	
1356	2	covering	
1357	2	assist	
1358	2	skipped	
1359	2	copies	
1360	2	relies	
1361	2	plaguing	
1362	2	capped	
1363	2	poke	
1364	2	tickle	
1365	2	flip	
1366	2	communicate	
1367	2	earn	
1368	2	sanded	
1369	2	mentions	
1370	2	mentioning	
1371	2	sounded	
1372	2	amazing	
1373	2	wore	
1374	2	define	
1375	2	repeated	
1376	2	attribute	
1377	2	adores	
1378	2	researched	
1379	2	guessed	
1380	2	gain	
1381	2	borrowed	
1382	2	accumulated	
1383	2	followed	
1384	2	minimize	
1385	2	seated	
1386	2	worn	
1387	2	right	
1388	2	guarantee	
1389	2	inking	
1390	2	treats	
1391	2	broaden	
1392	2	possess	
1393	2	access	
1394	2	rent	
1395	2	spoken	
1396	2	implement	
1397	2	bends	
1398	2	thrilled	
1399	2	gift	
1400	2	sucked	
1401	2	gravitate	
1402	2	poured	
1403	2	swirl	
1404	2	well	
1405	2	redoes	
1406	2	edc	
1407	2	contacts	
1408	2	document	
1409	2	sings	
1410	2	cartridges	
1411	2	happening	
1412	2	eliminate	
1413	2	pan	
1414	2	spring	
1415	2	initiated	
1416	2	size	
1417	2	thank	
1418	2	specialize	
1419	2	associated	
1420	2	manufacture	
1421	2	enabled	
1422	2	kick	
1423	2	adhere	
1424	2	driven	
1425	1	maps	
1426	1	interacted	
1427	1	sanitise	
1428	1	scribbled	
1429	1	average	
1430	1	result	
1431	1	hews	
1432	1	invests	
1433	1	represent	
1434	1	engaging	
1435	1	fade	
1436	1	mortem	
1437	1	wo	
1438	1	up	
1439	1	pondering	
1440	1	manipulates	
1441	1	map	
1442	1	caters	
1443	1	compete	
1444	1	dumps	
1445	1	locked	
1446	1	keyed	
1447	1	eats	
1448	1	frustrated	
1449	1	fragile	
1450	1	catered	
1451	1	implied	
1452	1	elected	
1453	1	parts	
1454	1	nail	
1455	1	file	
1456	1	accused	
1457	1	flourish	
1458	1	mail	
1459	1	fascinated	
1460	1	preserved	
1461	1	sprayed	
1462	1	ties	
1463	1	admires	
1464	1	please	
1465	1	part	
1466	1	balance	
1467	1	chocolate	
1468	1	extend	
1469	1	places	
1470	1	cheaper	
1471	1	rattles	
1472	1	baystate	
1473	1	translate	
1474	1	liked-	
1475	1	elevates	
1476	1	estimate	
1477	1	hobbled	
1478	1	leaned	
1479	1	swung	
1480	1	age	
1481	1	ranked	
1482	1	fake	
1483	1	round	
1484	1	complemented	
1485	1	vibrates	
1486	1	losing	
1487	1	sourced	
1488	1	determined	
1489	1	transforms	
1490	1	guide	
1491	1	resell	
1492	1	relied	
1493	1	encapsulate	
1494	1	incorporated	
1495	1	argue	
1496	1	greased	
1497	1	contrasting	
1498	1	bear	
1499	1	sparked	
1500	1	dark	
1501	1	undertake	
1502	1	sub	
1503	1	tired	
1504	1	dissolved	
1505	1	catalogue	
1506	1	weakened	
1507	1	justifies	
1508	1	stamped	
1509	1	rinsing	
1510	1	dance	
1511	1	clips	
1512	1	irk	
1513	1	rally	
1514	1	hammered	
1515	1	regrow	
1516	1	its	
1517	1	blow	
1518	1	companied	
1519	1	votes	
1520	1	plant	
1521	1	detached	
1522	1	reintroduced	
1523	1	centered	
1524	1	slows	
1525	1	company	
1526	1	rubbed	
1527	1	revealed	
1528	1	hosts	
1529	1	allocated	
1530	1	registered	
1531	1	tossing	
1532	1	tinker	
1533	1	knowd	
1534	1	pause	
1535	1	waa	
1536	1	accumilate	
1537	1	compulsory	
1538	1	underline	
1539	1	clever	
1540	1	modded	
1541	1	haggled	
1542	1	lift	
1543	1	digest	
1544	1	limited	
1545	1	stressful	
1546	1	inks	
1547	1	exacerbated	
1548	1	range	
1549	1	backpacking	
1550	1	idea	
1551	1	perfect	
1552	1	mounted	
1553	1	releasing	
1554	1	mimic	
1555	1	loooove	
1556	1	compelled	
1557	1	forced	
1558	1	wipes	
1559	1	lament	
1560	1	maddening	
1561	1	divided	
1562	1	completed	
1563	1	bind	
1564	1	bandying	
1565	1	afflicts	
1566	1	simpler	
1567	1	committed	
1568	1	should	
1569	1	location	
1570	1	refused	
1571	1	preprinted	
1572	1	adopts	
1573	1	dispensed	
1574	1	distinguishes	
1575	1	eyedroppered	
1576	1	muster	
1577	1	feminine	
1578	1	quipped	
1579	1	dreaded	
1580	1	clogs	
1581	1	parse	
1582	1	reliable	
1583	1	allowing	
1584	1	implemented	
1585	1	shames	
1586	1	travelled	
1587	1	moment	
1588	1	deccided	
1589	1	corresponded	
1590	1	hover	
1591	1	control	
1592	1	prepare	
1593	1	licenced	
1594	1	letter	
1595	1	diabetes	
1596	1	hiked	
1597	1	mingle	
1598	1	branded	
1599	1	amass	
1600	1	spell	
1601	1	discourage	
1602	1	charged	
1603	1	reviewing	
1604	1	inherit	
1605	1	worsen	
1606	1	freak	
1607	1	discover	
1608	1	contemplated	
1609	1	incorporate	
1610	1	occurs	
1611	1	raised	
1612	1	bored	
1613	1	rework	
1614	1	hesitating	
1615	1	shaping	
1616	1	sending	
1617	1	downvotes	
1618	1	caches	
1619	1	blunted	
1620	1	cursed	
1621	1	assigned	
1622	1	altering	
1623	1	funneling	
1624	1	drool	
1625	1	consisted	
1626	1	black	
1627	1	shake	
1628	1	scouting	
1629	1	compile	
1630	1	blended	
1631	1	5	
1632	1	distributes	
1633	1	screams	
1634	1	pursued	
1635	1	announced	
1636	1	embraced	
1637	1	warned	
1638	1	tucked	
1639	1	🙂	
1640	1	significanlty	
1641	1	insisted	
1642	1	licensed	
1643	1	seeks	
1644	1	ups	
1645	1	dab	
1646	1	lubed	
1647	1	tagged	
1648	1	pressurizing	
1649	1	entrust	
1650	1	preventing	
1651	1	indicates	
1652	1	drops	
1653	1	infected	
1654	1	scaled	
1655	1	recognise	
1656	1	wishing	
1657	1	does](https://thepelikansperch.files.wordpress.com/2015/05	
1658	1	captures	
1659	1	demonstrating	
1660	1	bundled	
1661	1	handling	
1662	1	decorate	
1663	1	scraping	
1664	1	evaporates	
1665	1	lifted	
1666	1	recombine	
1667	1	time	
1668	1	dare	
1669	1	smoke	
1670	1	designated	
1671	1	interface	
1672	1	combat	
1673	1	self	
1674	1	depicts	
1675	1	disappoint	
1676	1	flushes	
1677	1	leased	
1678	1	use--	
1679	1	justifying	
1680	1	retain	
1681	1	downvote	
1682	1	atleast	
1683	1	satisfy	
1684	1	focused	
1685	1	pierces	
1686	1	tempts	
1687	1	geek	
1688	1	ring	
1689	1	noticeable	
1690	1	camped	
1691	1	turning	
1692	1	maneuvered	
1693	1	catalog	
1694	1	succumbed	
1695	1	enters	
1696	1	reused	
1697	1	letting	
1698	1	rise	
1699	1	inks-101/	
1700	1	reddit	
1701	1	disagreed	
1702	1	stunned	
1703	1	outperform	
1704	1	overpolished	
1705	1	swapping	
1706	1	imagined	
1707	1	fixing	
1708	1	obscure	
1709	1	rubbing	
1710	1	practise	
1711	1	weird	
1712	1	housed	
1713	1	scribbed	
1714	1	bums	
1715	1	lacks	
1716	1	demonstrate	
1717	1	get](https://www.gouletpens.com	
1718	1	simple	
1719	1	surf	
1720	1	restrain	
1721	1	cheated	
1722	1	ticked	
1723	1	suited	
1724	1	avoided	
1725	1	slotted	
1726	1	tune	
1727	1	decorated	
1728	1	waited	
1729	1	fascinates	
1730	1	feathering	
1731	1	spans	
1732	1	qualify	
1733	1	rate	
1734	1	💯	
1735	1	coordinates	
1736	1	intrigues	
1737	1	distorted	
1738	1	cling	
1739	1	land	
1740	1	curled	
1741	1	detect	
1742	1	acclimatises	
1743	1	assassinate	
1744	1	shook	
1745	1	high	
1746	1	flick	
1747	1	volunteered	
1748	1	chopped	
1749	1	replying	
1750	1	interfere	
1751	1	installing	
1752	1	supplied	
1753	1	generated	
1754	1	conceived	
1755	1	ahah	
1756	1	swallowed	
1757	1	deflate	
1758	1	permit	
1759	1	wins	
1760	1	weighs	
1761	1	reflected	
1762	1	integrating	
1763	1	downsizing	
1764	1	amazon	
1765	1	defined	
1766	1	inrerested	
1767	1	lover	
1768	1	penalises	
1769	1	hearing	
1770	1	resisted	
1771	1	dead	
1772	1	obtained	
1773	1	pack	
1774	1	arrange	
1775	1	best	
1776	1	ponder	
1777	1	resonates	
1778	1	fidget	
1779	1	https://www.amazon.com/dp/b06xp22jkm/ref=cm_sw_r_cp_api_bcjcabaeq8njm	
1780	1	chain	
1781	1	laugh	
1782	1	tighten	
1783	1	oxidized	
1784	1	deploys	
1785	1	title	
1786	1	praise	
1787	1	coating	
1788	1	appropriate	
1789	1	discontinue	
1790	1	ear	
1791	1	inscribed	
1792	1	dial	
1793	1	mangle	
1794	1	fps	
1795	1	cackled	
1796	1	freaked	
1797	1	engaged	
1798	1	defeated	
1799	1	highlighted	
1800	1	underwrite	
1801	1	searched	
1802	1	accounted	
1803	1	issued	
1804	1	tie	
1805	1	sustains	
1806	1	watching	
1807	1	preparing	
1808	1	limit	
1809	1	submit	
1810	1	trash	
1811	1	looming	
1812	1	easy	
1813	1	annotating	
1814	1	mate	
1815	1	laughed	
1816	1	dismissed	
1817	1	doodle	
1818	1	imbue	
1819	1	join	
1820	1	previewing	
1821	1	configured	
1822	1	rip	
1823	1	blued	
1824	1	cursive	
1825	1	assembled	
1826	1	ditch	
1827	1	expose	
1828	1	twists	
1829	1	taper	
1830	1	releases	
1831	1	degrades	
1832	1	win	
1833	1	impedes	
1834	1	vanishes	
1835	1	calculate	
1836	1	burned	
1837	1	floss	
1838	1	knurled	
1839	1	befriend	
1840	1	bottles	
1841	1	inspires	
1842	1	influence	
1843	1	implies	
1844	1	participated	
1845	1	munch	
1846	1	request	
1847	1	filed	
1848	1	bug	
1849	1	emulates	
1850	1	termed	
1851	1	roped	
1852	1	hard	
1853	1	corrode	
1854	1	machines	
1855	1	complement	
1856	1	jumps	
1857	1	crowded	
1858	1	damp	
1859	1	misrepresented	
1860	1	refined	
1861	1	justified	
1862	1	teaching	
1863	1	suffers	
1864	1	recall	
1865	1	f1.8	
1866	1	tempted	
1867	1	builds	
1868	1	opt	
1869	1	are"classic	
1870	1	grinds	
1871	1	faceted	
1872	1	mounts	
1873	1	cloning	
1874	1	overspent	
1875	1	predict	
1876	1	expresses	
1877	1	transformed	
1878	1	concedes	
1879	1	feeling	
1880	1	output	
1881	1	launched	
1882	1	pining	
1883	1	vacationing	
1884	1	blown	
1885	1	soothed	
1886	1	signify	
1887	1	understanding	
1888	1	publish	
1889	1	delight	
1890	1	pretends	
1891	1	sure	
1892	1	reduced	
1893	1	violates	
1894	1	due	
1895	1	befuddles	
1896	1	categorize	
1897	1	scammed	
1898	1	lower	
1899	1	matching	
1900	1	inform	
1901	1	criticize	
1902	1	bend	
1903	1	mitigate	
1904	1	pondered	
1905	1	makers	
1906	1	grace	
1907	1	dispel	
1908	1	exhaust	
1909	1	escaping	
1910	1	hidden	
1911	1	grafted	
1912	1	commence	
1913	1	common	
1914	1	stocked	
1915	1	manages	
1916	1	punched	
1917	1	cleans	
1918	1	affects	
1919	1	revewed	
1920	1	relplaced	
1921	1	discussed	
1922	1	subscribed	
1923	1	labeled	
1924	1	bucks	
1925	1	flings	
1926	1	pose	
1927	1	spilt	
1928	1	dubbed	
1929	1	smoothness	
1930	1	lapis	
1931	1	concentrated	
1932	1	sews	
1933	1	conquer	
1934	1	harmonizes	
1935	1	contrast	
1936	1	gummed	
1937	1	darkened	
1938	1	coincided	
1939	1	resorting	
1940	1	caved	
1941	1	appeared	
1942	1	spied	
1943	1	yanked	
1944	1	reassemble	
1945	1	wide	
1946	1	count	
1947	1	pushing	
1948	1	frown	
1949	1	invented	
1950	1	diffuses	
1951	1	easier	
1952	1	settles	
1953	1	skipping	
1954	1	consumed	
1955	1	topped	
1956	1	loaned	
1957	1	tide	
1958	1	developing	
1959	1	paused	
1960	1	unpack	
1961	1	emailing	
1962	1	differentiate	
1963	1	attacked	
1964	1	wake	
1965	1	squared	
1966	1	little	
1967	1	storing	
1968	1	tweaked	
1969	1	deskscape	
1970	1	dedicating	
1971	1	achieved	
1972	1	valued	
1973	1	dismantled	
1974	1	skinny	
1975	1	reaching	
1976	1	ruining	
1977	1	mistook	
1978	1	beaten	
1979	1	riding	
1980	1	addressed	
1981	1	operating	
1982	1	blends	
1983	1	coated	
1984	1	describes	
1985	1	shuffled	
1986	1	chews	
1987	1	outlines	
1988	1	nibbed	
1989	1	restoring	
1990	1	over)heated	
1991	1	building	
1992	1	indecisive	
1993	1	spills	
1994	1	hangs	
1995	1	possible	
1996	1	splintered	
1997	1	awake	
1998	1	ahd	
1999	1	counted	
2000	1	smokes	
2001	1	obscures	
2002	1	refund	
2003	1	rattled	
2004	1	risk	
2005	1	scribble	
2006	1	slowed	
2007	1	babying	
2008	1	fireblued	
2009	1	concede	
2010	1	choosing	
2011	1	approaches	
2012	1	picking	
2013	1	blend	
2014	1	d	
2015	1	kicking	
2016	1	coded	
2017	1	dis	
2018	1	twsbi	
2019	1	fun	
2020	1	eyeballing	
2021	1	overwhelmed	
2022	1	improvd	
2023	1	sticking	
2024	1	pronounced	
2025	1	peaked	
2026	1	reckon	
2027	1	dulls	
2028	1	expects	
2029	1	peruse	
2030	1	comparing	
2031	1	implicated	
2032	1	replaces	
2033	1	accumulating	
2034	1	canabalized	
2035	1	pouring	
2036	1	tempered	
2037	1	praised	
2038	1	coveted	
2039	1	rewarded	
2040	1	inhibit	
2041	1	frequents	
2042	1	flowing	
2043	1	suffice	
2044	1	stock	
2045	1	emphasize	
2046	1	stray	
2047	1	edge	
2048	1	embrace	
2049	1	affixes	
2050	1	pulling	
2051	1	walking	
2052	1	feature	
2053	1	branched	
2054	1	suspected	
2055	1	grinding	
2056	1	'd	
2057	1	grants	
2058	1	burnt	
2059	1	dribjs	
2060	1	deems	
2061	1	disappears	
2062	1	toyed	
2063	1	satisfying	
2064	1	reference	
2065	1	fidgets	
2066	1	devastated	
2067	1	collared	
2068	1	beginning	
2069	1	critique	
2070	1	hook	
2071	1	neater	
2072	1	pages	
2073	1	punch	
2074	1	skip	
2075	1	specified	
2076	1	pearl	
2077	1	huddle	
2078	1	master	
2079	1	addresses	
2080	1	studies	
2081	1	hashed	
2082	1	notified	
2083	1	singled	
2084	1	deleted	
2085	1	shall	
2086	1	confirmed	
2087	1	cast	
2088	1	foul	
2089	1	lured	
2090	1	distinguish	
2091	1	shorten	
2092	1	overlook	
2093	1	complaining	
2094	1	scrounge	
2095	1	assisted	
2096	1	ln	
2097	1	accomodate	
2098	1	outshines	
2099	1	reuse	
2100	1	repelled	
2101	1	scan	
2102	1	compensates	
2103	1	upcycle	
2104	1	blot	
2105	1	might	
2106	1	tiring	
2107	1	accessible	
2108	1	associates	
2109	1	wrap	
2110	1	impatient	
2111	1	ranking	
2112	1	wiped	
2113	1	meed	
2114	1	penetrates	
2115	1	haul	
2116	1	gothic	
2117	1	patented	
2118	1	scam	
2119	1	object	
2120	1	lacked	
2121	1	succumb	
2122	1	assuming	
2123	1	lube	
2124	1	relieve	
2125	1	emulate	
2126	1	comply	
2127	1	wrestle	
2128	1	strike	
2129	1	donuts	
2130	1	housing	
2131	1	eyecatching	
2132	1	busted	
2133	1	realise	
2134	1	adored	
2135	1	absorbed	
2136	1	excites	
2137	1	foisting	
2138	1	cataloged	
2139	1	accessed	
2140	1	stains	
2141	1	base	
2142	1	cures	
2143	1	overlaps	
2144	1	thrashed	
2145	1	expanded	
2146	1	politicized	
2147	1	tricked	
2148	1	taste	
2149	1	exemplifies	
2150	1	deform	
2151	1	amassed	
2152	1	refillable	
2153	1	curve	
2154	1	pawn	
2155	1	sent](https://imgur.com	
2156	1	headed	
2157	1	popularized	
2158	1	ruled	
2159	1	patina	
2160	1	plagued	
2161	1	passing	
2162	1	overlap	
2163	1	roasted	
2164	1	chatting	
2165	1	digging	
2166	1	tastes	
2167	1	transfer	
2168	1	subsidizes	
2169	1	steel	
2170	1	drilled	
2171	1	daily	
2172	1	fountains	
2173	1	at	
2174	1	shell	
2175	1	destroy	
2176	1	treated	
2177	1	advertising	
2178	1	deteriorated	
2179	1	equal	
2180	1	substantiate	
2181	1	misaligned	
2182	1	dwarfs	
2183	1	closing	
2184	1	misted	
2185	1	compiled	
2186	1	characteristic	
2187	1	symbolize	
2188	1	materialize	
2189	1	rectify	
2190	1	stat	
2191	1	supports	
2192	1	immerse	
2193	1	crusted	
2194	1	gained	
2195	1	thinner	
2196	1	ooooogle	
2197	1	borrows	
2198	1	express	
2199	1	mispells	
2200	1	resides	
2201	1	swabbed	
2202	1	imo	
2203	1	reground	
2204	1	traced	
2205	1	american	
2206	1	encumbered	
2207	1	textured	
2208	1	frankensteined	
2209	1	disagrees	
2210	1	complicated	
2211	1	dwindling	
2212	1	optimize	
2213	1	imposed	
2214	1	depresses	
2215	1	grant	
2216	1	stashed	
2217	1	effects	
2218	1	bolt	
2219	1	lasting	
2220	1	hdr	
2221	1	wrong	
2222	1	decreases	
2223	1	lusting	
2224	1	carved	
2225	1	sport	
2226	1	fulfilled	
2227	1	customized	
2228	1	folded	
2229	1	creeping	
2230	1	pump	
2231	1	consists	
2232	1	wave	
2233	1	rave	
2234	1	anticipating	
2235	1	shed	
2236	1	disappointing	
2237	1	gathers	
2238	1	guests	
2239	1	episode	
2240	1	patinas	
2241	1	double	
2242	1	class	
2243	1	exclusive	
2244	1	tightens	
2245	1	inappropriate	
2246	1	squashed	
2247	1	mastered	
2248	1	spel	
2249	1	free	
2250	1	demo	
2251	1	dictates	
2252	1	cuts	
2253	1	;)	
2254	1	shoot	
2255	1	tackled	
2256	1	jostled	
2257	1	loan	
2258	1	contain	
2259	1	lubricate	
2260	1	kills	
2261	1	upkeep	
2262	1	focuses	
2263	1	distributed	
2264	1	engages	
2265	1	repeating	
2266	1	amounts	
2267	1	opting	
2268	1	specialized	
2269	1	branch	
2270	1	presenting	
2271	1	obtain	
2272	1	solution	
2273	1	adapts	
2274	1	not	
2275	1	aspire	
2276	1	stamping	
2277	1	converting	
2278	1	bears	
2279	1	blocked	
2280	1	depended	
2281	1	believes	
2282	1	lightweight	
2283	1	spanked	
2284	1	growing	
2285	1	lens	
2286	1	confused	
2287	1	corrected	
2288	1	manufactured	
2289	1	telescopes	
2290	1	searches	
2291	1	keying	
2292	1	parted	
2293	1	opposed	
2294	1	prize	
2295	1	affect	
2296	1	slips	
2297	1	inflicted	
2298	1	flexed	
2299	1	gooooo	
2300	1	goal	
2301	1	spelled	
2302	1	primed	
2303	1	accuse	
2304	1	reward	
2305	1	repurpose	
2306	1	studied	
2307	1	money	
2308	1	seeking	
2309	1	phrased	
2310	1	mixers	
2311	1	coat	
2312	1	tipped	
2313	1	prides	
2314	1	snatch	
2315	1	fund	
2316	1	grosses	
2317	1	deigned	
2318	1	depend	
2319	1	convey	
2320	1	complicate	
2321	1	tapered	
2322	1	pivots	
2323	1	abused	
2324	1	overpay	
2325	1	devalue	
2326	1	factor	
2327	1	cleaves	
2328	1	stumble	
2329	1	heated	
2330	1	custom	
2331	1	risen	
2332	1	torched	
2333	1	punctured	
2334	1	dreamed	
2335	1	flipping	
2336	1	notices	
2337	1	overflex	
2338	1	supporting	
2339	1	rattling	
2340	1	loosened	
2341	1	feast	
2342	1	side	
2343	1	reccomended	
2344	1	reinforces	
2345	1	reaches	
2346	1	practicing	
2347	1	rolled	
2348	1	vomited	
2349	1	picks	
2350	1	cured	
2351	1	flattened	
2352	1	slid	
2353	1	same	
2354	1	itm	
2355	1	travels	
2356	1	processed	
2357	1	sums	
2358	1	highlight	
2359	1	exhibited	
2360	1	resulted	
2361	1	clone	
2362	1	forbidden	
2363	1	salaried	
2364	1	mid	
2365	1	two	
2366	1	stab	
2367	1	dies	
2368	1	gathering	
2369	1	longboard	
2370	1	peer	
2371	1	weld	
2372	1	placing	
2373	1	flubbered	
2374	1	despised	
2375	1	commemorate	
2376	1	escapes	
2377	1	relaxing	
2378	1	preserves	
2379	1	beats	
2380	1	peel	
2381	1	intimidated	
2382	1	separate	
2383	1	correlate	
2384	1	lends	
2385	1	loathe	
2386	1	appropriated	
2387	1	telling	
2388	1	_	
2389	1	mitigated	
2390	1	qualifies	
2391	1	dive	
2392	1	budge	
2393	1	absorb	
2394	1	retrain	
2395	1	stretch	
2396	1	tattooed	
2397	1	stripped	
2398	1	butts	
2399	1	incur	
2400	1	juts	
2401	1	stoked	
2402	1	brassing	
2403	1	copying	
2404	1	alright	
2405	1	imitate	
2406	1	force	
2407	1	filter	
2408	1	balances	
2409	1	wasted	
2410	1	override	
2411	1	often	
2412	1	clouded	
2413	1	weighed	
2414	1	prohibits	
2415	1	bestowed	
2416	1	gazed	
2417	1	dwell	
2418	1	bidding	
2419	1	dress	
2420	1	explored	
2421	1	gravitated	
2422	1	shocked	
2423	1	heck	
2424	1	expands	
2425	1	advanced	
2426	1	pigmented	
2427	1	generates	
2428	1	swallow	
2429	1	subbed	
2430	1	sway	
2431	1	gushed	
2432	1	upgrades	
2433	1	accommodated	
2434	1	accustomed	
2435	1	section	
2436	1	amended	
2437	1	pad	
2438	1	retract	
2439	1	operated	
2440	1	measured	
2441	1	prepared	
2442	1	seasoned	
2443	1	sacrificed	
2444	1	guys	
2445	1	warrant	
2446	1	activated	
2447	1	furniture	
2448	1	suspecting	
2449	1	disclose	
2450	1	consulted	
2451	1	handwritten	
2452	1	sheets	
2453	1	hack	
2454	1	catalouge	
2455	1	irresistible	
2456	1	daydream	
2457	1	walked	
2458	1	retailing	
2459	1	listing	
2460	1	piqued	
2461	1	retains	
2462	1	recycled	
2463	1	galls	
2464	1	savored	
2465	1	viewed	
2466	1	contacted	
2467	1	emailed	
2468	1	flushed	
2469	1	machined	
2470	1	restricted	
2471	1	mesmerizing	
2472	1	kiss	
2473	1	propagated	
2474	1	gorgeous	
2475	1	deemed	
2476	1	repurposing	
2477	1	illustrates	
2478	1	snag	
2479	1	conflict	
2480	1	rotates	
2481	1	second	
2482	1	regretted	
2483	1	flipped	
2484	1	coped	
2485	1	warning	
2486	1	remain	
2487	1	stare	
2488	1	copy	
2489	1	sized	
2490	1	influenced	
2491	1	suspended	
2492	1	lookout	
2493	1	aching	
2494	1	100	
2495	1	pleasurable	
2496	1	darkens	
2497	1	facing	
2498	1	encourage	
2499	1	completes	
2500	1	trained	
2501	1	maneuver	
2502	1	bottle	
2503	1	quit	
2504	1	shopping	
2505	1	account	
2506	1	sorry	
2507	1	hahah	
2508	1	date	
2509	1	edit	
2510	1	breathed	
2511	1	format	
2512	1	tracking	
2513	1	cave	
2514	1	sections	
2515	1	dates	
2516	1	impede	
2517	1	seep	
2518	1	exerting	
2519	1	hug	
2520	1	advised	
2521	1	resparked	
2522	1	clicked	
2523	1	balk	
2524	1	aligned	
2525	1	colorverse	
2526	1	counter	
2527	1	stir	
2528	1	clear	
2529	1	dragging	
2530	1	mold	
2531	1	skyrocketed	
2532	1	sewed	
2533	1	shrink	
2534	1	seats	
2535	1	washes	
2536	1	scrangling	
2537	1	disappear	
2538	1	tear	
2539	1	empathize	
2540	1	acknowledge	
2541	1	unfortunate	
2542	1	smoked	
2543	1	smells	
2544	1	yellowish	
2545	1	degrade	
2546	1	relegated	
2547	1	scale	
2548	1	grabs	
2549	1	necessary	
2550	1	tape	
2551	1	relax	
2552	1	strengthen	
2553	1	colored	
2554	1	adjusts	
2555	1	upped	
2556	1	solves	
2557	1	ignited	
2558	1	shot	
2559	1	specifies	
2560	1	rule	
2561	1	cited	
2562	1	dislikes	
2563	1	imparts	
2564	1	spends	
2565	1	gravitates	
2566	1	aged	
2567	1	won´t	
2568	1	nullifies	
2569	1	resack	
2570	1	make](https://www.facebook.com	
2571	1	wan	
2572	1	hoarding	
2573	1	smiling	
2574	1	glossy	
2575	1	tilt	
2576	1	dying	
2577	1	marry	
2578	1	hailed	
2579	1	ogling	
2580	1	rare	
2581	1	interesting	
2582	1	inspected	
2583	1	evaporate	
2584	1	presses	
2585	1	activate	
2586	1	signing	
2587	1	lacking	
2588	1	vanishing	
2589	1	bouncing	
2590	1	erases	
2591	1	claims	
2592	1	structured	
2593	1	composite	
2594	1	reckoned	
2595	1	displace	
2596	1	pricey	
2597	1	grows	
2598	1	woven	
2599	1	album	
2600	1	describing	
2601	1	stiffer	
2602	1	refuses	
2603	1	important	
2604	1	yields	
2605	1	charms	
2606	1	cracks	
2607	1	grateful	
2608	1	dislodged	
2609	1	interacts	
2610	1	identifies	
2611	1	accompanying	
2612	1	warns	
2613	1	graduated	
2614	1	jutted	
2615	1	ironed	
2616	1	drain	
2617	1	catching	
2618	1	transferred	
2619	1	restrict	
2620	1	strikes	
2621	1	rocked	
2622	1	lied	
2623	1	betrayed	
2624	1	necessitated	
2625	1	bummed	
2626	1	spaces	
2627	1	woukd	
2628	1	forgetting	
2629	1	worded	
2630	1	lack	
2631	1	brown	
2632	1	faked	
2633	1	wemt	
2634	1	typed	
2635	1	steer	
2636	1	exhibits	
2637	1	aquired	
2638	1	replacing	
2639	1	splashed	
2640	1	disclosed	
2641	1	drys	
2642	1	perceive	
2643	1	prefered	
2644	1	outfit	
2645	1	message	
2646	1	personalize	
2647	1	shout	
2648	1	circulated	
2649	1	demonstrates	
2650	1	chine	
2651	1	resells	
2652	1	reverses	
2653	1	eaten	
2654	1	transliterate	
2655	1	brand	
2656	1	reverse	
2657	1	slices	
2658	1	hints	
2659	1	guided	
2660	1	winds	
2661	1	promote	
2662	1	zoned	
2663	1	facilitates	
2664	1	cool	
2665	1	scattered	
2666	1	tinkered	
2667	1	pointing	
2668	1	recorded	
2669	1	people	
2670	1	hovering	
2671	1	wreck	
2672	1	enhance	
2673	1	shimmers	
2674	1	vanished	
2675	1	proved	
2676	1	love.](https://imgur.com/9snfdj8	
2677	1	cancel	
2678	1	mistake	
2679	1	dump	
2680	1	alleviate	
2681	1	slapped	
2682	1	stretching	
2683	1	bled	
2684	1	rotated	
2685	1	cycle	
2686	1	target	
2687	1	greet	
2688	1	helping	
2689	1	narrow	
2690	1	rocks	
2691	1	pierced	
2692	1	se	
2693	1	flop	
2694	1	surprises	
2695	1	fused	
2696	1	speculate	
2697	1	deterred	
2698	1	bow	
2699	1	dispenses	
2700	1	dude	
2701	1	commissioned	
2702	1	assess	
2703	1	inhabit	
2704	1	defeats	
2705	1	wise	
2706	1	sucksssssss	
2707	1	hoard	
2708	1	ruins	
2709	1	striking	
2710	1	encounters	
2711	1	crafted	
2712	1	accompanies	
2713	1	entering	
2714	1	saves	
2715	1	constructed	
2716	1	sketched	
2717	1	haunts	
2718	1	spit	
2719	1	represented	
2720	1	guaranteed	
2721	1	incline	
2722	1	chunky	
2723	1	receiving	
2724	1	redid	
2725	1	unrestored	
2726	1	shaded	
2727	1	reveal	
2728	1	gifting	
2729	1	begged	
2730	1	reds	
2731	1	spark	
2732	1	wrapped	
2733	1	melting	
2734	1	reccomend	
2735	1	compared	
2736	1	grinded	
2737	1	blanked	
2738	1	struggle	
2739	1	kicked	
2740	1	void	
2741	1	touching	
2742	1	acknowledges	
2743	1	mailed	
2744	1	relates	
2745	1	cemented	
2746	1	seent	
2747	1	useful	
2748	1	famed	
2749	1	projects	
2750	1	prepay	
2751	1	dint	
2752	1	benchmark	
2753	1	debating	
2754	1	shimmer	
2755	1	emails	
2756	1	organise	
2757	1	costed	
2758	1	entails	
2759	1	cramp	
2760	1	disinfect	
2761	1	flashy	
2762	1	evaporated	
2763	1	great	
2764	1	water	
2765	1	mount	
2766	1	eluded	
2767	1	teaches	
2768	1	breaking	
2769	1	sirens	
2770	1	educate	
2771	1	motivate	
2772	1	vary	
