#Word types: 469
#Word tokens: 331752
#Search results: 0
1	64633	of	
2	42228	in	
3	39274	for	
4	35633	with	
5	26957	on	
6	24912	to	
7	13812	from	
8	11256	at	
9	10484	like	
10	8614	about	
11	8270	as	
12	6042	than	
13	4939	into	
14	3385	by	
15	2832	out	
16	2581	after	
17	2391	over	
18	1889	through	
19	1879	without	
20	1336	between	
21	1207	before	
22	1027	around	
23	934	off	
24	856	because	
25	853	under	
26	545	due	
27	532	against	
28	501	during	
29	481	across	
30	476	including	
31	453	within	
32	439	compared	
33	432	along	
34	430	per	
35	423	onto	
36	423	except	
37	420	since	
38	380	until	
39	368	near	
40	360	inside	
41	356	down	
42	340	up	
43	317	depending	
44	297	towards	
45	290	upon	
46	286	despite	
47	278	beyond	
48	276	behind	
49	257	above	
50	244	based	
51	220	among	
52	214	given	
53	192	vs	
54	184	via	
55	159	besides	
56	157	unlike	
57	149	below	
58	143	outside	
59	142	according	
60	135	but	
61	107	past	
62	91	regarding	
63	87	vs.	
64	83	toward	
65	81	throughout	
66	75	if	
67	65	versus	
68	50	till	
69	47	though	
70	46	3	
71	42	10	
72	40	4	
73	35	30	
74	35	underneath	
75	33	whilst	
76	33	amongst	
77	32	20	
78	31	alongside	
79	30	5	
80	28	considering	
81	28	beside	
82	28	while	
83	26	15	
84	25	thru	
85	24	6	
86	23	7	
87	22	so	
88	22	2	
89	20	200	
90	19	beneath	
91	19	80	
92	18	50	
93	17	8	
94	17	100	
95	17	although	
96	15	minus	
97	15	12	
98	15	300	
99	14	a	
100	14	en	
101	14	following	
102	13	excluding	
103	12	barring	
104	12	unless	
105	12	2018	
106	11	til	
107	11	@	
108	11	60	
109	10	1	
110	10	250	
111	10	that	
112	10	25	
113	10	albeit	
114	10	th	
115	9	$	
116	9	90	
117	8	unto	
118	8	9	
119	8	w/o	
120	8	35	
121	8	45	
122	7	40	
123	7	atop	
124	7	etc	
125	6	150	
126	6	0	
127	6	;)	
128	6	500	
129	6	concerning	
130	6	75	
131	6	aka	
132	6	provided	
133	5	65	
134	5	13	
135	5	opposite	
136	5	v	
137	5	70	
138	5	plus	
139	5	450	
140	5	na	
141	5	re	
142	5	400	
143	4	600	
144	4	ta	
145	4	85	
146	4	800	
147	4	14	
148	4	1000	
149	4	aboard	
150	4	the	
151	4	fo	
152	3	19	
153	3	24	
154	3	wet	
155	3	#	
156	3	&	
157	3	starting	
158	3	eyedropper	
159	3	125	
160	3	22	
161	3	14k	
162	3	130	
163	3	205.htm	
164	3	amidst	
165	3	110	
166	3	11	
167	3	16	
168	3	au	
169	2	you	
170	2	17	
171	2	'bout	
172	2	once	
173	2	annoying	
174	2	notwithstanding	
175	2	pertaining	
176	2	3.jpg	
177	2	29	
178	2	combined	
179	2	╯	
180	2	bx	
181	2	bye	
182	2	imma	
183	2	79	
184	2	3/8	
185	2	£	
186	2	1800	
187	2	2001	
188	2	upwards	
189	2	44	
190	2	oo	
191	2	1952	
192	2	when	
193	2	1990	
194	2	back	
195	2	wrt	
196	2	170	
197	2	1997	
198	2	ryoku.jpg	
199	2	|with	
200	2	120	
201	2	w	
202	2	vis	
203	2	18	
204	2	v.	
205	2	round	
206	2	1999	
207	2	5ml	
208	1	1920	
209	1	e"s	
210	1	bento	
211	1	varsity.html	
212	1	218.jpg	
213	1	beginning	
214	1	1925	
215	1	27	
216	1	1320470532	
217	1	on-	
218	1	unbeknownst	
219	1	neon	
220	1	pen15	
221	1	c	
222	1	1000+$	
223	1	fm](http://imgur.com/0mr5f3	
224	1	140	
225	1	journaling	
226	1	tankfor	
227	1	2000	
228	1	14$.	
229	1	06	
230	1	worth	
231	1	ot	
232	1	sells](http://www.andersonpens.com/3-zip	
233	1	gt;funny	
234	1	01	
235	1	lily-910-capless	
236	1	topic/122107-looking	
237	1	http://www.peneconomics.com/blog/2015/2/25/overpriced	
238	1	vp	
239	1	43	
240	1	episode-156-with	
241	1	lik	
242	1	dm	
243	1	420.jpg	
244	1	104.jpg	
245	1	249.jpg	
246	1	1.8	
247	1	thereof	
248	1	14c	
249	1	apologising	
250	1	50usd	
251	1	2007	
252	1	hey	
253	1	2.9	
254	1	1402947732.jpg	
255	1	つ	
256	1	trvlr	
257	1	this](http://www.amazon.ca	
258	1	3.25	
259	1	4.12	
260	1	5.13	
261	1	5.52	
262	1	6.30	
263	1	8.37	
264	1	9.32	
265	1	11.46	
266	1	14.40	
267	1	bestow	
268	1	myth/	
269	1	any	
270	1	conversion.html	
271	1	16](http://i.imgur.com	
272	1	fp-inks.info	
273	1	notebook-11-inch	
274	1	3-\*crunch\	
275	1	do	
276	1	writers.](http://i.imgur.com	
277	1	+	
278	1	webster](http://www.merriam	
279	1	a51417](http://tekkerink.com	
280	1	ph	
281	1	ex	
282	1	1965	
283	1	topic/308511-well	
284	1	gt;unlike	
285	1	it	
286	1	airtight	
287	1	28241	
288	1	001	
289	1	~$50	
290	1	10k	
291	1	nuc98szkwysjacwmjhljcr6_hs8zcgcyflpg2	
292	1	264fe0f92bab	
293	1	an	
294	1	here](https://www.wonderpens.ca	
295	1	8.5	
296	1	640042146	
297	1	om	
298	1	1024x768.jpg	
299	1	45mins	
300	1	avec	
301	1	me-	
302	1	1911	
303	1	ear	
304	1	81	
305	1	gt;diomonixoide	
306	1	http://www.sheaffertarga.com/lady%20sheaffer/632%20golden%20on%20black%20laque.html	
307	1	850	
308	1	alike	
309	1	zebra	
310	1	-perfectly	
311	1	rob	
312	1	1972	
313	1	87	
314	1	77	
315	1	2014	
316	1	detergent	
317	1	less	
318	1	1300	
319	1	1600	
320	1	1,600	
321	1	2017	
322	1	outlining	
323	1	od	
324	1	shall	
325	1	2004	
326	1	57224	
327	1	448	
328	1	something	
329	1	no	
330	1	888	
331	1	4331	
332	1	7b.	
333	1	1906	
334	1	1910	
335	1	next	
336	1	260.htm	
337	1	medium-18k	
338	1	new	
339	1	impulse	
340	1	ak0.pinimg.com	
341	1	restored.html	
342	1	rathgar	
343	1	leuchtturm1917	
344	1	https://www.reddit.com/r/fountainpens/comments/3j3e4c/what_is_the_real_benefit_of_the_more_expensive/	
345	1	2017~~	
346	1	2.00	
347	1	throough	
348	1	fine	
349	1	1457821718.jpg	
350	1	1.5	
351	1	2016	
352	1	95	
353	1	1969	
354	1	topic/324910-experiments	
355	1	55	
356	1	http://www.peneconomics.com/blog/2015/5/8/how-does-china-make-such-cheap-fountain-pens	
357	1	too](https://www.jetpens.com	
358	1	topic/232797-homemade	
359	1	56	
360	1	180	
361	1	whereas	
362	1	befor	
363	1	interesting	
364	1	out-	
365	1	6800	
366	1	https://goo.gl/maps/aq5k3gduixk	
367	1	unposted	
368	1	forth	
369	1	1954	
370	1	odd	
371	1	regardless	
372	1	1358721924.jpg	
373	1	http://www.beartoothwoods.com/catalog/product_info.php?cpath=35_39&amp;products_id=137&amp;oscsid=pammb5fvh3jovf1f8rf2se4vg7	
374	1	some	
375	1	1375374711.jpg	
376	1	|silver	
377	1	may	
378	1	alco	
379	1	25](https://vanness1938.com	
380	1	30](https://vanness1938.com	
381	1	f7b7df80	
382	1	1946	
383	1	100chf	
384	1	10k.	
385	1	again-	
386	1	3000	
387	1	topic/308926-another	
388	1	sapiens	
389	1	nib	
390	1	too	
391	1	tf	
392	1	deliberately(focusing	
393	1	based]from	
394	1	昭和	
395	1	borderless	
396	1	fr	
397	1	1970	
398	1	0.7	
399	1	bluegreen	
400	1	@andersonpens	
401	1	48	
402	1	ro	
403	1	penbbs-267-fountain	
404	1	48012800	
405	1	1371857913.jpg	
406	1	targeted	
407	1	1942	
408	1	topic/298870-different	
409	1	left	
410	1	92	
411	1	1927	
412	1	5000	
413	1	uploads/2013/05	
414	1	why	
415	1	pens-3368115	
416	1	1949	
417	1	300ish	
418	1	8ml	
419	1	goodbye	
420	1	42	
421	1	175	
422	1	o	
423	1	owing	
424	1	64	
425	1	\(thin	
426	1	snap	
427	1	tanto	
428	1	細目	
429	1	09	
430	1	1964	
431	1	usd	
432	1	1.0	
433	1	broadside	
434	1	51	
435	1	os	
436	1	https://www.penaddict.com/top-5-pens/	
437	1	23	
438	1	51sf	
439	1	32sf	
440	1	3sf	
441	1	gt;without	
442	1	notebooks-	
443	1	1941	
444	1	aside	
445	1	woodbin	
446	1	pelikan	
447	1	111	
448	1	category3	
449	1	10x	
450	1	sure	
451	1	1966	
452	1	1971	
453	1	拾叁	
454	1	\[for	
455	1	618	
456	1	240	
457	1	pending	
458	1	54	
459	1	ef	
460	1	1990/91	
461	1	1973	
462	1	right	
463	1	comparing	
464	1	be	
465	1	offhandedly	
466	1	105	
467	1	160	
468	1	usps	
469	1	company](https://www.carolinapencompany.com	
