#Word types: 114
#Word tokens: 288090
#Search results: 0
1	140784	the	
2	91233	a	
3	13124	this	
4	8733	an	
5	8311	some	
6	5416	that	
7	4690	any	
8	4459	no	
9	1992	these	
10	1936	another	
11	1506	all	
12	1303	those	
13	1247	what	
14	1100	every	
15	637	each	
16	588	which	
17	556	both	
18	196	either	
19	122	whatever	
20	16	whichever	
21	10	quite	
22	9	watercolour	
23	7	neither	
24	6	aka	
25	4	à	
26	3	v	
27	3	nib	
28	3	half	
29	3	yes	
30	2	something	
31	2	aww	
32	2	i	
33	2	oh	
34	2	it	
35	2	everything	
36	2	~50	
37	2	la	
38	1	stock(the	
39	1	し	
40	1	$	
41	1	|	
42	1	twice	
43	1	there	
44	1	i[[roshizuku	
45	1	gt;what	
46	1	luxor(this	
47	1	usd).the	
48	1	imma	
49	1	up&amp;up	
50	1	m	
51	1	🤷	
52	1	l’atelier	
53	1	no.12	
54	1	z	
55	1	mm	
56	1	if	
57	1	😄	
58	1	tensioni	
59	1	trio	
60	1	sub-$150	
61	1	gasped*-	
62	1	gt;diamine	
63	1	samples(i	
64	1	whereas	
65	1	the.1	
66	1	;)	
67	1	hm	
68	1	vw	
69	1	omg	
70	1	tbh	
71	1	nary	
72	1	c	
73	1	(:	
74	1	^^^the	
75	1	#	
76	1	plus	
77	1	€	
78	1	aan	
79	1	https://www.birminghampens.com/	
80	1	for#6	
81	1	^^^that	
82	1	.3	
83	1	twsbi	
84	1	’s	
85	1	holy	
86	1	all.the	
87	1	j	
88	1	e+m	
89	1	~	
90	1	\(the	
91	1	露	
92	1	u	
93	1	nznrdoznuj0xd9pkyvoby51ctqhz5f	
94	1	def	
95	1	friends/	
96	1	\*\*\*update	
97	1	wet	
98	1	-the	
99	1	they	
100	1	tm420	
101	1	wh	
102	1	so	
103	1	n	
104	1	120gms	
105	1	fine)—this	
106	1	alright	
107	1	pens	
108	1	vac700	
109	1	r	
110	1	als	
111	1	tan(his	
112	1	i'm	
113	1	gt;i'm	
114	1	mor	
