#Word types: 92
#Word tokens: 126105
#Search results: 0
1	57476	the	
2	42134	a	
3	4767	this	
4	4609	an	
5	3259	some	
6	2830	that	
7	2626	any	
8	2352	no	
9	978	these	
10	830	those	
11	818	what	
12	815	all	
13	798	another	
14	727	every	
15	272	each	
16	259	which	
17	248	both	
18	129	either	
19	74	whatever	
20	9	whichever	
21	6	neither	
22	5	quite	
23	4	*	
24	3	gt;what	
25	3	^^^^this	
26	2	someone	
27	2	th	
28	2	alright	
29	2	oh	
30	2	something	
31	2	^any	
32	2	z	
33	1	ɐ	
34	1	~$15.00/3	
35	1	;)	
36	1	wow	
37	1	u	
38	1	gt;metal	
39	1	http://www.vintagepen.net/	
40	1	eg	
41	1	micro-4/3	
42	1	n	
43	1	duh	
44	1	~this	
45	1	plenty	
46	1	is"the	
47	1	i	
48	1	double	
49	1	stylo.ca	
50	1	gt;i'm	
51	1	tee	
52	1	\&gt;implying	
53	1	~~the	
54	1	gt;that	
55	1	-more-	
56	1	nothing	
57	1	plus	
58	1	lowercase	
59	1	everything	
60	1	350ml	
61	1	or	
62	1	aps&amp;field	
63	1	aww	
64	1	nib	
65	1	~50	
66	1	~~these	
67	1	-the	
68	1	aka	
69	1	irongall	
70	1	enuough	
71	1	he	
72	1	yes	
73	1	^the	
74	1	^^the	
75	1	^(this	
76	1	http://thenibsection.podbean.com/	
77	1	https://www.instagram.com/stegowary/	
78	1	ya	
79	1	😇	
80	1	snot	
81	1	~$255	
82	1	price/	
83	1	o	
84	1	"the	
85	1	e+m	
86	1	vis	
87	1	\&gt;great	
88	1	ol'	
89	1	※	
90	1	|	
91	1	best	
92	1	imma	
