#Word types: 175
#Word tokens: 431824
#Search results: 0
1	211922	the	
2	142818	a	
3	14525	an	
4	12698	some	
5	10556	this	
6	8052	that	
7	7018	any	
8	6044	no	
9	2872	these	
10	2570	another	
11	2457	all	
12	2253	what	
13	2242	those	
14	1934	every	
15	1050	each	
16	1037	both	
17	720	which	
18	411	either	
19	340	whatever	
20	48	whichever	
21	23	neither	
22	12	aka	
23	11	nib	
24	9	quite	
25	6	watercolour	
26	4	$	
27	4	€	
28	4	yes	
29	4	o	
30	3	over	
31	3	*	
32	3	plus	
33	3	something	
34	3	scripts/10380-reddit	
35	3	✓	
36	3	z	
37	3	wingsung	
38	3	\(the	
39	2	gt;what	
40	2	they	
41	2	plenty	
42	2	c	
43	2	it	
44	2	°	
45	2	à	
46	2	myself	
47	2	half	
48	2	aww	
49	2	twsbi	
50	2	th	
51	2	u	
52	2	e	
53	2	whereas	
54	2	about	
55	1	~50	
56	1	thickest	
57	1	~80	
58	1	practice(many	
59	1	nothing	
60	1	also-	
61	1	he	
62	1	fp	
63	1	gt;i'm	
64	1	mm	
65	1	topic/135846-stipula	
66	1	etc	
67	1	general(a	
68	1	topic/242463-the	
69	1	reviews(your	
70	1	alright	
71	1	;d	
72	1	pad-38	
73	1	omg	
74	1	#	
75	1	;)	
76	1	http://i.imgur.com/ym4ke0g.jpg?1	
77	1	topic/134017-the	
78	1	topic/59012-fadinglightfastness	
79	1	1—what	
80	1	2—what	
81	1	look	
82	1	yeah	
83	1	topic/281856-twsbi-580-superflex	
84	1	1/16/56	
85	1	:))	
86	1	\(old	
87	1	second-	
88	1	-what	
89	1	http://i.imgur.com/84kvpva.jpg	
90	1	topic/290938-kobe-2-hatoba	
91	1	shat	
92	1	but	
93	1	mr	
94	1	http://i.imgur.com/drvvqin.jpg	
95	1	~1.5	
96	1	topic/247576-four	
97	1	topic/266949-akkerman-4-nassaus	
98	1	6x9	
99	1	topic/43989-the	
100	1	never	
101	1	whether	
102	1	http://i.imgur.com/12bpzp6.png	
103	1	~~what	
104	1	essential](http://willvintage.nextcoder.com/2016/02/12	
105	1	topic/212420-what	
106	1	aps&amp;field	
107	1	topic/154442-problems	
108	1	vac-700	
109	1	oh	
110	1	somewhere	
111	1	yeoldeseamoose	
112	1	problems(zero	
113	1	kwz-	
114	1	some.nib	
115	1	ig	
116	1	ahead/	
117	1	someone	
118	1	~~waterproof~~	
119	1	nu	
120	1	while	
121	1	^cool	
122	1	^(this	
123	1	wet	
124	1	overall	
125	1	la	
126	1	-one	
127	1	a.k.a	
128	1	to-	
129	1	teal	
130	1	you	
131	1	email&amp;utm_term=0_4f8c8b8485	
132	1	pads-9-pack	
133	1	74/742/743/823	
134	1	wancher	
135	1	iffy(the	
136	1	stock(the	
137	1	|	
138	1	kwz	
139	1	luxor(this	
140	1	topic/256589-poor	
141	1	topic/327744-diamine	
142	1	https://www.instagram.com/writetomeoften/	
143	1	https://www.instagram.com/_althaven/	
144	1	https://www.instagram.com/blueishfp/	
145	1	irongall	
146	1	350ml	
147	1	sac	
148	1	topic/314891-the	
149	1	worthvthe	
150	1	astorquiza	
151	1	ere	
152	1	tbh	
153	1	-	
154	1	everything	
155	1	12x	
156	1	ur	
157	1	for#6	
158	1	=	
159	1	l	
160	1	see/	
161	1	\(his	
162	1	winsor&amp;newton	
163	1	ajis	
164	1	above	
165	1	nznrdoznuj0xd9pkyvoby51ctqhz5f	
166	1	вы	
167	1	time(the	
168	1	are”-	
169	1	nib(the	
170	1	※	
171	1	-the	
172	1	topic/92073-the	
173	1	two-	
174	1	one-	
175	1	tge	
