#Word types: 750
#Word tokens: 2501
#Search results: 0
1	297	Tomoe River	
2	221	Europe	
3	190	Sailor	
4	176	Prera	
5	119	Metropolitan	
6	50	Vacumatic	
7	45	Targa	
8	44	Asia	
9	33	Earth	
10	28	Pelikan	
11	27	North America	
12	25	Delta	
13	24	Edison	
14	23	Jinhao	
15	21	PO	
16	17	europe	
17	13	the Lamy Safari	
18	12	Esterbrook	
19	10	Preppys	
20	10	Promenade	
21	9	the PO nib	
22	9	Fountain	
23	8	Black	
24	8	Elabo	
25	8	Zebra	
26	8	Tamoe River	
27	7	al-star	
28	7	the Al Star	
29	7	Hemisphere	
30	7	Vacs	
31	6	Al-star	
32	6	Al-Star	
33	6	earth	
34	6	Venus	
35	6	Hudson	
36	6	the Ti nib	
37	6	the Tomoe River	
38	6	Eurobox	
39	6	Western F	
40	6	Pacific	
41	5	Eastern Europe	
42	5	Midwest	
43	5	Bleu Ocean	
44	5	Galactic	
45	5	the Homo Sapiens	
46	5	M1000	
47	5	East	
48	5	Nova	
49	4	the Lamy Al-Star	
50	4	Atlantic	
51	4	the east coast	
52	4	the Sargasso Sea	
53	4	Bung Box	
54	4	a Waterman Hemisphere	
55	4	Jumbo	
56	4	Inkcyclopedia	
57	4	Hastil	
58	4	the International District	
59	4	San Wen Tong"	
60	4	the Montblanc 149	
61	4	Baystate	
62	4	Blue Ocean	
63	4	Aesthetic Bay	
64	4	Penman Sapphire	
65	4	Fuji	
66	4	Western EF	
67	4	Apache Sunset	
68	4	the SF Bay Area	
69	4	Storia	
70	4	West	
71	4	the Vac Mini	
72	4	the Al Sport	
73	4	New Moon	
74	3	the Al-Stars	
75	3	west coast	
76	3	Africa	
77	3	Chrome	
78	3	Cross	
79	3	Viewpoint	
80	3	Value	
81	3	Reddit	
82	3	Rosetta	
83	3	the East Coast	
84	3	Sargasso Sea	
85	3	Standard	
86	3	Flex	
87	3	the west coast	
88	3	tomoe river	
89	3	M2xx	
90	3	Massachussetts	
91	3	~$20	
92	3	the F nib	
93	3	Italix	
94	3	the Lamy Vista	
95	3	the AL Sport	
96	3	Causeway Bay	
97	3	San Wen Tong	
98	3	Micro	
99	3	Bourgogne	
100	3	Bulletproof	
101	3	Persimmon Swirl	
102	3	Kaweko	
103	3	Ellis Island	
104	3	Blue	
105	3	Tomoe-River	
106	3	Vintage	
107	3	Franklin Christoph	
108	3	the Aurora Optima	
109	3	Sherwood	
110	3	Sailors	
111	3	the Pilot PO	
112	3	the Pelikan Hub	
113	3	the Ocean Swirl	
114	3	Lavande	
115	3	Stormy Sea	
116	2	an Al Star	
117	2	the Lamy AL-Star	
118	2	Aligning	
119	2	Granville Island	
120	2	Pen Boutique	
121	2	Blackbird	
122	2	Oceania	
123	2	Pentalic	
124	2	Scarlet	
125	2	Black Sea	
126	2	Bonus	
127	2	Stormy Grey	
128	2	Maido	
129	2	Lake Erie	
130	2	Americas	
131	2	an Omas Paragon	
132	2	Caribbean Sea	
133	2	Long Island	
134	2	Rouge	
135	2	Knox	
136	2	Central Des Vouex Road	
137	2	the M805 Demo	
138	2	Cocoon	
139	2	Black Eel	
140	2	Philly	
141	2	Montblanc 146	
142	2	Nakaya	
143	2	the Yukari Royale	
144	2	Tsutsuji	
145	2	Edelstein	
146	2	Jupiter	
147	2	Western Medium	
148	2	Crystal Swirl	
149	2	Southern California	
150	2	the Pilot F	
151	2	East Coast	
152	2	Lamy Al Star	
153	2	Amazon Japan	
154	2	New England	
155	2	Triton	
156	2	Western nibs	
157	2	Orient	
158	2	Northeast	
159	2	Nippon Art	
160	2	the Waterman Hemisphere	
161	2	Justus	
162	2	Irori	
163	2	Dagong	
164	2	Neptune	
165	2	Blue Lightning	
166	2	Paragon	
167	2	Atlantic Salmon	
168	2	Platinum	
169	2	Fougere	
170	2	Kaweco Ice Sport	
171	2	Arctic	
172	2	Enduras	
173	2	Netflix	
174	2	the Nib Nook	
175	2	Blue Sea	
176	2	bay state	
177	2	Southwest	
178	2	Platinum Carbon	
179	2	Waterstones	
180	2	the Lamy LX	
181	2	asia	
182	2	Sailor Moon	
183	2	Tsimshatsui East	
184	2	Deep Sea	
185	2	Solid Ice	
186	2	Pelikan 4001	
187	2	Mars	
188	2	Ocean Swirl	
189	2	the Stormy Sea	
190	2	Arcos	
191	2	Black Studio	
192	2	Ecrino	
193	1	the SF Bay	
194	1	the 'Bay	
195	1	Aerometic	
196	1	Confusing	
197	1	the Lamy Linea	
198	1	Bay State	
199	1	a Hudson Bay	
200	1	Fiesta	
201	1	the Pelikan Pelikano	
202	1	Vpen	
203	1	Ink-Cartridge	
204	1	Stipula Vedo	
205	1	the Lamy Scala	
206	1	my Sargasso Sea	
207	1	the Laureat II	
208	1	Manufacturer	
209	1	OZ	
210	1	N. America	
211	1	the Lamy EF	
212	1	the M200 nib	
213	1	Japanese F nibs	
214	1	South America	
215	1	Diamine Registrar's	
216	1	bay city	
217	1	Montegrapa	
218	1	Scarecrow	
219	1	Nozacs	
220	1	the Pilot Pluminix	
221	1	Leuchtturm1917	
222	1	Mississippi	
223	1	Eastern Mountain Sport	
224	1	the Rose Gold 580	
225	1	[Swab Shop](http://www.gouletpens.com/Interactive_Swab_Shop_s/813.htm	
226	1	a Parker Vacumatic	
227	1	Quink Black	
228	1	Staples	
229	1	caribbean sea	
230	1	grand canyon	
231	1	Indian Serwex	
232	1	the PB nib	
233	1	the Asia Pacific	
234	1	the Financial District	
235	1	the Papermate Clearpoint	
236	1	here](http://www.andersonpens.net/Vacumatic-Block	
237	1	Western XF	
238	1	Blue Bahama](http://thefountainpenblog.blogspot.com/2014/06	
239	1	Challenger	
240	1	Sky High	
241	1	Review](http://penhabit.com/2014/06/22	
242	1	the North East	
243	1	Lamy	
244	1	Targa Slims	
245	1	Christoph	
246	1	Nikita	
247	1	Apache Sunset's	
248	1	the Lamy Al-star	
249	1	Olivia	
250	1	Silver CT	
251	1	the Lamy Vista/Safari	
252	1	the nib IMHO	
253	1	Asa-Gao	
254	1	Sailor Vintage Fountain Pen 14	
255	1	Deluxe	
256	1	the Paragon Vintage -	
257	1	South Bay	
258	1	Jinhao 250s	
259	1	the Omega Speedmaster	
260	1	Loop	
261	1	the S-Pen	
262	1	Alps	
263	1	Sapphire	
264	1	Tomor River	
265	1	Lilliput	
266	1	the Ink Drop	
267	1	the Statue of Liberty	
268	1	Modern Pelikan	
269	1	east coast	
270	1	the Slim Ventura	
271	1	the Paradise Pen	
272	1	the northern hemisphere	
273	1	stylo.ca	
274	1	Kaweco Ice Sport/Classic Sport	
275	1	Black AL-star	
276	1	the Pelikan Twist	
277	1	bay state blue	
278	1	an F Pelikan	
279	1	Pilot Cavalier	
280	1	54th Mass	
281	1	the 105 east	
282	1	Kuretake Brush	
283	1	Everest	
284	1	the Pilot Decimo	
285	1	Al-Star /	
286	1	the Ocean Bleu	
287	1	the Long Island Pen	
288	1	the West End	
289	1	Edison Hudson	
290	1	Wilko	
291	1	Bold Rock	
292	1	Apica	
293	1	non-Noodler's	
294	1	Coehlo	
295	1	Arq	
296	1	Archival	
297	1	Bulletproof Black	
298	1	South Europe	
299	1	the Southern US	
300	1	X-F	
301	1	Google Translate	
302	1	the G Lalo	
303	1	an F nib	
304	1	Scribal Workshop	
305	1	Blick Art Supplies	
306	1	Yahoo Japan	
307	1	the York St.	
308	1	m200/205	
309	1	Rhodia	
310	1	Lechtturm	
311	1	Green Bay	
312	1	Fox River	
313	1	the Lamy Safari/Vista/Al-Star	
314	1	Nakaya fountain pen	
315	1	the Pro Gear	
316	1	the Imperial Black	
317	1	the Mae West	
318	1	some Tomoe River	
319	1	the LAMY Vista	
320	1	Suede	
321	1	Nakaya-Naka	
322	1	Nakaya-Naka-ai	
323	1	Flo-Plus	
324	1	Bhuddist	
325	1	Nakaya kimonos	
326	1	Kiri-same	
327	1	Hudson Bay	
328	1	M100	
329	1	Tomoe river	
330	1	Minimalistica	
331	1	Staedtler	
332	1	Scandinavia	
333	1	the Beijing Venus	
334	1	the Pelikan Souveran series-	
335	1	Middle English	
336	1	Sailor Imperial Black	
337	1	the Pink LE	
338	1	Lake Placid	
339	1	Montegrappa Chaos	
340	1	Occidental	
341	1	Warranted 14kt	
342	1	Antarctica	
343	1	the Sahara	
344	1	Fuji X100S	
345	1	the NE USA	
346	1	http://i.ebayimg.com/images/g/d~wAAOxyoahSZBFD/s-l1600.jpg	
347	1	Tarantino	
348	1	the Blue AL Sport	
349	1	Majestic	
350	1	the Cu Fountain K's	
351	1	Eversharp	
352	1	Crowne Plaza	
353	1	Pelikan M640 Mount Everest	
354	1	Lamy 2ks	
355	1	the CH92 nib	
356	1	Diamine-Ultra-Green-Ink-Sample-3-ml-p/sample-7051.htm	
357	1	Asa Gao	
358	1	Amazon Marketplace	
359	1	Preras	
360	1	The CH92 piston	
361	1	Blue-Black	
362	1	Aeterna	
363	1	Blue Angel	
364	1	the Hunter Valley	
365	1	Europa	
366	1	Iampeth	
367	1	Triumph	
368	1	Wahl Eversharp Decoband	
369	1	Habana	
370	1	the Matte Black	
371	1	Chalana	
372	1	The Sargasso Sea	
373	1	Ashrafieh	
374	1	Abdel Wahab	
375	1	Jinhao X750 Cuneiform Stylus	
376	1	Black Sea/C.T.	
377	1	the gouletpens.com nib	
378	1	Al-Star 1.1/1.5	
379	1	On Tomoe River	
380	1	SF Bay Area	
381	1	Verde Invincia	
382	1	Pentiques	
383	1	Grand Canyon	
384	1	the Omas Paragon	
385	1	The PO nib	
386	1	St area	
387	1	bay area	
388	1	the Prera/Metro/Kakuno nib	
389	1	a Sport Ice	
390	1	Western Fines	
391	1	TRIPLE15APP	
392	1	Anglophile	
393	1	attic	
394	1	AC	
395	1	Pilots 95th	
396	1	West Coast Shaving	
397	1	Prera CM	
398	1	Seitz Kreuznach	
399	1	the Aurora Nera 88 Special Edition Demonstrator	
400	1	the AL orange	
401	1	Lake Hamana	
402	1	Masuyama CI	
403	1	the Sheaffer Targa	
404	1	Kaweco Sport	
405	1	Tome River	
406	1	Sutab	
407	1	Opera Blue Ocean	
408	1	Gist	
409	1	Jinhao 599As	
410	1	the Lamy nib	
411	1	Topaz	
412	1	the Kaweco Liliputs	
413	1	South	
414	1	Easterbrook	
415	1	~100	
416	1	CdA Caribbean Sea	
417	1	Orange Ratsnake	
418	1	p20	
419	1	Lamy AL	
420	1	Feather Blades	
421	1	Bung-Box	
422	1	Crystal Meth	
423	1	Heatsetting	
424	1	East Asia	
425	1	Art Sport	
426	1	Northern India	
427	1	South Ex	
428	1	blue moon	
429	1	the Pelikan M80X	
430	1	the LA Hub	
431	1	the North End	
432	1	Gelateria	
433	1	Toscanini ice cream	
434	1	the Realo Sailor	
435	1	Realos	
436	1	Cahier	
437	1	the Pacific Northwest	
438	1	the John Hancock	
439	1	mucho de bueno por el Noodler's	
440	1	Jaipur	
441	1	Indian Eye Dropper	
442	1	Abbado	
443	1	South Texas	
444	1	the Eagleford Shale	
445	1	the Pelikan Caelum	
446	1	the north pole	
447	1	Preface	
448	1	Blue Pearl	
449	1	Tamoe river	
450	1	Side River	
451	1	the Montblanc Caressa	
452	1	the South Coast Plaza Mall	
453	1	Profil	
454	1	the Pilot Vpen	
455	1	Colorplan Park Green	
456	1	the Rhodia Webbie	
457	1	the Bulletproof Black	
458	1	Northern Massachusetts	
459	1	Sport Ice	
460	1	Wahl-Eversharp	
461	1	Tamesukashi	
462	1	Sailor-Jentle-Shigure-Ink-Rain-Showers-Four-Seasons-50-ml-Bottle	
463	1	Montblanc	
464	1	the south west	
465	1	south central	
466	1	the Nightline Raden	
467	1	Red Wine	
468	1	the Divina Desert Springs	
469	1	the Goulet Pens [Fountain Pen 101](http://blog.gouletpens.com/	
470	1	Argos	
471	1	the Bay area	
472	1	Giraffe	
473	1	the Gama Jumbo	
474	1	the I/II	
475	1	the Al-Star	
476	1	Noodlers Bay	
477	1	the Delta Oversize	
478	1	Cassia	
479	1	north park	
480	1	Paradise Pens	
481	1	Telescopic	
482	1	Sipliv	
483	1	PCH912	
484	1	Modern1000	
485	1	the Cross Botanica	
486	1	u/Probably_your_wife	
487	1	South Seas or Inspired	
488	1	Mass Drop	
489	1	6XX	
490	1	the Inner Harbor	
491	1	the Diamond District	
492	1	the Wahl Eversharp Doric	
493	1	the Lamy F	
494	1	Black 3776	
495	1	&gt;$250	
496	1	Ink Wall's	
497	1	Sailor Chalana	
498	1	the North Sea	
499	1	Souraken	
500	1	Al-Stars	
501	1	Western Broad	
502	1	Eastwood	
503	1	sacs	
504	1	Mt. Fuji	
505	1	J Herbin	
506	1	the Crossfields - from	
507	1	Tokiwa-Matsu	
508	1	the Platinum UEF	
509	1	Apache Sunset 1	
510	1	Montblanc 149	
511	1	Pacific Lamy Al-Star	
512	1	Pengallery	
513	1	desert island'	
514	1	Tomoe	
515	1	the Thé Decimo	
516	1	Enchanted Ocean	
517	1	Coptic	
518	1	the Lamy XF	
519	1	Pelham Bay Park	
520	1	City Island	
521	1	Stellar	
522	1	the Big Island	
523	1	Crimean	
524	1	the Osprey Scholar	
525	1	picture](https://i.redd.it/bpvj37kud9cx.jpg	
526	1	The Al Sport	
527	1	mica	
528	1	Western Massachusetts	
529	1	Lx	
530	1	Sim Lim Square	
531	1	Butter	
532	1	Cross Violet	
533	1	the Holy Bible	
534	1	West LA	
535	1	Harlem	
536	1	a PO nib	
537	1	the Pelikan 2xx	
538	1	Silicon	
539	1	Middle Earth	
540	1	Diamine Sargaso Sea	
541	1	Central London	
542	1	the Pelikan M200/M205	
543	1	a Ti nib	
544	1	Covent Garden	
545	1	Sailor Kiwa	
546	1	the F nibs	
547	1	some Coral Sea	
548	1	Iroshizukus	
549	1	Flower	
550	1	LN	
551	1	VN	
552	1	Rössler Reflex	
553	1	Black Ice	
554	1	Red - Leuchtturm	
555	1	Fines	
556	1	Ache	
557	1	San Fran	
558	1	5 F	
559	1	aPilot PO	
560	1	Lory	
561	1	Copeland	
562	1	Mount Whitney	
563	1	ELLIS ISLAND	
564	1	the 'Herringbone'	
565	1	Sailor Kingdom Note	
566	1	the Pelikan Staff	
567	1	East Anglia	
568	1	pan](https://farm4.staticflickr.com/3844/33044520433_2771e19d30_c.jpg	
569	1	jBar	
570	1	Mediterranean	
571	1	the Northeast Regional	
572	1	Burgo	
573	1	Slack	
574	1	Kawecos	
575	1	the Scheaffer Imperial	
576	1	Namisu	
577	1	Baltic	
578	1	the Masuyama Needlepoint	
579	1	Kreko	
580	1	CdA	
581	1	the Muji AL Round	
582	1	the AG925 Skeleton	
583	1	Mount Blanc	
584	1	the Jinhao 886	
585	1	Blue Water Ice	
586	1	Yonaga	
587	1	the Sailor Realo	
588	1	Lanbitou 3059	
589	1	Brown Tortoise Pelikan	
590	1	the Ego II	
591	1	the Lanbitou 8040	
592	1	the West coast	
593	1	Wahl-Eversharp Doric	
594	1	Kana	
595	1	Nathan Road	
596	1	the north east	
597	1	Lastly	
598	1	Pond	
599	1	Lake Michigan	
600	1	Delike	
601	1	Nippon	
602	1	pens/	
603	1	second.](https://i.imgur.com	
604	1	Tortoise	
605	1	the University District	
606	1	Uwajimaya	
607	1	the Bay	
608	1	Tomoé River	
609	1	East coast	
610	1	the North Shore	
611	1	the Quink Black	
612	1	Matte black	
613	1	the Eastern bloc	
614	1	Vistula	
615	1	Amazons	
616	1	West 8th Street	
617	1	Sailor Progear F nibs	
618	1	Montegrappa Fortuna	
619	1	The Pelikan M800	
620	1	Asia-Pacific area	
621	1	Scribal	
622	1	the San Francisco 2017	
623	1	NoVA	
624	1	0.9g-1ml	
625	1	Magnetic	
626	1	OESTE	
627	1	the M	
628	1	the Collier](http://thisquietone.tumblr.com/post/170428626703	
629	1	Tyson	
630	1	the central valley	
631	1	targa ballpoint	
632	1	Waterman Preface	
633	1	Noir	
634	1	my Ocean Swirl	
635	1	south america	
636	1	Lego	
637	1	the Nureba-iro	
638	1	Saijiki	
639	1	Lamy USA	
640	1	Carolina	
641	1	Farthest	
642	1	the foreign district	
643	1	Whiskey	
644	1	Stipula Passaporto	
645	1	Al Star	
646	1	a TOUCHDOWN FILLER	
647	1	an Ocean Swirl	
648	1	mroe	
649	1	Idyll	
650	1	Osaka Bay	
651	1	Haribo	
652	1	non-Europe	
653	1	Western M nibs	
654	1	the Mojave Desert	
655	1	a Wahl Doric	
656	1	the Stipula Passaporta	
657	1	Wanna	
658	1	Mitsuwa	
659	1	the Far East	
660	1	Lake blue	
661	1	Pelikan Ocean Swirl	
662	1	m805 Ocean Swirl	
663	1	Stipula	
664	1	Gardens	
665	1	the 6th district	
666	1	rue de l’arcade	
667	1	Parallel	
668	1	the Goulet HQ	
669	1	electronics&amp;ie	
670	1	the Prera F	
671	1	Visconti Venus	
672	1	grip area	
673	1	a Pelikan EF	
674	1	Hallmark	
675	1	the stormy sea	
676	1	Yodaki	
677	1	A0800	
678	1	Envelopes	
679	1	Minimalism Art	
680	1	Ohto	
681	1	the Namisu Orion	
682	1	the Canadian Vacs	
683	1	Mar Vista	
684	1	Bay state blue	
685	1	Ocean	
686	1	the Kaweco AL	
687	1	the nib easier	
688	1	Turquoise	
689	1	Looks GORGEOUS	
690	1	Power Vac	
691	1	middle earth	
692	1	Sukiyaki Japan	
693	1	Phys Med	
694	1	Hotel California	
695	1	https://www.instagram.com/p/Bj7tu_GFN6n/	
696	1	the Wing Sung 3008	
697	1	Wing Sung	
698	1	Pelikan M805 Ocean Swirl	
699	1	the Seven Seas	
700	1	Green Stripe	
701	1	Lamy EF	
702	1	Targa EF nibs	
703	1	Dupont Circle	
704	1	Old Bay	
705	1	Saragasso Sea	
706	1	karat	
707	1	580ALR	
708	1	the LAMY Scala	
709	1	the Medium	
710	1	Kaigelu	
711	1	Lifetime	
712	1	Etruria	
713	1	the Red/Black Dragon.](https://www.rickshawbags.com	
714	1	EoC	
715	1	Burgandy	
716	1	Garth	
717	1	The Coral Sea	
718	1	Edelsteins	
719	1	Platinum Izumo	
720	1	Soratame	
721	1	Nile	
722	1	the Megalopolis Hub	
723	1	Studio	
724	1	Alhambra	
725	1	autumn moon	
726	1	Prince Le	
727	1	That Stormy Sea	
728	1	Fuji Mountain	
729	1	Fashion Valley	
730	1	the Targa nib	
731	1	The F nib	
732	1	Fountain Pen Geeks	
733	1	Middle Chinese	
734	1	Wyvern	
735	1	LAMY Vibrant Pink	
736	1	the Greater Toronto Area	
737	1	CVC	
738	1	Bacas	
739	1	the Kaco Edge	
740	1	The Black Sea	
741	1	Kickstarter	
742	1	mount everest	
743	1	North America - Vanness/Goldspot/Penchalet/Anderson	
744	1	Nexx	
745	1	Horizon	
746	1	the Targa Slim	
747	1	Violet	
748	1	Purple Nights	
749	1	Lamy Al	
750	1	Ocean Swirls	
