#Word types: 508
#Word tokens: 2864
#Search results: 0
1	405	Japanese	
2	297	Chinese	
3	249	Safari	
4	199	Pelikan	
5	97	German	
6	86	Pelikans	
7	80	American	
8	51	European	
9	43	Jinhao	
10	40	Montblanc	
11	38	chinese	
12	37	Italian	
13	37	Australian	
14	35	polish	
15	34	Indian	
16	32	Canadian	
17	29	japanese	
18	28	French	
19	26	Clairefontaine	
20	24	Spencerian	
21	21	Asian	
22	17	german	
23	17	British	
24	16	Dutch	
25	15	Western	
26	15	Taiwanese	
27	14	Broad	
28	13	Akkerman	
29	11	Watermans	
30	11	Irish	
31	11	Americans	
32	11	Korean	
33	11	Soviet	
34	10	safari	
35	10	Nazi	
36	10	Falcon	
37	9	american	
38	9	Stipula	
39	9	English	
40	8	french	
41	8	North African	
42	8	Russian	
43	8	Pelikan 4001	
44	7	asian	
45	7	LAMY	
46	7	Pelican	
47	7	Tangerine	
48	7	Waterman	
49	7	Moleskine	
50	6	pelikans	
51	6	Italians	
52	6	Sailor	
53	6	350ml	
54	6	A4	
55	6	english	
56	6	DL	
57	5	Catholic	
58	5	Greek	
59	5	Bernanke	
60	5	Duofolds	
61	5	Norwegian	
62	5	Arabic	
63	5	Platinums	
64	5	Loom	
65	5	Rohrer	
66	5	Karas	
67	5	Republicans	
68	5	Moonman	
69	4	indian	
70	4	Batman	
71	4	Snorkel	
72	4	greek	
73	4	Franklin	
74	4	USPS	
75	4	KoP	
76	4	Islamic	
77	4	european	
78	3	Mexican	
79	3	Germans	
80	3	Swedish	
81	3	Persian	
82	3	Baoers	
83	3	Google	
84	3	Asians	
85	3	Spanish	
86	3	Sailor Doyou	
87	3	Muslims	
88	3	North American	
89	3	Verdigris	
90	3	Oriental	
91	3	Latin	
92	3	Vacumatics	
93	3	Nazis	
94	3	Aubergine	
95	3	Sailor Oku	
96	3	Jinhao 159	
97	3	Kodachrome	
98	3	Fine	
99	3	Majestic	
100	3	Jewish	
101	3	Jowo	
102	3	Vietnamese	
103	3	African	
104	3	Republican	
105	2	Bulletproof	
106	2	Borealis	
107	2	spencerian	
108	2	Malaysian	
109	2	Canon	
110	2	Monteverde	
111	2	Admins	
112	2	Craftsman	
113	2	Aeromatic	
114	2	Elite	
115	2	non-Amazon	
116	2	Fedex	
117	2	Scottish	
118	2	hedonic	
119	2	Australians	
120	2	Minuskin	
121	2	Italic	
122	2	South African	
123	2	pelican	
124	2	nazi	
125	2	Sonnets	
126	2	Scabiosa	
127	2	Bologna	
128	2	Nib	
129	2	Jinhao Safari	
130	2	LAMY Safari	
131	2	Jinhao x450	
132	2	anti-Chinese	
133	2	metropolitian	
134	2	Portuguese	
135	2	Alkali	
136	2	ESSRI	
137	2	Brazilian	
138	2	AL	
139	2	Shenandoah	
140	2	UTF8&amp;qid=1483908993&amp;sr=8-1&amp;keywords	
141	2	FA	
142	2	Iconic	
143	2	Danish	
144	2	Mediums	
145	2	Caran	
146	2	Bungubox	
147	2	Snorks	
148	2	Ottoman	
149	2	Taranis	
150	2	Platinum 3776	
151	2	Nara	
152	2	B.	
153	2	Swiss	
154	2	australian	
155	2	mech	
156	2	Aquamarine	
157	2	Brits	
158	2	Jeans	
159	2	Lanbitou	
160	2	Swans	
161	2	Roman	
162	2	Wancai	
163	2	Swan	
164	2	▄	
165	1	Domani	
166	1	Ethiopian	
167	1	Native Americans	
168	1	new Safari	
169	1	guy~~	
170	1	swans	
171	1	J.Herbin	
172	1	Calligraphy	
173	1	pelikan	
174	1	non-asians	
175	1	Typhoon Haiyan	
176	1	Spartans	
177	1	BROAD	
178	1	Instagram	
179	1	danknikejordans	
180	1	Poppa	
181	1	^^on	
182	1	lamy safari	
183	1	a New Zealander	
184	1	K101	
185	1	Slowly	
186	1	trollish	
187	1	Mandarin	
188	1	Ahabs	
189	1	Ocean Bleu	
190	1	Western or Japanese	
191	1	Jinhao Mediums	
192	1	Soft Fine	
193	1	Cartier	
194	1	western	
195	1	germans	
196	1	Premiers	
197	1	Japenese	
198	1	Communist	
199	1	egyptian	
200	1	Darwinian	
201	1	Southern	
202	1	han	
203	1	http://i.imgur.com/XoSdv9a.jpg	
204	1	lamy-safari-handwritten-review-018.jpg	
205	1	Indonesian	
206	1	Pendemonium	
207	1	MAP	
208	1	Officeworks	
209	1	jewish	
210	1	Pelikan 800	
211	1	Arabic/Hebrew	
212	1	artista	
213	1	Spicypenis	
214	1	brazilian	
215	1	M80x	
216	1	Hebrew	
217	1	Namiki Falcon	
218	1	InkDrop	
219	1	Neckbeards	
220	1	Souverans	
221	1	Silver	
222	1	tyrian	
223	1	Darn	
224	1	Saudi	
225	1	norwegian	
226	1	UTF8&amp;qid=1422038004&amp;sr=8-1&amp;keywords	
227	1	Baystate	
228	1	Mostly	
229	1	Bengals	
230	1	stylo.ca	
231	1	Pelikan M2xx	
232	1	Plebeians	
233	1	Nobeless	
234	1	a sample](http://i.imgur.com	
235	1	Clog	
236	1	koreans	
237	1	^is	
238	1	MB	
239	1	Dorian	
240	1	Bogans	
241	1	UTF8&amp;qid=1427496828&amp;sr=8-8&amp;keywords	
242	1	Pinfarino	
243	1	East Asians	
244	1	Ukrainian	
245	1	Masdrop	
246	1	non-Chinese	
247	1	Aryans	
248	1	spurs~~	
249	1	Singaporean	
250	1	Africans	
251	1	Orange	
252	1	kuro	
253	1	Satya	
254	1	Liberals	
255	1	a Lamy Safari	
256	1	non-American	
257	1	http://www.gfeller.us/non-traditional.html	
258	1	XXXF	
259	1	Capitalist	
260	1	Mini	
261	1	blue'ish	
262	1	holdup	
263	1	jinhao	
264	1	I.E.	
265	1	Jinhao 559	
266	1	Kantian	
267	1	Hungarian	
268	1	Fuckin	
269	1	Oxonian	
270	1	All-Americans	
271	1	Generation X	
272	1	9xxx	
273	1	squarish	
274	1	X450	
275	1	Pelikan 120	
276	1	latin	
277	1	Californians	
278	1	non-Japanese	
279	1	Artista	
280	1	3776	
281	1	a Chinese American	
282	1	democrats	
283	1	republicans	
284	1	nazis	
285	1	Marxist	
286	1	item56628dbb26	
287	1	Sarkiesian	
288	1	mans	
289	1	euVJx88.jpg	
290	1	Fountian	
291	1	Chromatics	
292	1	Engeika	
293	1	FC	
294	1	Campus	
295	1	New Yorkers	
296	1	plebeian	
297	1	Nazism	
298	1	Mangino	
299	1	PW Akkerman	
300	1	Dudek	
301	1	Slim	
302	1	north african	
303	1	Townsend	
304	1	Kayfun	
305	1	Western Fine	
306	1	Masuyama	
307	1	Armani	
308	1	Korean Chinese	
309	1	Texans	
310	1	Chinese+google	
311	1	a Style Resin	
312	1	Corsani	
313	1	PCH912 FA	
314	1	A)$300	
315	1	Hans	
316	1	japnese	
317	1	4x4	
318	1	SEF(soft	
319	1	Momiji	
320	1	Viscontis	
321	1	OMASSSSS INNN	
322	1	Snobbish	
323	1	Trans	
324	1	^^my	
325	1	Shimmertastics	
326	1	Yankee	
327	1	Europeans	
328	1	Clip	
329	1	source](https://www.welt.de	
330	1	Resin	
331	1	\#6	
332	1	Wiccan	
333	1	Clairefontaines	
334	1	republican	
335	1	PCH912	
336	1	CS	
337	1	Muslim	
338	1	metropoliceman	
339	1	Yamabudo	
340	1	Fred	
341	1	QC	
342	1	Pelikan 400	
343	1	Calepino	
344	1	Belgian	
345	1	580s	
346	1	Inkmiser	
347	1	AU$17-18	
348	1	Danitrio	
349	1	SQUEEEEE	
350	1	Music	
351	1	PayPal	
352	1	blackish	
353	1	someonese	
354	1	J. Herbin 1670	
355	1	Pelikan Souverän	
356	1	MEDIC	
357	1	Democrats	
358	1	Christian	
359	1	Arabs	
360	1	Shops	
361	1	Alchemist	
362	1	Arab	
363	1	Triveni	
364	1	Lilac	
365	1	Mandarin Chinese	
366	1	Anchor	
367	1	First German	
368	1	Inkyman	
369	1	accordian	
370	1	japenese	
371	1	childish	
372	1	pomeranian-	
373	1	Kyoto	
374	1	Rakutan	
375	1	Appelboom Pennen	
376	1	316L	
377	1	TwSbi	
378	1	Omniward	
379	1	Polish	
380	1	Clear	
381	1	Art-Deco	
382	1	Vulcan	
383	1	EXACT	
384	1	Vintage Pelikans	
385	1	Sailors	
386	1	americans	
387	1	non-Americans	
388	1	Romans	
389	1	pen.](http://fotos.subefotos.com	
390	1	Jinhao x750	
391	1	Harvey	
392	1	Capless	
393	1	Tea	
394	1	Polar	
395	1	Realo	
396	1	🏻	
397	1	Matte	
398	1	noveltyish	
399	1	a Platinum 3776	
400	1	Realos	
401	1	Modern	
402	1	Urbans	
403	1	Pelikan m805	
404	1	≈	
405	1	Celluloid	
406	1	Caesin	
407	1	Pelikan Sola	
408	1	Magnasonic	
409	1	Heros	
410	1	Conklin	
411	1	Irishmen	
412	1	Con70s	
413	1	Pikot	
414	1	Carmine	
415	1	Instagrams	
416	1	HEMA	
417	1	Pelikan Souverans	
418	1	Arabian	
419	1	Amodex	
420	1	Micarta	
421	1	democratic	
422	1	A1	
423	1	Aircorp	
424	1	Juist	
425	1	Jeweler	
426	1	metropolian	
427	1	non-Moleskine	
428	1	Venetian	
429	1	Swarovski	
430	1	YouTube	
431	1	YouTubers	
432	1	qc	
433	1	mind](https://www.lacouronneducomte.nl	
434	1	Nigerian	
435	1	M	
436	1	Higgins	
437	1	danish	
438	1	Fourier	
439	1	british	
440	1	Netbeans	
441	1	Bullet	
442	1	Pelikan 1000	
443	1	Alas	
444	1	Imgur	
445	1	Roman Catholic	
446	1	Eastern Orthodox	
447	1	Puerto Ricans	
448	1	x450	
449	1	Soooooo	
450	1	Waterproof	
451	1	Craigslist	
452	1	Taveet Sinanian	
453	1	Mondrian	
454	1	Primarily English	
455	1	Jews	
456	1	Diplomat	
457	1	Endura	
458	1	yellowish	
459	1	the All American	
460	1	Lamy Safari	
461	1	Trojans	
462	1	mathmagicians	
463	1	alt.collecting.pens	
464	1	italian	
465	1	Lebanese	
466	1	chrome&amp;ie	
467	1	Piranha	
468	1	Jetstream	
469	1	the Conklin	
470	1	Sox	
471	1	Carolingian	
472	1	Us	
473	1	Pelikan  4001	
474	1	Barnes	
475	1	Illibuck	
476	1	Whoop	
477	1	wo)man	
478	1	Willy	
479	1	Pablo	
480	1	pinkish	
481	1	Russians	
482	1	Kakuno	
483	1	Jonhao	
484	1	Democratic	
485	1	Reupblican	
486	1	Reublicans	
487	1	Dems	
488	1	Democrat	
489	1	a Sailor KoP	
490	1	Bavarian	
491	1	African-Americans	
492	1	non-african-americans	
493	1	non-US	
494	1	solitaire	
495	1	rohrer	
496	1	Lamys, Pelikans	
497	1	CASES	
498	1	gallery&amp;ga_search_query	
499	1	Mexicans	
500	1	912s	
501	1	Jeweller	
502	1	Moonmans	
503	1	Haro	
504	1	Ugandan	
505	1	Inktober	
506	1	a Franklin Christoph	
507	1	jean	
508	1	Whitelines	
