#Word types: 237
#Word tokens: 352
#Search results: 0
1	32	Black Swan	
2	10	Safari	
3	9	WWII	
4	7	Fountain Pen Revolution	
5	6	Fountain Pen Day	
6	6	Black Friday	
7	6	series	
8	5	New Years	
9	5	Series	
10	4	EoC	
11	4	Diamine Onyx Black	
12	3	the Great Depression	
13	3	New Year	
14	3	National Handwriting Day	
15	3	Wing Sung 6359	
16	3	Hugo	
17	3	Sailors	
18	2	Black Lustre	
19	2	the London Fog	
20	2	Black/Gold	
21	2	New Pen Day	
22	2	Sailor	
23	2	Happy Cake Day	
24	2	Waterman	
25	2	LAMY Safari	
26	2	Olympics	
27	2	Ahab	
28	2	Montblanc 22	
29	2	the Black Swan	
30	2	the Wing Sung 659	
31	2	Wing Sung 3003	
32	2	World War II	
33	2	a TWSBI Go	
34	2	the Carbon Black	
35	2	the Dallas Show	
36	2	Leap Year	
37	2	Promotion weekly	
38	1	my Tokyo Pen Extravaganza	
39	1	La Couleur Royale	
40	1	Black Custom 91s	
41	1	Jinhao 992	
42	1	the Custom 92	
43	1	Lihit Lab	
44	1	the Atlanta Show earlier in the year	
45	1	white 60g/m2	
46	1	the Graphgear 1000	
47	1	the Super 21	
48	1	ACBB	
49	1	the Montblanc 149	
50	1	Blue Black KWZ Iron Gall	
51	1	the Pilot Parallels	
52	1	Instagram	
53	1	FC 20 with 14k	
54	1	The Onyx Black	
55	1	YR CUP NOODLE	
56	1	Seminar	
57	1	the Pelikan Expo 2000	
58	1	this VERY COOL GoT Limited Edition	
59	1	Webbies	
60	1	New Moon 2	
61	1	Chinese new year	
62	1	Fine with Diamine Ancient Copper	
63	1	Hurricane Harvey	
64	1	the Custom 74	
65	1	Language Arts	
66	1	the Sheaffer Targa series	
67	1	TWSBI	
68	1	Chaos	
69	1	the Nib Creeper	
70	1	Mass 54th	
71	1	the Asia Series	
72	1	L2K	
73	1	the Noodlers Black Swan	
74	1	the Crimson Tide	
75	1	The Cultural Revolution	
76	1	the Great Flood	
77	1	true&amp;rt	
78	1	Black Friday Cyber Monday	
79	1	Realm of the Elderlings series	
80	1	Black 1	
81	1	the BP Black	
82	1	The FC 02 '	
83	1	the Safari/Vista	
84	1	Wing Sung 659	
85	1	the Wing Sung 3003	
86	1	Standard "Anchor Gray"	
87	1	New Year's	
88	1	L2K Makrolon	
89	1	the India Black Ink	
90	1	Pelikan 4001 series	
91	1	Christmas/New Year	
92	1	the Black Friday	
93	1	the "War and peace"	
94	1	New Perfume Day	
95	1	the Montblanc 342	
96	1	the Ahab series	
97	1	Black Bulletproof	
98	1	cup	
99	1	English Roses	
100	1	Happy New Year	
101	1	"Japan Exclusive	
102	1	FC Terra Firma	
103	1	Persian New Year	
104	1	FC 45s	
105	1	MB149	
106	1	Winter 2018	
107	1	Tokyo Limited Edition Edo Murasaki	
108	1	Black Safari	
109	1	the Lamy Safari	
110	1	the Onyx Black	
111	1	the Diamine Autumn Oak	
112	1	Calligraphy	
113	1	Wing Sung	
114	1	Pen Day New Ink	
115	1	Franklin Christoph 1.9	
116	1	Charlie Chaplin Commemoration Black Heavy Fountain Pen Unique Style	
117	1	Black, Diamine Night Sky	
118	1	the Chinese New Year	
119	1	the LA Show	
120	1	New Years Eve	
121	1	a Karas Kustoms Ink pen	
122	1	the LA Pen Show	
123	1	Clean	
124	1	chinese new year	
125	1	the Year of the Dog	
126	1	Montblanc 144	
127	1	the Wing Sung 3003 converters	
128	1	The Pentel Graphgear 1000	
129	1	the Wing Sung 3008s	
130	1	the War and Peace	
131	1	the Lamy Safari '	
132	1	Wing Sung 698	
133	1	lycka](tapas.io/series/tunes-of-lycka/	
134	1	The Wizarding World	
135	1	the Wing Sung 698 and 618	
136	1	Boxing Day	
137	1	Edinburgh Fringe Festival	
138	1	Irish Festival	
139	1	Fire -Grun Schwarz -Deep Sea	
140	1	World Proverb Series	
141	1	Tighe	
142	1	the 2017 LA Pen Show	
143	1	Holocaust	
144	1	Mont Blanc	
145	1	the Custom	
146	1	a Manhattan Portage 5-pen	
147	1	the Nib Section	
148	1	the Safari 17g	
149	1	Diamine Arabian Nights	
150	1	Value and Conclusion	
151	1	the Second World War	
152	1	the Karas Ink	
153	1	Tokyo Pen Show	
154	1	Tenryuji	
155	1	L or	
156	1	RMA	
157	1	Chalet	
158	1	NOV 24-14	
159	1	front&amp;back 8.5x11	
160	1	the Lecoule	
161	1	the Wing Sung 3008	
162	1	Sirius Orion Black	
163	1	the IG Mandarin	
164	1	FC 25	
165	1	the Sunday Edition	
166	1	3xxx 8xxx	
167	1	Vaness	
168	1	Gold Semi	
169	1	Gold SemiFlex	
170	1	the "Schidmt PRS"	
171	1	the "War and Peace	
172	1	the Kosmos Ink	
173	1	Wing Sung 3008 EF	
174	1	The Montblanc 149	
175	1	Swan	
176	1	Promotion Weekly	
177	1	Tokyo Pen Trading	
178	1	"Tokyo Pen Trading"	
179	1	Standard, Medium	
180	1	the Esterbrook SJ	
181	1	the War	
182	1	the Custom 845	
183	1	The Montblanc 244	
184	1	the TWSBI Go	
185	1	Classic	
186	1	the Leather Store	
187	1	KOP nibs 2	
188	1	Procolor	
189	1	the Safari Safari	
190	1	the Wing Sung 698 and 601	
191	1	New Pens Day	
192	1	Wing Sung 3009	
193	1	Anfänger	
194	1	a Renaissance Fair	
195	1	the Montblanc 220.	
196	1	Wing Sung 3001A	
197	1	the Shinkaichi Gold	
198	1	the Super Ultra 500	
199	1	Left	
200	1	the Slimline series	
201	1	the Imperial series	
202	1	Black Swan English Roses	
203	1	Four Seasons	
204	1	Spencerian or Business Writing	
205	1	Fort Madison IA	
206	1	`Black Swan	
207	1	Halloween &amp	
208	1	Thanksgiving	
209	1	the Go series	
210	1	Sharpies	
211	1	New Ink Day	
212	1	San Francisco Pen Show	
213	1	War &amp; Peace	
214	1	Jinhao 49	
215	1	the TWSBI GO	
216	1	the Stanley Cup	
217	1	Wing Sung 626	
218	1	the Wizarding World	
219	1	Black or Platinum Carbon Black	
220	1	the Dallas Pen Show	
221	1	the TWSBI Go or TWSBI	
222	1	their Writers Series	
223	1	the Dallas Pen Show 2018	
224	1	Fall/Autumn	
225	1	A Montblanc 14	
226	1	the Chinese National Holiday	
227	1	Bacas M CSI	
228	1	hugo	
229	1	the Jinhao 911 :)	
230	1	1670 Ocean Bleu	
231	1	Gold Medium	
232	1	the Discworld	
233	1	this NOS Imperial II	
234	1	Black and Platinum Carbon Black	
235	1	The M Black Stripe	
236	1	hobbies	
237	1	3rd 9am-5pm	
