#Word types: 2437
#Word tokens: 52358
#Search results: 0
1	5099	been	
2	2460	used	
3	1734	made	
4	1447	seen	
5	1309	had	
6	1069	done	
7	1036	tried	
8	1016	inked	
9	923	heard	
10	859	got	
11	739	found	
12	664	left	
13	562	written	
14	559	posted	
15	544	compared	
16	521	sold	
17	516	based	
18	469	given	
19	465	called	
20	445	gotten	
21	420	bought	
22	402	filled	
23	344	taken	
24	317	gone	
25	302	supposed	
26	279	read	
27	260	put	
28	251	ordered	
29	245	set	
30	240	noticed	
31	237	known	
32	233	thought	
33	233	started	
34	231	dried	
35	221	said	
36	215	appreciated	
37	204	added	
38	197	considered	
39	196	restored	
40	190	fixed	
41	188	needed	
42	186	shipped	
43	185	looked	
44	182	come	
45	181	cleaned	
46	180	purchased	
47	179	stuck	
48	176	tuned	
49	175	wanted	
50	170	saturated	
51	168	mentioned	
52	165	capped	
53	163	designed	
54	161	pictured	
55	161	expected	
56	161	listed	
57	156	removed	
58	156	decided	
59	155	lost	
60	152	worked	
61	152	broken	
62	148	meant	
63	144	included	
64	144	liked	
65	143	owned	
66	141	shown	
67	133	sent	
68	131	held	
69	131	priced	
70	131	built	
71	128	told	
72	127	spent	
73	125	picked	
74	122	replaced	
75	122	rid	
76	120	recommended	
77	120	produced	
78	116	changed	
79	116	agreed	
80	115	inspired	
81	114	tempted	
82	113	become	
83	104	attached	
84	104	released	
85	102	printed	
86	102	aligned	
87	102	covered	
88	101	related	
89	101	lined	
90	100	turned	
91	99	tested	
92	99	plated	
93	98	damaged	
94	97	engraved	
95	97	behaved	
96	95	learned	
97	94	experienced	
98	94	discontinued	
99	91	loaded	
100	90	felt	
101	90	shaped	
102	89	noted	
103	86	required	
104	83	limited	
105	83	misaligned	
106	82	received	
107	82	checked	
108	81	marked	
109	79	mixed	
110	77	allowed	
111	76	screwed	
112	76	ground	
113	76	asked	
114	75	figured	
115	75	loved	
116	75	finished	
117	75	named	
118	75	closed	
119	72	opposed	
120	72	colored	
121	72	delivered	
122	71	performed	
123	71	cracked	
124	71	intended	
125	70	caught	
126	69	handed	
127	68	drawn	
128	67	kept	
129	67	cut	
130	66	managed	
131	65	paid	
132	63	bound	
133	63	stained	
134	62	sealed	
135	62	happened	
136	61	repaired	
137	61	forgotten	
138	61	stolen	
139	61	swapped	
140	60	answered	
141	60	disappointed	
142	58	run	
143	58	worried	
144	58	thrown	
145	58	updated	
146	58	flushed	
147	57	downvoted	
148	56	provided	
149	56	threaded	
150	56	worn	
151	55	dropped	
152	54	adjusted	
153	54	-	
154	54	involved	
155	54	opened	
156	53	hit	
157	53	created	
158	53	saved	
159	53	exposed	
160	52	modified	
161	51	described	
162	51	bothered	
163	51	missed	
164	51	located	
165	51	pushed	
166	51	offered	
167	50	grown	
168	50	edited	
169	50	disassembled	
170	50	eyedroppered	
171	49	concerned	
172	49	helped	
173	49	pulled	
174	48	blown	
175	48	suggested	
176	48	intrigued	
177	48	combined	
178	47	followed	
179	47	summoned	
180	47	glued	
181	47	brushed	
182	46	torn	
183	45	linked	
184	45	dipped	
185	45	ruined	
186	45	gifted	
187	45	converted	
188	44	arrived	
189	44	carried	
190	43	taught	
191	43	fallen	
192	43	scratched	
193	42	manufactured	
194	42	installed	
195	42	branded	
196	41	forgot	
197	41	moved	
198	41	hoped	
199	40	stated	
200	40	developed	
201	39	returned	
202	39	stopped	
203	39	caused	
204	38	granted	
205	38	destroyed	
206	38	stamped	
207	38	improved	
208	38	born	
209	38	placed	
210	37	hooded	
211	37	discovered	
212	37	applied	
213	37	labeled	
214	36	realized	
215	36	wrapped	
216	36	contacted	
217	36	refilled	
218	35	washed	
219	35	stored	
220	35	planned	
221	35	brought	
222	35	settled	
223	35	enjoyed	
224	35	beat	
225	34	forced	
226	34	hidden	
227	34	striped	
228	34	failed	
229	34	played	
230	34	seated	
231	33	paired	
232	33	clipped	
233	33	lubricated	
234	33	clogged	
235	33	messed	
236	33	fitted	
237	33	thrilled	
238	32	stacked	
239	32	folded	
240	32	tipped	
241	32	ruled	
242	31	pigmented	
243	31	talked	
244	31	textured	
245	31	preferred	
246	31	corrected	
247	31	obsessed	
248	31	encountered	
249	31	watched	
250	31	scared	
251	31	handled	
252	31	sung	
253	31	chosen	
254	31	painted	
255	30	smoothed	
256	30	convinced	
257	30	leaked	
258	29	laid	
259	29	shared	
260	29	trained	
261	28	warranted	
262	28	dedicated	
263	28	understood	
264	28	hooked	
265	27	coated	
266	27	passed	
267	27	desired	
268	27	reached	
269	27	pressed	
270	26	touched	
271	26	acquired	
272	26	annoyed	
273	25	locked	
274	25	inserted	
275	25	met	
276	25	bottled	
277	25	sorted	
278	25	rolled	
279	25	rounded	
280	24	introduced	
281	24	treated	
282	24	confirmed	
283	24	reduced	
284	24	machined	
285	24	soaked	
286	24	associated	
287	24	charged	
288	24	surprised	
289	24	packaged	
290	23	shot	
291	23	announced	
292	23	requested	
293	23	imported	
294	22	voted	
295	22	boxed	
296	22	banned	
297	22	faceted	
298	22	increased	
299	22	matched	
300	22	con-50	
301	21	connected	
302	21	overpriced	
303	21	completed	
304	21	marketed	
305	21	delayed	
306	21	distilled	
307	21	spoken	
308	21	defined	
309	21	spread	
310	21	equipped	
311	20	tied	
312	20	switched	
313	20	established	
314	20	diluted	
315	20	separated	
316	20	controlled	
317	20	led	
318	20	collected	
319	20	bleed	
320	20	advertised	
321	19	extended	
322	19	attracted	
323	19	wasted	
324	19	understated	
325	19	borrowed	
326	19	assumed	
327	19	solved	
328	19	accepted	
329	19	coloured	
330	19	deleted	
331	19	lacquered	
332	18	signed	
333	18	discounted	
334	18	let	
335	18	re	
336	18	avoided	
337	18	invested	
338	18	offended	
339	18	ended	
340	18	stoked	
341	18	cost	
342	17	pointed	
343	17	faded	
344	17	uninked	
345	17	excited	
346	17	packed	
347	17	captured	
348	17	commented	
349	17	balanced	
350	17	designated	
351	17	wondered	
352	17	integrated	
353	17	spoiled	
354	17	confused	
355	17	broke	
356	17	knocked	
357	17	beaten	
358	17	rusted	
359	17	molded	
360	16	alright	
361	16	styled	
362	16	secured	
363	16	addicted	
364	16	impressed	
365	16	neglected	
366	16	referred	
367	16	rakuten	
368	16	reviewed	
369	16	polished	
370	16	prepared	
371	16	specified	
372	16	blocked	
373	15	dealt	
374	15	crossed	
375	15	divided	
376	15	rated	
377	15	pre	
378	15	supplied	
379	15	burned	
380	15	repeated	
381	15	snapped	
382	15	measured	
383	15	warned	
384	15	waited	
385	15	corroded	
386	15	suited	
387	15	begun	
388	15	subscribed	
389	15	stumbled	
390	15	distracted	
391	15	affected	
392	15	imagined	
393	15	affiliated	
394	15	proven	
395	14	shaken	
396	14	formed	
397	14	serviced	
398	14	flexed	
399	14	aimed	
400	14	fulfilled	
401	14	enamored	
402	14	pronounced	
403	14	focused	
404	14	informed	
405	14	selected	
406	14	stubbed	
407	14	engineered	
408	14	sprung	
409	14	shocked	
410	14	organized	
411	14	typed	
412	14	guaranteed	
413	14	visited	
414	14	modded	
415	14	raised	
416	14	sucked	
417	14	rotated	
418	14	reported	
419	14	marbled	
420	14	stocked	
421	14	bored	
422	14	googled	
423	13	seemed	
424	13	screw	
425	13	contained	
426	13	constructed	
427	13	published	
428	13	peeled	
429	13	crafted	
430	13	identified	
431	13	customized	
432	13	lived	
433	13	emailed	
434	13	served	
435	13	twisted	
436	13	cast	
437	13	fed	
438	13	upgraded	
439	12	researched	
440	12	fascinated	
441	12	spotted	
442	12	achieved	
443	12	copied	
444	12	sampled	
445	12	realised	
446	12	relieved	
447	12	sanded	
448	12	explained	
449	12	spilled	
450	12	assembled	
451	12	tucked	
452	12	promised	
453	12	abandoned	
454	12	headed	
455	12	guessed	
456	12	dated	
457	12	worded	
458	12	trusted	
459	12	trimmed	
460	12	sworn	
461	12	advised	
462	12	stayed	
463	12	evidenced	
464	11	contaminated	
465	11	sat	
466	11	educated	
467	11	preserved	
468	11	assured	
469	11	frustrated	
470	11	burped	
471	11	absorbed	
472	11	survived	
473	11	buried	
474	11	suspended	
475	11	compelled	
476	11	mistaken	
477	11	retired	
478	11	watered	
479	11	chipped	
480	11	submerged	
481	11	burnt	
482	10	claimed	
483	10	distributed	
484	10	abused	
485	10	honored	
486	10	restocked	
487	10	spaced	
488	10	tumbled	
489	10	resolved	
490	10	subbed	
491	10	targeted	
492	10	supported	
493	10	spelled	
494	10	featured	
495	10	bummed	
496	10	popped	
497	10	carved	
498	10	donated	
499	10	heartbroken	
500	10	frosted	
501	10	intimidated	
502	10	embedded	
503	10	shut	
504	10	hurt	
505	10	regarded	
506	10	dissolved	
507	10	weighted	
508	10	misplaced	
509	10	discussed	
510	10	coupled	
511	10	pooled	
512	10	replied	
513	10	searched	
514	10	caked	
515	10	angled	
516	10	skipped	
517	10	chased	
518	10	curved	
519	10	reminded	
520	10	numbered	
521	10	backed	
522	10	toned	
523	10	split	
524	10	cared	
525	9	sewn	
526	9	registered	
527	9	lasted	
528	9	commissioned	
529	9	hated	
530	9	dinged	
531	9	expressed	
532	9	entered	
533	9	licensed	
534	9	bent	
535	9	trapped	
536	9	mounted	
537	9	narrowed	
538	9	grinded	
539	9	rubbed	
540	9	smeared	
541	9	grabbed	
542	9	chewed	
543	9	rebranded	
544	9	learnt	
545	9	estimated	
546	9	blackened	
547	9	ossified	
548	9	d	
549	9	pumped	
550	9	reserved	
551	9	overlooked	
552	9	acquainted	
553	9	cleared	
554	9	cursed	
555	9	imprinted	
556	9	scanned	
557	9	stripped	
558	9	joined	
559	9	responded	
560	9	scuffed	
561	9	themed	
562	8	wiped	
563	8	consumed	
564	8	stonewashed	
565	8	emptied	
566	8	remembered	
567	8	exhausted	
568	8	frowned	
569	8	retracted	
570	8	earned	
571	8	embossed	
572	8	feathered	
573	8	floored	
574	8	sided	
575	8	certified	
576	8	subdued	
577	8	hardened	
578	8	grouped	
579	8	terrified	
580	8	scented	
581	8	modeled	
582	8	protected	
583	8	listened	
584	8	ran	
585	8	pissed	
586	8	assigned	
587	8	committed	
588	8	ignored	
589	8	belated	
590	8	blessed	
591	8	scheduled	
592	8	flooded	
593	8	busted	
594	8	banged	
595	8	stuffed	
596	8	devoted	
597	8	sought	
598	8	tossed	
599	8	cancelled	
600	8	lubed	
601	8	accomplished	
602	8	gunked	
603	8	squared	
604	8	crushed	
605	8	recycled	
606	8	inherited	
607	8	prized	
608	8	labelled	
609	8	explored	
610	8	attempted	
611	8	drilled	
612	8	striated	
613	8	discolored	
614	8	clarified	
615	7	shopped	
616	7	submitted	
617	7	outlined	
618	7	indicated	
619	7	ripped	
620	7	plugged	
621	7	mailed	
622	7	squeezed	
623	7	uploaded	
624	7	leftover	
625	7	baffled	
626	7	salvaged	
627	7	notified	
628	7	hung	
629	7	flattered	
630	7	dotted	
631	7	promoted	
632	7	directed	
633	7	primed	
634	7	won	
635	7	greased	
636	7	oxidized	
637	7	oriented	
638	7	versed	
639	7	inscribed	
640	7	anticipated	
641	7	justified	
642	7	damned	
643	7	jostled	
644	7	displayed	
645	7	sourced	
646	7	obtained	
647	7	coded	
648	7	refurbished	
649	7	dyed	
650	7	documented	
651	7	rinsed	
652	7	influenced	
653	7	obliged	
654	7	bonded	
655	7	demonstrated	
656	7	anodized	
657	7	surrounded	
658	7	struck	
659	7	represented	
660	7	expanded	
661	7	padded	
662	7	issued	
663	7	swatched	
664	7	cramped	
665	7	hyped	
666	7	traded	
667	7	complicated	
668	7	unposted	
669	7	welded	
670	7	experimented	
671	6	aged	
672	6	scribbled	
673	6	infatuated	
674	6	continued	
675	6	deemed	
676	6	welcomed	
677	6	heft	
678	6	cushioned	
679	6	highlighted	
680	6	slanted	
681	6	disliked	
682	6	rose	
683	6	overwhelmed	
684	6	entitled	
685	6	admired	
686	6	destined	
687	6	gathered	
688	6	misspelled	
689	6	pinned	
690	6	melted	
691	6	struggled	
692	6	practiced	
693	6	solidified	
694	6	killed	
695	6	inspected	
696	6	eyedropped	
697	6	recorded	
698	6	reversed	
699	6	hired	
700	6	mangled	
701	6	etched	
702	6	strapped	
703	6	patterned	
704	6	tightened	
705	6	flavored	
706	6	swabbed	
707	6	dumped	
708	6	dislodged	
709	6	executed	
710	6	stitched	
711	6	suppose	
712	6	personalized	
713	6	fused	
714	6	jammed	
715	6	piqued	
716	6	handcrafted	
717	6	translated	
718	6	addressed	
719	6	occurred	
720	6	dented	
721	6	quoted	
722	6	accompanied	
723	6	flipped	
724	6	driven	
725	6	crumbled	
726	6	biased	
727	6	edged	
728	6	verified	
729	6	compressed	
730	6	stepped	
731	6	sketched	
732	6	clicked	
733	6	regretted	
734	6	deformed	
735	6	viewed	
736	6	accumulated	
737	6	smoked	
738	5	founded	
739	5	evaporated	
740	5	suprised	
741	5	rotted	
742	5	dissapointed	
743	5	remained	
744	5	gummed	
745	5	poked	
746	5	organised	
747	5	contributed	
748	5	processed	
749	5	puzzled	
750	5	authorized	
751	5	maintained	
752	5	caved	
753	5	droppered	
754	5	tweaked	
755	5	gained	
756	5	toyed	
757	5	saw	
758	5	redesigned	
759	5	determined	
760	5	suffered	
761	5	stressed	
762	5	straightened	
763	5	composed	
764	5	fiddled	
765	5	trashed	
766	5	shattered	
767	5	doomed	
768	5	bled	
769	5	traveled	
770	5	smudged	
771	5	refined	
772	5	tinkered	
773	5	tarnished	
774	5	wrote	
775	5	ventured	
776	5	discouraged	
777	5	tilted	
778	5	browsed	
779	5	married	
780	5	amused	
781	5	approved	
782	5	prevented	
783	5	stretched	
784	5	torched	
785	5	accustomed	
786	5	pitted	
787	5	borked	
788	5	hacked	
789	5	sprinkled	
790	5	perceived	
791	5	attacked	
792	5	altered	
793	5	bundled	
794	5	mismatched	
795	5	titled	
796	5	tasted	
797	5	upped	
798	5	taped	
799	5	babied	
800	5	motivated	
801	5	decorated	
802	5	rendered	
803	5	slowed	
804	5	valued	
805	5	muted	
806	5	frozen	
807	5	exceeded	
808	5	disappeared	
809	5	attributed	
810	5	flossed	
811	5	flattened	
812	5	lucked	
813	5	zippered	
814	5	jumped	
815	5	scattered	
816	5	chiseled	
817	5	punctured	
818	5	threatened	
819	5	counted	
820	5	relegated	
821	5	dragged	
822	5	doubled	
823	5	came	
824	5	flared	
825	5	devastated	
826	5	purposed	
827	5	inverted	
828	4	derived	
829	4	shrunk	
830	4	mottled	
831	4	contracted	
832	4	formulated	
833	4	kicked	
834	4	immersed	
835	4	accused	
836	4	initiated	
837	4	tapered	
838	4	observed	
839	4	complemented	
840	4	persuaded	
841	4	generated	
842	4	inlaid	
843	4	bulky	
844	4	bumped	
845	4	lent	
846	4	cured	
847	4	psyched	
848	4	detached	
849	4	presented	
850	4	boiled	
851	4	upset	
852	4	ambered	
853	4	bodied	
854	4	hammered	
855	4	shifted	
856	4	lifted	
857	4	enabled	
858	4	splattered	
859	4	repurposed	
860	4	reassured	
861	4	implemented	
862	4	lodged	
863	4	conceived	
864	4	seized	
865	4	invited	
866	4	murdered	
867	4	impacted	
868	4	jumbled	
869	4	recovered	
870	4	faced	
871	4	auctioned	
872	4	smashed	
873	4	rushed	
874	4	calibrated	
875	4	expedited	
876	4	filed	
877	4	declared	
878	4	rejected	
879	4	simplified	
880	4	studied	
881	4	proved	
882	4	took	
883	4	harmed	
884	4	smitten	
885	4	wrecked	
886	4	opted	
887	4	jacked	
888	4	fooled	
889	4	embellished	
890	4	graded	
891	4	cluttered	
892	4	classified	
893	4	heated	
894	4	tended	
895	4	poured	
896	4	imposed	
897	4	fucked	
898	4	ridged	
899	4	nibmeistered	
900	4	contoured	
901	4	perforated	
902	4	scraped	
903	4	yellowed	
904	4	snagged	
905	4	roasted	
906	4	arranged	
907	4	detailed	
908	4	died	
909	4	overrated	
910	4	projected	
911	4	adopted	
912	4	lusted	
913	4	evolved	
914	4	perfected	
915	4	inflated	
916	4	underwhelmed	
917	4	praised	
918	4	bagged	
919	4	transferred	
920	4	stared	
921	4	roughed	
922	4	pinched	
923	4	adapted	
924	4	invented	
925	4	parked	
926	4	dabbled	
927	4	wound	
928	4	drained	
929	4	vanished	
930	4	calculated	
931	4	recieved	
932	4	perished	
933	4	enclosed	
934	4	uncapped	
935	4	laminated	
936	4	enforced	
937	4	belonged	
938	4	quit	
939	4	mastered	
940	4	photographed	
941	4	condensed	
942	4	layered	
943	4	mirrored	
944	4	timed	
945	3	coveted	
946	3	freed	
947	3	wired	
948	3	reused	
949	3	tickled	
950	3	excluded	
951	3	fell	
952	3	paced	
953	3	mortified	
954	3	lowered	
955	3	moderated	
956	3	elected	
957	3	hinged	
958	3	fp	
959	3	bitten	
960	3	disintegrated	
961	3	dug	
962	3	tainted	
963	3	assorted	
964	3	incorporated	
965	3	drooled	
966	3	ranked	
967	3	exported	
968	3	depicted	
969	3	graduated	
970	3	riveted	
971	3	circled	
972	3	injured	
973	3	weakened	
974	3	compromised	
975	3	amassed	
976	3	sacrificed	
977	3	judged	
978	3	backordered	
979	3	distinguished	
980	3	centered	
981	3	dashed	
982	3	spared	
983	3	sparked	
984	3	offset	
985	3	lurked	
986	3	laughed	
987	3	credited	
988	3	permitted	
989	3	geared	
990	3	curated	
991	3	cropped	
992	3	treasured	
993	3	launched	
994	3	travelled	
995	3	guarded	
996	3	disposed	
997	3	afaik	
998	3	depressed	
999	3	lied	
1000	3	gilded	
1001	3	disconnected	
1002	3	contemplated	
1003	3	nabbed	
1004	3	battered	
1005	3	bid	
1006	3	woodshed	
1007	3	blacked	
1008	3	utilized	
1009	3	reworked	
1010	3	overpolished	
1011	3	loosened	
1012	3	dismissed	
1013	3	\^\^	
1014	3	phrased	
1015	3	disillusioned	
1016	3	attended	
1017	3	rigged	
1018	3	marred	
1019	3	streamlined	
1020	3	complained	
1021	3	reflected	
1022	3	sped	
1023	3	stickied	
1024	3	forbidden	
1025	3	ironed	
1026	3	assed	
1027	3	shoved	
1028	3	recognized	
1029	3	housed	
1030	3	coiled	
1031	3	stunned	
1032	3	nailed	
1033	3	cherished	
1034	3	elaborated	
1035	3	crusted	
1036	3	admitted	
1037	3	abt	
1038	3	distorted	
1039	3	outfitted	
1040	3	rubberized	
1041	3	degraded	
1042	3	resigned	
1043	3	lit	
1044	3	restricted	
1045	3	appointed	
1046	3	ascended	
1047	3	brazen	
1048	3	hunted	
1049	3	blued	
1050	3	squished	
1051	3	hosted	
1052	3	delighted	
1053	3	occupied	
1054	3	disciplined	
1055	3	lefty	
1056	3	rebadged	
1057	3	knurled	
1058	3	debated	
1059	3	calmed	
1060	3	isolated	
1061	3	implied	
1062	3	thinned	
1063	3	acknowledged	
1064	3	darned	
1065	3	funded	
1066	3	misrepresented	
1067	3	cried	
1068	3	inclined	
1069	3	🤦	
1070	3	punched	
1071	3	starved	
1072	3	deserved	
1073	3	nuanced	
1074	3	pondered	
1075	3	conditioned	
1076	3	pierced	
1077	3	horrified	
1078	3	warmed	
1079	3	wayyy	
1080	3	resisted	
1081	3	fractured	
1082	3	filtered	
1083	3	disguised	
1084	3	remedied	
1085	3	flown	
1086	3	deposited	
1087	3	woven	
1088	3	scored	
1089	3	stationed	
1090	3	stood	
1091	3	blurred	
1092	3	weighed	
1093	3	rescued	
1094	3	crossposted	
1095	3	encouraged	
1096	3	revived	
1097	3	revered	
1098	3	famed	
1099	3	cataloged	
1100	3	reshaped	
1101	3	encased	
1102	3	flagged	
1103	3	flabbergasted	
1104	3	favored	
1105	3	miffed	
1106	3	recessed	
1107	3	stumped	
1108	3	waxed	
1109	3	chromed	
1110	3	reassembled	
1111	3	robbed	
1112	3	misunderstood	
1113	3	smoothened	
1114	3	agitated	
1115	3	operated	
1116	3	shed	
1117	3	crammed	
1118	3	tanned	
1119	3	adored	
1120	3	obscured	
1121	3	eaten	
1122	3	faked	
1123	3	shortened	
1124	3	departed	
1125	3	slid	
1126	2	tackled	
1127	2	outdated	
1128	2	petrified	
1129	2	enchanted	
1130	2	bookmarked	
1131	2	centred	
1132	2	erased	
1133	2	haunted	
1134	2	swayed	
1135	2	undervalued	
1136	2	succeeded	
1137	2	diagnosed	
1138	2	silenced	
1139	2	engaged	
1140	2	goofed	
1141	2	blob	
1142	2	questioned	
1143	2	booked	
1144	2	charmed	
1145	2	scammed	
1146	2	bathed	
1147	2	improvised	
1148	2	stapled	
1149	2	inlayed	
1150	2	censored	
1151	2	investigated	
1152	2	traumatized	
1153	2	appeared	
1154	2	glorified	
1155	2	fared	
1156	2	buffed	
1157	2	mitigated	
1158	2	lacquer	
1159	2	standardized	
1160	2	panicked	
1161	2	blamed	
1162	2	3776	
1163	2	creased	
1164	2	astonished	
1165	2	reintroduced	
1166	2	reacted	
1167	2	rebuilt	
1168	2	revealed	
1169	2	sheened	
1170	2	crimped	
1171	2	railroaded	
1172	2	archived	
1173	2	dodged	
1174	2	pressurized	
1175	2	oversaturated	
1176	2	exacerbated	
1177	2	boosted	
1178	2	appealed	
1179	2	renowned	
1180	2	alluded	
1181	2	grooved	
1182	2	exchanged	
1183	2	accounted	
1184	2	veiled	
1185	2	brightened	
1186	2	starred	
1187	2	saddened	
1188	2	preprinted	
1189	2	dispensed	
1190	2	fussed	
1191	2	eliminated	
1192	2	soldered	
1193	2	evaluated	
1194	2	humbled	
1195	2	elevated	
1196	2	slit	
1197	2	dissipated	
1198	2	formatted	
1199	2	ramped	
1200	2	tagged	
1201	2	interpreted	
1202	2	stub	
1203	2	gripped	
1204	2	resacced	
1205	2	entertained	
1206	2	greeted	
1207	2	multicolored	
1208	2	mistreated	
1209	2	refreshed	
1210	2	dammed	
1211	2	screened	
1212	2	prepped	
1213	2	renamed	
1214	2	blended	
1215	2	awarded	
1216	2	tapped	
1217	2	sleeved	
1218	2	earmarked	
1219	2	concluded	
1220	2	salaried	
1221	2	shook	
1222	2	climbed	
1223	2	downgraded	
1224	2	payed	
1225	2	pen	
1226	2	infected	
1227	2	deteriorated	
1228	2	decayed	
1229	2	rugged	
1230	2	danced	
1231	2	interrupted	
1232	2	shredded	
1233	2	unseated	
1234	2	nestled	
1235	2	darkened	
1236	2	flowered	
1237	2	varied	
1238	2	haha	
1239	2	stabbed	
1240	2	relisted	
1241	2	succumbed	
1242	2	filmed	
1243	2	dehydrated	
1244	2	bastardized	
1245	2	renewed	
1246	2	afforded	
1247	2	startled	
1248	2	ejected	
1249	2	pocketed	
1250	2	outgrown	
1251	2	bestowed	
1252	2	aggravated	
1253	2	crumpled	
1254	2	employed	
1255	2	tangled	
1256	2	slotted	
1257	2	declined	
1258	2	burrowed	
1259	2	stickered	
1260	2	enthralled	
1261	2	autocorrected	
1262	2	elated	
1263	2	endangered	
1264	2	gutted	
1265	2	ceased	
1266	2	substituted	
1267	2	situated	
1268	2	phased	
1269	2	examined	
1270	2	downloaded	
1271	2	slated	
1272	2	seconded	
1273	2	90gsm	
1274	2	respected	
1275	2	gridded	
1276	2	winged	
1277	2	restarted	
1278	2	monogrammed	
1279	2	winded	
1280	2	hampered	
1281	2	occured	
1282	2	chrisrap52	
1283	2	logged	
1284	2	displaced	
1285	2	blasted	
1286	2	grained	
1287	2	loaned	
1288	2	rippled	
1289	2	sculpted	
1290	2	enamoured	
1291	2	forewarned	
1292	2	mustered	
1293	2	saddled	
1294	2	punished	
1295	2	lay	
1296	2	taxed	
1297	2	referenced	
1298	2	coordinated	
1299	2	shrunken	
1300	2	milled	
1301	2	shone	
1302	2	animated	
1303	2	photoshopped	
1304	2	exaggerated	
1305	2	termed	
1306	2	nibbled	
1307	2	undamaged	
1308	2	articulated	
1309	2	crowded	
1310	2	magnified	
1311	2	diffused	
1312	2	layed	
1313	2	culled	
1314	2	gunna	
1315	2	captioned	
1316	2	abbreviated	
1317	2	deprived	
1318	2	predicted	
1319	2	thorobred	
1320	2	expired	
1321	2	automated	
1322	2	excepted	
1323	2	expelled	
1324	2	swamped	
1325	2	unused	
1326	2	accessed	
1327	2	billed	
1328	2	realigned	
1329	2	consulted	
1330	2	impregnated	
1331	2	patented	
1332	2	masked	
1333	2	plagued	
1334	2	ingrained	
1335	2	positioned	
1336	2	conflicted	
1337	2	pasted	
1338	2	interchanged	
1339	2	topped	
1340	2	reinforced	
1341	2	suckered	
1342	2	optimised	
1343	2	wedged	
1344	2	suppressed	
1345	2	epoxied	
1346	2	acclimated	
1347	2	backweighted	
1348	2	messaged	
1349	2	scruffed	
1350	2	multiplied	
1351	2	shelved	
1352	2	tricked	
1353	2	cheapo	
1354	2	pent	
1355	2	pimped	
1356	2	superglued	
1357	2	unopened	
1358	2	drunken	
1359	2	customised	
1360	2	landed	
1361	2	retipped	
1362	2	zoomed	
1363	2	resurrected	
1364	2	blinded	
1365	2	rekindled	
1366	2	consolidated	
1367	2	sopposed	
1368	2	correlated	
1369	2	be	
1370	2	tempered	
1371	2	existed	
1372	2	digitized	
1373	2	widened	
1374	2	suspected	
1375	2	checkered	
1376	2	prompted	
1377	2	raided	
1378	2	perplexed	
1379	2	sprayed	
1380	2	sewed	
1381	2	hashed	
1382	2	acted	
1383	2	disputed	
1384	2	alarmed	
1385	2	refunded	
1386	2	sniped	
1387	2	ringed	
1388	2	repackaged	
1389	2	sunk	
1390	2	warped	
1391	2	dwarfed	
1392	2	alerted	
1393	2	proposed	
1394	2	assisted	
1395	2	risen	
1396	2	tormented	
1397	2	congealed	
1398	2	escaped	
1399	2	aggrieved	
1400	2	missaligned	
1401	2	smokey	
1402	2	popularized	
1403	2	sued	
1404	2	compiled	
1405	2	sidetracked	
1406	2	leveled	
1407	2	mapped	
1408	2	slammed	
1409	2	swirled	
1410	2	shaved	
1411	2	momiji	
1412	2	eroded	
1413	2	summed	
1414	2	authorised	
1415	2	slipped	
1416	2	contrasted	
1417	2	topic/312943-bottled	
1418	2	maimed	
1419	2	fashioned	
1420	2	extracted	
1421	2	snatched	
1422	2	snugged	
1423	2	specialized	
1424	2	wiggled	
1425	2	dared	
1426	2	smelled	
1427	2	confiscated	
1428	2	mislabeled	
1429	2	captivated	
1430	2	tailed	
1431	2	wounded	
1432	2	discoloured	
1433	2	barrelled	
1434	2	misinformed	
1435	2	sniffed	
1436	2	were	
1437	2	drew	
1438	2	moulded	
1439	2	sloped	
1440	2	fricken	
1441	2	actuated	
1442	2	divorced	
1443	2	undone	
1444	2	inquired	
1445	2	scarred	
1446	2	categorized	
1447	2	cloned	
1448	2	dialed	
1449	2	tracked	
1450	2	wandered	
1451	2	tinted	
1452	2	deburred	
1453	2	finalized	
1454	2	staffed	
1455	2	fought	
1456	2	bottomed	
1457	2	flowed	
1458	2	propped	
1459	2	barreled	
1460	2	dusted	
1461	2	longed	
1462	2	liquidated	
1463	2	preffered	
1464	2	overcome	
1465	2	proceeded	
1466	2	overdone	
1467	2	caped	
1468	2	actioned	
1469	1	knackered	
1470	1	devolved	
1471	1	proportioned	
1472	1	pelted	
1473	1	exemplified	
1474	1	tolerated	
1475	1	cribbed	
1476	1	iodised	
1477	1	paralyzed	
1478	1	incinerated	
1479	1	weaponized	
1480	1	undiagnosed	
1481	1	watermarked	
1482	1	permablotted	
1483	1	actived	
1484	1	blobbed	
1485	1	liken	
1486	1	furked	
1487	1	recapped	
1488	1	hailed	
1489	1	savages	
1490	1	prepackaged	
1491	1	covetted	
1492	1	exploded	
1493	1	destabilised	
1494	1	fullsized	
1495	1	lessened	
1496	1	cooked	
1497	1	arsed	
1498	1	disclosed	
1499	1	nullified	
1500	1	stifled	
1501	1	shouldered	
1502	1	segmented	
1503	1	hobbled	
1504	1	joticed	
1505	1	grid	
1506	1	unplugged	
1507	1	bugged	
1508	1	posed	
1509	1	preassigned	
1510	1	sharpened	
1511	1	doesn't	
1512	1	intrested	
1513	1	accelerated	
1514	1	splashed	
1515	1	souraken	
1516	1	tensioned	
1517	1	sheen	
1518	1	arrested	
1519	1	centrifuged	
1520	1	crossfield	
1521	1	hunched	
1522	1	suprred	
1523	1	catalogued	
1524	1	-braun	
1525	1	dubbed	
1526	1	endured	
1527	1	furnished	
1528	1	unattended	
1529	1	scripted	
1530	1	mp/1439018/1026201/	
1531	1	mp/1438960/1026201/	
1532	1	recalled	
1533	1	eydroppered	
1534	1	outweighed	
1535	1	portrayed	
1536	1	ridden	
1537	1	discontinuted	
1538	1	speculated	
1539	1	lengthwise	
1540	1	see	
1541	1	shorted	
1542	1	mispronounced	
1543	1	sheen'd	
1544	1	souten	
1545	1	do	
1546	1	unruled	
1547	1	platted	
1548	1	wishlisted	
1549	1	waitlisted	
1550	1	minded	
1551	1	misread	
1552	1	co	
1553	1	haggled	
1554	1	troubled	
1555	1	goddamned	
1556	1	repost	
1557	1	apologised	
1558	1	althought	
1559	1	clotted	
1560	1	start	
1561	1	traced	
1562	1	pen-1953-laminated	
1563	1	squirted	
1564	1	excused	
1565	1	swung	
1566	1	conceited	
1567	1	irked	
1568	1	preconceived	
1569	1	swaged	
1570	1	redistributed	
1571	1	prioritized	
1572	1	disheartened	
1573	1	juxtaposed	
1574	1	fabled	
1575	1	crisscrossed	
1576	1	.5	
1577	1	possessed	
1578	1	replicated	
1579	1	black-	
1580	1	flicked	
1581	1	licenced	
1582	1	accented	
1583	1	hiked	
1584	1	decommissioned	
1585	1	ahr0cdovl3d3dy5qzxrwzw5zlmnvbs9pbwfnzxmvyxnzzxrzl3dhdgvybwfyay5wbmc&amp;markalign64	
1586	1	unposed	
1587	1	broked	
1588	1	skeletonized	
1589	1	wronged	
1590	1	thwarted	
1591	1	weighteed	
1592	1	dissappointed	
1593	1	rained	
1594	1	aided	
1595	1	canceled	
1596	1	frazzled	
1597	1	fanned	
1598	1	acheived	
1599	1	transfixed	
1600	1	interacted	
1601	1	markdown	
1602	1	ocd	
1603	1	awaited	
1604	1	pursued	
1605	1	flirted	
1606	1	dripped	
1607	1	lectured	
1608	1	equiped	
1609	1	focussed	
1610	1	safari	
1611	1	wrinkled	
1612	1	overtightened	
1613	1	dissuaded	
1614	1	baked	
1615	1	by8s13khrz6/?taken	
1616	1	excised	
1617	1	averted	
1618	1	meshed	
1619	1	affronted	
1620	1	paged	
1621	1	compacted	
1622	1	undated	
1623	1	ionized	
1624	1	bzbyl8hhpe0/?taken	
1625	1	windowed	
1626	1	angered	
1627	1	scorn	
1628	1	embraced	
1629	1	bred	
1630	1	reopened	
1631	1	worned	
1632	1	intensified	
1633	1	crossthreadded	
1634	1	mudded	
1635	1	prefered	
1636	1	pelikan	
1637	1	outed	
1638	1	reformatted	
1639	1	damged	
1640	1	unbranded	
1641	1	modelled	
1642	1	rosegold	
1643	1	cannibalized	
1644	1	aforementionned	
1645	1	forgiven	
1646	1	reuploaded	
1647	1	besotted	
1648	1	skimmed	
1649	1	afflicted	
1650	1	chopped	
1651	1	drafted	
1652	1	overpaid	
1653	1	outdone	
1654	1	costed	
1655	1	uninformed	
1656	1	inks-101/	
1657	1	rubberised	
1658	1	moistened	
1659	1	disagreed	
1660	1	diverged	
1661	1	antiqued	
1662	1	reseated	
1663	1	letter	
1664	1	hurried	
1665	1	squealed	
1666	1	ditched	
1667	1	sponsored	
1668	1	deserted	
1669	1	incited	
1670	1	bubbled	
1671	1	conned	
1672	1	rn	
1673	1	mislabelled	
1674	1	sterilized	
1675	1	celebrated	
1676	1	jeweled	
1677	1	a3776	
1678	1	curled	
1679	1	pinged	
1680	1	lighted	
1681	1	dispatched	
1682	1	suppposed	
1683	1	unstructured	
1684	1	sized	
1685	1	anwsered	
1686	1	ranga	
1687	1	cupped	
1688	1	cased	
1689	1	preceeded	
1690	1	swallowed	
1691	1	rationed	
1692	1	fluctuated	
1693	1	insulted	
1694	1	insured	
1695	1	medicated	
1696	1	sinned	
1697	1	micro	
1698	1	skidded	
1699	1	blindfolded	
1700	1	gnawed	
1701	1	digressed	
1702	1	inrerested	
1703	1	slept	
1704	1	-sized	
1705	1	purged	
1706	1	revitalized	
1707	1	trawled	
1708	1	oxblood	
1709	1	instructed	
1710	1	mesmerized	
1711	1	coincided	
1712	1	comprised	
1713	1	attracked	
1714	1	barleycorn	
1715	1	atrophied	
1716	1	heared	
1717	1	mediated	
1718	1	daiso	
1719	1	+15	
1720	1	assembeled	
1721	1	platinum+3776	
1722	1	blackout	
1723	1	selled	
1724	1	cackled	
1725	1	began	
1726	1	extinct	
1727	1	seasoned	
1728	1	oposed	
1729	1	depended	
1730	1	smth	
1731	1	compensated	
1732	1	pressurised	
1733	1	papered	
1734	1	somw	
1735	1	photobombed	
1736	1	diverted	
1737	1	gesproken	
1738	1	gaudy	
1739	1	swept	
1740	1	gluten	
1741	1	tripped	
1742	1	defeated	
1743	1	configured	
1744	1	instituted	
1745	1	rumpled	
1746	1	shakey	
1747	1	detained	
1748	1	jazzed	
1749	1	stereotyped	
1750	1	embroidered	
1751	1	surpassed	
1752	1	instilled	
1753	1	sometimed	
1754	1	planted	
1755	1	unscrewed	
1756	1	dictated	
1757	1	alwayse	
1758	1	unsullied	
1759	1	scrawled	
1760	1	new(er	
1761	1	handstiched	
1762	1	slaughtered	
1763	1	live	
1764	1	vexed	
1765	1	dash	
1766	1	benchmarked	
1767	1	build	
1768	1	zdp8auj-/?taken	
1769	1	binged	
1770	1	branched	
1771	1	reblacked	
1772	1	stricken	
1773	1	framed	
1774	1	omitted	
1775	1	submersed	
1776	1	activated	
1777	1	nominated	
1778	1	plotted	
1779	1	vectorized	
1780	1	gravitated	
1781	1	frightened	
1782	1	powered	
1783	1	expended	
1784	1	2b	
1785	1	wished	
1786	1	doodled	
1787	1	|purchased	
1788	1	coauthored	
1789	1	clothbound	
1790	1	rested	
1791	1	maxed	
1792	1	dazzled	
1793	1	diseased	
1794	1	rebottled	
1795	1	differed	
1796	1	froze	
1797	1	thawed	
1798	1	restrained	
1799	1	freaked	
1800	1	shaded	
1801	1	delved	
1802	1	whoa	
1803	1	grafted	
1804	1	wellbehaved	
1805	1	showcased	
1806	1	skeeved	
1807	1	jagged	
1808	1	send	
1809	1	relplaced	
1810	1	authenticated	
1811	1	variegated	
1812	1	facebook	
1813	1	criticized	
1814	1	outsourced	
1815	1	splurged	
1816	1	concentrated	
1817	1	brown	
1818	1	reshared	
1819	1	burst	
1820	1	randomized	
1821	1	gleaned	
1822	1	awakened	
1823	1	siiiiigggghhhh	
1824	1	rumored	
1825	1	unplanned	
1826	1	glided	
1827	1	nested	
1828	1	mishmashed	
1829	1	extruded	
1830	1	clenched	
1831	1	indended	
1832	1	unscrew	
1833	1	peeved	
1834	1	honoured	
1835	1	vented	
1836	1	oozed	
1837	1	pebbled	
1838	1	initialed	
1839	1	fueled	
1840	1	misguided	
1841	1	interviewed	
1842	1	pearlized	
1843	1	gothicised	
1844	1	patten	
1845	1	blackn'red	
1846	1	revolutionized	
1847	1	hamfisted	
1848	1	capitalized	
1849	1	rephrased	
1850	1	backslamted	
1851	1	sacked	
1852	1	forsaken	
1853	1	indoctrinated	
1854	1	totaled	
1855	1	traumatised	
1856	1	bzlwg1mhrst/?taken	
1857	1	bayou	
1858	1	swiped	
1859	1	beg3seyhjb2/?taken	
1860	1	shelled	
1861	1	tiled	
1862	1	weinstein’d	
1863	1	coached	
1864	1	insted	
1865	1	tined	
1866	1	drenched	
1867	1	seduced	
1868	1	lugged	
1869	1	interested	
1870	1	deceased	
1871	1	cought	
1872	1	thanked	
1873	1	fund	
1874	1	prised	
1875	1	impatienced	
1876	1	skyrocketed	
1877	1	pm’d	
1878	1	whoah	
1879	1	post	
1880	1	coddled	
1881	1	choked	
1882	1	bruised	
1883	1	memorized	
1884	1	wingsung	
1885	1	suit	
1886	1	plopped	
1887	1	fazed	
1888	1	prefilled	
1889	1	eyed	
1890	1	feared	
1891	1	caffeinated	
1892	1	stylized	
1893	1	reapplied	
1894	1	workrd	
1895	1	clued	
1896	1	implicated	
1897	1	belted	
1898	1	analysed	
1899	1	humanised	
1900	1	laced	
1901	1	budgeted	
1902	1	wrikken	
1903	1	migrated	
1904	1	rewarded	
1905	1	stollen	
1906	1	italicized	
1907	1	vacated	
1908	1	grilled	
1909	1	tofu	
1910	1	spouted	
1911	1	have”hinted	
1912	1	challenged	
1913	1	snuck	
1914	1	gouged	
1915	1	dumbfounded	
1916	1	scrapped	
1917	1	percived	
1918	1	getmotivated	
1919	1	webbed	
1920	1	spirited	
1921	1	decontaminated	
1922	1	wanna	
1923	1	dilated	
1924	1	cheated	
1925	1	facetted	
1926	1	balked	
1927	1	need	
1928	1	aristotled	
1929	1	inexperienced	
1930	1	a/7z3yj	
1931	1	touted	
1932	1	strung	
1933	1	raped	
1934	1	singled	
1935	1	presumed	
1936	1	chuffed	
1937	1	debited	
1938	1	rearranged	
1939	1	shodo	
1940	1	lured	
1941	1	scavenged	
1942	1	warrantied	
1943	1	pieced	
1944	1	dee_ahh	
1945	1	shied	
1946	1	diminished	
1947	1	fingerprinted	
1948	1	orchestra	
1949	1	accessorised	
1950	1	conferred	
1951	1	generalized	
1952	1	https://www.facebook.com/雅流yachingstyle-1583295641962770/	
1953	1	bandaged	
1954	1	whipped	
1955	1	tinged	
1956	1	cobbled	
1957	1	innovated	
1958	1	denounced	
1959	1	communicated	
1960	1	adhered	
1961	1	demoted	
1962	1	aired	
1963	1	flatted	
1964	1	counterfeited	
1965	1	products/734148-rubbermaid	
1966	1	clone	
1967	1	protracted	
1968	1	depleted	
1969	1	introverted	
1970	1	thrashed	
1971	1	brained	
1972	1	yakked	
1973	1	awestruck	
1974	1	queued	
1975	1	politicized	
1976	1	discarded	
1977	1	repositioned	
1978	1	scoped	
1979	1	pyrographed	
1980	1	aloneghost	
1981	1	hollowed	
1982	1	consecrated	
1983	1	mopped	
1984	1	surrendered	
1985	1	transmitted	
1986	1	regimented	
1987	1	perched	
1988	1	dressed	
1989	1	narrated	
1990	1	copped	
1991	1	denied	
1992	1	tethered	
1993	1	illustrated	
1994	1	cued	
1995	1	tighten	
1996	1	severed	
1997	1	-unbalanced	
1998	1	quietened	
1999	1	cc'ed	
2000	1	headquartered	
2001	1	snuggled	
2002	1	rediscovered	
2003	1	evaded	
2004	1	caramel	
2005	1	cross	
2006	1	glitter	
2007	1	multifaceted	
2008	1	chilled	
2009	1	featherweight	
2010	1	bounced	
2011	1	contested	
2012	1	stimulated	
2013	1	yelled	
2014	1	fluted	
2015	1	downn	
2016	1	scoured	
2017	1	multilayered	
2018	1	stalked	
2019	1	sufficed	
2020	1	stirred	
2021	1	encumbered	
2022	1	apposed	
2023	1	botched	
2024	1	bended	
2025	1	--&gt	
2026	1	brassed	
2027	1	perfumed	
2028	1	cept	
2029	1	c+	
2030	1	clumped	
2031	1	reveresed	
2032	1	constrained	
2033	1	stashed	
2034	1	practised	
2035	1	trilled	
2036	1	denominated	
2037	1	defended	
2038	1	breached	
2039	1	thot	
2040	1	bombed	
2041	1	reassigned	
2042	1	piled	
2043	1	gazed	
2044	1	sunlight	
2045	1	homsechooled	
2046	1	induced	
2047	1	pens](https://mostwanted	
2048	1	ensued	
2049	1	went	
2050	1	displeased	
2051	1	untipped	
2052	1	grounded	
2053	1	remarked	
2054	1	ladened	
2055	1	grasped	
2056	1	morn	
2057	1	torqued	
2058	1	c’m	
2059	1	obligated	
2060	1	incentivized	
2061	1	darken	
2062	1	crazed	
2063	1	-manufactured	
2064	1	chizzled	
2065	1	beveled	
2066	1	alinged	
2067	1	liberated	
2068	1	pump	
2069	1	sonicated	
2070	1	shadowed	
2071	1	nettled	
2072	1	fated	
2073	1	peaked	
2074	1	interned	
2075	1	shrivelled	
2076	1	alligned	
2077	1	terribad	
2078	1	affixed	
2079	1	convoluted	
2080	1	scrubbed	
2081	1	enticed	
2082	1	liliput	
2083	1	inflicted	
2084	1	ensnared	
2085	1	sandwiched	
2086	1	appropriated	
2087	1	lefthanded	
2088	1	yielded	
2089	1	envied	
2090	1	facilitated	
2091	1	tortured	
2092	1	crowned	
2093	1	disinterested	
2094	1	butthurt	
2095	1	canaled	
2096	1	supplanted	
2097	1	misbehaved	
2098	1	emphasized	
2099	1	commended	
2100	1	weathered	
2101	1	smuggled	
2102	1	inundated	
2103	1	bjjx_pflguq/?taken	
2104	1	harebrained	
2105	1	conspired	
2106	1	fired	
2107	1	crested	
2108	1	desaturated	
2109	1	pinstriped	
2110	1	grided	
2111	1	\(gathered	
2112	1	gold\-coloured	
2113	1	kon\-peki	
2114	1	pixelated	
2115	1	cultivated	
2116	1	fossilized	
2117	1	procrastinated	
2118	1	infused	
2119	1	obliterated	
2120	1	ebonized	
2121	1	frankensteined	
2122	1	remanufactured	
2123	1	corresponded	
2124	1	transplanted	
2125	1	https://imgur.com/e3uf8v7	
2126	1	borne	
2127	1	rattled	
2128	1	juiced	
2129	1	dissapeared	
2130	1	-almost	
2131	1	mashed	
2132	1	divuded	
2133	1	fit	
2134	1	-priced	
2135	1	fucken	
2136	1	picutured	
2137	1	confounded	
2138	1	protip	
2139	1	indisposed	
2140	1	b	
2141	1	meh	
2142	1	spalted	
2143	1	reestablished	
2144	1	patched	
2145	1	dispointed	
2146	1	stuned	
2147	1	manhandled	
2148	1	manned	
2149	1	riled	
2150	1	bounded	
2151	1	overjoyed	
2152	1	stranded	
2153	1	hesitated	
2154	1	probaply	
2155	1	electroplated	
2156	1	longwinded	
2157	1	shaven	
2158	1	hid	
2159	1	penned	
2160	1	bimncsibbgl/?taken	
2161	1	adviced	
2162	1	muffled	
2163	1	decited	
2164	1	tattooed	
2165	1	tabled	
2166	1	t&amp;t	
2167	1	quarantined	
2168	1	spilt	
2169	1	reposted	
2170	1	tweeked	
2171	1	obfuscated	
2172	1	touchscreen	
2173	1	wooded	
2174	1	accentuated	
2175	1	hatched	
2176	1	proclaimed	
2177	1	retrofitted	
2178	1	brewed	
2179	1	hiccuped	
2180	1	stabilized	
2181	1	ridiculed	
2182	1	loss	
2183	1	serialized	
2184	1	indented	
2185	1	gushed	
2186	1	kwz	
2187	1	seen/	
2188	1	-twsbis	
2189	1	knew	
2190	1	shagged	
2191	1	meetup	
2192	1	resold	
2193	1	amended	
2194	1	rhodinated	
2195	1	*	
2196	1	lettered	
2197	1	greenhorn	
2198	1	strayed	
2199	1	foreshortened	
2200	1	repressed	
2201	1	unsmudged	
2202	1	dampened	
2203	1	drank	
2204	1	will	
2205	1	frankenbundled	
2206	1	bzmeozhhxqu/?taken	
2207	1	evened	
2208	1	savored	
2209	1	ranged	
2210	1	sagoförtäljerskan	
2211	1	drizzled	
2212	1	casted	
2213	1	prodded	
2214	1	perused	
2215	1	storied	
2216	1	shamed	
2217	1	confined	
2218	1	cammed	
2219	1	homogenized	
2220	1	anondized	
2221	1	freighted	
2222	1	daydreamed	
2223	1	culminated	
2224	1	pulverized	
2225	1	vakue	
2226	1	rereleased	
2227	1	spoilt	
2228	1	dabled	
2229	1	satiated	
2230	1	eyeballed	
2231	1	tampered	
2232	1	overhauled	
2233	1	glassy	
2234	1	binderized	
2235	1	jaded	
2236	1	coped	
2237	1	optioned	
2238	1	preadjusted	
2239	1	intoxicated	
2240	1	enthused	
2241	1	contented	
2242	1	powdered	
2243	1	retained	
2244	1	scrolled	
2245	1	personalised	
2246	1	baptized	
2247	1	beaded	
2248	1	flecked	
2249	1	refinished	
2250	1	hindered	
2251	1	fingered	
2252	1	aquired	
2253	1	disowned	
2254	1	resacked	
2255	1	pampered	
2256	1	gyved	
2257	1	reformulated	
2258	1	cottoned	
2259	1	eyedropper'd	
2260	1	bastardised	
2261	1	toothpicked	
2262	1	partnered	
2263	1	downsized	
2264	1	emerald	
2265	1	defaced	
2266	1	falcon(my	
2267	1	unaffiliated	
2268	1	laquered	
2269	1	minimized	
2270	1	💯	
2271	1	fried	
2272	1	shielded	
2273	1	kissed	
2274	1	shunned	
2275	1	ashamednotashamed	
2276	1	https://www.reddit.com/r/fountainpens/comments/96049n/im_mad_this_was_supposed_to_be_a_uef_nib_the_box/	
2277	1	resulted	
2278	1	skunked	
2279	1	booted	
2280	1	zoned	
2281	1	thumbed	
2282	1	pixellated	
2283	1	ignited	
2284	1	reenforced	
2285	1	~27	
2286	1	blunted	
2287	1	shrugged	
2288	1	fixated	
2289	1	reattached	
2290	1	dominated	
2291	1	cayenne	
2292	1	originated	
2293	1	parted	
2294	1	splayed	
2295	1	resized	
2296	1	strained	
2297	1	wavered	
2298	1	notarized	
2299	1	binned	
2300	1	comforted	
2301	1	reknown	
2302	1	sounded	
2303	1	draufpacken	
2304	1	believed	
2305	1	internalized	
2306	1	was	
2307	1	desensitized	
2308	1	streamed	
2309	1	chucked	
2310	1	structured	
2311	1	reckoned	
2312	1	bneulqafzz5/?taken	
2313	1	bm_b3vrfg4q/?taken	
2314	1	kimono	
2315	1	recaned	
2316	1	averaged	
2317	1	deduced	
2318	1	pressured	
2319	1	bleached	
2320	1	ghosted	
2321	1	fatigued	
2322	1	misled	
2323	1	pared	
2324	1	fudge	
2325	1	trailed	
2326	1	clocked	
2327	1	knit	
2328	1	ooooold	
2329	1	colorverse	
2330	1	domed	
2331	1	consisted	
2332	1	reinserted	
2333	1	complimented	
2334	1	progressed	
2335	1	levelled	
2336	1	segregated	
2337	1	incapsulated	
2338	1	overjoyed.xyz	
2339	1	timbered	
2340	1	peeeved	
2341	1	circulated	
2342	1	deepened	
2343	1	kitted	
2344	1	copyrighted	
2345	1	cerakoted	
2346	1	leaned	
2347	1	factored	
2348	1	ghad	
2349	1	💜	
2350	1	hopped	
2351	1	flawed	
2352	1	corked	
2353	1	historied	
2354	1	bashed	
2355	1	guided	
2356	1	nearsighted	
2357	1	venomized	
2358	1	mattered	
2359	1	distinguised	
2360	1	spun	
2361	1	misquoted	
2362	1	pledged	
2363	1	temped	
2364	1	watch	
2365	1	micromeshed	
2366	1	dysgraphia	
2367	1	sone	
2368	1	tailored	
2369	1	risked	
2370	1	oscified	
2371	1	characterized	
2372	1	emblazoned	
2373	1	roached	
2374	1	contradicted	
2375	1	\*added	
2376	1	intertested	
2377	1	sticked	
2378	1	accosted	
2379	1	became	
2380	1	mindset	
2381	1	mystified	
2382	1	triggered	
2383	1	unsupervised	
2384	1	eschewed	
2385	1	spiced	
2386	1	souped	
2387	1	cooped	
2388	1	damped	
2389	1	disapointed	
2390	1	supossed	
2391	1	monochrome	
2392	1	forged	
2393	1	dolcevita	
2394	1	shrouded	
2395	1	dabbed	
2396	1	waffled	
2397	1	catered	
2398	1	perpetrated	
2399	1	light	
2400	1	accommodated	
2401	1	stymied	
2402	1	bisected	
2403	1	pmd	
2404	1	waterlogged	
2405	1	etui	
2406	1	blanked	
2407	1	goldish-	
2408	1	sexy	
2409	1	banished	
2410	1	enameled	
2411	1	cemented	
2412	1	slapped	
2413	1	p/_hjqfvs2jf/?taken	
2414	1	p/_p6lavm2iy/?taken	
2415	1	varnished	
2416	1	reconditioned	
2417	1	amewsed	
2418	1	feeded	
2419	1	coax'd	
2420	1	mount	
2421	1	kar	
2422	1	veined	
2423	1	duped	
2424	1	manacled	
2425	1	friggin	
2426	1	whacked	
2427	1	oiled	
2428	1	fps	
2429	1	eluded	
2430	1	mated	
2431	1	glow	
2432	1	vomitted	
2433	1	hallmarked	
2434	1	nibed	
2435	1	forwarded	
2436	1	misidentified	
2437	1	bit	
