#Word types: 415
#Word tokens: 495
#Search results: 0
1	9	Weekly New User	
2	6	PhD	
3	5	Autumn Oak	
4	5	Esterbrook	
5	5	the Wing Sung	
6	4	Noodler	
7	4	the Wing Sung 698	
8	4	I Want In	
9	4	YouTube	
10	3	a Wing Sung	
11	3	Playboy	
12	3	Sheaffer Balance	
13	3	Fine	
14	3	Colorverse	
15	2	Pilot Vanishing Point	
16	2	EF	
17	2	fountainfeder.eu	
18	2	Hmm	
19	2	Diamine Midnight	
20	2	Diamine Sherwood Green	
21	2	Birmingham Fern Hollow Creek	
22	2	Diamine	
23	2	Anderson Pens Ink Comparison Tool](https://andersonpens.com	
24	2	a Parker Reflex	
25	2	a Mont Blanc 149	
26	2	Summer Storm	
27	2	the Platinum Preppy	
28	2	a Lamy EF	
29	2	a Faber Castell	
30	2	The Lamy 2K	
31	2	Lamy	
32	2	an Esterbrook SJ	
33	2	Pelikan M800	
34	2	Apache Sunset	
35	2	Loss	
36	2	DC	
37	2	Pilots	
38	2	The Mazdas of the Japanese	
39	2	~aerospace grade~	
40	2	War and Peace	
41	2	Sale This	
42	2	Brute Force Design	
43	2	The Writing Desk	
44	2	Australian Roses	
45	2	the Wing Sung 659	
46	2	Kaweco SKYLINE Sport	
47	2	Noodler's Black Swan	
48	1	Balance	
49	1	[Lamy Turquoise]], but I don't need it with any urgency and have no desire to pay for shipping.	
50	1	Conid Regular (Pelikan M800	
51	1	Gravity Test	
52	1	Schneider	
53	1	The Pilot M90	
54	1	Limited Edition	
55	1	Sailor Grenade	
56	1	Victo Wing Sung	
57	1	Papeblanks	
58	1	Embellished Manuscripts	
59	1	MOONMAN	
60	1	Person	
61	1	15 Euro	
62	1	Pelikan SouverÃ¤n M600	
63	1	Conklin Word Gauge	
64	1	Aurora Black	
65	1	The Brotherhood of Stripes	
66	1	Fine or Broad	
67	1	the Mont Blanc	
68	1	Wahl Eversharp Skyline	
69	1	Mont Blanc 149	
70	1	a Parker 51 Special with a	
71	1	Apica Notebooks](https://www.bureaudirect.co.uk/apica-cd-11-notebook	
72	1	Ten Apples Up On Top	
73	1	La Couronne du Comte	
74	1	a Lamy 2000	
75	1	Noodlerâs Polar Blue	
76	1	Diamine Oxblood	
77	1	Oooh	
78	1	the TWSBI Classic	
79	1	Twilight Vanishing Point	
80	1	Vacumatic	
81	1	ðð	
82	1	The Wing Sung 3008	
83	1	Waterman Serenity Blue	
84	1	Lamy Turquoise]] 

	
85	1	Robert Oster River of Fire]]

	
86	1	Robert Oster Blue Water Ice	
87	1	The Writing Desk, Pure Pens, Appelboom	
88	1	Remedial Economics	
89	1	a Wing Sing 698	
90	1	a Bride of Frankenpen	
91	1	the Hard Style Chinese Calligraphy	
92	1	Rapido-Eze	
93	1	WritingVoyage	
94	1	the Namison Ixion	
95	1	a Baron Fig	
96	1	London Fog	
97	1	Wahlnut	
98	1	The Cloud	
99	1	Zeller Writing Company	
100	1	Makrolon Mediums	
101	1	noodlerâs lexington gray	
102	1	Christoph	
103	1	The "Earth	
104	1	Platinum's Carbon Black	
105	1	Baystate Blue	
106	1	Diamine Ancient Copper	
107	1	Leuchtturm or a Stamford Notebook	
108	1	a Parker Classic	
109	1	Ready PlayerOne	
110	1	Pen Case	
111	1	Pelikan M100	
112	1	HP Premium laser 32lbs](https://www.amazon.com/	
113	1	Clairefontaine triomphe](https://www.gouletpens.com/clairefontaine-triomphe-a4-tablet	
114	1	a Parker 75	
115	1	Montegrappa	
116	1	Extra-Fine	
117	1	Midnight Black	
118	1	The Beginning	
119	1	The Good Old Days	
120	1	The Calm Before the Storm	
121	1	Atramentis	
122	1	Love	
123	1	Macho Man	
124	1	Savage	
125	1	Ooooooh	
126	1	a Fisher Space Pen	
127	1	Diamine Hope Pink	
128	1	Paperblanks	
129	1	the "Rolex"	
130	1	Iroshizuku Asa-Gao]]

	
131	1	The Pilot Capless Moonlight	
132	1	Limited Edition Charcoal Marble	
133	1	the Sailor KOP	
134	1	Lamy 2000s	
135	1	I Will	
136	1	Le Grand Solitaire	
137	1	Carbon Black	
138	1	Tomas	
139	1	Diamine Registrar's	
140	1	Magic	
141	1	the Pilot Knight	
142	1	a Pro Gear Classic	
143	1	The collection](http://i.imgur.com/ROybXMA.jpg	
144	1	Inks	
145	1	the Lamy Balloons	
146	1	Oster	
147	1	The Stock Room	
148	1	Wonder	
149	1	Noodler's Red Black	
150	1	Diamine Monaco Red	
151	1	Royal Tangerine 1911s	
152	1	Kaweco Sport	
153	1	The Platinum and Sailors	
154	1	Moonman M2	
155	1	Conid	
156	1	a Lamy Nexx	
157	1	Touchdown Filler](http://penhero.com/PenGallery/Sheaffer/SheafferTouchdownGuide.htm	
158	1	the Wing Sun	
159	1	Turquoise	
160	1	Twsbi 580AL	
161	1	Victo - Wing Sung	
162	1	quasi-Imperials	
163	1	Moonlight of Higashiyama"  
	
164	1	The Write Pen" - Danny Fudge	
165	1	Slack	
166	1	Noodlers Bad Belted Kingfisher	
167	1	Noodler's Bad Belted Kingfisher](https://dl.airtable.com	
168	1	The Taxtile Turn and the Ixion	
169	1	the Parker Sonnet SSCT	
170	1	a Parker 51	
171	1	The Lamy 2000	
172	1	Warranted	
173	1	Victor Hugo	
174	1	the Sheaffer Balance	
175	1	Diamine Apple Glory]]	
176	1	Waterman Green	
177	1	Monteverde Green	
178	1	Iroshizuku Momiji	
179	1	Jade Baron	
180	1	You Style in Rakuten	
181	1	Stempniak	
182	1	Diamine Syrah](https://dl.airtable.com/ERj6gFg5RDGYtyi82hXB_Diamine%20Syrah.jpg	
183	1	Chesterfield	
184	1	Monteverde	
185	1	a Parker 51 or Lamy 2000	
186	1	u/	
187	1	Diamine Golden Oasis](https://www.amazon.co.uk/gp/product/B01MDODWRJ/	
188	1	Remove / Entfernen	
189	1	de  Atrementis Document Red]]	
190	1	the Pledge of Allegiance	
191	1	Harry Potter	
192	1	Vanishing	
193	1	Sale This Week](https://farm2.staticflickr.com/1757/28868905968_90732335ac_c.jpg	
194	1	Nature	
195	1	The Wing Sung 698	
196	1	Millennial	
197	1	The Tsubame Fool	
198	1	Iroshizuku Tsukushi](https://dl.airtable.com	
199	1	a Mont Blanc Boheme	
200	1	Iroshizuku Tsukushi	
201	1	YouTube "Disassembly Line Parker Sonnet	
202	1	The Paperboys	
203	1	War And Peace	
204	1	WAR AND PEACE	
205	1	the Platinum Pink	
206	1	a Pro Gear	
207	1	Platinum and Sailor	
208	1	Shungyo SF	
209	1	Dollar General	
210	1	Pen Most Apt to Roll Off Your Desk	
211	1	Brexit	
212	1	Kakuno in F	
213	1	Baystate	
214	1	Cape Cod Cranberry]]	
215	1	House by the Railroad	
216	1	a Faber Castell Loom, Medium	
217	1	A Master of Art	
218	1	The Lamy 2K EF	
219	1	Aurora Not Quite Black	
220	1	âA	
221	1	Calligraphy Passion	
222	1	LEAVE PACKAGE ON PORCH	
223	1	"- Hold my sake	
224	1	the Document Ink	
225	1	Archive Black	
226	1	Postcode	
227	1	*We* are plain quiet folk	
228	1	L2K	
229	1	Front Porch	
230	1	Stationery Shop Scotland](https://www.ebay.ca/usr/stationeryshop-scotland	
231	1	Marumanâs âSpiral	
232	1	^(Ignore Sub)](https://np.reddit.com	
233	1	EF Preppy	
234	1	Pelikan SouverÃ¤n	
235	1	Old English	
236	1	I.T.	
237	1	New Old Stock" Pilots like the 78G	
238	1	Higgins Fountain Pen India Ink	
239	1	A Conid For Everyone*	
240	1	Wexford	
241	1	ð±ï¸ig nið	
242	1	M805	
243	1	Golden Brown	
244	1	Public Ensigns*	
245	1	Vaness, Indy-Pen Dance	
246	1	Anywho	
247	1	"I Want In"	
248	1	The Writing Desk for GBP 142.	
249	1	Lateinische Ausgangsschrift	
250	1	Palmer Method	
251	1	Noodler Ahab	
252	1	Forever in Time	
253	1	Monteverde Brown Sugar	
254	1	Waterman Graduate Allure	
255	1	Noolers Polar	
256	1	DANGER OF SUFFOCATION DANGEROUS	
257	1	Clickspring	
258	1	Vintage Esterbrook SJ	
259	1	Fountain Pen 101	
260	1	The Ebonite Wancai	
261	1	Reform	
262	1	Platinum > Sailor > Pilot	
263	1	a Lamy Aion	
264	1	Fountain Pens Oceania server](https://discord.gg/	
265	1	H2O2	
266	1	P Carbon Ink	
267	1	Fountain Pen Nibs	
268	1	The Parker 21 is notorious	
269	1	Pelican Souveran M1000	
270	1	Astralite	
271	1	OH ITS PART OF WORK	
272	1	a Wing Sung 618	
273	1	FP101	
274	1	Aerometric in XF	
275	1	a Parker 21 that	
276	1	Friendship"

	
277	1	Cunt	
278	1	Mate	
279	1	The Wing Sung 618	
280	1	the Wing Sung 6359	
281	1	Safari they had at the store was a medium	
282	1	Diamine Asa Blue	
283	1	Luecturrm	
284	1	Raleigh \-	
285	1	Nanami Writer or Standard	
286	1	Fine or Finer	
287	1	Noodler's Fox Red]]	
288	1	Noodler's Baystate Cranberry]].	
289	1	the Baystate Cranberry	
290	1	Noodler's Baystate Grape	
291	1	580AL Turquoise	
292	1	The Nib and Section	
293	1	Brown	
294	1	Royal Tangerine Sailor	
295	1	The Mothman Prophecies](https://www.imdb.com/title/tt0265349/?ref_=nv_sr_1	
296	1	Bulletjournal	
297	1	M"-Nib and Faber-Castell Black	
298	1	Tagalog Baybayin	
299	1	the Dorsal Fin and Decapod	
300	1	Fat Boy	
301	1	Fifty Shades of Ink'	
302	1	The Claw	
303	1	the Wing Sung 601	
304	1	Skripdriver	
305	1	Far Top	
306	1	Waterman Serenity Blue]]	
307	1	Diamine Autumn Oak	
308	1	Diamine Imperial Purple	
309	1	Monteverde California Teal]]

	
310	1	Sailor Jentle Grenade	
311	1	Robert Oster Blue Water Ice]]

	
312	1	Robert Oster River of Fire	
313	1	Traveler's Notebook	
314	1	a GvFC Intuition Platino	
315	1	Centenial Duofold	
316	1	Archival	
317	1	Wet Noodle	
318	1	de Atrementis Document Red]]

	
319	1	de Atramentis Document Red]]	
320	1	True Writer	
321	1	Esterbrook Model J	
322	1	Schmidt PRS	
323	1	a Dr's	
324	1	KWZ IG Mandarin	
325	1	Pelikan Edelstein Smokey Quartz	
326	1	the Lamy Blue-Black	
327	1	EoC	
328	1	the Platinum Carbon	
329	1	Platinum Carbon Black	
330	1	Hobbit	
331	1	A Man Called Ove!	
332	1	a Faber-Castell Medium	
333	1	Fountain Pen Desk Pen	
334	1	Monteverde Giant Sequoia	
335	1	The Ahab's nib	
336	1	a Faber Castell Loom	
337	1	The Nib Smith](https://nibsmith.com/product/platinum-3776-century-kumpoo-limited-edition-fountain/	
338	1	Lost Pen	
339	1	Haaahahaha	
340	1	Possiere de Lune	
341	1	a Master of the Art	
342	1	The Declaration of Biology	
343	1	Pelikan Stola II	
344	1	Sweet Maroon	
345	1	Ancient Copper	
346	1	November Rain	
347	1	the Platinum Pro Use II	
348	1	Too Dry or Too	
349	1	Dieyen DualPen	
350	1	Nemosine Solar Storm	
351	1	Faber Castel	
352	1	Dragons Napalm	
353	1	Epson	
354	1	22 Euro	
355	1	the "Souveran	
356	1	a Wing Sung 601	
357	1	Sheaffer OS Balance	
358	1	Lexington Gray	
359	1	Goulet	
360	1	the Faber Castell Loom and the TWSBI Eco	
361	1	"Platinum Feedback"	
362	1	the Flame and Griso	
363	1	Goulet Pens	
364	1	Physics II	
365	1	Singularities	
366	1	Slip-and-Seal	
367	1	Lamy, Faber-Castell	
368	1	the Triangle Pen Show	
369	1	Conklin Duragraph	
370	1	The Wing Sung	
371	1	The Writing Deskâs	
372	1	Baystate Cape Cod Cranberry]]	
373	1	Sale This Week](https://farm2.staticflickr.com/1754/28535812028_0ced52f602_c.jpg	
374	1	The Master's Brush Cleaner & Preserver	
375	1	[Edelstein Onyx]]	
376	1	Edelstein Smoky Quartz	
377	1	Pelikan 4001 Black	
378	1	Lamy Black	
379	1	Pelikan Edelstein Onyx](https://dl.airtable.com	
380	1	Bible	
381	1	Bay	
382	1	Back Bay	
383	1	the Wing Sung 698.

	
384	1	a Platinum Preppy so I can	
385	1	BROWN	
386	1	Pay-It-Forward Table	
387	1	J. Herbin Rouge Caroubier	
388	1	the Lamy Dialog 3	
389	1	Vaness	
390	1	the Lamy Safari/Al Star	
391	1	Fountainbel	
392	1	boycott	
393	1	Scannable	
394	1	Brent	
395	1	the Wing Sung Pilot	
396	1	the Lamy EF	
397	1	Gatekeeping	
398	1	Maniflex	
399	1	Specials	
400	1	Pelikan M605	
401	1	The Sailor Pen Co Ltd.â	
402	1	Nobel	
403	1	Twilight Blue	
404	1	Bubbles" Blue	
405	1	Foamy" Fire & Ice	
406	1	Wide, Wider, Widest	
407	1	a Wing Sung 3003 and 3008	
408	1	Momiji	
409	1	Spirit of Life	
410	1	Dip Sign Style	
411	1	Nova	
412	1	Birmingham Pop Art Purple	
413	1	the Ultrs Classic	
414	1	the WingSung EF	
415	1	Lilac Wind	
