#Word types: 2140
#Word tokens: 9500
#Search results: 0
1	526	US	
2	504	Japan	
3	279	UK	
4	234	China	
5	203	SF	
6	178	Germany	
7	167	Canada	
8	144	India	
9	141	Montblanc	
10	131	Tokyo	
11	109	FC	
12	97	Australia	
13	87	USA	
14	86	Kaweco	
15	81	Birmingham	
16	78	Rhodia	
17	75	Pelikan	
18	74	France	
19	72	LE	
20	70	☺	
21	64	Massachusetts	
22	61	Taiwan	
23	57	Medium	
24	57	Jinhao	
25	56	Chicago	
26	52	Dallas	
27	52	Texas	
28	50	nib	
29	48	Karas	
30	47	Italy	
31	47	Decimo	
32	44	Masuyama	
33	42	Edison	
34	42	F	
35	42	Singapore	
36	41	Kaweco Sport	
37	38	Toronto	
38	36	Korea	
39	35	ammonia	
40	34	California	
41	34	LA	
42	33	Bock	
43	33	London	
44	32	Netherlands	
45	32	Philippines	
46	32	Hong Kong	
47	32	Sweden	
48	32	pen_swap	
49	30	Boston	
50	30	Sepia	
51	29	DC	
52	29	Paris	
53	28	U.S.	
54	28	Jinhaos	
55	27	Whoops	
56	27	Vietnam	
57	26	Spain	
58	25	Malaysia	
59	25	Brazil	
60	25	Hobonichi	
61	25	EF	
62	24	England	
63	24	japan	
64	23	New York	
65	23	Diamine	
66	23	Osaka	
67	23	china	
68	22	States	
69	22	Seattle	
70	22	Ohio	
71	22	San Francisco	
72	21	Kyoto	
73	21	TR	
74	21	America	
75	21	Metropolitan	
76	21	Targa	
77	20	Fountain	
78	19	Israel	
79	19	Carene	
80	19	germany	
81	19	Montblancs	
82	19	Taobao	
83	18	Houston	
84	18	Florida	
85	18	Rome	
86	18	Snorkel	
87	17	Black	
88	17	Hisoku	
89	16	Denmark	
90	16	Goulet	
91	16	New Zealand	
92	16	Antietam	
93	16	Santa	
94	15	F nibs	
95	15	P.S.	
96	15	Matador	
97	15	Switzerland	
98	15	Poland	
99	15	Delrin	
100	14	Clairefontaine	
101	14	india	
102	14	Michigan	
103	14	Turquoise	
104	14	Taipei	
105	14	Navajo	
106	14	sepia	
107	13	Lexington	
108	13	the Kaweco Sport	
109	13	Oooh	
110	13	Baltimore	
111	13	Instagram	
112	13	Belgium	
113	13	Austria	
114	12	Petrol	
115	12	Kobe	
116	12	Portland	
117	12	VPD	
118	12	Kickstarter	
119	12	Sydney	
120	12	a Kaweco Sport	
121	12	Triumph	
122	12	Tomoe	
123	12	Tilburg	
124	12	The Hague	
125	12	Franklin	
126	12	Nurebairo	
127	11	Fine	
128	11	Berlin	
129	11	Atlanta	
130	11	CA	
131	11	Ireland	
132	11	Egypt	
133	11	Shanghai	
134	11	Liberty	
135	11	Holland	
136	10	C74	
137	10	Jinhao nibs	
138	10	Florence	
139	10	Maryland	
140	10	Vancouver	
141	10	uk	
142	10	Pittsburgh	
143	10	Kinokuniya	
144	10	U.K.	
145	10	New Orleans	
146	10	South Korea	
147	9	M	
148	9	Lamy	
149	9	Jowo	
150	9	Miami	
151	9	Vienna	
152	9	springy	
153	9	Jentle	
154	9	Greece	
155	9	Melbourne	
156	9	Hawaii	
157	9	Hiroshima	
158	9	Toledo	
159	9	Perth	
160	9	Penbbs	
161	9	Rouille	
162	9	Lecoule	
163	8	Nagasawa	
164	8	Discord	
165	8	Washington	
166	8	Venice	
167	8	Safari	
168	8	Iowa	
169	8	Jonathon	
170	8	Cincinnati	
171	8	/r	
172	8	South Africa	
173	8	Amethyst	
174	8	Mexico	
175	8	Nibsmith	
176	8	Portugal	
177	8	Bordeaux	
178	8	Belmont	
179	8	Tinta	
180	7	Kaküno	
181	7	vac700	
182	7	the United States	
183	7	Bock nibs	
184	7	Blue	
185	7	Brass	
186	7	Seoul	
187	7	Russia	
188	7	Beijing	
189	7	Charleston	
190	7	San Diego	
191	7	Nepal	
192	7	Arkansas	
193	7	Pelikan M1000	
194	7	Ottawa	
195	7	Regalia	
196	6	Stockholm	
197	6	Kanji	
198	6	Pelikan nibs	
199	6	PO	
200	6	Sterling Silver	
201	6	Pakistan	
202	6	Carbonesque	
203	6	Wisconsin	
204	6	Heidelberg	
205	6	Amsterdam	
206	6	Appleton	
207	6	Hamburg	
208	6	Herbin	
209	6	Cross	
210	6	Mont	
211	6	Brussels	
212	6	Woodstown	
213	6	Manhattan	
214	6	Asheville	
215	6	Pelikan M400	
216	6	Little Rock	
217	6	Pelikan 4001	
218	6	Manila	
219	6	Damascus	
220	6	Warsaw	
221	6	Loreili	
222	6	Spencerian	
223	6	Phileas	
224	6	Broad	
225	6	Usagiya	
226	5	Nightshade	
227	5	france	
228	5	Phoenix	
229	5	Montreal	
230	5	West Germany	
231	5	Maroon	
232	5	Washington DC	
233	5	voila	
234	5	Vert Empire	
235	5	The Netherlands	
236	5	Calgary	
237	5	karas	
238	5	F, M	
239	5	bordeaux	
240	5	Madrid	
241	5	australia	
242	5	canada	
243	5	Ontario	
244	5	Lamys	
245	5	Mylar	
246	5	Philly	
247	5	Petit1	
248	5	Arlington	
249	5	spain	
250	5	Edison nibs	
251	5	Red Dragon	
252	5	Pikachu	
253	5	Nice	
254	5	Cognac	
255	5	Columbus	
256	5	Detroit	
257	5	Yozakura	
258	5	Monza	
259	5	Nanami	
260	5	Seiko	
261	5	JAPAN	
262	5	Baldwin	
263	5	Carmine	
264	5	Virginia	
265	5	Jonas	
266	5	us	
267	5	Teflon	
268	4	D.C.	
269	4	Pelikan 400	
270	4	jinhao	
271	4	JP	
272	4	U.S.A.	
273	4	Denver	
274	4	Ku-Jaku	
275	4	Wonderpens	
276	4	Richmond	
277	4	Alberta	
278	4	Pennsylvania	
279	4	Aston	
280	4	FC nibs	
281	4	XD	
282	4	Midori MD	
283	4	Sekaido	
284	4	maroon	
285	4	Noooooo	
286	4	NC	
287	4	Carrollton	
288	4	Chennai	
289	4	Cocoon	
290	4	Wingsung	
291	4	Hilroy	
292	4	Monaco	
293	4	Wuhan	
294	4	Havana	
295	4	Nathan	
296	4	Momiji	
297	4	tokyo	
298	4	Newton	
299	4	Nashville	
300	4	Knox nibs	
301	4	Ivory	
302	4	VAC700	
303	4	Decimos	
304	4	Mnemosyne	
305	4	metro	
306	4	Lavande	
307	4	Norway	
308	4	Red	
309	4	Alpha	
310	4	Eco	
311	4	Dryden	
312	4	Lanbitou	
313	4	Voila	
314	4	Souveran	
315	4	Peyton	
316	4	Glasgow	
317	4	Jinhao x750	
318	4	Cambridge	
319	4	Kakuno	
320	4	Calais	
321	4	Leviathan	
322	4	Wancai	
323	4	Sorta	
324	4	Pelikan M600	
325	4	Colorado	
326	4	DE	
327	4	Okayama	
328	4	dallas	
329	4	Cocobolo	
330	3	Munich	
331	3	Z28	
332	3	toronto	
333	3	CAD	
334	3	Illinois	
335	3	Kaweco AL Sport	
336	3	New York City	
337	3	Kawecos	
338	3	Prague	
339	3	Santa Cruz	
340	3	Lifetime	
341	3	MF	
342	3	Oregon	
343	3	NY	
344	3	Tyson	
345	3	Buffalo	
346	3	Tennessee	
347	3	M1000	
348	3	Waterford	
349	3	Georgia	
350	3	United States	
351	3	Cafe	
352	3	the Franklin Christoph	
353	3	Targaryen	
354	3	Pour	
355	3	Preppys	
356	3	F.C.	
357	3	Dublin	
358	3	Chiku	
359	3	Graphilo	
360	3	Christine	
361	3	merci	
362	3	Thornton	
363	3	Touchdown	
364	3	Neutrino	
365	3	Pelikan M800	
366	3	ROC	
367	3	New Moon	
368	3	Shinsaibashi	
369	3	San Jose	
370	3	A+	
371	3	TX	
372	3	QA	
373	3	Scrikss	
374	3	Minnesota	
375	3	Finland	
376	3	Ziploc	
377	3	Walden	
378	3	Stilograph Corsani	
379	3	Czechoslovakia	
380	3	Matsu	
381	3	Newcastle	
382	3	Brasstown	
383	3	HK	
384	3	jinhao 599a	
385	3	Clairfontaine	
386	3	Pelikan M200	
387	3	Naka	
388	3	Alaska	
389	3	Dromgoole	
390	3	Le	
391	3	Louisiana	
392	3	Heros	
393	3	Anyways	
394	3	OP	
395	3	Fabriano	
396	3	Argentina	
397	3	Fremantle	
398	3	Scotland	
399	3	Lisbon	
400	3	Hirakata	
401	3	El Salvador	
402	3	Purepens	
403	3	Bexley	
404	3	Rockville	
405	3	WS	
406	3	Yamabudo	
407	3	Pelikan M805	
408	3	Orlando	
409	3	|Piston 		
410	3	Plano	
411	3	Barcarolle	
412	3	Pluminix	
413	3	Juma	
414	3	Pelikan m600	
415	3	Yugoslavia	
416	3	Penn State	
417	3	Guayaquil	
418	3	mexico	
419	3	Cinnamaroon	
420	3	Bangkok	
421	3	B.B.	
422	3	Leuchtturm A5	
423	3	Nagoya	
424	3	Black Hole	
425	3	CI	
426	3	Aus	
427	3	AU	
428	3	Hague	
429	3	Milwaukee	
430	3	New Jersey	
431	3	Brisbane	
432	3	Jeremy	
433	3	SU	
434	3	Cerisiersjaponais	
435	3	Turkey	
436	3	Takayama	
437	3	Kuretake	
438	3	Monrovia	
439	3	jinhao nibs	
440	3	Maido	
441	3	Standard	
442	3	Fuchsia	
443	3	vegas	
444	2	/u/89314	
445	2	england	
446	2	BA	
447	2	Pura	
448	2	NZ	
449	2	brass	
450	2	Empire	
451	2	Firenze	
452	2	Mexico City	
453	2	Field Notes	
454	2	Masuyama nibs	
455	2	Silver	
456	2	Sento	
457	2	Palo Alto	
458	2	Aurora	
459	2	Winchester	
460	2	Asa-gao	
461	2	PenSwap	
462	2	Bourgogne	
463	2	Alexandria	
464	2	F-M	
465	2	Kaweko	
466	2	Pelikan Aquamarine	
467	2	Dunhill	
468	2	Aiko	
469	2	pre-’97	
470	2	Kahakai	
471	2	Stephen	
472	2	FRANCE	
473	2	Eclat	
474	2	Budapest	
475	2	Nuremberg	
476	2	Montblanc 146	
477	2	handmade&amp;ie	
478	2	Traverse City	
479	2	Varsity	
480	2	Kenro	
481	2	Britain	
482	2	Shinobi	
483	2	Leuchtturm1917 A5	
484	2	Shungyo	
485	2	Ft	
486	2	Jinhao 159	
487	2	Twsbi	
488	2	Momji	
489	2	Platinum	
490	2	Brexit	
491	2	QC	
492	2	Maine	
493	2	Naka-Ai	
494	2	Neostandard, Piccolo	
495	2	Mibrae	
496	2	CS	
497	2	WS698	
498	2	Penlux	
499	2	VA	
500	2	McLean	
501	2	Rotary	
502	2	Lotsa	
503	2	Pen	
504	2	Word	
505	2	Milan	
506	2	Lamy Germany	
507	2	Metro	
508	2	Pelikan 100N	
509	2	Raleigh	
510	2	Krakow	
511	2	Omotesando	
512	2	Rodia	
513	2	Akkerman	
514	2	Croatia	
515	2	Great Britain	
516	2	XF	
517	2	Namiki	
518	2	Kingsize	
519	2	Mikado	
520	2	Colorado Springs	
521	2	Zirconia	
522	2	Rhodias	
523	2	Redditor	
524	2	Pelikan m800	
525	2	New Delhi	
526	2	Michaels	
527	2	Hindi	
528	2	St. Louis	
529	2	Romania	
530	2	Iceland	
531	2	Understand	
532	2	BP	
533	2	Wales	
534	2	The Kaweco Sport	
535	2	Nippon	
536	2	Delike	
537	2	Ninja	
538	2	Lucina	
539	2	Arizona	
540	2	Dubai	
541	2	PayPal	
542	2	Hiratsuka	
543	2	Orange	
544	2	Florentine Hills	
545	2	Mine	
546	2	Mini	
547	2	Décimo	
548	2	Nebraska	
549	2	Viscontis	
550	2	Nauka	
551	2	Spear	
552	2	Amazon Germany	
553	2	jinhao x750	
554	2	F.	
555	2	korea	
556	2	Naukas	
557	2	Cape Cod	
558	2	EN	
559	2	Techo	
560	2	Moscow	
561	2	Kensington	
562	2	Blue		
563	2	Oklahoma City	
564	2	EUR	
565	2	Azula	
566	2	Texas, USA	
567	2	Gunmetal	
568	2	Benu	
569	2	Thailand	
570	2	Aluminium	
571	2	Kaweco AL-Sport	
572	2	Farneys	
573	2	CONUS	
574	2	Frankfurt	
575	2	Purple	
576	2	Leuchturrm	
577	2	Ecuador	
578	2	P.D.	
579	2	Swan	
580	2	Wonderland	
581	2	Janesville	
582	2	Sunset	
583	2	SM	
584	2	Anderson	
585	2	Nitinol	
586	2	Kikyo	
587	2	Wellington	
588	2	Attila	
589	2	SI	
590	2	Konrad	
591	2	Thysanostoma	
592	2	Kansas City	
593	2	Delhi	
594	2	Metropolitain	
595	2	Rexall	
596	2	Central	
597	2	S.O.	
598	2	Smurf	
599	2	the Hague	
600	2	Quito	
601	2	Duraflex	
602	2	Pelikan Violet	
603	2	Ranga	
604	2	Truk Lagoon	
605	2	KL	
606	2	Nihombashi	
607	2	Ave	
608	2	Montmarte	
609	2	Lake Washington	
610	2	Kenya	
611	2	Pelikan m1000	
612	2	Christoph	
613	2	Idaho	
614	2	Redshift	
615	2	Visconti	
616	2	Fort Worth	
617	2	Bochum	
618	2	Vac700R.	
619	2	Herbin Bleu Ocean	
620	2	Job	
621	2	Beaufort	
622	2	Touché	
623	2	Salzburg	
624	2	Brooklyn	
625	2	Marunouchi	
626	2	Ueno	
627	2	SEM	
628	2	Pelikan M205	
629	2	Liliput	
630	2	Mumbai	
631	2	Minneapolis	
632	2	Fountain K	
633	2	Walmart	
634	2	Pacific Grove	
635	2	Monterey	
636	2	Nishishinjuku	
637	2	PENBBS	
638	2	Penang	
639	2	Zenmarket	
640	2	Kaco Sky's	
641	2	Kanilea Kahakai	
642	2	Degussa	
643	2	Side	
644	2	Fuyuginga	
645	2	Q.C.	
646	2	TY	
647	2	Yamaguri	
648	2	M600	
649	2	YP	
650	2	Baton Rouge	
651	2	North Carolina	
652	2	Fairyland	
653	2	Daredevil	
654	2	Kanazawa	
655	2	\-	
656	2	Antwerp	
657	2	Cairo	
658	2	MercariJP	
659	2	Fauxblanc	
660	2	Jemar	
661	2	Oz	
662	2	Baoer	
663	2	spencerian	
664	2	a F nib	
665	2	Indonesia	
666	2	Philadelphia	
667	2	Daiso	
668	2	Barcelona	
669	2	Athens	
670	2	Beini	
671	2	Tasmania	
672	2	Green	
673	2	Burma	
674	2	Hungary	
675	2	Indiana	
676	2	Kaiping	
677	2	FI	
678	2	Kentucky	
679	2	Realo	
680	2	Officeworks	
681	2	Primus	
682	2	my AL Sport	
683	2	america	
684	2	Bradenton	
685	2	Leipzig	
686	2	hibonichi	
687	2	Poppy Red	
688	2	Syrah	
689	2	Jinao	
690	2	Oklahoma	
691	2	Stabilo	
692	2	AL Sport	
693	2	philippines	
694	2	San Antonio	
695	2	Button	
696	2	W Germany	
697	2	Muji A5	
698	2	Namboku	
699	2	Inkstand	
700	2	PenBbs	
701	2	Teutonia	
702	1	Vecchio	
703	1	TWSBI	
704	1	Piston	
705	1	a Kaweco AL Sport	
706	1	Winter Grove	
707	1	Ukraine	
708	1	watercolours	
709	1	Ku-jaku	
710	1	Baystates.	
711	1	Maldonado	
712	1	Bloomington	
713	1	Berchtesgaden	
714	1	Schreiber	
715	1	ProGear	
716	1	Hypercake	
717	1	Tim's	
718	1	Bilbao	
719	1	Wahl no.2	
720	1	T.S.	
721	1	Webnotebooks	
722	1	Halva	
723	1	Franklin Christoph	
724	1	Shosaikan	
725	1	Katsukura	
726	1	Lundington	
727	1	City	
728	1	Hop Cheong	
729	1	AZ	
730	1	Rapasol	
731	1	Graph von F-C	
732	1	https://www.instagram.com/p/BWgpA63FHkx/	
733	1	Penn	
734	1	Midoris	
735	1	Eire	
736	1	Medusa	
737	1	Turin	
738	1	Dromgooles	
739	1	un commento qui	
740	1	candeggina	
741	1	New Taiwanese Dollar	
742	1	Sherwood	
743	1	Evergeeen	
744	1	qakz9irgu29z.jpg	
745	1	Ammonia+metropolitan	
746	1	Tel Aviv	
747	1	Broward	
748	1	Boca	
749	1	Jacksonville	
750	1	NextPen	
751	1	Dakota	
752	1	Piccadilly	
753	1	kawaco	
754	1	Ivory Darkness	
755	1	Florence Italy	
756	1	Romet	
757	1	Profit Standard	
758	1	Rockingham County	
759	1	NEW YORK	
760	1	Montana	
761	1	life/	
762	1	Leuchtturm notebook	
763	1	idea](https://edjelley.com/2014/03/29	
764	1	a__clown	
765	1	Kryptic	
766	1	Orville	
767	1	Fairfax	
768	1	Gainesville	
769	1	Vac-700	
770	1	california	
771	1	AI	
772	1	Razer	
773	1	kyoto	
774	1	Merlot	
775	1	Golem	
776	1	R.M.	
777	1	Royal	
778	1	Washable	
779	1	Minigraph	
780	1	weibo	
781	1	Nick	
782	1	Steveston	
783	1	BC	
784	1	Smoke	
785	1	the Sterling Silver	
786	1	Beijin	
787	1	Niceee	
788	1	https://imgur.com/Y8zuV8B	
789	1	Capping	
790	1	yaay	
791	1	Richardson	
792	1	DotA	
793	1	Night Sky	
794	1	R&amp;K-Körigoblau	
795	1	Pelikan Germany	
796	1	Butler	
797	1	Shadyside	
798	1	Lindauer	
799	1	Tortoise	
800	1	Perch	
801	1	alstar	
802	1	Chesterfield	
803	1	Copybooks	
804	1	one!](https://www.gouletpens.com	
805	1	Lancaster	
806	1	Kanwrite	
807	1	Pfaffenhofen	
808	1	piston filler	
809	1	Sonnets	
810	1	Juli	
811	1	Seville	
812	1	Midnight Blue w/ F nib	
813	1	Stark	
814	1	Jinahao	
815	1	predominatley	
816	1	Glenmont	
817	1	Duofold	
818	1	Nana	
819	1	franklin-Christoph	
820	1	p40	
821	1	Mississippi	
822	1	Vanishing	
823	1	Sapporos	
824	1	New Kanilea	
825	1	New/Old	
826	1	frankfurt	
827	1	JHerbin	
828	1	Aramaic	
829	1	Keepcoding	
830	1	Fountain Pens	
831	1	San José	
832	1	ohio	
833	1	B.A.	
834	1	Guinea	
835	1	Kom-peki	
836	1	Platinums	
837	1	Cross Solo	
838	1	Fiesta	
839	1	68gsm A4	
840	1	undergrad	
841	1	kiddo	
842	1	Lettermo	
843	1	Prera	
844	1	Queensly	
845	1	Queensland	
846	1	Hero-50-cloisonne-Fountain	
847	1	I.G.	
848	1	OS	
849	1	D.H.	
850	1	Trenton	
851	1	Pelikan M300	
852	1	Springy	
853	1	Armenia	
854	1	Junkomania	
855	1	GORGEOUSSSS	
856	1	Jinhao 992	
857	1	Carta	
858	1	ON	
859	1	Vaughn	
860	1	Markham	
861	1	Richmond Hill	
862	1	Antique	
863	1	Kinda	
864	1	New M nib	
865	1	Humankind	
866	1	whoops	
867	1	Pallex	
868	1	Cultpens	
869	1	Yahoo Auction	
870	1	fibromyalgia	
871	1	the Kaweco Al-Sport	
872	1	Tiananmen	
873	1	Belinda	
874	1	Chrisrap52	
875	1	asa-gao	
876	1	Vega	
877	1	orang	
878	1	Oak Island	
879	1	Texas Bluebonnet	
880	1	Heidelburg	
881	1	Victoria	
882	1	Esprit	
883	1	Ukrainian	
884	1	Triomphe	
885	1	Hellsing	
886	1	Rapido-eze	
887	1	Orange County	
888	1	Boheme	
889	1	J.B	
890	1	Nam	
891	1	FC A5	
892	1	Pocket 66	
893	1	mitochondria	
894	1	Manufacturer	
895	1	Kingwood	
896	1	Honey	
897	1	egypt	
898	1	Arco Bronze	
899	1	Caroube	
900	1	Venusaur	
901	1	Decoband	
902	1	Mozambique	
903	1	DM320	
904	1	Katinkas	
905	1	IMHO	
906	1	Hypothosis	
907	1	Basel	
908	1	Remington	
909	1	fVWadF9.jpg	
910	1	non-Rhodia	
911	1	Rhodiarma	
912	1	micro mesh	
913	1	Pro Forma	
914	1	Bot/'pedia	
915	1	Cassis	
916	1	Curitiba	
917	1	Pelikan M400/800	
918	1	Blick	
919	1	Jerusalem	
920	1	number:332385923707	
921	1	Fountain Pen Republic	
922	1	Wanna	
923	1	Patagonia	
924	1	Platinum PTL-5000A	
925	1	Vac700	
926	1	Fountain Pens Oceania	
927	1	Bosnia and Herzegovina	
928	1	Salt Lake	
929	1	Havanna	
930	1	Slovakia	
931	1	the Czech Republic	
932	1	Photoshop	
933	1	Northampton	
934	1	https://i.imgur.com/F89Gc5y.jpg	
935	1	Diana	
936	1	maryland	
937	1	Silver-Colorado	
938	1	Loud	
939	1	rome	
940	1	Nanohana	
941	1	netherlands	
942	1	jinhao 992	
943	1	Spiral	
944	1	wavy	
945	1	Jinhao-Fountain-Diversity-Transparent-Unique	
946	1	North Jersey	
947	1	Presa	
948	1	the HP Laserjet	
949	1	Fuliwan	
950	1	Canon	
951	1	f/2.8L Macro	
952	1	autogeek.com	
953	1	Graphic	
954	1	Vacs	
955	1	Sudoku	
956	1	CP1s	
957	1	ALO	
958	1	Concord	
959	1	Anderson Pens	
960	1	700R	
961	1	E)F nibs	
962	1	Cyprus	
963	1	Kaweko Sport	
964	1	Teodora	
965	1	Penfriends	
966	1	sf	
967	1	Pelikan m200	
968	1	Merit	
969	1	Aka-Tamenuri	
970	1	Yama-dori	
971	1	Poznan	
972	1	Whitehorse	
973	1	Kaweco Al-Sport	
974	1	Venizia	
975	1	Italia	
976	1	the French Republic	
977	1	Vaness	
978	1	Online Germany	
979	1	coton	
980	1	Berkeley	
981	1	Shirokiya	
982	1	Chicagoland	
983	1	Hiramaki-E	
984	1	Pelikan EF	
985	1	Ehehehe	
986	1	kilonova	
987	1	The Empire	
988	1	White	
989	1	Cross Violet	
990	1	Trojan	
991	1	Rustico	
992	1	Rightyo	
993	1	Jinhao 950s	
994	1	attachments/346458917221433344/371562310168346628/20171022_014331.jpg	
995	1	DI	
996	1	Kayasths	
997	1	Plymouth	
998	1	messy nibs	
999	1	mithai	
1000	1	Kylie	
1001	1	Fountain Turquoise	
1002	1	gangsta	
1003	1	Izumo	
1004	1	~~people~~	
1005	1	Line	
1006	1	Harrods	
1007	1	http://imgur.com/a/g8P0	
1008	1	Benelux	
1009	1	Pelikan Fount India	
1010	1	Raffles	
1011	1	Alumilite	
1012	1	Fook	
1013	1	keccak	
1014	1	Fujiyama	
1015	1	Stratford	
1016	1	Neo Standard	
1017	1	Flamingo	
1018	1	Deen	
1019	1	Zurich	
1020	1	Fine nibs	
1021	1	turkey	
1022	1	Ashland	
1023	1	Tungsten	
1024	1	Morgan	
1025	1	RHR	
1026	1	Leuchtturm1917 Anniversary	
1027	1	Sarasota	
1028	1	Mottishaw'd	
1029	1	Rogrer	
1030	1	Klignor	
1031	1	wat ik heb	
1032	1	mech	
1033	1	H-M	
1034	1	Urgh	
1035	1	Chester	
1036	1	https://i.imgur.com/F48Pa7P.jpg	
1037	1	italy	
1038	1	RO	
1039	1	pelikan m200	
1040	1	Yotsu	
1041	1	Amaranth	
1042	1	Lamy, Kaweco	
1043	1	kamakura	
1044	1	ann city	
1045	1	mille	
1046	1	Herbin Violette	
1047	1	brass victorian	
1048	1	Bertram	
1049	1	Absinthe	
1050	1	Prodigal	
1051	1	Beverly Hills Center	
1052	1	Lester Sheeley	
1053	1	Shimura	
1054	1	springy nibs	
1055	1	nilly2323	
1056	1	the Pelikan M205 Aquamarine	
1057	1	p.o.	
1058	1	Libertas	
1059	1	C.I.	
1060	1	Kuwaco	
1061	1	Novelli	
1062	1	ty	
1063	1	UTF8&amp;qid=1510935279&amp;sr=1	
1064	1	Petro	
1065	1	YouTube	
1066	1	Marriott	
1067	1	Metroplitan	
1068	1	Captain Kirk's	
1069	1	Nakaya Raden	
1070	1	Shaeffer Cadet	
1071	1	a Brass Sport	
1072	1	Sport	
1073	1	brass kaweco	
1074	1	venice	
1075	1	venice city	
1076	1	venice beach	
1077	1	Black Pearwood	
1078	1	Syo-Ro	
1079	1	Metros	
1080	1	zebra nibs	
1081	1	Ruby	
1082	1	F/M	
1083	1	Clairefontaine A4	
1084	1	Fiorenza Luxuries	
1085	1	delle	
1086	1	Baikoucha	
1087	1	https://i.imgur.com/0E8rJsX.jpg	
1088	1	Oakland	
1089	1	Fulton	
1090	1	Filofax	
1091	1	Golden	
1092	1	Steinway	
1093	1	ECO	
1094	1	FP Nibs	
1095	1	lexington	
1096	1	Goulette	
1097	1	Utopian	
1098	1	Lil	
1099	1	I‘d	
1100	1	https://www.instagram.com/p/BbxkyPuDNWz/?taken-by=sandeeramartin)	
1101	1	Albeit	
1102	1	De Atramentis	
1103	1	Kalita	
1104	1	Moderns	
1105	1	inchiostro	
1106	1	Aquamarine 205	
1107	1	North Korea	
1108	1	homie	
1109	1	MC	
1110	1	Zarya	
1111	1	ages	
1112	1	bujos	
1113	1	Pffft	
1114	1	STERLING SILVER	
1115	1	Hibiscus	
1116	1	São Paulo	
1117	1	Bahia	
1118	1	ink_swap	
1119	1	Eslite	
1120	1	Fort	
1121	1	Quebec	
1122	1	Auckland	
1123	1	Blonc Sepia	
1124	1	https://i.imgur.com/WvFldyY.jpg	
1125	1	Cacao du Bresil	
1126	1	Holmdel	
1127	1	Jaipur	
1128	1	Rajasthan	
1129	1	LAMY germany	
1130	1	Raden	
1131	1	R.A.	
1132	1	Walden Pond	
1133	1	Stipula Sepia	
1134	1	Miguels	
1135	1	Mount Doom	
1136	1	North-East	
1137	1	rainy	
1138	1	R+K	
1139	1	Omaezaki Sky	
1140	1	Iroshizoku	
1141	1	Bridget Bishop	
1142	1	austria	
1143	1	Biedermeier	
1144	1	Decograph	
1145	1	Pelikan Souverän	
1146	1	S.C.	
1147	1	Kumamoto	
1148	1	Peacock LE	
1149	1	Nakaya	
1150	1	Vac 700	
1151	1	Istanbul	
1152	1	Palmer	
1153	1	london	
1154	1	Customer	
1155	1	Mathematica	
1156	1	ListContourPlot[Reverse[QuantityMagnitude[GeoElevationData[{loc1	
1157	1	newton	
1158	1	Demi	
1159	1	EU	
1160	1	Studio together](https://i.imgur.com/balO3WK.jpg	
1161	1	Hyperhidrosis	
1162	1	Tampa	
1163	1	Menthol	
1164	1	Simba	
1165	1	Micro Mesh	
1166	1	Ruthenium		
1167	1	Celluloid	
1168	1	Demonstrator	
1169	1	Marble		
1170	1	Sparkle	
1171	1	Black		
1172	1	Pearl		
1173	1	Red		
1174	1	Chivor|BLUE|Why	
1175	1	Abissi	
1176	1	butttteerrr	
1177	1	Oberthur	
1178	1	the Pent Precious Aquamarine	
1179	1	Catalina	
1180	1	Zuko	
1181	1	Elektrotechnik	
1182	1	Genauer	
1183	1	Balmain	
1184	1	Dittos	
1185	1	GP	
1186	1	Warwicks	
1187	1	Santa nor	
1188	1	100gsm	
1189	1	Milagro	
1190	1	Western nibs	
1191	1	El Floridita	
1192	1	Black (F) &gt	
1193	1	Omaha	
1194	1	EF nibs	
1195	1	piston fountain pen	
1196	1	Hollywood	
1197	1	Granites	
1198	1	St. Dupont	
1199	1	Edelberg	
1200	1	brick&amp;mortar	
1201	1	nib varieties	
1202	1	architect.](http://www.fpn	
1203	1	La Jolla	
1204	1	https://www.reddit.com/r/fountainpens/comments/62oha3/a_visit_to_fahrneys_pens_in_dc/	
1205	1	SG	
1206	1	Macrolon	
1207	1	Columbia	
1208	1	MD	
1209	1	Leuchtturm Hardcover	
1210	1	South Jersey	
1211	1	Weibo	
1212	1	Hendersonville	
1213	1	Origami	
1214	1	South Dakota	
1215	1	nib Miester	
1216	1	pelikan nibs	
1217	1	Vac 700R	
1218	1	Imperiale	
1219	1	Frick Park	
1220	1	Fredericton	
1221	1	compare](https://imgur.com	
1222	1	The Kaweco EF	
1223	1	Leutchtteurm	
1224	1	Johannesburg	
1225	1	Cziplee	
1226	1	Bangsar	
1227	1	M. Pilot	
1228	1	Vélin	
1229	1	San Francisco's	
1230	1	Ebates	
1231	1	Hick	
1232	1	San Antonio TX	
1233	1	Los Angeles	
1234	1	Fahrenheit	
1235	1	Monty Python	
1236	1	Ardmore	
1237	1	Ishimeji	
1238	1	san francisco	
1239	1	u.s.	
1240	1	Wing Sung EF nib	
1241	1	U.S.A	
1242	1	Akiba	
1243	1	the M200 Cognac	
1244	1	Sniper	
1245	1	Flexi	
1246	1	the UK city	
1247	1	kubotan	
1248	1	Kelsi	
1249	1	H.S.	
1250	1	Manhattan Beach	
1251	1	Bhutan	
1252	1	the Florentine Hills	
1253	1	funny.it	
1254	1	Lester	
1255	1	Palladium	
1256	1	Ufr	
1257	1	Franconia	
1258	1	chicago	
1259	1	M400	
1260	1	MaiDo	
1261	1	Churchill	
1262	1	Filofax A5	
1263	1	Ayyyyyyy	
1264	1	JobeX	
1265	1	https://i.imgur.com/drSsUTl.jpg	
1266	1	yaaaa	
1267	1	M80x	
1268	1	eraser	
1269	1	lt;$100	
1270	1	español	
1271	1	Conway	
1272	1	TD	
1273	1	Pacific	
1274	1	Latvia	
1275	1	the Pelikan Soviet AP	
1276	1	Soviet Union	
1277	1	Japanese Fines	
1278	1	asa gao	
1279	1	inks](https://fountainpenfollies.com/2017/05/03	
1280	1	Guider	
1281	1	Blues	
1282	1	Turquoises	
1283	1	Le Roi Louis	
1284	1	florida	
1285	1	Väkste	
1286	1	Sverige	
1287	1	svenska	
1288	1	Tangerine	
1289	1	vI8TM	
1290	1	Borlänge	
1291	1	ADORE	
1292	1	B00I13ZNIC	
1293	1	Wanda	
1294	1	Penton	
1295	1	Tylee	
1296	1	Bock Titan	
1297	1	Wichita	
1298	1	Punjab	
1299	1	❤	
1300	1	Fort Madison	
1301	1	amonia	
1302	1	Wacom	
1303	1	Alabama	
1304	1	Pacific Al-Star	
1305	1	Leica	
1306	1	minuskin	
1307	1	Aunty	
1308	1	sung nibs	
1309	1	Mongolia	
1310	1	Levenger	
1311	1	Belomo	
1312	1	Aonibi	
1313	1	@ss	
1314	1	Wing Sung EF nibs	
1315	1	Mass	
1316	1	Nagasaki	
1317	1	Mecca	
1318	1	Sakurai	
1319	1	Shankar	
1320	1	Pirme	
1321	1	hoezo	
1322	1	Blue Flash	
1323	1	N.Y.	
1324	1	pens/	
1325	1	BBB+	
1326	1	Duovac	
1327	1	gedaan	
1328	1	Wing Sung M nib	
1329	1	UAE	
1330	1	Lagavuling	
1331	1	Pen BBS	
1332	1	Drill	
1333	1	Mahogany	
1334	1	King County	
1335	1	Kowloon	
1336	1	Rouge Bourgogne * Rouge Caroubier	
1337	1	Metal	
1338	1	Baños	
1339	1	Marlborough	
1340	1	Applebloom	
1341	1	kommer	
1342	1	🤘	
1343	1	Sarepo	
1344	1	Jet, Burma	
1345	1	Mentmore	
1346	1	Howl	
1347	1	Sophie	
1348	1	Loctite	
1349	1	Italic	
1350	1	Enchanted Ocean	
1351	1	Iris	
1352	1	an Italic Bold	
1353	1	fort Worth	
1354	1	Lorenzo	
1355	1	Sending	
1356	1	Mabie	
1357	1	Swallow	
1358	1	Tsuki	
1359	1	Estie	
1360	1	masuyama nibs	
1361	1	pelikan M205	
1362	1	Ipsilon	
1363	1	pelikan m205	
1364	1	Stilografica	
1365	1	Daikanyama	
1366	1	Tyre	
1367	1	Phoenicia	
1368	1	Hogwarts	
1369	1	•Pelikan M605 B BLS	
1370	1	Seitz-Kreuznach	
1371	1	West Germany 1	
1372	1	Verdigris	
1373	1	kidneys	
1374	1	Spine	
1375	1	Fiancee	
1376	1	Ripleys	
1377	1	F. Very	
1378	1	Liberte	
1379	1	La	
1380	1	Fuzhou	
1381	1	Dominican Republic	
1382	1	Green Swirl	
1383	1	new yorkq	
1384	1	Bellingham	
1385	1	urushiol	
1386	1	St. Patrick's	
1387	1	Jina	
1388	1	the Kaweco Lilliput	
1389	1	Copper	
1390	1	Five Star	
1391	1	ginza	
1392	1	Blue Carbonesque	
1393	1	Aquamarine	
1394	1	a Seiko SNK803	
1395	1	zig-zaggy	
1396	1	Fremont	
1397	1	Nagahara	
1398	1	Norfolk	
1399	1	Shoji	
1400	1	Fountain Pen	
1401	1	Shrewsbury	
1402	1	FOMO	
1403	1	NOLA	
1404	1	greece	
1405	1	Berryweaver	
1406	1	knife_swap	
1407	1	kobe-4.htm	
1408	1	Martian	
1409	1	Insignia	
1410	1	W. Germany	
1411	1	Salior	
1412	1	Tyson’s Corner	
1413	1	IM	
1414	1	Murasaki-Shikibu	
1415	1	Peggy	
1416	1	Susannah	
1417	1	New Mexico	
1418	1	San Jose de la Laguna Mission Church	
1419	1	all\	
1420	1	Jinhao 911	
1421	1	Sao Paulo	
1422	1	the W Germany	
1423	1	Ameyoko	
1424	1	Ginza	
1425	1	Omas	
1426	1	teflon	
1427	1	roadmap	
1428	1	Letizia Jacopini	
1429	1	Arrighi	
1430	1	my Kaweco Sport BB	
1431	1	nikon/105vr.htm	
1432	1	Freemasonry	
1433	1	Barangaroo	
1434	1	Long Island	
1435	1	Bortoletti	
1436	1	Anyway	
1437	1	Thessaloniki	
1438	1	U.s.	
1439	1	Shitataka	
1440	1	Fahreny	
1441	1	Baja	
1442	1	Fc	
1443	1	A6	
1444	1	St. Germain)	
1445	1	Mohito	
1446	1	SHOP	
1447	1	regalia	
1448	1	Blaak	
1449	1	Harolds	
1450	1	las probaré	
1451	1	Heidelberg city	
1452	1	Khabib	
1453	1	Jabberwocky	
1454	1	Rockville MD	
1455	1	Rokko Island	
1456	1	Seikado	
1457	1	DTM	
1458	1	montegrappa-fortuna-fountain-pen-blazer	
1459	1	Next Level	
1460	1	falcon nibs	
1461	1	Regalia nibs	
1462	1	Katowice	
1463	1	Lobby	
1464	1	Unica	
1465	1	Lugdunum	
1466	1	hiragana	
1467	1	Brasil	
1468	1	O5rCSde.jpg	
1469	1	Poppy	
1470	1	Pen city	
1471	1	Tokyo Kingdom	
1472	1	Nouveau	
1473	1	Jinhao x750s	
1474	1	Orange Aero	
1475	1	Supernova	
1476	1	Ti nibs	
1477	1	Skarnac	
1478	1	Duong 698	
1479	1	shoud	
1480	1	Delft	
1481	1	Recon	
1482	1	Brass Sport	
1483	1	Québec	
1484	1	Colectivo	
1485	1	this Kaweco Sport	
1486	1	q0pzDMA.jpg	
1487	1	The Kingdom Note	
1488	1	Liverpool	
1489	1	u/Quan_Phan	
1490	1	West Exit	
1491	1	Hempstead	
1492	1	LamyUSA.com	
1493	1	Milord	
1494	1	Noodle	
1495	1	Daria	
1496	1	HKD$150	
1497	1	HKD$130	
1498	1	Keychain	
1499	1	pelikan	
1500	1	Darth Mauls	
1501	1	Purdue	
1502	1	Milligram	
1503	1	Pre-Med	
1504	1	Ameyoko Plaza	
1505	1	Premium Bandai	
1506	1	Imagine	
1507	1	Euros	
1508	1	Turquiose	
1509	1	Coles	
1510	1	Salt Lake City	
1511	1	Amazon.ca	
1512	1	J.Herbin	
1513	1	Nanami Seven Seas Crossfield w/	
1514	1	Azerbaijan	
1515	1	a Uniball Deluxe Micro	
1516	1	Bock\	
1517	1	am	
1518	1	Luckily	
1519	1	the Sport Kawecos	
1520	1	Saint Seiya	
1521	1	Laureat	
1522	1	the AL Sport	
1523	1	Shake'n'Shimmy	
1524	1	West Virginia	
1525	1	Hehehehehe	
1526	1	Bombay	
1527	1	waverley nibs	
1528	1	Passaporto	
1529	1	Skrip II	
1530	1	portugal	
1531	1	Duolingo	
1532	1	indonesia	
1533	1	Arjuna	
1534	1	Naples	
1535	1	Alabang	
1536	1	Parker Rialto	
1537	1	fuyu\-syogun	
1538	1	Okinawa	
1539	1	Geneva	
1540	1	Rialto	
1541	1	Lamy AllStar	
1542	1	higo sakura	
1543	1	weeeeeee	
1544	1	New Pelikan M120	
1545	1	kakuno	
1546	1	Malaga	
1547	1	Torreblanca	
1548	1	Isetan	
1549	1	ivory	
1550	1	Breitling	
1551	1	Glycine	
1552	1	Piuma	
1553	1	Barleycorn	
1554	1	Pelikan M800 Ocean	
1555	1	Juspirit	
1556	1	Hehehehe	
1557	1	Red Marble	
1558	1	Pilot Varsity	
1559	1	west Germany	
1560	1	Jersey	
1561	1	Sailor nibs	
1562	1	Pelikan 4001 Violet	
1563	1	Bucee	
1564	1	Perko	
1565	1	Lihit	
1566	1	Champagne	
1567	1	me\	
1568	1	Mountain-Bird	
1569	1	Kaweco XF	
1570	1	Beauvais	
1571	1	https://i.imgur.com/0V3r4S7.jpg	
1572	1	Cohiba (Cuban	
1573	1	shanghai	
1574	1	Y’all	
1575	1	picturesque	
1576	1	mehkee	
1577	1	M80X	
1578	1	Katana	
1579	1	Tanto	
1580	1	M205	
1581	1	Anduril	
1582	1	Chivior	
1583	1	Planck	
1584	1	Huafu	
1585	1	Kokeiro	
1586	1	blues	
1587	1	Botia	
1588	1	yoyo loach	
1589	1	Metropilitan	
1590	1	Longtime	
1591	1	Frederick	
1592	1	Newy	
1593	1	kaweco sport	
1594	1	the Netherlands	
1595	1	Pesce	
1596	1	Goulet Pens	
1597	1	Piston-Fountain-Pen-0	
1598	1	Tsukiyo	
1599	1	N.Y	
1600	1	Sheaffer	
1601	1	Kronenbourg	
1602	1	Edison Beaumont	
1603	1	Redragon	
1604	1	Susquehanna	
1605	1	https://farm2.staticflickr.com/1747/28480386408_861f224893_b.jpg	
1606	1	Slovenia	
1607	1	M800	
1608	1	Micheals	
1609	1	Beini_zheng	
1610	1	Mokdong	
1611	1	Doha	
1612	1	Mid-City	
1613	1	Brown	
1614	1	Duofolds	
1615	1	Kurashiki	
1616	1	Ginza Tokyo	
1617	1	Puerto Rico	
1618	1	wuhan	
1619	1	Shand	
1620	1	https://vintagepens.com/gregg_shorthand_discovery.htm	
1621	1	Uniq	
1622	1	Fort-Worth	
1623	1	Nanyang	
1624	1	Matsumoto	
1625	1	Soho	
1626	1	https://fountainpendesign.wordpress.com/feed-supply-ink-function-foutain-pen/fountain-pen-feed-function/	
1627	1	lol.	
1628	1	Guilloche	
1629	1	https://imgur.com/a/g0m1cw8 anyways	
1630	1	Herbin Rouge	
1631	1	Ledge	
1632	1	Michelin	
1633	1	Nik	
1634	1	Lucky Charm	
1635	1	Medway	
1636	1	St Louis	
1637	1	pelikan M405	
1638	1	Cambodia	
1639	1	Sidney	
1640	1	Bottles	
1641	1	Missouri	
1642	1	the r&amp;k konigsblau	
1643	1	L2K M	
1644	1	Chile	
1645	1	Tabak	
1646	1	Orangina	
1647	1	Milbrae	
1648	1	Sonoran	
1649	1	Gouletpens	
1650	1	Skillz	
1651	1	pelikan 205	
1652	1	Costa Rica	
1653	1	matsayuma nibs	
1654	1	the Imperial Dragon	
1655	1	jinhao pens	
1656	1	District	
1657	1	Taipei City	
1658	1	Moonmen	
1659	1	Interlochen	
1660	1	Pd nibs	
1661	1	Barton	
1662	1	Starburst	
1663	1	amazon.ca	
1664	1	penbbs	
1665	1	Liaison	
1666	1	St Petersburg	
1667	1	Azura	
1668	1	vietnam	
1669	1	Torah	
1670	1	winter persimmon	
1671	1	Platinum3776	
1672	1	J.S.	
1673	1	MA	
1674	1	DA	
1675	1	Southfield	
1676	1	New Forest	
1677	1	🤣	
1678	1	Emerald City	
1679	1	Sangria	
1680	1	Pelikan M800 Ocean Swirl	
1681	1	Pelikan m400	
1682	1	Ms	
1683	1	Shenzhen	
1684	1	Blotting	
1685	1	Swype	
1686	1	West Broadway	
1687	1	WS601	
1688	1	Bahamas	
1689	1	A5	
1690	1	Osmia	
1691	1	Exuma	
1692	1	Worth	
1693	1	Edison Mina	
1694	1	Pelikan 800	
1695	1	CARPINK	
1696	1	Center City	
1697	1	F/EF	
1698	1	the F nib	
1699	1	Popular	
1700	1	HL	
1701	1	Ichou	
1702	1	parker+vector+pluma	
1703	1	Green (M	
1704	1	O.S.	
1705	1	Midland	
1706	1	Overjoyed	
1707	1	WG	
1708	1	ND	
1709	1	Wallops	
1710	1	Sheffield	
1711	1	FG	
1712	1	Jinhao 450	
1713	1	México	
1714	1	California, USA	
1715	1	auctioneers"	
1716	1	yazoo	
1717	1	Yeeeeeeeeee	
1718	1	FP	
1719	1	RB	
1720	1	the Kaweco AL Sport	
1721	1	west county	
1722	1	strand	
1723	1	Yumi-san	
1724	1	Sicily	
1725	1	New nibs	
1726	1	Estie nibs	
1727	1	Jackson	
1728	1	FL	
1729	1	Springfield	
1730	1	Kingyo	
1731	1	Sailors	
1732	1	bitcoin	
1733	1	Walnut	
1734	1	Pendora	
1735	1	Zebra nibs	
1736	1	Auroras	
1737	1	Pearl	
1738	1	Sergiu	
1739	1	uZ7vkmUNTPA	
1740	1	magenta?	
1741	1	Oranje	
1742	1	Monteverde	
1743	1	Brunei	
1744	1	Adrenaline	
1745	1	Rocky	
1746	1	Sesenta	
1747	1	Red Herringbone	
1748	1	Rhodium	
1749	1	Lyon	
1750	1	Cliff Notes	
1751	1	WS 698	
1752	1	Long Beach Island	
1753	1	Birdie	
1754	1	Pocket	
1755	1	E95	
1756	1	Milwakee	
1757	1	Long Beach	
1758	1	Kreuzer	
1759	1	Fujifilm	
1760	1	WA	
1761	1	Click	
1762	1	Ratnam	
1763	1	WS 3008	
1764	1	Knox	
1765	1	cultpens.com	
1766	1	brass sport	
1767	1	myself](https://imgur.com	
1768	1	Kaweco Al	
1769	1	Linea	
1770	1	xuUFaZ8ZbR8&amp;t=130s	
1771	1	Beaumont	
1772	1	New Lincoln	
1773	1	Varsities	
1774	1	Tatebayashi	
1775	1	Gunma Prefecture	
1776	1	Guangdong	
1777	1	Piston-Fountain-	
1778	1	KY	
1779	1	Cool-Japan	
1780	1	Pisuke2005	
1781	1	Grand Rapids	
1782	1	Imgur](https://i.imgur.com/4w0ri6O.jpg	
1783	1	Metropoliton	
1784	1	Italic F	
1785	1	Zagreb	
1786	1	/YKP8zS2	
1787	1	Anastasia	
1788	1	Delikes	
1789	1	Encontré	
1790	1	verdad	
1791	1	~~nemosine~~	
1792	1	jankey	
1793	1	Galaxy	
1794	1	the Red, Petrol	
1795	1	All Black	
1796	1	Red Falcon	
1797	1	The Spring PGS	
1798	1	montblanc-germany-classic	
1799	1	Hokkaido	
1800	1	M1000 nibs	
1801	1	Greenville	
1802	1	SC	
1803	1	Montblanc - Germany	
1804	1	Vortex	
1805	1	New Pen	
1806	1	Appendix	
1807	1	Sri Lanka	
1808	1	Negombo	
1809	1	Kingdom Note Veggie	
1810	1	Meigetsu	
1811	1	Cleveland	
1812	1	Achille	
1813	1	Wing Sungs	
1814	1	Lahore	
1815	1	argentina	
1816	1	CHICAGO	
1817	1	Tebbel	
1818	1	stiff nibs	
1819	1	TiGP F	
1820	1	the Koshu Inden	
1821	1	Minuskin	
1822	1	Wajima	
1823	1	pen mechanisms	
1824	1	Tucson	
1825	1	Frost Fire	
1826	1	◠	
1827	1	bent nibs	
1828	1	Drumheller	
1829	1	Yamabuki	
1830	1	singapore	
1831	1	PN	
1832	1	Beatles	
1833	1	Reserva	
1834	1	Thanx	
1835	1	SAN Remo	
1836	1	bleach	
1837	1	paris	
1838	1	Novosibirsk	
1839	1	PTL-5000	
1840	1	Afghanistan	
1841	1	St. George Absinthe Vert	
1842	1	Super	
1843	1	Sbrebrown	
1844	1	Brooks	
1845	1	Akureyri	
1846	1	Pelikan m405	
1847	1	lefty	
1848	1	Carolina	
1849	1	Cherry Blossom	
1850	1	the Kingdom Note	
1851	1	Shinjuku	
1852	1	Spreadsheet	
1853	1	SNK809	
1854	1	MSpaint	
1855	1	Yeeeeeeeeah	
1856	1	Seiboku	
1857	1	Las Vegas	
1858	1	Connecticut	
1859	1	Des Moines'	
1860	1	Amethyste	
1861	1	Malmö	
1862	1	Venom	
1863	1	M205 Aquamarine	
1864	1	Bannon	
1865	1	ARRGGHH	
1866	1	Mark Bacas'	
1867	1	Bonn	
1868	1	Bien Hoa	
1869	1	Jonuma	
1870	1	Gunma	
1871	1	Windsor	
1872	1	Pensachi	
1873	1	P66	
1874	1	Biltwel	
1875	1	St. Petersburg	
1876	1	Scribolino	
1877	1	Yotsuba	
1878	1	Tanzania	
1879	1	nib rigidity	
1880	1	Leiden	
1881	1	u/_heldin	
1882	1	post-1968	
1883	1	South Carolina	
1884	1	Hoorn	
1885	1	Crossflex	
1886	1	mah	
1887	1	Danku	
1888	1	Purple Rock	
1889	1	Shimoyo	
1890	1	Ti	
1891	1	ryoku	
1892	1	B0-B-6	
1893	1	Thirteen	
1894	1	Ochiai	
1895	1	Xiao	
1896	1	nib fountain pens	
1897	1	Linie	
1898	1	remus	
1899	1	Keage	
1900	1	Cross Calais	
1901	1	Noire	
1902	1	Wham	
1903	1	Bondi Beach	
1904	1	Kaweco Germany	
1905	1	Keyword	
1906	1	Stacy Hills	
1907	1	Pen 18111	
1908	1	W.A.	
1909	1	ALR	
1910	1	Scriptorium	
1911	1	Kakimori	
1912	1	idk	
1913	1	Katsura	
1914	1	Perdona	
1915	1	Chinois Brique	
1916	1	Cigar	
1917	1	Sailor	
1918	1	Ultra Violet	
1919	1	Hop	
1920	1	Musubi	
1921	1	Junior	
1922	1	Silent Spring	
1923	1	chamois	
1924	1	Grendilla	
1925	1	Ghost	
1926	1	Moleskines	
1927	1	Leuchtturms	
1928	1	Akihabara	
1929	1	Nathan Tardiff	
1930	1	Williamsburg Virginia	
1931	1	Leipziger	
1932	1	Guatemala	
1933	1	AR	
1934	1	Cape Town	
1935	1	Cocoon Fountain Pen - Blue - Fine Nib	
1936	1	Samaritan	
1937	1	england mark	
1938	1	the Myeongdong Underground Shopping	
1939	1	Aliens	
1940	1	Hanover	
1941	1	Roc	
1942	1	kajuno	
1943	1	Pen Chalets	
1944	1	Knib	
1945	1	Jinhao stub(s	
1946	1	the Herbin Vert Empire	
1947	1	Edison Menlo	
1948	1	Virginia Beach	
1949	1	the Red Dragon	
1950	1	☹	
1951	1	Kingdom Note	
1952	1	Hamamatsu	
1953	1	Calgary Alberta	
1954	1	X3NvWMj5cHw	
1955	1	something](https://en.m.wikipedia.org	
1956	1	Kingdom	
1957	1	St. George	
1958	1	Saku	
1959	1	Online	
1960	1	Yamadori	
1961	1	iPhones	
1962	1	Exacompta	
1963	1	GDR	
1964	1	Belroy	
1965	1	Wikipedia	
1966	1	Little Whinging	
1967	1	Surrey	
1968	1	North Hemisphere	
1969	1	Peru	
1970	1	Precision	
1971	1	Venera	
1972	1	M200’s F nib	
1973	1	Hampshire	
1974	1	Vac 700R's	
1975	1	Terraria	
1976	1	Clash Royale	
1977	1	Bloons TD	
1978	1	Pelikan Bulkfiller	
1979	1	Vegas	
1980	1	F and	
1981	1	kanshitsu	
1982	1	Arkansas Fountain	
1983	1	Bummer	
1984	1	mate	
1985	1	Visconti Skeleton	
1986	1	más importante	
1987	1	cuenta	
1988	1	Nib	
1989	1	Grande	
1990	1	Keeton	
1991	1	Bicycles	
1992	1	Norwegia	
1993	1	pelikan m805	
1994	1	Cebu	
1995	1	Pelikan Hub	
1996	1	Tengwar	
1997	1	Bitcoin	
1998	1	Aero	
1999	1	R.I.P	
2000	1	meron	
2001	1	USPS	
2002	1	McAllen	
2003	1	Insta	
2004	1	goulet EF	
2005	1	Dayton	
2006	1	Cardiff	
2007	1	Rice Village	
2008	1	Pelikan F	
2009	1	Montblanc 144	
2010	1	nibs	
2011	1	Montenegro	
2012	1	Deltas	
2013	1	Airbnb	
2014	1	Montecristo	
2015	1	Pelikan M200 EF	
2016	1	Salem	
2017	1	Burgundy	
2018	1	neeto	
2019	1	Bay State	
2020	1	Transparent	
2021	1	an F nib	
2022	1	Zürich	
2023	1	Nanchang	
2024	1	Indianapolis	
2025	1	Med	
2026	1	the Pelikan M205	
2027	1	Kop nibs	
2028	1	M(it	
2029	1	Black Eel	
2030	1	Fusions	
2031	1	Beauty	
2032	1	Orange al-sport	
2033	1	Lamy F	
2034	1	belgium	
2035	1	Arezzo	
2036	1	Sydney Australia	
2037	1	S.T. Dupont	
2038	1	CN	
2039	1	Spanaway	
2040	1	Tony Stark	
2041	1	Illuminati	
2042	1	https://i.imgur.com/qoRoqla.jpg	
2043	1	bondi beach	
2044	1	Murakami	
2045	1	Baoer 051	
2046	1	New Procyon	
2047	1	Zimbabwe	
2048	1	Mayuyama	
2049	1	Mandarin Duck	
2050	1	etc.&gt	
2051	1	Feeny	
2052	1	New Old Stock	
2053	1	vertical/90^o	
2054	1	a Kaweco Ice Sport	
2055	1	Matchy	
2056	1	graffiti	
2057	1	Jinhao, Hero	
2058	1	Regina	
2059	1	70EUR	
2060	1	Krishna Monsoon Sky	
2061	1	North Dakota	
2062	1	Bulgaria	
2063	1	Trip	
2064	1	jpegs	
2065	1	&gt;Pretty	
2066	1	Chiyoda	
2067	1	Bernie	
2068	1	Charlotte	
2069	1	Kanwrites	
2070	1	Adelaide	
2071	1	u/l3rooklyn	
2072	1	Benchmade	
2073	1	Balisong	
2074	1	Coronado	
2075	1	68gsm Tomoe River	
2076	1	Tozai	
2077	1	west-Germany	
2078	1	Platinum PTL-5000a	
2079	1	Caligraphy	
2080	1	Artgecko	
2081	1	150gsm	
2082	1	Esterbrook Estie	
2083	1	Feb.	
2084	1	\~angsty	
2085	1	Purple Cosmos	
2086	1	hehe	
2087	1	https://www.youtube.com/watch?v=XmPJDVv--Qo](https://www.youtube.com/watch?v=XmPJDVv--Qo	
2088	1	Platinum Century	
2089	1	Yen	
2090	1	Bunkidou	
2091	1	Opera	
2092	1	Pelikan 400NN	
2093	1	DF	
2094	1	Hutch	
2095	1	Frankenpen St Dupont	
2096	1	https://imgur.com/a/uqifGs4	
2097	1	sweden	
2098	1	metrolpoiltan	
2099	1	bay state	
2100	1	taiwan	
2101	1	Mystique	
2102	1	Waterloo	
2103	1	comments/9q8d76	
2104	1	SA	
2105	1	PA school.(I	
2106	1	Jinhao 992s	
2107	1	Manchester	
2108	1	Abu Dhabi	
2109	1	Corderite	
2110	1	Tainan	
2111	1	my Kaweco AL-Sport F	
2112	1	St Dupont	
2113	1	Lanaquarelle	
2114	1	the Pelikan m800,m1000	
2115	1	Apica Premium C.D.	
2116	1	St. Peter	
2117	1	St. Peter's	
2118	1	The Kaweco Al Sport	
2119	1	Oxblood	
2120	1	Journaling	
2121	1	Lille	
2122	1	Herbin swabs	
2123	1	Minas	
2124	1	Birch	
2125	1	St.	
2126	1	Phidon Pens	
2127	1	Penchant	
2128	1	Mango	
2129	1	Esperanto	
2130	1	Honduro	
2131	1	Duployé	
2132	1	Lever	
2133	1	Goblin	
2134	1	Amber	
2135	1	Costa Mesa	
2136	1	Bristol	
2137	1	North-Dublin	
2138	1	the Kaweco AL SPORT Night Edition	
2139	1	Monsieur Poirot	
2140	1	Schwarz	
