#Word types: 1089
#Word tokens: 3921
#Search results: 0
1	331	US	
2	188	Japan	
3	181	UK	
4	125	China	
5	97	Montblanc	
6	67	India	
7	65	SF	
8	60	Australia	
9	59	Germany	
10	56	Canada	
11	49	USA	
12	48	Pelikan	
13	44	U.S.	
14	39	Edison	
15	37	Jinhao	
16	37	FC	
17	31	nib	
18	31	America	
19	30	Rhodia	
20	26	ammonia	
21	25	Carene	
22	24	Massachusetts	
23	23	Bock	
24	23	LA	
25	22	Taiwan	
26	21	Chicago	
27	18	France	
28	18	LE	
29	18	Netherlands	
30	18	Kaweco Sport	
31	18	Tokyo	
32	17	pen_swap	
33	17	Karas	
34	16	Jinhaos	
35	16	TR	
36	15	india	
37	14	Texas	
38	14	Montblancs	
39	13	japan	
40	13	Targa	
41	13	Masuyama	
42	12	Medium	
43	12	the United States	
44	12	Toronto	
45	12	Decimo	
46	12	London	
47	12	china	
48	11	Metropolitan	
49	11	California	
50	11	Kaweco	
51	10	Goulet	
52	10	P.S.	
53	10	EF	
54	10	Italy	
55	10	Jowo	
56	9	the Kaweco Sport	
57	9	Liberty	
58	9	Konrad	
59	9	Lamy	
60	9	Snorkel	
61	9	Holland	
62	9	Seattle	
63	9	Discord	
64	8	Florida	
65	8	Antietam	
66	8	States	
67	8	Brazil	
68	8	Melbourne	
69	8	Whoops	
70	8	a Kaweco Sport	
71	8	Illinois	
72	8	Diamine	
73	8	Petrol	
74	7	Britain	
75	7	springy	
76	7	Safari	
77	7	Sydney	
78	7	Triumph	
79	7	Boston	
80	7	Appleton	
81	7	DC	
82	7	Virginia	
83	7	Hong Kong	
84	7	Russia	
85	7	Bock nibs	
86	6	vac700	
87	6	Bitcoin	
88	6	Ammonia	
89	6	Mass.	
90	6	/r	
91	6	Ireland	
92	6	Franklin	
93	6	Singapore	
94	6	Delrin	
95	6	USC	
96	6	Lucina	
97	6	Cerisiersjaponais	
98	5	North Carolina	
99	5	Sweden	
100	5	Minuskin	
101	5	F nibs	
102	5	C74	
103	5	uk	
104	5	Manhattan	
105	5	Pelikan nibs	
106	5	america	
107	5	Arkansas	
108	5	Vegas	
109	5	Spain	
110	5	Black	
111	5	Greece	
112	5	Verdigris	
113	5	germany	
114	5	Fountain	
115	5	Scotland	
116	5	Prera	
117	5	Wingsung	
118	5	Vac700R.	
119	4	Kickstarter	
120	4	Garrus	
121	4	New York	
122	4	Milwaukee	
123	4	Peyton	
124	4	jinhao nibs	
125	4	Nathan	
126	4	ROC	
127	4	DE	
128	4	Edinburgh	
129	4	Pelikan 4001	
130	4	Pelikan M200	
131	4	OP	
132	4	Viscontis	
133	4	Korea	
134	4	F	
135	4	Quebec	
136	4	Houston	
137	4	Ohio	
138	4	VAC700	
139	4	Shanghai	
140	4	Heidelberg	
141	4	Jinhao nibs	
142	4	Hobonichi	
143	4	Lexington	
144	4	Mnemosyne	
145	4	Instagram	
146	4	Clairefontaine	
147	4	Yamabudo	
148	4	Newton	
149	4	Dallas	
150	4	Bexley	
151	4	Ontario	
152	4	italic nibs	
153	4	JAPAN	
154	4	MD	
155	4	Birmingham	
156	4	haikubot-1911	
157	4	Perth	
158	4	Indonesia	
159	3	Anyways	
160	3	Noire	
161	3	QA	
162	3	edison	
163	3	Lever	
164	3	Triveni	
165	3	italy	
166	3	Delhi	
167	3	button	
168	3	Mont	
169	3	Piston	
170	3	F, M	
171	3	NC	
172	3	AU	
173	3	PO	
174	3	canada	
175	3	Airmail	
176	3	lamy nibs	
177	3	Aus	
178	3	hugbox	
179	3	Baoer	
180	3	Pelikan M600	
181	3	Stephen	
182	3	USPS	
183	3	Engeika	
184	3	Washington	
185	3	Euros	
186	3	The Netherlands	
187	3	Montblanc 146	
188	3	sepia	
189	3	Sepia	
190	3	Slovenia	
191	3	mild ammonia	
192	3	florida	
193	3	NY	
194	3	Montana	
195	3	Cross	
196	3	XF	
197	3	Baltimore	
198	3	NZ	
199	3	England	
200	3	Edison nibs	
201	3	Pakistan	
202	3	Santa	
203	3	Kanji	
204	3	Hungary	
205	3	Denver	
206	3	Egypt	
207	3	Rome	
208	3	Oooh	
209	3	goulet	
210	3	Xu4dqYT.jpg	
211	3	FC nibs	
212	3	springy nibs	
213	3	nibs	
214	3	Chesterfield	
215	3	Bellevue	
216	3	us	
217	3	Jinhao X750	
218	3	Hamburg	
219	3	Lefty	
220	3	Beaumont	
221	3	YouTube	
222	3	Navajo	
223	3	GL	
224	3	australia	
225	3	Tilburg	
226	3	Alpha	
227	3	Con50	
228	3	Shenzhen	
229	3	Bremen	
230	3	Officeworks	
231	3	Monza	
232	3	Utrecht	
233	3	Décimo	
234	3	Heros	
235	3	Puerto Rico	
236	3	Minneapolis	
237	3	Hawaii	
238	3	I.D.	
239	2	flex nibs	
240	2	Field Notes	
241	2	Kingdom	
242	2	kana	
243	2	Borealis	
244	2	Lithuania	
245	2	Manufacturer	
246	2	lamy	
247	2	salsa	
248	2	new Delhi	
249	2	Pelikan m400	
250	2	Le	
251	2	lol.	
252	2	Nib	
253	2	Switzerland	
254	2	Carbonesque	
255	2	charleston	
256	2	lever	
257	2	Daimine	
258	2	Blanc	
259	2	Understand	
260	2	Touchdown	
261	2	Monrovia	
262	2	Pendleton	
263	2	Turquoise	
264	2	Gouletpens	
265	2	Dunhill	
266	2	Toledo	
267	2	Glenmont	
268	2	Latvia	
269	2	Long Island	
270	2	Jinhao 599	
271	2	Anderson	
272	2	Venezuela	
273	2	Poland	
274	2	Micarta	
275	2	Thailand	
276	2	ZH	
277	2	MO	
278	2	Torah	
279	2	AL Sport	
280	2	The Kaweco Sport	
281	2	Christoph	
282	2	Edelstein	
283	2	Alstar	
284	2	Pininfarina	
285	2	Vietnam	
286	2	Varsities	
287	2	Penvelope	
288	2	Vancouver	
289	2	Destin	
290	2	Taobao	
291	2	Darkness	
292	2	Vac700	
293	2	bordeaux	
294	2	Yanukovych	
295	2	Kinokuniya	
296	2	EUR	
297	2	Concord	
298	2	france	
299	2	Seoul	
300	2	Atlanta	
301	2	oblique nibs	
302	2	Cocoon	
303	2	CA	
304	2	Colorado	
305	2	Turin	
306	2	grid	
307	2	Libelle	
308	2	Conklin	
309	2	Sterling Silver	
310	2	Calligraphy	
311	2	UserSim	
312	2	Fine	
313	2	Shinobi	
314	2	QC	
315	2	Japantown	
316	2	Montreal	
317	2	New Jersey	
318	2	Phileas	
319	2	Indiana	
320	2	p.s.	
321	2	Wonderpens	
322	2	SG	
323	2	HL	
324	2	Italix	
325	2	Portland	
326	2	San Francisco	
327	2	Parallels	
328	2	The Hague	
329	2	phD	
330	2	Jentle	
331	2	the Soviet Union	
332	2	Florentine Hills	
333	2	vietnam	
334	2	Eco	
335	2	Pelikan m1000	
336	2	Brno	
337	2	Austria	
338	2	shoo	
339	2	Denmark	
340	2	Kyoto	
341	2	South Africa	
342	2	Eight1911	
343	2	Omas	
344	2	Moscow	
345	2	Aurora	
346	2	Sorta	
347	2	Teflon	
348	2	Uganda	
349	2	Lil	
350	2	Aston	
351	2	Triumphs	
352	2	phobia	
353	2	Figboot	
354	2	Paris	
355	2	Dacht	
356	2	Tennessee	
357	2	Utah	
358	2	vegas	
359	2	Buyee	
360	2	ZenMarket	
361	2	Fahrenheit	
362	2	San Diego	
363	2	Teutonia	
364	1	Aldo	
365	1	saraspta	
366	1	sarasota	
367	1	Pelikan 400	
368	1	Mumbai	
369	1	lepton	
370	1	Bros	
371	1	Koi fish	
372	1	phoenix	
373	1	mang	
374	1	homophobia	
375	1	noooooo	
376	1	Scrikss	
377	1	gila	
378	1	Peyton St.	
379	1	Internship	
380	1	source)](http://commons.wikimedia.org	
381	1	RE	
382	1	Forsyth County	
383	1	Koi	
384	1	Costa Rica	
385	1	Subtotal	
386	1	melborne	
387	1	Afghanistan	
388	1	IRC	
389	1	MelPens	
390	1	Malaysia	
391	1	no0b	
392	1	shanghai	
393	1	Braoer	
394	1	Bhai	
395	1	Nikon	
396	1	Bermuda	
397	1	vintagenib	
398	1	spoon	
399	1	dropper	
400	1	Herbin Rouge Caroubier	
401	1	Canon	
402	1	F-BB	
403	1	J.Herbin	
404	1	Bottle	
405	1	Queen Shit	
406	1	3= ?	
407	1	225P	
408	1	the X750	
409	1	Phoenix	
410	1	599/699	
411	1	Salix/Scabiosa	
412	1	Pennsylvania	
413	1	Persian	
414	1	piston assembly	
415	1	Grand Rapids	
416	1	Michigan	
417	1	Melb	
418	1	Wahloxford	
419	1	Veneto	
420	1	goulet nibs	
421	1	Jr	
422	1	Pelikan Nibs	
423	1	the republic of China	
424	1	Namiki	
425	1	(Republic of China	
426	1	PRC	
427	1	People's Republic of China	
428	1	Republic of China	
429	1	the People's Republic of China	
430	1	New Delhi	
431	1	Rhode Island	
432	1	Lengyel	
433	1	Animal	
434	1	Munich	
435	1	guitar	
436	1	Ottawa	
437	1	the United Kingdom	
438	1	bhai	
439	1	Pelikan M1005	
440	1	IM	
441	1	the Realo MF	
442	1	masuyama	
443	1	Nottttt	
444	1	beijing	
445	1	JP	
446	1	Jumbo	
447	1	netherlands	
448	1	Fedex	
449	1	Awkward	
450	1	nusic	
451	1	F / EF	
452	1	Legal Lapis	
453	1	Dromgooles	
454	1	Pendemonium	
455	1	Metro	
456	1	Leica	
457	1	Zeiss	
458	1	Bryant	
459	1	Exacompta	
460	1	monaco	
461	1	Brisbane	
462	1	Password	
463	1	the M200 Cognac	
464	1	San Diego CA	
465	1	Bhaisaheb	
466	1	Barcelona	
467	1	the Republic of drjd16-topia	
468	1	anti-Russia	
469	1	Charleston	
470	1	Laque	
471	1	next city	
472	1	Adorama	
473	1	Undergrad	
474	1	Habanero	
475	1	Linksta35	
476	1	Ferguson	
477	1	Norweigan	
478	1	Wikipedia	
479	1	Jinhoa	
480	1	Vibrant	
481	1	Edison Pens	
482	1	Beverly Hills	
483	1	an Kaweco Ice Sport	
484	1	MyDarnSnakelegs	
485	1	lamy safari&gt	
486	1	nope	
487	1	colombia	
488	1	NW	
489	1	the Hakase Sepia	
490	1	Voila	
491	1	lemy	
492	1	Aaand	
493	1	Banditapple	
494	1	Mass	
495	1	ayDvpuf.jpg	
496	1	pen-7.jpg	
497	1	mDW1T9t.jpg	
498	1	Istanbul	
499	1	Johnston	
500	1	mspaint.	
501	1	russia	
502	1	Brimmy	
503	1	Clairfontaine	
504	1	Chiku	
505	1	Illuminati	
506	1	Kensington	
507	1	Herbin, Skrip	
508	1	Nayaka	
509	1	witcht	
510	1	me](http://imgur.com/6mTDnJB	
511	1	Viginia	
512	1	Umber	
513	1	Lego	
514	1	Leuchtturms	
515	1	Clarefontaine	
516	1	Jetstar	
517	1	korea	
518	1	Philippines	
519	1	Xenia	
520	1	Dayton	
521	1	FL	
522	1	Miramar Beach	
523	1	Leek	
524	1	Canadia	
525	1	stylo.ca	
526	1	Familienunternehmen	
527	1	das 1930 von C. Josef Lamy	
528	1	Beginn	
529	1	Technik	
530	1	Verarbeitung	
531	1	Kunden	
532	1	Ihr Schreibgerät	
533	1	Pelikan M805	
534	1	Spartan	
535	1	Niche	
536	1	Mount Prospect	
537	1	Kawecos	
538	1	Manchester	
539	1	bourgognes	
540	1	Kingdom Note](https://www.kingdomnote.com/	
541	1	Shijuku	
542	1	Lambo	
543	1	Ukraine	
544	1	Mylar	
545	1	Kansas City	
546	1	Estie nibs	
547	1	Manayunk	
548	1	Dukes	
549	1	Baoers	
550	1	MSDS	
551	1	Purepens	
552	1	Graphite	
553	1	last.	
554	1	Platinum	
555	1	Komamono	
556	1	ink.](http://imgur.com/1u0D15M	
557	1	XD	
558	1	Accountant	
559	1	Maido	
560	1	Vienna	
561	1	pa	
562	1	Bing Translate	
563	1	Borealis Black(its	
564	1	Dollar	
565	1	Camel	
566	1	Sherwood Green	
567	1	Iberia	
568	1	Pelikan Turkis	
569	1	Ferraris	
570	1	Kustom	
571	1	Cassia	
572	1	Verdura	
573	1	Tsuki	
574	1	Fina	
575	1	http://www.fountainpennetwork.com/forum/topic/22180-lamy-safari-colours/page-21	
576	1	Chengdu	
577	1	nib.	
578	1	montreal	
579	1	Orange	
580	1	Pen city	
581	1	New Old Stock	
582	1	toronto	
583	1	Ravioli	
584	1	Formuoli	
585	1	smile*](http://listverse.wpengine.netdna	
586	1	uploads/2014/03/10-The_smiling_man.jpg	
587	1	Mini F nib	
588	1	Scotch	
589	1	Soooo	
590	1	nut wettest	
591	1	Wehrmacht	
592	1	Caulfield	
593	1	Omen	
594	1	underhand	
595	1	Red	
596	1	Redwood	
597	1	Classin	
598	1	http://ecx.images-amazon.com/images/I/71UAhSiMvLL._SL1500_.jpg	
599	1	Memphis	
600	1	Asheville	
601	1	Origami	
602	1	ER	
603	1	Souveran	
604	1	Micheals	
605	1	Nexus	
606	1	Low|$14.27|Amazon	
607	1	Classic	
608	1	Mini	
609	1	TWSBI	
610	1	Lazarus	
611	1	Bowie	
612	1	x450	
613	1	Spencerian	
614	1	Columbia	
615	1	Anyway	
616	1	Pelikan 120	
617	1	Avanti	
618	1	North Korea	
619	1	Manila	
620	1	Kiev	
621	1	USSR	
622	1	Electro	
623	1	M	
624	1	Sugardeath	
625	1	hehehehe	
626	1	metro	
627	1	Masuyama med italic	
628	1	Crossgrid	
629	1	Cocoon F	
630	1	Encrino	
631	1	Herts	
632	1	Button	
633	1	Olivastre	
634	1	Klingner Verdura](http://i.imgur.com/5svLJJ5.jpg	
635	1	Toys	
636	1	Mabie	
637	1	DotA	
638	1	Azziah	
639	1	EM	
640	1	Adobe	
641	1	Mr Hills	
642	1	LB	
643	1	Argentina	
644	1	asa-gao	
645	1	Ku-Jaku	
646	1	Florence	
647	1	Dubai	
648	1	Iowa	
649	1	last Varsity	
650	1	Philéas	
651	1	peasantstick	
652	1	Wisconsin	
653	1	Richmond	
654	1	Smurf	
655	1	IMHO	
656	1	Mumford	
657	1	Vert Empire	
658	1	M1000	
659	1	¥	
660	1	Nippon	
661	1	BCHR	
662	1	Kustoms	
663	1	sumgais	
664	1	Revenant	
665	1	Brianandersonpens	
666	1	x314-F	
667	1	Duduk	
668	1	A32BuPK.jpg	
669	1	Chinkin	
670	1	Red Dragon	
671	1	La Jolla	
672	1	Pasadena	
673	1	☺	
674	1	Guwop	
675	1	Ivory	
676	1	Philip	
677	1	gouletpens	
678	1	Fendi	
679	1	M305	
680	1	http://incompetech.com/graphpaper/	
681	1	Tacoma	
682	1	Mustard	
683	1	F-EF	
684	1	Demico	
685	1	Vac 700	
686	1	Aquamarine	
687	1	Black EF	
688	1	Iguana	
689	1	Sea	
690	1	M4xx	
691	1	Sbrebrown	
692	1	LAONAN	
693	1	Columbus	
694	1	Washington DC	
695	1	pakistan	
696	1	YESSSSSSS	
697	1	BLESSSSSSSS	
698	1	ISSS	
699	1	kickstarter	
700	1	california	
701	1	Kohls	
702	1	MB	
703	1	Montblan	
704	1	North	
705	1	Pelikan M805 Stresemann	
706	1	JakobS	
707	1	Petit1	
708	1	Schmidt K1	
709	1	it](https://www.google.ca	
710	1	ryoku	
711	1	Osmiroid	
712	1	Cambridge	
713	1	M205 Aquamarine	
714	1	toledo	
715	1	ZXsQAXx_ao0	
716	1	Pelikan Twist	
717	1	FP Nibs	
718	1	GP	
719	1	jebus	
720	1	Platinum 3776	
721	1	the Kaweco Piston	
722	1	League	
723	1	BnM	
724	1	Walnut	
725	1	Leuchtturm A5	
726	1	Zebra POS	
727	1	Franklin Christoph	
728	1	Pentacle	
729	1	Fabriano	
730	1	Calais	
731	1	Richmond Virginia	
732	1	pelikan m1000	
733	1	amazon.ca	
734	1	Plumang	
735	1	evilBay	
736	1	Platinum PTL-5000a's	
737	1	Savhannia	
738	1	Brooklyn	
739	1	Nevada	
740	1	https://www.amazon.com/Waterman-Hemisphere-Fountain-Medium-S0920630/dp/B004ML7HKO	
741	1	Ivory White	
742	1	Farenheit	
743	1	Martian	
744	1	Lindau	
745	1	Cleveland	
746	1	Edison F	
747	1	Kobe 42/54	
748	1	Q.C.	
749	1	Irridium Point Germany	
750	1	U.K.	
751	1	Charge	
752	1	Rogue	
753	1	CH92	
754	1	Decimos	
755	1	im14andthisisdeep	
756	1	LJ	
757	1	Springfield	
758	1	BOCK	
759	1	Lamborghini	
760	1	Las Vegas	
761	1	Rembrandts	
762	1	Taipei	
763	1	Sheeny	
764	1	Pelikan Parts	
765	1	Bic	
766	1	Flint	
767	1	Perelman	
768	1	Pearwood	
769	1	LT	
770	1	Cafe	
771	1	muji	
772	1	Prince II	
773	1	Caroline	
774	1	Iroshizuku Ina-Ho	
775	1	Czech Republic	
776	1	Prague	
777	1	Bohinj	
778	1	feelsbad	
779	1	london	
780	1	Valium	
781	1	banggood	
782	1	Titanium	
783	1	Sailor Sky	
784	1	SU	
785	1	Aaaaaaaand	
786	1	badadeeebaba	
787	1	Callifolio	
788	1	knob	
789	1	Sabilio	
790	1	Dreamtouch	
791	1	Zebra nibs	
792	1	Ziploc	
793	1	Aeterna	
794	1	Mecca	
795	1	Verify\)](https://en.wikipedia.org	
796	1	Arles	
797	1	the Van Gogh	
798	1	Montpellier	
799	1	^^|	
800	1	Kiwagura	
801	1	Damascus	
802	1	Bresil	
803	1	FC JoWo	
804	1	SOOOO	
805	1	Pelikan M800	
806	1	Calgary	
807	1	Great Britain	
808	1	Bloody	
809	1	https://i.imgur.com/MxZSgdw.jpg	
810	1	the Kaweco Lilliput	
811	1	PO nibs	
812	1	Unpopular	
813	1	Penschi	
814	1	Post	
815	1	Vulcain	
816	1	https://i.imgur.com/5IOwnbV.jpg	
817	1	Pelikan Raden	
818	1	Amsterdam	
819	1	Laren	
820	1	kanji	
821	1	spain	
822	1	Inverness	
823	1	Yggdrasil	
824	1	Georgetown	
825	1	x314-M	
826	1	Wk_Cv5kxV9M	
827	1	Piccadilly	
828	1	the Southern United States	
829	1	Walmart	
830	1	Penn	
831	1	Pffft	
832	1	https://i.imgur.com/KIx0Eoi.jpg	
833	1	Torino	
834	1	Yorick	
835	1	Bookbinder	
836	1	delet%20this%20dla6z8h	
837	1	Surry Hills	
838	1	https://i.imgur.com/GBfMXF3.jpg	
839	1	piston filler	
840	1	https://i.imgur.com/1zq2vcZ.jpg	
841	1	Seville	
842	1	Matador	
843	1	Aramaic	
844	1	https://i.imgur.com/XRHl4ra.jpg	
845	1	Schaeffer	
846	1	https://i.imgur.com/qwQdpsj.jpg	
847	1	kaweco nibs	
848	1	https://i.imgur.com/gm69krb.jpg	
849	1	Leuchtturm1917 A5	
850	1	eBay(which	
851	1	USPTO	
852	1	j7882z0h&amp;sh=40f1f04d	
853	1	Fountain Pen Republic	
854	1	Jinhao 159	
855	1	Alabama	
856	1	Fantasy VPs	
857	1	https://i.imgur.com/zkOQhpL.jpg	
858	1	Hilroy	
859	1	Pittsburgh	
860	1	yanno	
861	1	Visconti	
862	1	jinhao x750	
863	1	Heijō	
864	1	West US	
865	1	Shaangha	
866	1	Brass Sport	
867	1	CHINA	
868	1	Morocco	
869	1	HK	
870	1	the LE M200's	
871	1	Old Milord	
872	1	Old Paragon	
873	1	New Milord	
874	1	New Paragon	
875	1	Masuyama nibs	
876	1	Nagasawa	
877	1	Wales	
878	1	Amethyst	
879	1	Lavende	
880	1	Piccolo	
881	1	Stilograph Corsani	
882	1	Croatia	
883	1	module	
884	1	a_bit_on_baystate_blue	
885	1	Pisuke2005	
886	1	Kobe	
887	1	gangsta	
888	1	Mexico	
889	1	pensachi	
890	1	Macfreak	
891	1	Penton	
892	1	Deen	
893	1	Edison EF	
894	1	Tungsten	
895	1	Chung	
896	1	Little Rock	
897	1	Beverly	
898	1	Purple	
899	1	Bertram	
900	1	Maryland	
901	1	AU$50	
902	1	Lanbitou ECO	
903	1	Sonnets	
904	1	Jonathon	
905	1	the Quo Vadis Havana	
906	1	https://www.instagram.com/p/BbxkyPuDNWz/?taken-by=sandeeramartin)	
907	1	Lecuhtturm	
908	1	karas	
909	1	Normung	
910	1	Takahiro	
911	1	STERLING SILVER	
912	1	My Pelikan M620 Piccadilly	
913	1	Detroit	
914	1	Lisbon	
915	1	Chicagoland	
916	1	Oklahoma City	
917	1	Balmain	
918	1	Slashdot	
919	1	converter	
920	1	Den Dolder	
921	1	Jefferson County	
922	1	Ice](https://dl.airtable.com/0OOJUcZZQxa50orUil0B_Robert%20Oster%20Fire%20%26%20Ice.jpg	
923	1	Z28	
924	1	Shout	
925	1	Monty Python	
926	1	portugal	
927	1	South Dakota	
928	1	Flexi	
929	1	Pluminix	
930	1	Nitinol	
931	1	chicago	
932	1	Scribtol	
933	1	F. Pilot	
934	1	Elvis	
935	1	Väkste	
936	1	Sverige	
937	1	svenska	
938	1	US610818	
939	1	pelikan m600	
940	1	Upload	
941	1	Stipula v-flex	
942	1	EU	
943	1	Journaling	
944	1	Vista	
945	1	Metropolitain	
946	1	Agent_03	
947	1	mate	
948	1	Leuchturrm	
949	1	brass	
950	1	Ichii	
951	1	M6xx	
952	1	M8xx	
953	1	TD	
954	1	reachingralph	
955	1	Hercules	
956	1	https://i.redd.it/88h1dgj2t3001.jpg	
957	1	Fremont	
958	1	Tingo	
959	1	Boise	
960	1	Idaho	
961	1	Tysons	
962	1	Maine	
963	1	Balances	
964	1	Shopify	
965	1	Newcastle	
966	1	Bordeaux	
967	1	Poppy	
968	1	Safaris	
969	1	q0pzDMA.jpg	
970	1	Hehehehehe	
971	1	delet%20this%20dyc9z30	
972	1	Hoffman Estates	
973	1	F/XF	
974	1	ink\	
975	1	Cinnamaroon	
976	1	Lamie	
977	1	New Moon	
978	1	SI	
979	1	Sailor nibs	
980	1	me\	
981	1	Tomoe	
982	1	Kaufland	
983	1	Kendo	
984	1	the Netherlands	
985	1	thes nibs	
986	1	Alibaba	
987	1	Redragon	
988	1	U.S	
989	1	Zimbabwe	
990	1	MacNivon	
991	1	Potterheads	
992	1	Lecoule	
993	1	Geneva	
994	1	Lebanon	
995	1	Kansas	
996	1	Michelin	
997	1	Finland	
998	1	IE	
999	1	Sidney	
1000	1	Hague	
1001	1	South Holland	
1002	1	South Carolina	
1003	1	the Kaweco AL-Sport Raw	
1004	1	Skillz	
1005	1	F.P.	
1006	1	Jinhao x750	
1007	1	Ipsilon	
1008	1	Wancai	
1009	1	Svidanya	
1010	1	Bastard	
1011	1	Ms	
1012	1	Edison Mina	
1013	1	Wing Sungs	
1014	1	Kaweco AL	
1015	1	DDJHTWD8GPY	
1016	1	Franklin-Christoph	
1017	1	Midland	
1018	1	IO	
1019	1	Shimadzu 4ml	
1020	1	Honhonhonbaguette	
1021	1	Berlin	
1022	1	Kentucky	
1023	1	Louisville	
1024	1	new city	
1025	1	brass sport	
1026	1	Knox	
1027	1	Metropoliton	
1028	1	Italic F	
1029	1	Kakuno	
1030	1	Budapest	
1031	1	Reeeeeeeeeeeeeeeee	
1032	1	Nakaya nibs	
1033	1	Springy	
1034	1	N.B.	
1035	1	HP Premium Laser	
1036	1	pasty	
1037	1	shenzhen	
1038	1	Cherry Hill	
1039	1	VA	
1040	1	IL	
1041	1	brick&amp;mortar	
1042	1	Akureyri	
1043	1	743/823/845	
1044	1	Rino	
1045	1	Theresa	
1046	1	Zweig	
1047	1	brass kaweco	
1048	1	Lamys	
1049	1	Belgium	
1050	1	Antwerp	
1051	1	Tanzania	
1052	1	Shimoyo	
1053	1	Kullock	
1054	1	Inked	
1055	1	Birmingham Honus	
1056	1	Renee	
1057	1	Seiboku	
1058	1	VPD	
1059	1	Mayors	
1060	1	Underwoods	
1061	1	RO	
1062	1	Regalia	
1063	1	Scammers	
1064	1	L.A.	
1065	1	Shitty	
1066	1	alumina	
1067	1	Airbnb	
1068	1	Arbeit	
1069	1	Los Angeles	
1070	1	Beijing	
1071	1	CAD	
1072	1	Pelikan Aquamarine	
1073	1	Penwa	
1074	1	Nebraska	
1075	1	Lanbitou	
1076	1	DF	
1077	1	i.e	
1078	1	Feeny	
1079	1	Pelikan BB	
1080	1	Bernie	
1081	1	others.)](http://np.reddit.com	
1082	1	e7wstsz	
1083	1	Coronado	
1084	1	Sending	
1085	1	SA	
1086	1	OkCupid	
1087	1	Tinder	
1088	1	U.S.A	
1089	1	fantasia	
