#Word types: 1195
#Word tokens: 12750
#Search results: 0
1	1274	one	
2	779	two	
3	545	2	
4	455	1	
5	419	3	
6	371	5	
7	329	2000	
8	280	10	
9	278	few	
10	264	100	
11	257	6	
12	249	4	
13	242	51	
14	209	20	
15	196	three	
16	177	3776	
17	157	50	
18	152	couple	
19	148	74	
20	144	30	
21	144	pens](http://www.reddit.com	
22	141	vendors](https://www.reddit.com	
23	132	15	
24	126	580	
25	120	a	
26	110	45	
27	91	14	
28	86	1.1	
29	82	8	
30	81	823	
31	71	40	
32	70	7	
33	66	60	
34	64	12	
35	63	92	
36	62	21	
37	61	1.5	
38	60	so	
39	59	91	
40	57	146	
41	56	78	
42	56	80	
43	56	four	
44	55	five	
45	54	1911	
46	52	25	
47	51	9	
48	50	75	
49	50	200	
50	49	70	
51	49	18	
52	45	149	
53	44	six	
54	42	159	
55	42	zero	
56	41	90	
57	39	24	
58	37	400	
59	37	150	
60	36	4001	
61	35	700	
62	35	32	
63	35	1000	
64	34	million	
65	33	912	
66	33	2016	
67	32	599	
68	31	every	
69	31	hundred	
70	31	500	
71	31	16	
72	31	99	
73	31	698	
74	30	half	
75	29	ten	
76	27	600	
77	26	300	
78	24	1|0.13	
79	24	0	
80	23	dozen	
81	22	616	
82	22	1670	
83	22	88	
84	21	17	
85	21	all	
86	19	any	
87	19	52	
88	19	11	
89	19	95	
90	19	1.9	
91	18	thousand	
92	18	c	
93	18	r	
94	17	61	
95	17	more	
96	17	350	
97	17	120	
98	17	743	
99	16	mm	
100	16	no	
101	16	0.8	
102	16	13	
103	15	seven	
104	15	540	
105	15	0.5	
106	15	2|0.27	
107	15	19	
108	15	742	
109	14	1/2	
110	14	4.5	
111	14	250	
112	14	23	
113	14	800	
114	14	28	
115	13	$	
116	13	35	
117	13	1.3	
118	13	twenty	
119	13	55	
120	12	180	
121	12	2-tone	
122	12	225	
123	12	140	
124	11	65	
125	11	eight	
126	11	u	
127	11	1.0	
128	11	48	
129	11	618	
130	11	992	
131	11	601	
132	10	/r	
133	10	360	
134	10	0.6	
135	10	388	
136	10	3.0	
137	9	less	
138	9	101	
139	9	26	
140	9	144	
141	9	1745	
142	9	5.5	
143	8	27	
144	8	1:10	
145	8	10,000	
146	8	3|0.40	
147	8	1917	
148	8	22	
149	8	12,000	
150	8	0.2	
151	8	b	
152	8	double	
153	8	here](https://www.reddit.com	
154	7	14.5	
155	7	this](http://www.fountainpennetwork.com	
156	7	0.7	
157	7	99.9	
158	7	37	
159	7	66	
160	7	845	
161	7	2018	
162	6	450	
163	6	2.5	
164	6	110	
165	6	0.9	
166	6	130	
167	6	02	
168	6	41	
169	6	1500	
170	6	1200	
171	6	3008	
172	5	thread](http://www.fountainpennetwork.com	
173	5	this](http://www.gouletpens.com	
174	5	1.50	
175	5	twice	
176	5	359	
177	5	701	
178	5	6.0	
179	5	440	
180	5	98	
181	5	717	
182	5	145	
183	5	33	
184	5	801	
185	5	29	
186	5	1,200	
187	5	342	
188	5	1.4	
189	5	126	
190	5	175	
191	5	2017	
192	5	delet%20this&amp;message	
193	5	een	
194	5	▄	
195	4	͡	
196	4	#	
197	4	1950	
198	4	1/10	
199	4	240	
200	4	34	
201	4	3-pen	
202	4	1,000	
203	4	2500	
204	4	170	
205	4	2015	
206	4	video](https://www.youtube.com	
207	4	thirty	
208	4	0.4	
209	4	0.1	
210	4	57	
211	4	900	
212	4	8812	
213	4	12000	
214	4	2ml	
215	4	160	
216	4	oxblood](http://i.imgur.com	
217	4	64	
218	4	659	
219	4	40,000	
220	4	8588	
221	4	96	
222	4	author](https://np.reddit.com	
223	4	93	
224	4	56	
225	4	309	
226	3	67	
227	3	2013	
228	3	82	
229	3	420	
230	3	7|0.93	
231	3	6|0.80	
232	3	4|0.53	
233	3	9296	
234	3	3.2	
235	3	50/50	
236	3	650	
237	3	1.2	
238	3	85	
239	3	2009	
240	3	051	
241	3	1:1	
242	3	.95	
243	3	89	
244	3	38	
245	3	another	
246	3	62	
247	3	1912	
248	3	805	
249	3	con-20	
250	3	2004	
251	3	1909	
252	3	nine	
253	3	twelve	
254	3	an	
255	3	^^[code](https://github.com	
256	3	05	
257	3	275	
258	3	220	
259	3	3000	
260	3	1,300	
261	3	6,000	
262	3	316	
263	3	some	
264	3	billion	
265	3	2/3	
266	3	125	
267	3	p	
268	3	365	
269	3	\#2	
270	3	750	
271	3	0.3	
272	3	™	
273	3	\#3	
274	3	903	
275	3	3009	
276	3	3035	
277	3	3059	
278	3	113	
279	3	308	
280	3	post](https://www.reddit.com	
281	3	07	
282	3	8ballpens	
283	2	3.8	
284	2	1938	
285	2	3.00	
286	2	m	
287	2	10.9	
288	2	~$50	
289	2	68	
290	2	99.99	
291	2	176	
292	2	inks/	
293	2	330	
294	2	29|3.85	
295	2	14|1.86	
296	2	5|0.66	
297	2	925	
298	2	fifty	
299	2	3.5	
300	2	892	
301	2	0.35	
302	2	10.50	
303	2	2014	
304	2	321	
305	2	3.50	
306	2	15,000	
307	2	3/4	
308	2	69	
309	2	95s	
310	2	163	
311	2	0.99	
312	2	2-pen	
313	2	1970	
314	2	1978	
315	2	1/8	
316	2	1948	
317	2	190	
318	2	369	
319	2	204	
320	2	9201	
321	2	2011	
322	2	606	
323	2	problems](http://www.fountainpennetwork.com	
324	2	142	
325	2	3-in-1	
326	2	1/4	
327	2	1951	
328	2	1,100	
329	2	8000	
330	2	1952	
331	2	2003	
332	2	;)	
333	2	79	
334	2	10:1	
335	2	559	
336	2	16.1	
337	2	12.50	
338	2	9600	
339	2	97	
340	2	136	
341	2	thread](https://www.reddit.com	
342	2	2,000	
343	2	72	
344	2	210	
345	2	12757	
346	2	1/20	
347	2	552	
348	2	2.50	
349	2	36	
350	2	1996	
351	2	550	
352	2	con-40	
353	2	462	
354	2	7500	
355	2	395	
356	2	03	
357	2	this](http://www.paperinkarts.com	
358	2	5000	
359	2	green](http://i.imgur.com	
360	2	14:39:54	
361	2	1/3	
362	2	12:30	
363	2	43	
364	2	8.5x11	
365	2	105	
366	2	eleven	
367	2	58	
368	2	edition](http://www.seitz	
369	2	20,000	
370	2	87	
371	2	list](http://www.penhero.com	
372	2	this](https://www.reddit.com	
373	2	234	
374	2	914	
375	2	6000	
376	2	232	
377	2	1949	
378	2	0:19:29	
379	2	409	
380	2	4/5	
381	2	this](https://cdn	
382	2	1.25	
383	2	47	
384	2	s	
385	2	this](https://www.nibs.com	
386	2	this](http://www.thecramped.com	
387	2	this](http://www.richardspens.com	
388	2	1600	
389	2	comments/73edn2	
390	2	922	
391	2	😂	
392	2	^(for	
393	2	3003	
394	2	590	
395	2	54	
396	2	106	
397	2	11:59	
398	2	0.38	
399	2	183	
400	2	2010	
401	2	15:24:03	
402	2	344	
403	1	cheap](http://www.gouletpens.com	
404	1	http://eckiethump.webs.com/	
405	1	15.6	
406	1	30-cent	
407	1	reading](http://www.reddit.com	
408	1	~~money.~~	
409	1	ill	
410	1	12.50](http://www.gouletpens.com	
411	1	2.1	
412	1	6.1	
413	1	17.99](http://www.kingsizedirect.com	
414	1	22.99](http://www.kingsizedirect.com	
415	1	0.70	
416	1	site](http://www.gouletpens.com	
417	1	50~70	
418	1	aerometric	
419	1	30-$40	
420	1	50-$150	
421	1	60-$80	
422	1	1.1.mm	
423	1	nibs?](http://www.gouletpens.com	
424	1	mine](https://www.pelikan.com	
425	1	30-$50	
426	1	9.00	
427	1	can_you_guess_my_favorite_color	
428	1	here](http://www.reddit.com	
429	1	10-something	
430	1	~a	
431	1	529	
432	1	words](http://www.reddit.com	
433	1	15,960	
434	1	penvelope](http://www.franklin	
435	1	2.9	
436	1	581	
437	1	1960	
438	1	754	
439	1	133|17.64	
440	1	125|16.58	
441	1	70|9.28	
442	1	41|5.44	
443	1	|	
444	1	39|5.17	
445	1	34|4.51	
446	1	24|3.18	
447	1	21|2.79	
448	1	15|1.99	
449	1	13|1.72	
450	1	8|1.06	
451	1	here](http://www.aliexpress.com	
452	1	many	
453	1	1,097,891st	
454	1	310	
455	1	these](https://www.youtube.com	
456	1	4:20	
457	1	11k	
458	1	2/10	
459	1	´	
460	1	320	
461	1	writing](https://www.youtube.com	
462	1	2.3	
463	1	13.95	
464	1	51,45	
465	1	212	
466	1	60/2.8	
467	1	90/2.8	
468	1	3855	
469	1	32224	
470	1	111	
471	1	here](http://www.fountainpennetwork.com	
472	1	0.28	
473	1	0.45	
474	1	50$+	
475	1	restored](https://www.facebook.com	
476	1	1:1,000,000	
477	1	review](http://www.reddit.com	
478	1	9.6	
479	1	88.72	
480	1	78.72	
481	1	2.66	
482	1	250~	
483	1	1924	
484	1	favour	
485	1	sample](http://i.imgur.com	
486	1	nib)](http://static.karlblessing.com	
487	1	grease](http://www.andersonpens.net	
488	1	2.4	
489	1	handwriting](http://www.paperinkarts.com	
490	1	video](http://www.youtube.com	
491	1	35.95	
492	1	worse](http://www.richardspens.com	
493	1	nib,~~but	
494	1	58c](http://www.fountainpenrevolution.com	
495	1	pack](http://www.gouletpens.com	
496	1	850	
497	1	3-way	
498	1	1995	
499	1	70-$100	
500	1	1](http://i.imgur.com	
501	1	2](http://i.imgur.com	
502	1	nibs2	
503	1	1.5ml	
504	1	15000	
505	1	3.6	
506	1	this](http://www.andersonpens.net	
507	1	404	
508	1	9/10	
509	1	152	
510	1	6:30	
511	1	605	
512	1	6062	
513	1	aap	
514	1	procrastination](https://www.amherst.edu	
515	1	name](http://www.huffingtonpost.com/2013/04/16	
516	1	shell](http://fp	
517	1	96-b	
518	1	opposite](http://www.reddit.com	
519	1	25+g	
520	1	403usd?!?!](http://imgur.com	
521	1	~12	
522	1	someday](http://www.fountainpennetwork.com	
523	1	119	
524	1	5.75	
525	1	then](http://www.fountainpennetwork.com	
526	1	15-turquoise	
527	1	1.81	
528	1	910	
529	1	info](https://www.changetip.com	
530	1	discussion](http://www.reddit.com	
531	1	.30	
532	1	1,5	
533	1	1.5x	
534	1	shit](http://www.gouletpens.com	
535	1	y	
536	1	guide](http://www.reddit.com	
537	1	gt;6	
538	1	reviewers](http://www.peneconomics.com	
539	1	2k-8k	
540	1	https://www.massdrop.com/r/w93cbk	
541	1	converter](http://www.amazon.com	
542	1	thread](http://www.reddit.com	
543	1	index.php?/topic/210238-ahab	
544	1	topic/278338-review	
545	1	pelican](http://www.pelikan.com	
546	1	these](http://www.reddit.com	
547	1	15inch	
548	1	17-iroshizuku-6-sailor	
549	1	75719500	
550	1	32277400	
551	1	nook](http://www.gouletpens.com	
552	1	nibs](http://www.gouletpens.com	
553	1	notebook](http://www.amazon.com	
554	1	this](http://www.reddit.com	
555	1	8800	
556	1	5-for-$1	
557	1	4506	
558	1	3506	
559	1	vintage	
560	1	here](http://www.ebay.com	
561	1	special	
562	1	62.5	
563	1	13.3	
564	1	14.4	
565	1	18.6	
566	1	178	
567	1	14ct	
568	1	right](https://www.youtube.com	
569	1	demonstrator](http://www.fahrneyspens.com	
570	1	whoever](http://www.reddit.com	
571	1	demonstrator](http://www.martiniauctions.com	
572	1	be	
573	1	page](https://www.facebook.com	
574	1	1923	
575	1	students](http://www.peneconomics.com	
576	1	4.45	
577	1	5.65	
578	1	2.0	
579	1	pens--	
580	1	here](https://www.massdrop.com	
581	1	9460	
582	1	true](https://www.fdic.gov	
583	1	hero-616-triple	
584	1	site](http://www.auspens.com	
585	1	7ish	
586	1	1930	
587	1	week](http://www.peneconomics.com	
588	1	method](https://www.youtube.com	
589	1	9x7	
590	1	comment](http://www.reddit.com	
591	1	case](http://www.franklin	
592	1	0.79	
593	1	precious](http://www.amazon.com	
594	1	8&amp;keywords	
595	1	less](http://www.amazon.com	
596	1	849382	
597	1	originated](http://www.reddit.com	
598	1	page](http://www.gouletpens.com	
599	1	lucky](http://www.ebay.com	
600	1	sixty	
601	1	109	
602	1	886	
603	1	section](http://www.fountainpennetwork.com	
604	1	classic](http://www.gouletpens.com	
605	1	3-tined	
606	1	100-$200	
607	1	showroom](http://www.fountainpennetwork.com	
608	1	spirit](http://www.lamy.com	
609	1	100,000	
610	1	medium	
611	1	305	
612	1	50¢	
613	1	0.23	
614	1	enormous](http://www.fountainpennetwork.com	
615	1	thesame	
616	1	17/21/51	
617	1	39.40	
618	1	32.75	
619	1	f	
620	1	84	
621	1	~~college	
622	1	black(its	
623	1	4.1	
624	1	5.3	
625	1	200(euros	
626	1	266	
627	1	this](https://www.youtube.com	
628	1	folks](http://www.amazon.com	
629	1	900-ish	
630	1	powder](http://www.reddit.com	
631	1	here](http://www.giftcardplace.com	
632	1	2-day	
633	1	5/8	
634	1	2x7	
635	1	457	
636	1	207	
637	1	20/20	
638	1	.4	
639	1	1937	
640	1	£	
641	1	1~~0~~	
642	1	correct](https://www.youtube.com	
643	1	rollerball	
644	1	14.00	
645	1	topic/239909-pilot	
646	1	2.6	
647	1	31,200	
648	1	last](https://www.reddit.com	
649	1	300,000	
650	1	22.45	
651	1	idiot](https://www.youtube.com	
652	1	70-ish	
653	1	more](http://blog.gouletpens.com/2013/08	
654	1	0.21	
655	1	true](http://fortune.com/2015/08/17	
656	1	10/80	
657	1	fifteen	
658	1	2328	
659	1	price](http://www.aliexpress.com	
660	1	1.20	
661	1	cylinder](http://www.amazon.com	
662	1	side](https://www.reddit.com	
663	1	8019	
664	1	one](http://imgur.com	
665	1	03:39	
666	1	01:54	
667	1	2005	
668	1	1980	
669	1	4:18	
670	1	review](http://blog.gouletpens.com/2015/07	
671	1	straps](http://www.ebay.com	
672	1	pens](http://www.gouletpens.com	
673	1	fine	
674	1	ebay](http://www.ebay.com	
675	1	pens](https://www.cultpens.com	
676	1	5.88	
677	1	~~smooth	
678	1	4500	
679	1	392	
680	1	505	
681	1	297	
682	1	1005	
683	1	08	
684	1	5/10	
685	1	ago.](http://i.imgur.com	
686	1	response](https://www.reddit.com	
687	1	youtube](https://www.youtube.com	
688	1	these](http://www.andersonpens.com	
689	1	4000	
690	1	149-pen	
691	1	~1.4	
692	1	1.18	
693	1	88php	
694	1	1890	
695	1	480	
696	1	y'all	
697	1	seventeen	
698	1	4004	
699	1	this](http://www.johnnealbooks.com	
700	1	1916	
701	1	topic/297340-nib	
702	1	4.99	
703	1	|_|	
704	1	tbh	
705	1	30-$100	
706	1	10.00	
707	1	1001	
708	1	stand](https://www.reddit.com	
709	1	6.2	
710	1	18.2	
711	1	17.9	
712	1	78g.	
713	1	moore-94a	
714	1	size-16-straight	
715	1	straight](http://www.ebay.com	
716	1	9.50	
717	1	520	
718	1	22.56	
719	1	0.023	
720	1	877	
721	1	1997	
722	1	1/7	
723	1	here](http://www.engeika.com	
724	1	list?keyword	
725	1	scientific-208u2-plastic	
726	1	1/2v	
727	1	800x600	
728	1	bream](http://i.imgur.com	
729	1	11.9	
730	1	13.1	
731	1	12.1	
732	1	13.4	
733	1	3592071	
734	1	4.50	
735	1	2:00	
736	1	sung-235-fountain	
737	1	nib-/231629046152	
738	1	sung-612a	
739	1	0.32	
740	1	1.35	
741	1	3-year	
742	1	5ml	
743	1	v-301	
744	1	d1ogr1i	
745	1	so](http://www.gouletpens.com	
746	1	many](http://www.gouletpens.com	
747	1	limpieza	
748	1	apricot](http://i.imgur.com	
749	1	notebooks](https://www.amazon.com	
750	1	6794	
751	1	6.2601	
752	1	99.99999	
753	1	48-pen	
754	1	-5	
755	1	200:1	
756	1	9128	
757	1	71	
758	1	3650	
759	1	page](http://www.richardspens.com	
760	1	colour](https://www.pelikan.com	
761	1	6-figure	
762	1	0.5ml	
763	1	3o2det	
764	1	5.83	
765	1	m-16	
766	1	quest](http://www.humansofnewyork.com	
767	1	9926	
768	1	this](http://www.andersonpens.com	
769	1	4-italic	
770	1	3203	
771	1	hits](https://www.reddit.com	
772	1	°	
773	1	1.7	
774	1	copypasta](https://www.reddit.com	
775	1	06	
776	1	585	
777	1	white/	
778	1	1:5	
779	1	7ml	
780	1	black	
781	1	pens](https://www.reddit.com	
782	1	90s.	
783	1	article](http://www.theatlantic.com	
784	1	hl](http://i.imgur.com	
785	1	highlighter](http://i.imgur.com	
786	1	guide](https://www.reddit.com	
787	1	^^^china	
788	1	5!that	
789	1	binder:~~	
790	1	this](https://goo.gl	
791	1	19,50	
792	1	6,50	
793	1	30/60/90	
794	1	4x4	
795	1	touchdown	
796	1	0.61ml	
797	1	hue](http://i303.photobucket.com	
798	1	500~1000	
799	1	0192	
800	1	64.13	
801	1	fillers](http://www.fountainpenrevolution.com	
802	1	noodler`s	
803	1	\#6	
804	1	6a10	
805	1	5.32	
806	1	2](http://imgur.com	
807	1	9550	
808	1	6–7	
809	1	review](https://www.youtube.com	
810	1	nibbage](https://www.youtube.com	
811	1	77	
812	1	politics(both	
813	1	335	
814	1	1901	
815	1	39¢	
816	1	la	
817	1	1853	
818	1	plumang.html	
819	1	these](http://www.fpnibs.com	
820	1	unit.html?search_query=14k+nib+unit+size+6%2c+semi	
821	1	~1.5	
822	1	here](http://www.instructables.com	
823	1	pens?](http://www.gouletpens.com	
824	1	q	
825	1	5:30	
826	1	.002	
827	1	209	
828	1	451	
829	1	1/30	
830	1	44	
831	1	1.98	
832	1	427	
833	1	3x5	
834	1	64.4	
835	1	much	
836	1	case](https://www.twsbi.com	
837	1	0.0025	
838	1	this](http://www.bestbuy.com	
839	1	x750s	
840	1	medium](http://www.ebay.com	
841	1	fine](http://www.ebay.com	
842	1	995	
843	1	12-year	
844	1	3-holed	
845	1	site](http://www.historyhit.com	
846	1	just	
847	1	~~real	
848	1	235	
849	1	518.10	
850	1	665	
851	1	link](http://www.fountainpennetwork.com	
852	1	951	
853	1	422	
854	1	turquoise-2oz	
855	1	5.1	
856	1	97.5	
857	1	eco](http://amzn.to/2kwuxzw	
858	1	-specially	
859	1	10.25	
860	1	26.035	
861	1	axe	
862	1	5.70	
863	1	-4	
864	1	4.65	
865	1	30-$15	
866	1	fake](https://www.youtube.com	
867	1	218	
868	1	1.4ml	
869	1	48/24	
870	1	429	
871	1	inks](https://www.jetpens.com	
872	1	9668	
873	1	1.28ml	
874	1	.1	
875	1	86	
876	1	10/10	
877	1	128	
878	1	0.0810	
879	1	689	
880	1	150ml	
881	1	inspired](http://www.pensinasia.com	
882	1	17,000	
883	1	\#1	
884	1	719	
885	1	939	
886	1	416	
887	1	here](https://www.instagram.com	
888	1	7023	
889	1	verify\)](https://en.wikipedia.org	
890	1	nibs](http://www.sailorpen.com	
891	1	€	
892	1	127.57	
893	1	133.08	
894	1	94	
895	1	100s	
896	1	1950s	
897	1	501	
898	1	1914	
899	1	discover	
900	1	1/5	
901	1	950	
902	1	823(m	
903	1	a5ae6e9d-5e8f-4bc9	
904	1	1864	
905	1	1864](http://www.fountainpennetwork.com	
906	1	9000	
907	1	5-packs	
908	1	98.4	
909	1	107	
910	1	4x6	
911	1	0.65	
912	1	0.697775	
913	1	3668	
914	1	560	
915	1	ink-66ml	
916	1	well](http://www.ebay.com	
917	1	benitengudake-50ml-2996100083334-/322429189182?hash	
918	1	1990	
919	1	😀	
920	1	56-page	
921	1	221	
922	1	post](http://www.inksandpens.com	
923	1	100,120,140	
924	1	6006	
925	1	answers](http://i.imgur.com	
926	1	campaign](https://www.kickstarter.com	
927	1	55,000	
928	1	6.49	
929	1	6.01	
930	1	level](https://www.nibs.com	
931	1	9556	
932	1	12:1	
933	1	361	
934	1	1789	
935	1	875	
936	1	1.00	
937	1	67.96000000000001	
938	1	leuchtturm1917	
939	1	58.17	
940	1	14.7	
941	1	149.~~	
942	1	topic/309749-twsbi	
943	1	620	
944	1	11:59pm	
945	1	78g	
946	1	1550	
947	1	1.3ml	
948	1	42	
949	1	pens](https://www.gouletpens.com	
950	1	more/	
951	1	syringe](https://www.gouletpens.com	
952	1	link](https://i.imgur.com	
953	1	5-$10	
954	1	5028	
955	1	them](https://www.reddit.com	
956	1	31	
957	1	1100	
958	1	710	
959	1	62ac-4df3	
960	1	~6ish	
961	1	channel](https://www.youtube.com	
962	1	20/10	
963	1	antimicrobial](https://en.wikipedia.org	
964	1	192	
965	1	9009	
966	1	post](https://www.instagram.com	
967	1	stabbing](https://www.reddit.com	
968	1	submissions](https://www.reddit.com	
969	1	http://www.reddit.com/r/fountainpens/comments/13isgr/guide_to_getting_your_first_fountain_pen/	
970	1	3776](http://www.platinum	
971	1	0.51	
972	1	1.30	
973	1	6.53	
974	1	16.59	
975	1	chart](https://www.nibs.com	
976	1	0.13	
977	1	3.30	
978	1	1](http://penhabit.com/2016/02/26	
979	1	micromesh](http://www.andersonpens.com	
980	1	000-grit	
981	1	340	
982	1	prod_detail_list	
983	1	1936	
984	1	92.84	
985	1	491.95	
986	1	6.71	
987	1	50ml	
988	1	50.00	
989	1	125.00	
990	1	1992	
991	1	10:00	
992	1	7:00	
993	1	1999	
994	1	11.99	
995	1	~50	
996	1	don't	
997	1	-akkerman	
998	1	2)my	
999	1	10-buck	
1000	1	1515	
1001	1	49	
1002	1	12.5	
1003	1	13.8	
1004	1	(:	
1005	1	11.98	
1006	1	section](http://thenibsection.podbean.com/	
1007	1	1litre	
1008	1	topic/329667-mwp	
1009	1	10-day	
1010	1	link](http://www.richardspens.com	
1011	1	11:32	
1012	1	online](https://www.staples.com	
1013	1	30,000	
1014	1	flushing](https://www.youtube.com	
1015	1	set](http://www.richardspens.com/?page	
1016	1	here](https://www.nibs.com	
1017	1	~~this	
1018	1	01	
1019	1	000-mechanical	
1020	1	4.0.0	
1021	1	3.0.0	
1022	1	:(	
1023	1	1.1stub	
1024	1	1400	
1025	1	8.50	
1026	1	700r](https://i.redd.it	
1027	1	comments/7nffd6	
1028	1	1019	
1029	1	http://theodoregray.com/periodictabledisplay/elements/077/index.html	
1030	1	---------------------------------------------	
1031	1	8:26	
1032	1	923	
1033	1	630	
1034	1	inspiration](https://www.reddit.com	
1035	1	2x4u6o8yocid0rakk3tghcsinye	
1036	1	3019	
1037	1	54^th	
1038	1	topic/331090-wingsung-601-vacumatic	
1039	1	turquoise/	
1040	1	81.11	
1041	1	1.8	
1042	1	9.52	
1043	1	subject](http://www.richardspens.com	
1044	1	6218	
1045	1	150,000	
1046	1	så	
1047	1	6359	
1048	1	16,50	
1049	1	stnvf.ynoqe	
1050	1	http://www.fpnibs.com	
1051	1	nishimura](https://www.vintagepens.com	
1052	1	1.60	
1053	1	t-40	
1054	1	1](https://youtu.be	
1055	1	1](https://imgur.com	
1056	1	1950´s	
1057	1	1800	
1058	1	pared](http://www.arkansasonline.com	
1059	1	clearance](https://www.csmonitor.com	
1060	1	’s	
1061	1	1-for-1	
1062	1	5-person	
1063	1	103	
1064	1	item56a0385568	
1065	1	statement](https://www.instagram.com	
1066	1	lot	
1067	1	1](http://asapens.in	
1068	1	0.03	
1069	1	1.0ml	
1070	1	598	
1071	1	.5	
1072	1	1/60	
1073	1	edition](https://np.reddit.com	
1074	1	slain](https://www.reddit.com	
1075	1	1&amp;5	
1076	1	-50	
1077	1	267	
1078	1	vac20a	
1079	1	formulated](http://www.platinum	
1080	1	zealand](https://www.facebook.com	
1081	1	ink-50-ml	
1082	1	comment](https://www.reddit.com	
1083	1	options](https://www.gouletpens.com	
1084	1	closeout](https://www.gouletpens.com	
1085	1	~14	
1086	1	1918	
1087	1	4800	
1088	1	syringe](https://youtu.be	
1089	1	5-ish	
1090	1	98.67	
1091	1	60.99	
1092	1	4.49	
1093	1	11.500	
1094	1	11.8	
1095	1	350~~	
1096	1	80.00	
1097	1	4\-5	
1098	1	50\+	
1099	1	5ish	
1100	1	1119	
1101	1	246	
1102	1	294	
1103	1	302	
1104	1	966	
1105	1	1002	
1106	1	94140557	
1107	1	22700	
1108	1	345	
1109	1	444	
1110	1	662	
1111	1	1935	
1112	1	1798	
1113	1	fourteen	
1114	1	1,971	
1115	1	118	
1116	1	27709figbootonpens@gmail.cominstagram	
1117	1	9.](http://www.fountainpennetwork.com	
1118	1	here](https://www.youtube.com	
1119	1	3007	
1120	1	gt;an	
1121	1	9315	
1122	1	162	
1123	1	155	
1124	1	1026	
1125	1	gt;your	
1126	1	2000ish-2008	
1127	1	732	
1128	1	shims.~~	
1129	1	0.04	
1130	1	0.20	
1131	1	148	
1132	1	298	
1133	1	nouveau](https://www.youtube.com	
1134	1	40,197	
1135	1	391	
1136	1	98.61	
1137	1	67.51	
1138	1	4.73	
1139	1	12~15	
1140	1	849	
1141	1	26.6	
1142	1	original](https://www.instagram.com	
1143	1	improved](https://www.instagram.com	
1144	1	~$700	
1145	1	191	
1146	1	00	
1147	1	con40	
1148	1	2-x-11	
1149	1	paper](https://www.dollargeneral.com	
1150	1	approaches](https://www.reddit.com	
1151	1	9570	
1152	1	b004flchmo	
1153	1	5.00	
1154	1	024	
1155	1	357	
1156	1	244	
1157	1	these](https://www.jetpens.com	
1158	1	9:39	
1159	1	visconti‘s	
1160	1	12032	
1161	1	59	
1162	1	300s	
1163	1	trio_1_2__custom_focus__reduced_by_voidelemental	
1164	1	4½	
1165	1	58.5	
1166	1	999	
1167	1	60ml	
1168	1	30ml	
1169	1	itself	
1170	1	3500	
1171	1	page](https://www.nibs.com	
1172	1	similar](https://ericgeiger.com	
1173	1	sponge](https://www.bygxtra.dk//upload	
1174	1	here](http://www.pensburymanor.com	
1175	1	3776s	
1176	1	0.15	
1177	1	726	
1178	1	15-$20	
1179	1	338](http://thisisthewriteplace.com	
1180	1	square(cross	
1181	1	here](https://www.jetpens.com	
1182	1	7/10	
1183	1	000	
1184	1	shoulders](https://www.nibs.com	
1185	1	one](https://imgur.com	
1186	1	02:10:56	
1187	1	0.05	
1188	1	205	
1189	1	2012	
1190	1	2:47	
1191	1	case](https://www.franklin	
1192	1	pouch](https://www.etsy.com	
1193	1	triple	
1194	1	20/50/100	
1195	1	fall30	
