#Word types: 1374
#Word tokens: 3212
#Search results: 0
1	104	the Lamy 2000	
2	100	Conklin	
3	90	YouTube	
4	75	Instagram	
5	72	Safari	
6	51	Preppy	
7	46	Jowo	
8	43	580AL	
9	43	Vanness	
10	36	a Lamy 2000	
11	35	the F nib	
12	34	EoC	
13	32	3776	
14	29	Moonman	
15	27	an F nib	
16	26	Eclipse	
17	25	323	
18	22	a F nib	
19	22	E95s	
20	21	safari	
21	20	400NN	
22	20	Lamy 2000	
23	20	Apache	
24	20	a M nib	
25	19	PayPal	
26	18	Waterman	
27	18	x750	
28	18	the M nib	
29	16	Classic	
30	15	an M nib	
31	14	A4	
32	14	°	
33	14	Roses	
34	13	M400	
35	12	e95s	
36	12	580	
37	12	F nib	
38	12	618	
39	12	The F nib	
40	11	F	
41	11	580s	
42	11	Kakuno	
43	10	my Lamy 2000	
44	10	Instagram @redeempens	
45	10	Con-70	
46	10	Lamy 2k	
47	10	Con-40	
48	9	Jet Pens	
49	9	Massdrop	
50	9	Kingsize	
51	9	Vanness Pens	
52	9	Eco	
53	9	Fine	
54	8	Pilot Metro	
55	8	Sailor	
56	8	CH912	
57	7	Studio	
58	7	Redeem Pens	
59	7	EF	
60	7	MB149	
61	7	Metro F	
62	7	992s	
63	7	Dremel	
64	7	Metro	
65	6	Reddit	
66	6	Con-20	
67	6	MassDrop	
68	6	Staples	
69	6	Duragraph	
70	6	F-C.	
71	6	Copper	
72	5	F nibs	
73	5	the Lamy 2k	
74	5	a5	
75	5	Goulet Pens	
76	5	G2	
77	5	Vac 700	
78	5	Enigma	
79	5	45	
80	5	a Platinum 3776	
81	5	B5	
82	5	Pelikan 400NN	
83	5	2k	
84	5	X750	
85	5	Apache Sunset	
86	5	700R	
87	5	Duofolds	
88	5	Maxima	
89	5	The Model 02	
90	5	308s	
91	5	400nn	
92	5	m400	
93	5	Fresca Blue	
94	4	Diamond Point	
95	4	LT1917	
96	4	my Model 02	
97	4	Preppies	
98	4	Fresca	
99	4	super5	
100	4	Appelboom	
101	4	Lamy	
102	4	classic	
103	4	Organic Studio	
104	4	Citrus	
105	4	Model 31	
106	4	Goulet	
107	4	Souverän	
108	4	CAD	
109	4	the Model 45	
110	4	Vermilion	
111	4	Lamy LX	
112	4	*	
113	4	Online	
114	4	my F nib	
115	4	Schrodinger	
116	4	M600	
117	4	267s	
118	4	Concorde	
119	4	J.Herbin	
120	4	F steel nib\	
121	4	Opus	
122	3	Z26	
123	3	Aurora	
124	3	Alpha Centauri	
125	3	Pilot G2	
126	3	the Model 20	
127	3	a Lamy 2K	
128	3	the Lamy EF	
129	3	Touchdown	
130	3	❤	
131	3	Soyuz	
132	3	The Lamy 2000	
133	3	M805	
134	3	Magic	
135	3	Windex	
136	3	Nighthawk	
137	3	the Platinum 3776	
138	3	EFs	
139	3	Lamy 1.1	
140	3	400N	
141	3	USS Texas	
142	3	the Con 50	
143	3	Con-50	
144	3	Trident	
145	3	Lingmo	
146	3	Stargazer	
147	3	618s	
148	3	the F nibs	
149	3	M200	
150	3	a Parker 51	
151	3	M800	
152	3	Google	
153	3	I´m	
154	3	MX	
155	3	M60x	
156	3	Vaness	
157	3	Sakura	
158	3	Ranga Model 3	
159	3	Crayola	
160	3	DC	
161	3	QC	
162	3	a Knox Galileo	
163	3	Triumph	
164	3	Pineider	
165	3	M215	
166	3	308	
167	3	Parker 51	
168	3	Autumn	
169	3	Aero	
170	3	Beatles	
171	3	Reform	
172	2	Saturn	
173	2	Rhodia	
174	2	599s	
175	2	F-M	
176	2	100N	
177	2	a "Universal Sento Notebook	
178	2	my Model 20	
179	2	400S	
180	2	Blue Lamy	
181	2	Royal Blue	
182	2	Bungu Box	
183	2	🤙	
184	2	ACBB	
185	2	Pilots	
186	2	Levenger L-tech	
187	2	a F Nib	
188	2	580al	
189	2	Sheaffers	
190	2	nighthawk	
191	2	100ml	
192	2	Sheaffer	
193	2	Solo	
194	2	Notes	
195	2	Pilot G2's	
196	2	Shadow	
197	2	m805	
198	2	3-pen	
199	2	Metropolitans	
200	2	Bungubox	
201	2	Model 20	
202	2	an Extra Fine Nib	
203	2	Sport	
204	2	Lamy al	
205	2	Cristoph Model 20	
206	2	TLC	
207	2	Starwalker	
208	2	Schrödinger	
209	2	WS698	
210	2	HP	
211	2	CH742	
212	2	717i	
213	2	Lamy AL star	
214	2	Model 45	
215	2	Oxford	
216	2	Geha	
217	2	Walden	
218	2	VS	
219	2	JinHao x750	
220	2	Maniflex	
221	2	PdAg	
222	2	CH92	
223	2	Rook	
224	2	the Model 28	
225	2	m800	
226	2	580RB	
227	2	823s	
228	2	a Vac 20	
229	2	a Model 03	
230	2	the Parker 75	
231	2	the OS Nitrogen	
232	2	Edelstein	
233	2	Hero 616	
234	2	~$40	
235	2	https://imgur.com/a/ReIyd	
236	2	🤦	
237	2	Bung Box	
238	2	Briolette	
239	2	u/JunkyardSam	
240	2	a Lamy EF	
241	2	Galileo	
242	2	ECO	
243	2	The M nib	
244	2	couldn´t	
245	2	an Extra Fine	
246	2	Rhodia 80	
247	2	M300	
248	2	x2	
249	2	Excel	
250	2	$	
251	2	Nikko G nib	
252	2	Model 5	
253	2	1/2v	
254	2	Konrad	
255	2	Voyager	
256	2	JoWo nibs	
257	2	Twilight Blue	
258	2	conklin	
259	2	P45s	
260	2	Penmanships	
261	2	C823	
262	2	A7	
263	2	Rule A7	
264	2	580AL EF	
265	2	the F-C.	
266	2	PTL-5000	
267	2	1.5	
268	2	life-collection](https://www.ebay.com	
269	2	Accord	
270	2	a Lamy 2k	
271	2	Moonman 80	
272	2	Supernova	
273	2	Impressa	
274	2	Cosmos	
275	2	Clairefontaine 90	
276	2	a Field Notes	
277	2	A5	
278	2	Aurora Optima	
279	2	the Model 8	
280	2	tl;dr	
281	2	Pd-Ag	
282	2	601s	
283	2	\(18k F nib\	
284	2	Capless	
285	2	mu500 eyepiece camera	
286	2	Tuckaways	
287	2	BENCO STEEL 4	
288	2	Staedler	
289	2	99&amp;#37	
290	2	Ginza	
291	2	Wancai	
292	2	Violin	
293	2	Macro	
294	2	Cloud	
295	2	g2	
296	2	Symphony	
297	2	Nikko G	
298	2	Tomoe River 68gsm	
299	2	Apica	
300	2	the Lamy 2K	
301	2	M815	
302	2	Pilot V5	
303	2	Con70	
304	2	v5	
305	2	K5	
306	2	Delike	
307	2	221P	
308	2	🏻‍	
309	2	Colorverse	
310	2	doesn´t	
311	2	MB146	
312	2	Oxygen	
313	2	Skull and Roses	
314	2	CH74	
315	2	Fudepen	
316	2	HaMys7A.jpg	
317	2	Marupens	
318	1	orange kinda	
319	1	S W E E	
320	1	Youtube	
321	1	a Lamy CP 1	
322	1	Cooper	
323	1	Rhodia A4	
324	1	itself"	
325	1	https://newtonpens.com/about-my-nibs/	
326	1	Lamy Facebook	
327	1	Uvulus	
328	1	Usufuji	
329	1	Zebra F pen	
330	1	Clairefintaine 90	
331	1	Hightower	
332	1	the Ohto Tache	
333	1	Taxes	
334	1	Power Vac Filler	
335	1	M600/800/1000	
336	1	Divinas	
337	1	Push	
338	1	Pull Touchdown	
339	1	Butterbeer	
340	1	Fitzgerald	
341	1	http://imgur.com/GgpflWg	
342	1	a F nib metro	
343	1	the Field Notes	
344	1	Panasonic GH1	
345	1	912	
346	1	400N 400NN	
347	1	Comunque	
348	1	altro	
349	1	a Scribe 336	
350	1	Justus 95	
351	1	HD600	
352	1	I AM SHOCKED	
353	1	A Model 8	
354	1	Platinum Classic	
355	1	Nepotism	
356	1	Caliarts Ego 2	
357	1	the F nib option	
358	1	BKE	
359	1	the Chatres Blue	
360	1	the Nice Lilas	
361	1	Burgundy(sac	
362	1	F nib      	
363	1	the Blue 92	
364	1	F Sailor	
365	1	Wancher	
366	1	Pilot Iroshizuku Asa-gao	
367	1	brother](https://c1.staticflickr.com/5/4161/34374036656_51a53cdbaa.jpg	
368	1	F-BBB	
369	1	CH92 F?	
370	1	P-Bandai	
371	1	this M nib pen	
372	1	the Ancora Number 4	
373	1	Kickstarter campaign](https://www.kickstarter.com	
374	1	Merlin 33	
375	1	.7	
376	1	the White Satin	
377	1	Pilot Namiki IC100	
378	1	A3	
379	1	a Lockdown Vacumatic	
380	1	Vac 700r	
381	1	M20s	
382	1	Conids	
383	1	a Graf von Faber-Castell	
384	1	the Space 3009	
385	1	A Graf Von Faber Castel Guilloche	
386	1	[Context](https://imgur.com/X3hZTRd	
387	1	EF Lamy 2000	
388	1	Florentine	
389	1	Christoph Model 20	
390	1	DC pen	
391	1	mp/1439018/1026201/	
392	1	https://www.nibs.com/accessory/platinumnakaya-converte	
393	1	Camlin	
394	1	F * Lamy AL-Star	
395	1	F * Lamy 2000	
396	1	F * Pilot Vanishing Point	
397	1	a Platinum 3776 F	
398	1	an OS Sheaffer Self Filler	
399	1	M200/205	
400	1	Azizah	
401	1	The Black Diamond	
402	1	dialog3	
403	1	another Stola III	
404	1	Oxford A5	
405	1	WWII	
406	1	the "Lucky Strike" pencil	
407	1	Arco Celluloid	
408	1	the Green Lantern	
409	1	a-z	
410	1	the SR-71 Blackbird	
411	1	SR-71	
412	1	Sailor Pro	
413	1	My Platinum 3776	
414	1	the Pilot V5 Rollerball	
415	1	Frankfurt-	
416	1	Classmate	
417	1	METAL	
418	1	Ama-Iro or Majestic Blue	
419	1	a Lamy 2	
420	1	R.H.	
421	1	UTF8&amp;qid=1502769968&amp;sr=8-	
422	1	Metro F 5	
423	1	F 6	
424	1	Photoshop	
425	1	Cavalier	
426	1	JH911	
427	1	Rhodia 90g	
428	1	the B Homo Sapiens	
429	1	the Extra Fine Nib	
430	1	Custom 912	
431	1	Cahier	
432	1	Amazon storefront](https://www.amazon.com/s	
433	1	Mottishaw	
434	1	my Field Notes	
435	1	Iroshizuku Shin-Kai	
436	1	Needlepoint	
437	1	822s	
438	1	FC980	
439	1	C91	
440	1	a F Platinum 3776	
441	1	F * Noodler's	
442	1	the [LB-6](http://imgur.com/f8922mn	
443	1	Washi	
444	1	the Leopold FC980	
445	1	EX Nibs	
446	1	FC Model 31	
447	1	F - B2	
448	1	750s	
449	1	the BB VS B.	
450	1	Hero 100s	
451	1	Green Inspired	
452	1	6	
453	1	Simichrome 65ml	
454	1	M800 and	
455	1	KN	
456	1	Bungubox Sailor	
457	1	AudioEngine A5's	
458	1	thread](http://www.fountainpennetwork.com	
459	1	the F-Cs and Osmias	
460	1	the Lamy CP 1	
461	1	513EF	
462	1	C3	
463	1	a FPR Gama	
464	1	mach3	
465	1	the Pilot Heritage 92	
466	1	the F and M	
467	1	the F Steel Shadow	
468	1	An A4	
469	1	Model 65	
470	1	MontBlack	
471	1	Chaos	
472	1	500NN	
473	1	Mare	
474	1	P66	
475	1	D5300	
476	1	698	
477	1	Sei-Rei	
478	1	Bung-Box Sapphire	
479	1	JoWos	
480	1	h1ard	
481	1	Deutsche	
482	1	240	
483	1	the S Pen	
484	1	Rhodia Ef nibs	
485	1	Lamy pen roll	
486	1	Mr	
487	1	Aston 10	
488	1	a Lamy Vista	
489	1	the Kiwa Guro	
490	1	Ranga Model 3 Flat	
491	1	Jentle	
492	1	J-Subculture's	
493	1	Metro 1.0	
494	1	the M nib's	
495	1	ic100	
496	1	Dollar 717i	
497	1	Lamy 81	
498	1	5€.	
499	1	a Model 31	
500	1	Cow Chop	
501	1	--it	
502	1	the "Golden Arrow"	
503	1	K Geha	
504	1	Aeon B5	
505	1	a Century Classic	
506	1	F Lamy	
507	1	Aliexpress	
508	1	Yiren 359	
509	1	Momiji	
510	1	the Q-Tip	
511	1	Salz	
512	1	Stella 90S.	
513	1	a Fountain Pen	
514	1	Royal Blue - Jinhao 992	
515	1	Brilliant Black-	
516	1	the Classic Pens LM1 Flame Red	
517	1	Classic Pens	
518	1	the Lamy Safari Neon Yellow	
519	1	the M800 pen	
520	1	* 3d	
521	1	Enchanted Seas	
522	1	the Pilot G2	
523	1	vp/3776/74	
524	1	listing](https://www.gouletpens.com	
525	1	Camebridge	
526	1	599a Demo	
527	1	JH 1760	
528	1	the "Ease my Flex	
529	1	MS Excel	
530	1	beak"-like	
531	1	the Lamy Joy Calligraphy	
532	1	the Model 31	
533	1	580AL Lava	
534	1	MDR V6	
535	1	the Platinum Kanazawa	
536	1	a F nib - :)	
537	1	F Lamy 2000	
538	1	Pilot CH91	
539	1	Duragraphs	
540	1	12757-2	
541	1	Oerla	
542	1	Pass 2	
543	1	CRM	
544	1	the Platinum PTL500	
545	1	*Gosho-guruma	
546	1	Model M ;)	
547	1	Red Rattler	
548	1	BCHR	
549	1	Pelikan	
550	1	Blackstone Sydney Harbor Blue	
551	1	Crusader	
552	1	Pilot F	
553	1	Bauer 388	
554	1	388	
555	1	Organic Studio Nitrogen Royal Blue	
556	1	M6	
557	1	Red Dragon 50ml	
558	1	Pilot E95s](https://8ballpens.wordpress.com/2017/09/13	
559	1	the Pilot M90	
560	1	Facebook	
561	1	Oerla FP6-129	
562	1	the FC Model 02	
563	1	a Platinum Preppy	
564	1	SHAKE256	
565	1	Toronto-	
566	1	a Regal Lane	
567	1	MB Royal	
568	1	Bulow 750	
569	1	Stewart Model 100	
570	1	Eversharp 10000	
571	1	Christoph Model 02	
572	1	Vamishing Point	
573	1	Pilot G-2	
574	1	Calc II	
575	1	H-F	
576	1	not H-M	
577	1	[this](https://www.amazon.it/gp/aw/d/	
578	1	WebbWood	
579	1	a Model 20	
580	1	Bittner	
581	1	De Atramentis Ferdinand von Zeppelin	
582	1	3008	
583	1	Akihabara	
584	1	Sailor Storia	
585	1	TaoBao	
586	1	NEW .7	
587	1	Nautilus	
588	1	the Lamy Unic	
589	1	F 698	
590	1	Halley	
591	1	Lammy	
592	1	450s	
593	1	M805 VB EF	
594	1	Vanishing Point 4	
595	1	pen](https://cdn-tp1.mozu.com/6639-8588	
596	1	the Pilot Metro	
597	1	the F Nib	
598	1	the M Nib	
599	1	L2K	
600	1	Ranga Model 5	
601	1	Organic Studios Walden/Diamine Majestic	
602	1	the Pilot CH912	
603	1	the Pilot V5	
604	1	BIC Cristal	
605	1	Online Schreibgeräte	
606	1	Premium Laser 32lbs	
607	1	Warranted no.4	
608	1	Aston 1	
609	1	Shinola	
610	1	Kiwa Guro	
611	1	Royal	
612	1	the Luminous Blue one	
613	1	zo’n	
614	1	my Instagram @redeempens	
615	1	an FPR Muft	
616	1	S-F" nib	
617	1	an M nib 823	
618	1	a Pilot G2 07	
619	1	Superman	
620	1	a Warranted no.8	
621	1	Maruzen Eternal Blue	
622	1	Arrow	
623	1	9550	
624	1	9000	
625	1	sung-330-wing-sung-329/263021203233?hash	
626	1	nod(looks	
627	1	Parker Quink	
628	1	78g+	
629	1	Waterman Mysterious Blue	
630	1	Caplin	
631	1	M	
632	1	Jowo nibs	
633	1	^^^I	
634	1	Lorelei	
635	1	the F-C SIG Fine	
636	1	Tsukiyo	
637	1	Coal	
638	1	Raven	
639	1	the [Lacquer Vermilion No.50](http://www.makie-pen.com	
640	1	Pure Pens	
641	1	c:&lt	
642	1	1.1	
643	1	MOORE	
644	1	F nib 580AL	
645	1	Colorverse :)	
646	1	De Atramentis Fog Grey	
647	1	the USS Missouri	
648	1	Foldio	
649	1	742	
650	1	CH743	
651	1	the Pilot CH743	
652	1	Parker Classic	
653	1	the MAN 100	
654	1	Dec 6	
655	1	a Nikon	
656	1	Metro F?	
657	1	Axidraw V3	
658	1	Axidraw	
659	1	the J 750	
660	1	Midori Travelers Notebook	
661	1	These](http://www.buro247.me	
662	1	a J Herbin's	
663	1	Bourgogne	
664	1	Patek	
665	1	The Sport Classic	
666	1	a Pilot G2	
667	1	Bronze	
668	1	The Geha 725	
669	1	a Pilot Capless	
670	1	Seyès	
671	1	Ink - Lamy	
672	1	K70	
673	1	Lamy M	
674	1	Ebonite	
675	1	Moonlight	
676	1	Kip	
677	1	B6	
678	1	the M1000 nib	
679	1	my Preppy EF	
680	1	Safari-	
681	1	845s	
682	1	a Tortoise 400	
683	1	Reposted	
684	1	F4	
685	1	an F nib kinda gal	
686	1	78	
687	1	Stephens YouTube	
688	1	tachikawa g nib	
689	1	M150/200/205	
690	1	Cushion Point	
691	1	Preppy M	
692	1	Moses	
693	1	Nippon	
694	1	Mallard	
695	1	Nemosines	
696	1	the Secret Ink Santa	
697	1	a Rhodia Web Book	
698	1	http://penbbs.com/forum.php?mod=viewthread&amp;tid=328277&amp;extra=	
699	1	Shock	
700	1	CH823	
701	1	FPR Guru	
702	1	Additive Pens	
703	1	Organic Studio’s Ralph Waldo Emerson	
704	1	another F nib	
705	1	Alumilite	
706	1	link](https://www.gouletpens.com/	
707	1	A7551-124	
708	1	Caran	
709	1	Cayenne	
710	1	T52	
711	1	Lecai	
712	1	A88s	
713	1	Skywriter F	
714	1	Brilliant	
715	1	F nib 823	
716	1	two(sorry	
717	1	homy"-feel	
718	1	the X750	
719	1	The Knox Galileo	
720	1	Sharp	
721	1	Merlin	
722	1	my FC Model 2	
723	1	the m nib	
724	1	the Platinum Blue Black	
725	1	the Amber 823	
726	1	The Lamy 1.1	
727	1	500N	
728	1	Gama Sneaky	
729	1	the J Herbin	
730	1	Model 3 4th	
731	1	Model 4C	
732	1	Model 4	
733	1	My Pelikan MK30	
734	1	DC Pen	
735	1	Moteverde Horizon Blue	
736	1	A E S T H	
737	1	Valoro	
738	1	the M nib first	
739	1	the FPR/Noodler's	
740	1	Craftsman	
741	1	the Midnight Blue ❤	
742	1	Manduella	
743	1	a M nib one	
744	1	this F nib	
745	1	Schon	
746	1	The Model 45	
747	1	Apache Sunset](https://imgur.com/gallery	
748	1	Rolex	
749	1	a Picasso 902	
750	1	NaNoWriMo	
751	1	Olympus EM10	
752	1	743s	
753	1	the Olympus OM-2	
754	1	Jowo EF	
755	1	Cole	
756	1	OS Aristotle	
757	1	moonman	
758	1	/u/	
759	1	Metro F)	
760	1	580 AL	
761	1	own(ed	
762	1	F-C 45	
763	1	Gold Lx	
764	1	Noodler	
765	1	Creaper	
766	1	1.9	
767	1	Model Pocket 20	
768	1	Parker 3	
769	1	the Metro F.	
770	1	Metro F.	
771	1	Canvas	
772	1	Cary	
773	1	Dolch	
774	1	Hermiticty	
775	1	823FA	
776	1	Lamy 2	
777	1	Mokylock	
778	1	the Lamy Joy	
779	1	Tachikawa T-40	
780	1	T-40	
781	1	Warranted	
782	1	Vac	
783	1	Pilot CH912	
784	1	500s	
785	1	PayPal User Agreement 	
786	1	or--	
787	1	the M/F	
788	1	a Google Pixel 2	
789	1	the F/M Ti stub	
790	1	the Opus 88 Koloro	
791	1	HP LaserJet 24	
792	1	Vsiconti	
793	1	material](https://www.amazon.com/	
794	1	Chivor	
795	1	-S DX	
796	1	Superflex	
797	1	Penbox	
798	1	mb146	
799	1	one4all	
800	1	Model T	
801	1	My Lamy 2000	
802	1	Anyways	
803	1	Iroshizuku Syo-ro	
804	1	Cisele	
805	1	The Model J	
806	1	carte	
807	1	TWSBI 580AL	
808	1	HP Laserjet	
809	1	RK	
810	1	a FPR Guru	
811	1	70%-off	
812	1	De Atramentis Louis XIV	
813	1	Solitaire	
814	1	M40x s	
815	1	Iron Gall	
816	1	staple bound](https://i.imgur.com/rEkAWgr.jpg	
817	1	a Field Notes for comparison](https://i.imgur.com/vYSRvML.jpg	
818	1	https://www.thingiverse.com/thing:2825376	
819	1	Royal Blue 3	
820	1	Oeste	
821	1	NEX	
822	1	JJ Bailey	
823	1	T2	
824	1	T4	
825	1	The L-Tech	
826	1	FPR Himalaya	
827	1	[Lamy 2000	
828	1	Graph Gear 1000	
829	1	Officeworks	
830	1	EVA foam](https://www.michaels.com	
831	1	31,I	
832	1	the Antique Glass	
833	1	the Hi Uni	
834	1	The Extra Fine	
835	1	Lamy 1.5mm	
836	1	F - Iroshizuku	
837	1	VOgB41r	
838	1	Gama Supreme](http://penhabit.com/2017/05/20	
839	1	V7	
840	1	a Pilot Precise v5	
841	1	Carbon Fiber	
842	1	F * Kaweco Classic Sport	
843	1	Pilot Blue Black	
844	1	sketchINK	
845	1	My EF VHS	
846	1	FC Model 02	
847	1	Crk sebenza 21	
848	1	Juvale	
849	1	cm_sw_r_cp_api_bIrUAbS232A81	
850	1	Kaweco	
851	1	Ranga Pens	
852	1	the Classic Sport	
853	1	Esterbrook 9314-F	
854	1	the Lamy Dialog 3	
855	1	Travellers	
856	1	Additive Pens Helix	
857	1	the Lecai Acrylic	
858	1	a Kakuno/Metro	
859	1	Scott	
860	1	a Parker Classic	
861	1	Schmidt	
862	1	nibs	
863	1	800	
864	1	the F SIG	
865	1	Browns	
866	1	Ink Flight	
867	1	A Lamy Vista	
868	1	Kiwa-guro	
869	1	https://imgur.com/a/168LZ MB146	
870	1	the Shimmering Seas	
871	1	100 M Medium	
872	1	a Platinum EF	
873	1	KingfisherClawStudios	
874	1	cherry mx blues	
875	1	VPs	
876	1	a "Grail" pen	
877	1	Molotow one4all	
878	1	Vacumatic	
879	1	Unic	
880	1	Lamy AR	
881	1	a F Amber 2000	
882	1	Clairefontaine A5	
883	1	one](https://i.imgur.com/cijOh8m.png	
884	1	Rosetta Jowo	
885	1	Century Pens	
886	1	[this](https://i.imgur.com/Xs1iNnn.jpg	
887	1	Rhodia first	
888	1	Moleskine	
889	1	Stresseman	
890	1	Violette	
891	1	J.herbin	
892	1	Graf Von Faber-Castell Stone Grey	
893	1	feed+nib	
894	1	Model 02	
895	1	Opening	
896	1	the Graf von Faber Castell	
897	1	VAC un	
898	1	a Lamy 2000 F nib	
899	1	323s	
900	1	M40x	
901	1	ya go!](https://i.imgur.com/cdviUiq.jpg	
902	1	the Flight Attendant	
903	1	Conklin Duragraph	
904	1	Lanbitou	
905	1	Vlad the Impaler vibe	
906	1	2,50	
907	1	Traveller	
908	1	Moonman M2	
909	1	a Shimmering Sands	
910	1	Kakuno | Fine | Holy	
911	1	Lamy Medium	
912	1	F-pen	
913	1	Daytone 60mlx15	
914	1	1 Glare 30/60ml	
915	1	Ranga Model 8	
916	1	F -Wing Sung 698	
917	1	Appointments	
918	1	Permatex	
919	1	Precision Matthews	
920	1	Jessica	
921	1	F metro	
922	1	620XG	
923	1	🤑🤑🤑🤑	
924	1	the Organic Studio	
925	1	a Conklin Classic	
926	1	Rainfall	
927	1	Turquoise M Nib	
928	1	Rose B Nib	
929	1	The Hunt 99	
930	1	Philedelphia	
931	1	Destroy	
932	1	Bonus-	
933	1	a EF Lamy	
934	1	Kaweco Classic	
935	1	Sonata	
936	1	AE	
937	1	i3	
938	1	Duraflex	
939	1	Rhodia 80g	
940	1	http://imgur.com/NQJSnx2.jpg	
941	1	Con20s	
942	1	Con20	
943	1	Antique Glass	
944	1	m600	
945	1	Sailor F4	
946	1	a”chop	
947	1	D800	
948	1	105	
949	1	a Model 19	
950	1	Colorverse Voyager 1	
951	1	VPN	
952	1	Moonman Mini	
953	1	a TD 1000	
954	1	K 750	
955	1	M2	
956	1	Viconti Homo Sapiens	
957	1	CA101	
958	1	Prince	
959	1	Maxi	
960	1	Omotesando Bungubox	
961	1	🍵	
962	1	Toroko Shop	
963	1	the Lamy and Black Pilot	
964	1	1.9 stubs	
965	1	Zebra 301RB	
966	1	Koloros	
967	1	Windows	
968	1	F * Lamy Al Star	
969	1	- F - Robert Oster Khakhi	
970	1	Vanishing Point	
971	1	an F nib (	
972	1	F Lamy LX	
973	1	Pilot M nib	
974	1	Ama-Iro	
975	1	294um	
976	1	RM400	
977	1	Cooking With Dog	
978	1	Esterbrook 8440	
979	1	320s	
980	1	Minimalistica	
981	1	Colorverse Schrödinger	
982	1	トリンプ	
983	1	The Blue Moon	
984	1	the Model M	
985	1	Model M	
986	1	Lynx	
987	1	My Parker 51	
988	1	WS601	
989	1	WS 618	
990	1	the "y"	
991	1	con\-20	
992	1	the Eco EF	
993	1	C Model 03	
994	1	C Model 02	
995	1	F-C Model 31	
996	1	C Model 19	
997	1	Conids 😆	
998	1	Ranga model 2	
999	1	Odyssey	
1000	1	an Aurora 365 Azzurra	
1001	1	662	
1002	1	Sheaffer Triumph 550	
1003	1	Dept	
1004	1	Greensboro	
1005	1	Green Arco	
1006	1	Thuya	
1007	1	a Con 20	
1008	1	940	
1009	1	Goulet Pens'	
1010	1	Blue Ghost	
1011	1	The Man 21	
1012	1	dsc_84721-e1455220349362.jpg?w=739	
1013	1	Blue #6	
1014	1	Green #3	
1015	1	Sailor Miruai	
1016	1	Ginza Itoya Shop	
1017	1	Euros	
1018	1	Sanford	
1019	1	an M	
1020	1	S.175	
1021	1	c1950 - Parker Vacumatic	
1022	1	Lilac	
1023	1	Nexx	
1024	1	Chalet Pens	
1025	1	the Lucky Orange	
1026	1	the Sailor F4	
1027	1	the Rodel Ares	
1028	1	the Platinum Blue/Black	
1029	1	syr8nge	
1030	1	jowo	
1031	1	A F-C 20 Pen Case	
1032	1	Sophie‘s	
1033	1	Penman Emerald	
1034	1	My Dollar 717i	
1035	1	&gt;he	
1036	1	The F-C 03	
1037	1	Clairfontaine	
1038	1	\[Power\]\+4000	
1039	1	m6	
1040	1	Fine Point nib	
1041	1	Specialty Nibs	
1042	1	m	
1043	1	yet.~~ *	
1044	1	Pilot F nibs	
1045	1	the Lamy Blue	
1046	1	Pilot FA	
1047	1	Parker 45	
1048	1	Dinghy	
1049	1	Instagram feed](https://www.instagram.com	
1050	1	fine_pens/fountain_pens	
1051	1	Aurora 88	
1052	1	the FPnibs Jowo	
1053	1	MK2	
1054	1	Ronde	
1055	1	Stockman	
1056	1	the Model 66	
1057	1	Sailor Jentle	
1058	1	the Edison Collier	
1059	1	~$50	
1060	1	Walgreens	
1061	1	HD6XXs	
1062	1	〒160-0023	
1063	1	Classic Clear 10	
1064	1	Document	
1065	1	the Lamy EF nib	
1066	1	a Pilot Kakuno	
1067	1	smooth F nib	
1068	1	Horizon Blue	
1069	1	the Model 3	
1070	1	385B	
1071	1	My model 31	
1072	1	AMAZING BUNDLE - Small Vintage Genuine Leather Notebook For Writing, Travel Diary	
1073	1	the Lamy Fs	
1074	1	Jet	
1075	1	De Atramentis Document Fuchsia	
1076	1	Rosetta	
1077	1	K-12	
1078	1	Vaccaro	
1079	1	RM4500	
1080	1	EF F M B.	
1081	1	Pilot Blue	
1082	1	\- 4	
1083	1	a TSWI 580AL	
1084	1	RdA	
1085	1	my F Sailors	
1086	1	A7RIII	
1087	1	Marietta F - Montblanc	
1088	1	vert de gris](https://www.gouletpens.com	
1089	1	Callibri	
1090	1	a Pilot 912 FA	
1091	1	VP M 5	
1092	1	Cruiser	
1093	1	Lamy 2000 Black Amber or Imporium	
1094	1	The m nib	
1095	1	49-‘55	
1096	1	Coles	
1097	1	Platinum Preppy	
1098	1	^fuckmylar	
1099	1	St Louis Pen Show	
1100	1	a M 823	
1101	1	Mark Twain Crescent	
1102	1	Accent	
1103	1	Gillott 303	
1104	1	Bungubox Fresh Mandarin Orange	
1105	1	the Light Blue	
1106	1	x4	
1107	1	Midori MD	
1108	1	FF3 (Fine Flex 3	
1109	1	Take-Sumi	
1110	1	the Burnt Orange	
1111	1	Tanigawadake	
1112	1	Darth Vadery	
1113	1	Sabonis F 6300	
1114	1	Somes	
1115	1	823	
1116	1	CX22	
1117	1	beautifully.](http://imgur.com/JolZQEF	
1118	1	Walden Pond	
1119	1	Stylus Fine Pens	
1120	1	AL 1.1	
1121	1	Du satt	
1122	1	Deleter	
1123	1	Petit	
1124	1	Vermouth	
1125	1	3M's	
1126	1	Dreamtouch nibs	
1127	1	Edit 3	
1128	1	Black Onoto	
1129	1	Calligraphy	
1130	1	Tree	
1131	1	Penholder	
1132	1	Lamy blue ink	
1133	1	Rose	
1134	1	147	
1135	1	Camry	
1136	1	an LX/Al Star/Safari	
1137	1	Verde Racecar	
1138	1	Schaffers	
1139	1	the Darth Vader	
1140	1	R2-D2 Sheaffer	
1141	1	Demo	
1142	1	5028	
1143	1	R2-D2	
1144	1	F/M	
1145	1	U2	
1146	1	Diamine	
1147	1	an F and M nib	
1148	1	Aztec	
1149	1	Exlixir	
1150	1	Mosaic	
1151	1	Deluxe Model 5	
1152	1	Kyoto TAG	
1153	1	SASUKE.JAPAN	
1154	1	Ebonite 2	
1155	1	Pentiques	
1156	1	the Lamy Blue ink	
1157	1	Pilot F.	
1158	1	Roundhand Script	
1159	1	Centennial	
1160	1	a4	
1161	1	Purple Cloud	
1162	1	Oktopus	
1163	1	New Diamond Point	
1164	1	EF-F	
1165	1	VanNess	
1166	1	Kumpoo Platinum 3776	
1167	1	80	
1168	1	Covey	
1169	1	🙄	
1170	1	The Model 31](https://imgur.com	
1171	1	another Model 31	
1172	1	https://i.imgur.com/7IbnfDX.jpg	
1173	1	The Platinum 3776	
1174	1	Nock Co Sapelo	
1175	1	Vroman	
1176	1	Chren	
1177	1	Pelikan M800 6	
1178	1	200s	
1179	1	the L-Tech	
1180	1	kinda	
1181	1	Additivepens	
1182	1	https://imgur.com/a/PPtzmkE	
1183	1	/u/NibAction	
1184	1	M90s	
1185	1	Cyrillic	
1186	1	Denim	
1187	1	Gatorade	
1188	1	Colorverse Survivor Tree	
1189	1	Colorverse Ground Zero	
1190	1	Non-machinable	
1191	1	Jakujoya	
1192	1	a Parker VS	
1193	1	nibs(So	
1194	1	Visconti	
1195	1	Deep Space Nine	
1196	1	Cavens	
1197	1	✋🏻	
1198	1	Cicelé	
1199	1	haven´t	
1200	1	75	
1201	1	Atlantis	
1202	1	Romulus Pens	
1203	1	Ninth Symphony	
1204	1	Blue aureloid	
1205	1	https://i.imgur.com/Z5nvhQg.jpg	
1206	1	Shiyou	
1207	1	Straits-Pen-547043165376306/	
1208	1	my A5 Atoma	
1209	1	IS200	
1210	1	the Lamy Vibrant Pink	
1211	1	MontBlanc Meisterstuck 149	
1212	1	MontBlanc Meisterstuck	
1213	1	Siman	
1214	1	Kaweco Royal	
1215	1	Baoer 801	
1216	1	Autopoint	
1217	1	Raden	
1218	1	The YWSBI Classic	
1219	1	a Model 65	
1220	1	EF(1956-59	
1221	1	8k	
1222	1	prince 146	
1223	1	146	
1224	1	Doyou	
1225	1	Aoya Cascade Green	
1226	1	Cicerone Beer	
1227	1	Lamy Z50	
1228	1	the Platinum Blue-Black	
1229	1	awesome journals/	
1230	1	The Graf Von	
1231	1	1 FP	
1232	1	the “Color Palette”	
1233	1	Field Notes	
1234	1	Organic Studio Ernest Hemingway Santiago Sea Blue	
1235	1	F nib 3	
1236	1	Midori	
1237	1	Touchdowns	
1238	1	a "Speedball Calligraphy Fountain Pen	
1239	1	Colorverse Blackhole	
1240	1	Mummy	
1241	1	Platinum 3776	
1242	1	805	
1243	1	️.	
1244	1	moonman1	
1245	1	Nimosine	
1246	1	JobeX.	
1247	1	F w/ Iroshizuku Fuyu-syogun	
1248	1	the Shah’s	
1249	1	F * Parker 51	
1250	1	De Atramentis	
1251	1	Corolla	
1252	1	Once I´m	
1253	1	Cherry MX	
1254	1	Carbonesques	
1255	1	a Fine Nib	
1256	1	F and M nibs	
1257	1	99p	
1258	1	an Extra Fine nib	
1259	1	the Model 02	
1260	1	the 580AL EF	
1261	1	the Lamy Fine Nibs	
1262	1	OBB	
1263	1	Rose Syrup	
1264	1	a Pilot G-Tec	
1265	1	my G-Tec	
1266	1	ye shall receive](https://www.reddit.com	
1267	1	the Cocktail Vodka Lemon	
1268	1	GO-01	
1269	1	a Graf von Faber-Castell nib	
1270	1	a M nib Zen	
1271	1	Colorverse Mars Curiosity	
1272	1	MacBook	
1273	1	Instagram @valtheropens	
1274	1	👏	
1275	1	👏👏	
1276	1	HB	
1277	1	NC-17	
1278	1	Commonwealth Pen	
1279	1	Marupen	
1280	1	the F-C02	
1281	1	Mead Five	
1282	1	The F nibs	
1283	1	YouTube channel](https://www.youtube.com	
1284	1	a F VP	
1285	1	€	
1286	1	the Plat Preppy	
1287	1	Chennai	
1288	1	The Burnt Sienna	
1289	1	the Burnt Sienna	
1290	1	F-C Model 20	
1291	1	Nock Sapelo	
1292	1	Parker 15	
1293	1	the ‘Energy Yellow’	
1294	1	Radite	
1295	1	469s	
1296	1	Tulip	
1297	1	Maths	
1298	1	Nib	
1299	1	Baystate Blue	
1300	1	an M405 Stresemann	
1301	1	Leica S	
1302	1	Bockingford	
1303	1	metro first	
1304	1	a Lamy Al-Star	
1305	1	F-Stub	
1306	1	Steno	
1307	1	2 Model 20s	
1308	1	Nikon F	
1309	1	Spiderwort	
1310	1	my MB 225	
1311	1	Daiso	
1312	1	6.RO	
1313	1	a Parker IM	
1314	1	a M800/M600	
1315	1	McCoy	
1316	1	Flighter 51	
1317	1	pics](https://imgur.com/a/95c8wXn	
1318	1	brand.[as	
1319	1	Bockingford 200	
1320	1	a NOS Semiramis	
1321	1	Instagram @jazzorilla	
1322	1	😴	
1323	1	the Platinum Preppy	
1324	1	Rs	
1325	1	700r	
1326	1	~£200	
1327	1	Edit 2	
1328	1	Skywriter	
1329	1	Levenger	
1330	1	Ci	
1331	1	Magic Flex nib	
1332	1	Waterman IDEAL	
1333	1	MOONMAN	
1334	1	Strathmore 400 series	
1335	1	Keco	
1336	1	The Extra Fine nib	
1337	1	the Lamy 200	
1338	1	PLT-5000 w/	
1339	1	the De Atramentis	
1340	1	Organic Studio's Oscar's Copper	
1341	1	Pure Black F 2	
1342	1	a Rex Collegeblock	
1343	1	EF Mantex	
1344	1	Archivi Storici	
1345	1	[Opus rote](https://imgur.com/a/	
1346	1	(Parker IM	
1347	1	Provoke	
1348	1	350ml	
1349	1	PTL-10,000	
1350	1	VP F	
1351	1	Smear	
1352	1	Red Lustre	
1353	1	AndersonPens	
1354	1	S1	
1355	1	metro F nib	
1356	1	Pecan	
1357	1	F or M	
1358	1	m205	
1359	1	JetPens	
1360	1	Green Pilot Metro	
1361	1	a F/M/B nib	
1362	1	V-Pens	
1363	1	616s	
1364	1	Basilica	
1365	1	[this](https://i.imgur.com/FcG4PXr.jpg	
1366	1	a M 2000	
1367	1	Herbin colour	
1368	1	Extra-Fine	
1369	1	Wonderpens	
1370	1	a Q-Tip	
1371	1	Boraxo	
1372	1	Mnemosyne 182	
1373	1	506XG	
1374	1	ArtPen	
