#Word types: 1683
#Word tokens: 4005
#Search results: 0
1	187	the Lamy 2000	
2	166	Safari	
3	126	YouTube	
4	108	Conklin	
5	96	Preppy	
6	77	a Lamy 2000	
7	56	580AL	
8	49	Massdrop	
9	48	Jowo	
10	43	Lamy 2000	
11	42	Instagram	
12	35	Vanness	
13	32	EoC	
14	29	Lamy 2k	
15	27	safari	
16	24	3776	
17	24	323	
18	23	Pilot Metro	
19	21	Waterman	
20	20	Classic	
21	20	Sailor	
22	20	PayPal	
23	20	Con-70	
24	20	M400	
25	18	an F nib	
26	18	400NN	
27	18	E95s	
28	17	x750	
29	15	*	
30	15	Apache	
31	15	Chaos	
32	14	Vac 700	
33	14	the F nib	
34	14	a F nib	
35	14	Eco	
36	14	SR-71	
37	13	the M nib	
38	13	Fine	
39	13	Moonman	
40	12	580s	
41	12	Eclipse	
42	12	The Lamy 2000	
43	11	a M nib	
44	11	Con-50	
45	11	MassDrop	
46	11	°	
47	10	MB149	
48	10	an M nib	
49	10	Roses	
50	9	G2	
51	9	Reddit	
52	9	F nib	
53	9	M805	
54	9	A4	
55	9	Kakuno	
56	9	| |	
57	9	e95s	
58	8	Con-20	
59	8	my Lamy 2000	
60	8	Metro	
61	7	EF	
62	7	Staples	
63	7	Varsity	
64	7	Parker 51	
65	7	Sheaffers	
66	7	M205	
67	7	Online	
68	7	580	
69	7	F	
70	7	Con-40	
71	7	Jet Pens	
72	7	Organic Studio	
73	7	Vanness Pens	
74	7	700R	
75	7	Instagram @redeempens	
76	6	Starwalker	
77	6	Notes	
78	6	classic	
79	6	Camry	
80	6	Dremel	
81	6	Triumph	
82	6	m400	
83	6	Pelikan 400NN	
84	6	CH912	
85	6	the Lamy 2K	
86	6	CH92	
87	6	a Platinum 3776	
88	6	Goulet Pens	
89	6	pens](http://www.reddit.com	
90	6	X750	
91	6	the Lamy 2k	
92	6	| | /u	
93	6	Aurora	
94	6	618	
95	5	Lamy	
96	5	Moleskine	
97	5	Rhodia 80	
98	5	a Pilot G2	
99	5	Civic	
100	5	Preppies	
101	5	Touchdown	
102	5	M200	
103	5	The F nib	
104	5	a Lamy 2K	
105	5	Ruby	
106	5	the Model 02	
107	5	| | /u/	
108	5	AK-47	
109	5	Concorde	
110	4	Pilot G2	
111	4	Soyuz	
112	4	Crayola	
113	4	m200	
114	4	conklin	
115	4	Studio	
116	4	Metro F	
117	4	2k	
118	4	400nn	
119	4	Baystate Blue	
120	4	Edelstein	
121	4	Pilots	
122	4	Vanishing Point	
123	4	m205	
124	4	Facebook	
125	4	a Lamy 2k	
126	4	the F-C	
127	4	Christoph Model 20	
128	4	VPs	
129	4	Souverän	
130	4	Geha	
131	4	J.Herbin	
132	4	an Extra Fine nib	
133	4	Enjoy	
134	4	Redeem Pens	
135	4	Joneses	
136	4	Appelboom	
137	4	Chartres	
138	4	Diamond Point	
139	4	Additive Pens	
140	4	618s	
141	4	698	
142	4	m2	
143	4	Enigma	
144	3	R800	
145	3	sub-$5	
146	3	Hightower	
147	3	Diamond 580	
148	3	Nakaya Milky	
149	3	https://www.massdrop.com/buy/lamy-2000-fountain-pen?mode=guest_open	
150	3	A Lamy 2000	
151	3	Beatles	
152	3	MB146	
153	3	tl;dr	
154	3	300	
155	3	580RB	
156	3	the Model 66	
157	3	a 580AL	
158	3	HP Laserjet 32	
159	3	VPN	
160	3	the Lamy Vista	
161	3	Ginza	
162	3	The Lamy 2k	
163	3	Stargazer	
164	3	Pilot G2's	
165	3	Bibles	
166	3	F or M	
167	3	^^^I	
168	3	Sailor-Jentle-Four-Seasons	
169	3	Pelikan M800	
170	3	the Platinum 3776	
171	3	Coke Bottle	
172	3	Field Notes	
173	3	C823	
174	3	Apica	
175	3	Maxima	
176	3	A E S T H	
177	3	Levenger	
178	3	Bungubox	
179	3	the Parker 51	
180	3	Jinhaos	
181	3	Mottishaw	
182	3	Gray	
183	3	the Lamy 2000's	
184	3	MX	
185	3	Nighthawk	
186	3	mL	
187	3	Fresca Blue	
188	3	Power Vac	
189	3	Rolex	
190	3	WS698	
191	3	350ml	
192	3	a5	
193	3	316L	
194	3	Sport	
195	3	45	
196	3	P51s	
197	3	nibs	
198	3	WS3008	
199	3	Conid	
200	3	QC	
201	3	Kingsize	
202	3	992s	
203	3	F nibs	
204	3	601s	
205	3	Wancai	
206	3	M2	
207	3	Aero	
208	2	the Pilot Metro	
209	2	CW&amp;T	
210	2	$	
211	2	iPhones	
212	2	540/580	
213	2	Rolls Royce	
214	2	Beetle	
215	2	EFs	
216	2	JetPens	
217	2	Collier	
218	2	Duofolds	
219	2	M40x	
220	2	M60x	
221	2	Plus	
222	2	the M800 nib	
223	2	Schneider	
224	2	m600	
225	2	Hallelujah	
226	2	Cut	
227	2	Shadow	
228	2	Lamy Vista	
229	2	Cult Pens	
230	2	~$40	
231	2	Maths	
232	2	Ama-Iro	
233	2	B5	
234	2	J-Subculture	
235	2	Montegrappa-Chaos-pen	
236	2	my F nib	
237	2	2000	
238	2	Tried	
239	2	Pao	
240	2	Camlin	
241	2	Merlin	
242	2	g2	
243	2	616es	
244	2	M215	
245	2	V5	
246	2	ZERO	
247	2	Lamy 2K	
248	2	Lamy 2	
249	2	a Pilot Kakuno	
250	2	400N	
251	2	912	
252	2	a "Grail" pen	
253	2	Tercel	
254	2	Excel	
255	2	My Parker 51	
256	2	the Model 65	
257	2	Twilight Blue	
258	2	1/2v	
259	2	VP - 59dB	
260	2	Steno	
261	2	VittaR	
262	2	Montegrappa Q1	
263	2	FC Model 20	
264	2	1.1	
265	2	Collection	
266	2	Rapido-eze	
267	2	f-701	
268	2	HP	
269	2	75	
270	2	a Model 02	
271	2	PCH91s	
272	2	Versailles	
273	2	Imgur	
274	2	Platinum 3776	
275	2	Crusader	
276	2	Raden	
277	2	Esterbrook J	
278	2	Levenger 3.0	
279	2	Hero 616	
280	2	Goulet	
281	2	the **	
282	2	Model 66	
283	2	Violet	
284	2	DC	
285	2	Penhabit	
286	2	Overmax	
287	2	MacBook	
288	2	Varisty	
289	2	M800	
290	2	Pilot F nibs	
291	2	Sakura	
292	2	the J Herbin	
293	2	the Pilot M90	
294	2	Fountain	
295	2	Duragraph	
296	2	Air Force One	
297	2	F-18	
298	2	Lemoore	
299	2	Madeon	
300	2	Atlantis	
301	2	Sherwood Green	
302	2	Noodler	
303	2	BCHR	
304	2	M1000	
305	2	this F nib	
306	2	a Pilot 823	
307	2	Jentle	
308	2	an M800 Demonstrator	
309	2	Tide	
310	2	EF Lamy 2000	
311	2	Traveller	
312	2	Accord	
313	2	the SR-71 Blackbird	
314	2	Darth Maul	
315	2	Star Wars	
316	2	Eclipse](https://dl.airtable.com/8JFMhxz0R12399y2JiYn_Diamine%20Eclipse.jpg	
317	2	008RC	
318	2	003RC	
319	2	Profit	
320	2	Windex	
321	2	Caran	
322	2	Bailey	
323	2	CAD	
324	2	Lamy 1.1	
325	2	M300	
326	2	m800	
327	2	a Parker 75	
328	2	Calc II	
329	2	Vanishing Point 4	
330	2	Vermilion	
331	2	Sailor Nano	
332	2	Briolette	
333	2	CRM	
334	2	Fresca	
335	2	a Platinum Preppy	
336	2	91s	
337	2	CH823	
338	2	x2	
339	2	Model 31	
340	2	Google	
341	2	TaoBao	
342	2	Craftsman	
343	2	Kleenex	
344	2	Shikioriori	
345	2	Pineider	
346	2	580al	
347	2	Rule A7	
348	2	Lamy Blue	
349	2	308	
350	2	266/308	
351	2	Integer	
352	2	Moonman 80	
353	2	Lorelei	
354	2	Capless	
355	2	R2	
356	2	60 mL	
357	2	Mystique	
358	2	Staedler	
359	2	Kickstarter	
360	2	G-2s	
361	2	€	
362	2	HP 32	
363	2	CA101	
364	2	Bung Box	
365	2	Apache Sunset	
366	2	Colorverse Survivor Tree	
367	2	Colorverse Ground Zero	
368	2	doesn´t	
369	2	WS618	
370	2	Opus	
371	1	Lamy Studio Royal	
372	1	Lamy 1.1mm	
373	1	Javascript	
374	1	45^o	
375	1	the Lamy Blue-Black	
376	1	Canon	
377	1	an M M1000 Souveran nib	
378	1	Torr Pens	
379	1	the F nib 78	
380	1	FAQs	
381	1	Bud Light	
382	1	Waterproofness	
383	1	no Lamy 2000	
384	1	an Alfa Romeo	
385	1	a Parker Arrow	
386	1	1-2	
387	1	DairusL	
388	1	PERMANENT BLUE INK	
389	1	1s - Assorted](http://imgur.com/a/9dS8d#8	
390	1	40^o	
391	1	Beretta	
392	1	http://imgur.com/09h0g5S	
393	1	Red	
394	1	Cuddles	
395	1	Vista M	
396	1	chest](http://www.amazon.com/	
397	1	Shop_All_Replacement_Nibs_s/989.htm	
398	1	-80	
399	1	Ariel	
400	1	the Model M	
401	1	http://penshops.info/	
402	1	a Field Notes	
403	1	compound3.jpg	
404	1	Pilot Vacuum	
405	1	Goulet 1.1	
406	1	Rhodia	
407	1	Bon Jovi	
408	1	a Hero 616	
409	1	u dnt hav 2	
410	1	320p	
411	1	Hero 3020	
412	1	3020	
413	1	an F-M "Stub" nib	
414	1	a Model 19	
415	1	The Parker 75	
416	1	Professional Gear Slim	
417	1	Red A4	
418	1	HP Laserjet 24	
419	1	gel	
420	1	Cadbury	
421	1	Sapphire-	
422	1	AutoWikibot	
423	1	Source](http://noodlersink.com/%E2%80%9Cwhy	
424	1	The Graf von Faber Castell Classic	
425	1	Luma	
426	1	NOS Parker 51s	
427	1	post-77062-0-14192600-1340368212.jpg	
428	1	https://i.imgur.com/OntRT8P.jpg	
429	1	Jacques de Molay	
430	1	Sanyo	
431	1	a Calc III	
432	1	Wahl-Eversharp	
433	1	Clairefontaine A5	
434	1	Pilot V5	
435	1	| | -------------------|---------------------------- 1	
436	1	awkward(why A/S/L?	
437	1	http://imgur.com/45q5Qsg	
438	1	we;re	
439	1	VP XL	
440	1	Shaffer	
441	1	Pilot CH74	
442	1	* Light/slim pens	
443	1	Amazon *	
444	1	Cocaine	
445	1	Montblanc	
446	1	the model 66	
447	1	a Lamy 2000 Fine	
448	1	580 F or M nib	
449	1	F or M Metro	
450	1	non-FP	
451	1	823 - Vac	
452	1	FEELS	
453	1	EVER	
454	1	400n	
455	1	red m800	
456	1	Medium	
457	1	the L-Tech	
458	1	[tutorial](http://imgur.com/zGr5XXQ	
459	1	blazer	
460	1	Antiques Roadshow	
461	1	My Amazon cart](http://i.imgur.com/XvQlFLt.png	
462	1	nib(same	
463	1	61	
464	1	Essential-	
465	1	Bespoke	
466	1	Blue Inks 2](http://i.imgur.com	
467	1	Obama	
468	1	Lamy 50ml	
469	1	Hero 232	
470	1	Pelikan 200	
471	1	Edision Lilac	
472	1	Romillo	
473	1	my Platinum 3776	
474	1	REAL	
475	1	Tiger	
476	1	Raja	
477	1	The Blue Man Group.](http://www.blueman.com/	
478	1	Lamy 1.1 stubs	
479	1	88	
480	1	BAOER-801-Black-Fine-Nib-Fountain-Pen-New-/131454623689	
481	1	SbreBrowns	
482	1	a Vac Mini	
483	1	3,7	
484	1	an Ed Hardy	
485	1	Bismarck	
486	1	Expendables	
487	1	Overlord	
488	1	the Mona Lisa	
489	1	Congratulation*sssssss	
490	1	Moulin Rouge Hematoma	
491	1	Mötley Crüe	
492	1	Compact version](http://www.muji.us	
493	1	J-Subculture](http://shop.j-subculture.com/	
494	1	Beetles	
495	1	a Vac Filler	
496	1	580 AL	
497	1	G-2 gel	
498	1	Sheaffer BlueBlack	
499	1	Black-	
500	1	Pilot G-2s	
501	1	Ruger	
502	1	Vaness Pens	
503	1	RuneScape	
504	1	Fat Lenny!](http://i.imgur.com/BeKi3GT.jpg	
505	1	9788	
506	1	͞y̵o͡u̵	
507	1	Bluerase	
508	1	u4UoLTK	
509	1	Antique Copper	
510	1	CH92 vs	
511	1	Pen](http://cdn-tp1.mozu.com/6639-8588	
512	1	files/81693a9d-beea-418c-88a5-f15a20a5b6f7	
513	1	Soap	
514	1	Calendars and Reminders	
515	1	UniBall 207	
516	1	Knowing MassDrop	
517	1	AndersonPens	
518	1	Classic - Cracked	
519	1	Olympus E-M5	
520	1	the Metro F	
521	1	Dollar 717i	
522	1	Anyways	
523	1	point"-style	
524	1	Half Life 3	
525	1	Cliff Claven	
526	1	set'-guy	
527	1	Selective Laser Sintering	
528	1	m215	
529	1	HP Laserjet paper.](http://i.imgur.com/GckBdAV.jpg?1	
530	1	Chinatown	
531	1	80	
532	1	F metro	
533	1	Capillary Parker 61s	
534	1	|	
535	1	Metro F nib	
536	1	M16	
537	1	M4	
538	1	Selitta SW300	
539	1	Selitta	
540	1	AUD$200	
541	1	metro QC	
542	1	Duograph	
543	1	Points	
544	1	JinHao	
545	1	Nagasawa	
546	1	a F nib before	
547	1	Rachel	
548	1	Windows 10	
549	1	a Rotring Newton	
550	1	ecigs	
551	1	™	
552	1	Lodge	
553	1	the Night Sky	
554	1	Chivor	
555	1	X-750	
556	1	Grape	
557	1	J-Sub	
558	1	\(in 3	
559	1	Amazon Warehouse Deal	
560	1	Nakaya Naka-ai](http://www.nibs.com	
561	1	Blue	
562	1	Gourd	
563	1	De Atramentis Pigeon	
564	1	Mikes	
565	1	a Lamy 1.1	
566	1	msu	
567	1	TI-83	
568	1	Nikko G	
569	1	My Pen	
570	1	the Limy 2000	
571	1	coke glass	
572	1	Namiki Falcon demo](https://www.youtube.com	
573	1	Rapido-Eze	
574	1	[sample](http://i.imgur.com/R8ohdPe.jpg	
575	1	the F nib metros	
576	1	the C912 FA	
577	1	Fabriano EcoQua	
578	1	the "Ease My Flex" mod	
579	1	Limerick	
580	1	the OS Blue Merle	
581	1	the m800 nib	
582	1	Viagra	
583	1	Edit model	
584	1	66	
585	1	a Lamy Dialog 3	
586	1	CH74	
587	1	a PO Box	
588	1	Zebra G nibs	
589	1	the Romillo nibs](http://www.romillopens.com	
590	1	Y/Y/Y/N	
591	1	Ran	
592	1	the Flower Collection	
593	1	M1000 Raden Moonlight](http://www.pelikan.com	
594	1	Vespa	
595	1	rOtring 800	
596	1	C3PO	
597	1	Newton Pens	
598	1	the Lamy 2000 Makrolon	
599	1	599a	
600	1	the F-C. Addictions	
601	1	Makrolon L2K	
602	1	Lamy 200	
603	1	Bulkfillers	
604	1	an Evil Overlord	
605	1	a con 20	
606	1	The de Gaulle Deluxe**--	
607	1	Red Handed**--Spill	
608	1	Loupe	
609	1	a Lamy 200	
610	1	link](https://www.gouletpens.com/Swab-Shop-by-Color	
611	1	Saturn	
612	1	Still-	
613	1	Scotchses	
614	1	axis - 5N	
615	1	https://gfycat.com/SociableGargantuanAddax	
616	1	~$0.06	
617	1	Starwalker Midnight Black	
618	1	Rhodia Classic	
619	1	Z26	
620	1	RX100IV	
621	1	my TWISBI Classic	
622	1	pro-Lamy	
623	1	anti-Lamy	
624	1	Mandalay	
625	1	Pilot VP's	
626	1	Quink Permanent Black	
627	1	Classic Fountain Pens	
628	1	Amazon	
629	1	http://www.amazon.com/PILOT-Maki-Hou-Fenghuang-nib/dp/B001AX9H46	
630	1	100x	
631	1	Gullet	
632	1	L2K](http://i.imgur.com/s0WIZ03.jpg	
633	1	Easy	
634	1	maxima	
635	1	a cold](http://i.imgur.com/sK4zo8d.jpg	
636	1	S5	
637	1	Christoph	
638	1	v5	
639	1	The Vacumatic Duofolds	
640	1	VAC 700	
641	1	an M1 Carbine	
642	1	580AL Green	
643	1	a Wahl Eversharp Doric	
644	1	JoWo	
645	1	awful"	
646	1	Dysgraphia	
647	1	an M800 Stresemann	
648	1	cul8jqh	
649	1	Macbook	
650	1	midori.html#.VvNcChIrJbg	
651	1	a(n	
652	1	Rhodia 80gsm	
653	1	the Wing Sung	
654	1	HP Laserjet	
655	1	Apica CD-15	
656	1	Uruk	
657	1	467th	
658	1	Corvette	
659	1	AutoModerator	
660	1	UNT UNT UNT	
661	1	converter](http://www.jetpens.com/blog	
662	1	Vacumatic filled](http://i.imgur.com/xhSDAMU.jpg	
663	1	51 Vacumatic](http://i.imgur.com/G5kfFm2.jpg	
664	1	pen](http://i.imgur.com/0J35Txu.jpg	
665	1	MxMj	
666	1	Mercedes	
667	1	78G.	
668	1	*F	
669	1	:-/	
670	1	500px	
671	1	Blue Nile](https://s-	
672	1	Gallon	
673	1	Rembrandt	
674	1	a Converter 20	
675	1	HE400	
676	1	FC Model 02	
677	1	Ancient Copper	
678	1	DuoVacs	
679	1	My GvFC Classic	
680	1	the Bailey "Mascot Junior	
681	1	the Dollar 717i	
682	1	PEN	
683	1	THO M8	
684	1	Vellum	
685	1	classic black](http://www.amazon.com/Pilot-Metropolitan-Collection-Fountain-91107/dp/B009X9Z2FW	
686	1	Periwinkle	
687	1	mnemosyne	
688	1	heritage-912-10-po.html?m=1	
689	1	a *	
690	1	the "Airliner"	
691	1	a F CI	
692	1	Five Star	
693	1	Cherry Coke	
694	1	an EF M800	
695	1	Johnny Walker Blue	
696	1	max	
697	1	Voyager	
698	1	M1000 green	
699	1	http://www.gouletpens.com/diamine-red-dragon-80ml-bottled-fountain-pen-ink/p/D7077	
700	1	Strat	
701	1	a Model A	
702	1	My Metro (F	
703	1	comparison.](http://goldspotpens.blogspot.com/2015/04	
704	1	shu-fa/ji	
705	1	Burgundy	
706	1	the F/EF	
707	1	Arita-yaki	
708	1	B-25	
709	1	a Pilot M90	
710	1	Bestbuy	
711	1	Gouletfellas	
712	1	THE BOX Nakaya	
713	1	Honorable	
714	1	Limited Edition	
715	1	Noodler Ahab	
716	1	Blue Violet	
717	1	Legacies	
718	1	LAMY 2000	
719	1	METAL	
720	1	Hulk	
721	1	the Light Blue ones	
722	1	The Platinum 3776	
723	1	a Bic Cristal	
724	1	a F italic	
725	1	Ex-Lax	
726	1	comparison](http://www.jetpens.com/blog	
727	1	Thinkpad	
728	1	the Senior Maxima	
729	1	HomoSapiens Maxi Dark Age	
730	1	700s	
731	1	what.so.ever	
732	1	the internet](http://i.imgur.com/EpKZl.gif	
733	1	Poker 3	
734	1	300M	
735	1	Aurora Black	
736	1	1 dy u	
737	1	Peppy Hare	
738	1	anti-Bernie	
739	1	Traut67	
740	1	CD25/CD40	
741	1	a Model 65 Emerald	
742	1	the Royaume Pourri	
743	1	a Model 20	
744	1	a F-C.   	
745	1	pens](http://sarase-shop.de/ebay/Dezember14	
746	1	the model 45	
747	1	Emerald Model 65	
748	1	the F.P.R. Jaipur pen	
749	1	Stuby	
750	1	Century	
751	1	Pelikan M400	
752	1	%	
753	1	Blue Sailor	
754	1	sailor-1911-mid	
755	1	Kyoto	
756	1	HP 24	
757	1	HP LaserJet 24	
758	1	Sky Sakura	
759	1	Rhodia A5	
760	1	an F.P.R. Indus	
761	1	an FPR Indus	
762	1	Pure Cotton A5	
763	1	Impressa	
764	1	HP Laser	
765	1	Original Reform 1745	
766	1	F-Cs	
767	1	comments/51lbfz	
768	1	Creapers	
769	1	Piston Filler	
770	1	Habañero	
771	1	Christroph	
772	1	Nope|	
773	1	the Model 20	
774	1	Platinum F / EF	
775	1	Brown Arco Celluloid	
776	1	I am /u	
777	1	The M nib	
778	1	❤	
779	1	Tiny](https://hydra-media.cursecdn.com/	
780	1	Andersons	
781	1	4G	
782	1	Fitzgerald	
783	1	_ | | /u/Phillije |	
784	1	| | /u/Ashdoran |	
785	1	| | /u/FFFFFF_Hat	
786	1	| | /u/yaseada	
787	1	| | /u/The_Terrible_T	
788	1	The_JayMo | | /u/	
789	1	| | /u/jmorlin	
790	1	| | /u/Zachafinackus |	
791	1	| | /u/4_night_rider	
792	1	] | |	
793	1	Engineer	
794	1	Pelikan Amber	
795	1	Tines	
796	1	Blue Nose Bear	
797	1	The Model 20	
798	1	Kaweco	
799	1	Ahab w Noodler's	
800	1	F w/ Noodler's	
801	1	ACA	
802	1	Diabolical\_Engineer	
803	1	ち,き,さ,こ	
804	1	Platinum Carbon	
805	1	Mead Composition	
806	1	Yoobi Composition	
807	1	it.](https://hydra-media.cursecdn.com/dota2.gamepedia.com/5/5e/Jugg_rival_01.mp3	
808	1	the 580 AL or the Al-Star	
809	1	Red and Blue	
810	1	Amazon De	
811	1	De Atramentis Fir Green	
812	1	/u/Aethelstan927	
813	1	RAN	
814	1	the F Italic	
815	1	Parker 45	
816	1	a Capless Decimo	
817	1	a Lamy 2	
818	1	http://www.ito-ya.co.jp/sp/	
819	1	Megane	
820	1	Sanford	
821	1	930k	
822	1	USS Texas	
823	1	Shimmertastic	
824	1	AK-47 an AK-47	
825	1	AKs	
826	1	Washi	
827	1	Sailor Doyou	
828	1	DreamTouch	
829	1	Con50	
830	1	MI6	
831	1	Jinhao X750	
832	1	The J Herbin Vert Pre	
833	1	slUAAOSwAuZX5lGk	
834	1	Kaweco Sport	
835	1	Coca Cola	
836	1	Schmidt K5	
837	1	Skrip	
838	1	e-Bay	
839	1	Sextuple	
840	1	Cordura	
841	1	Mottishaw .6	
842	1	Extra Fine	
843	1	Canon-Lenses.jpg	
844	1	GT3	
845	1	Aveo	
846	1	Lamy 2K.	
847	1	Brilliant	
848	1	Photoshop	
849	1	an Edison Collier	
850	1	model(i.e	
851	1	https://youtu.be/9O4kFTOEh6k	
852	1	Cole	
853	1	Pilot VP	
854	1	wicked_edge	
855	1	c1	
856	1	Rumpole	
857	1	The J Herbin	
858	1	Zebra G	
859	1	Century 2	
860	1	Shaolin	
861	1	Apache Sunset kinda	
862	1	Attach	
863	1	F Hero 616	
864	1	Amsterdam-	
865	1	the Lamy Dialog 3	
866	1	Mattisse	
867	1	Kleenex Viva Paper towers](http://imgur.com	
868	1	FG9Ce) *	
869	1	Stewart	
870	1	Peytonstreetpens	
871	1	https://imgur.com/gallery/Xmwz5	
872	1	a Parker 51	
873	1	Patek	
874	1	http://www.erasable.us/ Best wooden pencil	
875	1	https://www.youtube.com/channel/UCJJOStpzNewBJ0XfhRSsmfw Amazon	
876	1	Model F	
877	1	Custom 743/743	
878	1	HINT INK INK NUDGE	
879	1	Rissla Box	
880	1	Flex	
881	1	a Q-tip/Pilot Parallel	
882	1	Pilot Vanishing Point	
883	1	the Fresca Blue	
884	1	Eyedropper	
885	1	an Amber 823	
886	1	92	
887	1	my Fresca Blue 1911	
888	1	an F nib one	
889	1	Office Max	
890	1	Rhodia Exabook	
891	1	M800 vs	
892	1	my F Eco	
893	1	an Attack Helicopter	
894	1	Hellfire	
895	1	legible(ish	
896	1	nib(smoother	
897	1	f#*k	
898	1	tin(felt	
899	1	JinHao 750	
900	1	a Lamy Al-Star	
901	1	JetPens Chibi 2	
902	1	Iroshizuku Syo-ro	
903	1	* Pilot - Blue Black	
904	1	Model 19	
905	1	Rhodia 80g	
906	1	gramscontestaccount2	
907	1	The Peli M800	
908	1	my F Metropolitan	
909	1	a F Metropolitan	
910	1	Custom 74	
911	1	| | | .-	
912	1	Maxi	
913	1	Man - One Pen - One	
914	1	EVERYWHERE	
915	1	Parker Parkette	
916	1	Metropolitans	
917	1	YF-12	
918	1	M90	
919	1	Diner	
920	1	chart](http://www.kcpwindowonjapan.com	
921	1	Pilot Preras	
922	1	Partial	
923	1	The Pen Corner	
924	1	y s       	
925	1	Congrats	
926	1	Capri Ra	
927	1	the F and EF	
928	1	CamelCamelCamel	
929	1	the F nib pen	
930	1	My Parker 823	
931	1	Citrus	
932	1	Galileo	
933	1	the Waterman Hemisphere	
934	1	Ambers	
935	1	BUTTTT	
936	1	Converse	
937	1	Screaming Eagle	
938	1	comments/64mifu/	
939	1	LV	
940	1	Pilot M nibs	
941	1	Firm Fine	
942	1	4	
943	1	Stationeryshop-Scotland](https://inksamples.wordpress.com/about/	
944	1	Scrivener	
945	1	c/13	
946	1	the Pilot 823	
947	1	Comfort - 823	
948	1	a Lamy 80	
949	1	Crescent detail](http://i.imgur.com/s07MotL.jpg	
950	1	FC Model 03	
951	1	Nice Pur	
952	1	Galaxy S5	
953	1	the Lamy Safari/ Al star	
954	1	nibs](https://www.reddit.com	
955	1	Wahl 321DW	
956	1	Premium Laser	
957	1	an EastVita 8812	
958	1	Akron	
959	1	deAtrementis	
960	1	Laban Galileo	
961	1	an Olympus E-M1	
962	1	E-M5	
963	1	E-M1	
964	1	50/1.2	
965	1	Stylo.ca	
966	1	SP-10	
967	1	~~one~~	
968	1	LE Lamy	
969	1	WS659	
970	1	SB700	
971	1	659	
972	1	Schreibgeräte	
973	1	Razor	
974	1	the M Copper Mule	
975	1	Zebra R-301	
976	1	Tecpoint V7	
977	1	Copper	
978	1	Document	
979	1	Nautilus	
980	1	2k's	
981	1	knowledge(ink	
982	1	Lamy Fine	
983	1	Signo 0.38	
984	1	ASC Arco	
985	1	Wahl-Eversharp Doric	
986	1	WON'T	
987	1	non-Edelstein Pelikan	
988	1	the Fountain K.	
989	1	Dollar FP 100	
990	1	a Hero 266	
991	1	nibs 9/10	
992	1	F.  	
993	1	450s	
994	1	Zeppelin	
995	1	Malibu	
996	1	Müller	
997	1	FC Model 20 - Slip	
998	1	Nederlanders/Belgen	
999	1	For Light Blue	
1000	1	an M	
1001	1	a Lamy 27	
1002	1	a MontBlanc 149	
1003	1	Neon Lime	
1004	1	F  -Namiki	
1005	1	LeBoeuf	
1006	1	Clematis	
1007	1	~~paint~~	
1008	1	LAMY T10	
1009	1	Main Streets Pens	
1010	1	517	
1011	1	Iroskizuku	
1012	1	AM BEAUTIFUL	
1013	1	Schmidt EasyFlow 9000	
1014	1	Pensive Pens	
1015	1	coat](http://www.hottopic.com	
1016	1	Elysium](https://cdn-tp1.mozu.com/6639-8588/cms/8588	
1017	1	a Pilot Metro M nib	
1018	1	Metro M nib	
1019	1	Milky	
1020	1	My Ohto Tasche	
1021	1	Christoph Model 20](http://www.franklin	
1022	1	HP LaserJet HPJ1124	
1023	1	http://jetpens.com/blog/notebooks-explained/pt/647	
1024	1	The Graf von Faber-Castell Intuition Platino Wood	
1025	1	a Champagne Metro	
1026	1	Rhodia A4	
1027	1	JoWos	
1028	1	Reform	
1029	1	Lamy Facebook	
1030	1	a Lamy 2000 Regular Edition	
1031	1	EF/F nibs	
1032	1	400N 400NN	
1033	1	100N	
1034	1	Metropolitan	
1035	1	200s	
1036	1	Quilliam	
1037	1	my Model 20	
1038	1	Amber 823	
1039	1	^^^my	
1040	1	TOO AM PLAGUED BY POOR SOCIAL	
1041	1	3d	
1042	1	Bucks	
1043	1	Loctite 480	
1044	1	the Chatres Blue	
1045	1	the Nice Lilas	
1046	1	Burgundy(sac	
1047	1	Unicorn	
1048	1	F nib      	
1049	1	Splash	
1050	1	my Model 02	
1051	1	car | pen ---|---	
1052	1	Mazda | Platinum Toyota | Pilot	
1053	1	| Sailor Nissan | ?	
1054	1	this M nib pen	
1055	1	Merlin 33	
1056	1	51	
1057	1	Apica CD-11	
1058	1	Z28	
1059	1	Fivestarpens	
1060	1	mp/1439018/1026201/	
1061	1	F * Lamy AL-Star	
1062	1	F * Lamy 2000	
1063	1	F * Pilot Vanishing Point	
1064	1	FigbootOnPens	
1065	1	F or M nibs	
1066	1	Design Y	
1067	1	Mountblank 146	
1068	1	The "Black Amber" Lamy 2000	
1069	1	K70	
1070	1	Fountain Pen 101	
1071	1	Boba Fett	
1072	1	Solo	
1073	1	Black Eel	
1074	1	Rhodia 90g	
1075	1	the *Sentinel*	
1076	1	Match	
1077	1	SF100	
1078	1	SF300	
1079	1	V7	
1080	1	the Extra Fine Nib	
1081	1	people(and	
1082	1	us;we	
1083	1	^latemark	
1084	1	Warden	
1085	1	the HS Bronze Age	
1086	1	a F Platinum 3776	
1087	1	F * Noodler's	
1088	1	Deleter	
1089	1	F - B2	
1090	1	edition!~~	
1091	1	Vanishing Point - urushi	
1092	1	Hero 100s	
1093	1	Green Inspired	
1094	1	KN	
1095	1	MontBlanc	
1096	1	Bic	
1097	1	007RC	
1098	1	Graphite	
1099	1	non-Metro	
1100	1	the Pilot Heritage 92	
1101	1	the F Steel Shadow	
1102	1	MontBlack	
1103	1	TLC	
1104	1	Deutsche	
1105	1	Retro 51	
1106	1	Magic	
1107	1	Misplaced	
1108	1	Mr	
1109	1	Metro 1.0	
1110	1	Model	
1111	1	Piccolo	
1112	1	F-C.	
1113	1	F/M/B/S.         	
1114	1	pt/902	
1115	1	K Geha	
1116	1	F Lamy	
1117	1	http://www.beartoothwoods.com/catalog/product_info.php?cPath=21_135&amp;products_id=3497	
1118	1	Turnip	
1119	1	Aliexpress	
1120	1	Yiren 359	
1121	1	Salz	
1122	1	a Fountain Pen	
1123	1	A3	
1124	1	eco(which	
1125	1	Kaweco AL	
1126	1	XL30	
1127	1	Brilliant Black-	
1128	1	the "Graf von Faber Castell"	
1129	1	M20x	
1130	1	Meat	
1131	1	Crosses	
1132	1	Green *	
1133	1	* Lava	
1134	1	Aion	
1135	1	the F nibs	
1136	1	beak"-like	
1137	1	Autograph	
1138	1	Pure Fucking Magic	
1139	1	make(old	
1140	1	CaliArts	
1141	1	Murican	
1142	1	JP Books](http://www.jpbooks.co.uk/	
1143	1	metro	
1144	1	Gama Sneaky](https://imgur.com/2SZqHpQ	
1145	1	Pen15	
1146	1	update](https://www.reddit.com	
1147	1	Notepad	
1148	1	Blackstone Sydney Harbor Blue	
1149	1	Organic Studio Nitrogen Royal Blue	
1150	1	823s	
1151	1	the F/M/Bs	
1152	1	the Easter Bunny	
1153	1	m805	
1154	1	698s	
1155	1	Western F nib	
1156	1	SI cartridges](https://www.officedepot.com/a/products/492750/Monteverde-Diva-Fountain-Pen-Medium	
1157	1	SHAKE256	
1158	1	Elixir	
1159	1	Y Studio	
1160	1	Gama Sneaky](https://imgur.com/	
1161	1	MB Royal	
1162	1	A Wearever Pacemaker	
1163	1	Bulow 750	
1164	1	Mortar	
1165	1	- Calc III	
1166	1	Minimalistica	
1167	1	t1	
1168	1	ASC	
1169	1	My Ideal Perfect	
1170	1	Blue #6	
1171	1	mLs	
1172	1	Bittner	
1173	1	De Atramentis Ferdinand von Zeppelin	
1174	1	the CO Bigelow	
1175	1	Midori	
1176	1	the Lamy Unic	
1177	1	Halley	
1178	1	Antique Glass	
1179	1	a Lanier E420	
1180	1	my Vanishing Point	
1181	1	L2K	
1182	1	M805 VB EF	
1183	1	Black Amber Lamy 2000	
1184	1	Quink	
1185	1	the Parker 75	
1186	1	SexMonkey7	
1187	1	the F Nib	
1188	1	the M Nib	
1189	1	Calligraphy	
1190	1	a F 3776	
1191	1	the Wing Sung 618	
1192	1	Related	
1193	1	the OS Nitrogen	
1194	1	Planting Tree	
1195	1	The F-C 02	
1196	1	Cardinal	
1197	1	Online Schreibgeräte	
1198	1	Premium Laser 32lbs	
1199	1	Chatres Blue	
1200	1	Warranted no.4	
1201	1	the Fox w/ Moon	
1202	1	my Instagram @redeempens	
1203	1	an FPR Muft	
1204	1	the CON 20	
1205	1	the CON 50	
1206	1	for](http://farm3.staticflickr.com/2562/3932421951_53566abae1_b.jpg	
1207	1	S-F" nib	
1208	1	Superman	
1209	1	a Warranted no.8	
1210	1	Arrow	
1211	1	9550	
1212	1	32	
1213	1	HiLiter	
1214	1	collection](https://www.benupen.com/	
1215	1	the Sierpiński Triangle	
1216	1	Rule 30	
1217	1	Sierpiński	
1218	1	Sailor LE's	
1219	1	a F-C.	
1220	1	BnR	
1221	1	The Model 02	
1222	1	-10	
1223	1	MOORE	
1224	1	Power Fillers	
1225	1	Renew Point 9048	
1226	1	K5	
1227	1	Classic Nib	
1228	1	the USS Missouri	
1229	1	the M800/M805 series	
1230	1	742	
1231	1	Conids	
1232	1	PenmanshipPorn | 348	
1233	1	Beautiful calligraphy](http://www.reddit.com	
1234	1	calligraphy](http://www.reddit.com/r/Unexpected/comments/6ufzq2	
1235	1	CH743	
1236	1	the Pilot CH743	
1237	1	Fineliners	
1238	1	an Opus 88 Koloro	
1239	1	Dia 580AL	
1240	1	Dec 6	
1241	1	Pentiques	
1242	1	Axidraw	
1243	1	Fahrneys	
1244	1	Bourgogne	
1245	1	Canon 60mm	
1246	1	🤦	
1247	1	under-$20	
1248	1	L2K.	
1249	1	a Pilot Capless	
1250	1	~700	
1251	1	Seyès	
1252	1	pen｡	
1253	1	Lamy M	
1254	1	Polar	
1255	1	Gazette	
1256	1	rate](https://www.penchalet.com/fountain_pen_specials.aspx#specials	
1257	1	Moonlight	
1258	1	Octopus	
1259	1	Emerson Twilight Blue	
1260	1	the M1000 nib	
1261	1	my Preppy EF	
1262	1	Top-10	
1263	1	V2 - M CI nib	
1264	1	😬😬	
1265	1	a Tortoise 400	
1266	1	Mead Five Star	
1267	1	Reposted	
1268	1	a CON 70	
1269	1	"Lamy 2000:	
1270	1	Stephens YouTube	
1271	1	the Pilot Classic 823	
1272	1	anser_penna	
1273	1	Cushion Point	
1274	1	an Extra Fine	
1275	1	http://penbbs.com/forum.php?mod=viewthread&amp;tid=328277&amp;extra=	
1276	1	Lamy al	
1277	1	another F nib	
1278	1	Graf von Faber-Castell	
1279	1	my GvFC Classic	
1280	1	The Carbon Desk Pen EF	
1281	1	Pilot F	
1282	1	my Model 66 Solid Ice	
1283	1	A5	
1284	1	T52	
1285	1	/u/JunkyardSam	
1286	1	823/	
1287	1	TSBI 580AL	
1288	1	Markdown	
1289	1	homy"-feel	
1290	1	the X750	
1291	1	The Knox Galileo	
1292	1	non-Lamy	
1293	1	698/618	
1294	1	a Pilot V5	
1295	1	a *Lamy*	
1296	1	Wankel	
1297	1	Romulus	
1298	1	a CON 70 converter	
1299	1	500N	
1300	1	Nikko G nib	
1301	1	Vac	
1302	1	*F Pelikan	
1303	1	Syo-Ro	
1304	1	100n	
1305	1	the "s"	
1306	1	sfti1	
1307	1	the Columbo	
1308	1	Marlin	
1309	1	a M nib one	
1310	1	a Q-tip	
1311	1	^^^I'm	
1312	1	NaNoWriMo	
1313	1	Olympus EM10	
1314	1	[ Lamy 2000	
1315	1	moonman	
1316	1	Ranga Model 3	
1317	1	Ranga Model 8 4	
1318	1	https://www.reddit.com/r/fountainpens/comments/6w5j7a/cheap_fountain_pen_friendly_lined_paper_from/	
1319	1	Words	
1320	1	Gold Lx	
1321	1	Radite	
1322	1	1.9	
1323	1	Model Pocket 20	
1324	1	n'er	
1325	1	Surface	
1326	1	Wish	
1327	1	580EF	
1328	1	Rhodia 90	
1329	1	Lamy LX	
1330	1	b&amp;m	
1331	1	FP101	
1332	1	USD 50	
1333	1	Cary	
1334	1	what+to+write&amp;restrict_sr	
1335	1	(Lamy 2000	
1336	1	Mokylock	
1337	1	the Lamy 2000 Black Amber	
1338	1	Platinum Classic	
1339	1	the Lamy Joy	
1340	1	Rose	
1341	1	Sailors	
1342	1	Power Rangers	
1343	1	PdAg	
1344	1	Macro	
1345	1	Lamy LH	
1346	1	Lamy 2000's	
1347	1	the Kiwa Guro	
1348	1	Stainless M4	
1349	1	Duraflex	
1350	1	Schrodinger	
1351	1	De Atramentis	
1352	1	Online Campus	
1353	1	LAMY 2	
1354	1	a Knox Galileo	
1355	1	CH742	
1356	1	the Pilot CH823	
1357	1	mb146	
1358	1	one4all	
1359	1	Quink Blue Black	
1360	1	an Expert II	
1361	1	750s	
1362	1	carte	
1363	1	580AL EF	
1364	1	Pilot Namiki	
1365	1	a FPR Guru	
1366	1	Standard	
1367	1	70%-off	
1368	1	De Atramentis Louis XIV	
1369	1	Solitaire	
1370	1	VOgB41r	
1371	1	Konrad	
1372	1	staple bound](https://i.imgur.com/rEkAWgr.jpg	
1373	1	a Field Notes for comparison](https://i.imgur.com/vYSRvML.jpg	
1374	1	https://www.thingiverse.com/thing:2825376	
1375	1	a MassDrop Special Edition Packaging	
1376	1	JJ Bailey	
1377	1	the F-C.	
1378	1	Lamy 2000 Broad	
1379	1	3003	
1380	1	Vanness Pens'	
1381	1	my F-C.	
1382	1	Lamy 1.5mm	
1383	1	F - Iroshizuku	
1384	1	super5	
1385	1	X.	
1386	1	^^^A	
1387	1	only F	
1388	1	130MM	
1389	1	122MM	
1390	1	Carbon Fiber	
1391	1	F * Kaweco Classic Sport	
1392	1	my HD4.50 BTNC	
1393	1	sketchINK	
1394	1	firstFP	
1395	1	the USS Constitution's	
1396	1	Kiwa Guro	
1397	1	Esterbrook 357	
1398	1	The M800 (F)	
1399	1	PlayStation 4	
1400	1	A Lamy Vista	
1401	1	S-1	
1402	1	Jowo nibs	
1403	1	Sheaffer Sovereign II	
1404	1	Model pens	
1405	1	Molotow one4all	
1406	1	Jan-18	
1407	1	Unic	
1408	1	404C	
1409	1	Prince Red Fox	
1410	1	The CON 20	
1411	1	The Con 40	
1412	1	Century Pens	
1413	1	552	
1414	1	the Vac 20	
1415	1	Beats	
1416	1	VAC un	
1417	1	267s	
1418	1	M200/400	
1419	1	M600	
1420	1	ya go!](https://i.imgur.com/cdviUiq.jpg	
1421	1	1 mL vs 0.6 mL	
1422	1	Conklin Duragraph	
1423	1	Wing Sung 601	
1424	1	Moonman M2	
1425	1	Kakuno | Fine | Holy	
1426	1	Lamy Medium	
1427	1	Penstyle Memo	
1428	1	F -Wing Sung 698	
1429	1	F   -Wing Sung 698	
1430	1	Appointments	
1431	1	a M 2000	
1432	1	rOtring Core Rollerball	
1433	1	F-Pen	
1434	1	Exceptional	
1435	1	coke	
1436	1	S-Line and Slimline	
1437	1	location(e.g	
1438	1	Bonus-	
1439	1	AE	
1440	1	Lamy2K	
1441	1	ECO	
1442	1	Con20s	
1443	1	Platinum Blue-Black	
1444	1	Classic Pens LB5	
1445	1	Sailor F4	
1446	1	Magellan	
1447	1	F U.	
1448	1	Moonman Mini	
1449	1	the Model 45	
1450	1	Goldilocks	
1451	1	Velin	
1452	1	F A L S E D I	
1453	1	https://frankunderwater.com/2017/02/20	
1454	1	Apache Holy Fucking Shit	
1455	1	the Lamy and Black Pilot	
1456	1	--Then	
1457	1	Logitech 502	
1458	1	JBs	
1459	1	Christoph](http://www.franklin-christoph.com	
1460	1	dope	
1461	1	F * Lamy Al Star	
1462	1	F Lamy LX	
1463	1	Etsy	
1464	1	x1	
1465	1	Z24s	
1466	1	Z28s	
1467	1	a "Grail"	
1468	1	Esterbrook 8440	
1469	1	C74s	
1470	1	The Blue Moon	
1471	1	Lecai	
1472	1	C Model 03	
1473	1	C Model 02	
1474	1	F-C Model 31	
1475	1	C Model 19	
1476	1	Windows	
1477	1	Dept	
1478	1	a Trash Panda	
1479	1	HP Laserjet reams](https://www.reddit.com	
1480	1	R805	
1481	1	WS601	
1482	1	601	
1483	1	https://www.jetpens.com/Pilot-Custom-Original-Fountain-Pen-Black-14K-Gold-Fine-Nib/pd/5519	
1484	1	Maniflex	
1485	1	the MR/Metro	
1486	1	Kakunos	
1487	1	Con70	
1488	1	S.175	
1489	1	c1950 - Parker Vacumatic	
1490	1	Lilac	
1491	1	jowo	
1492	1	a Wing Sung 3008	
1493	1	My Dollar 717i	
1494	1	64(x)\-G	
1495	1	\[Power\]\+4000	
1496	1	m6	
1497	1	Model 45 XLV	
1498	1	yet.~~ *	
1499	1	champagne m2	
1500	1	Walgreens	
1501	1	a Jowo \#5	
1502	1	M5	
1503	1	a CON 20 converter	
1504	1	Classic Clear 10	
1505	1	the Lamy EF nib	
1506	1	smooth F nib	
1507	1	Cloud	
1508	1	Rosetta	
1509	1	Crosses and Watermans	
1510	1	references](https://cad-comic.com/comic/loss/	
1511	1	an Extra Fine Nib	
1512	1	F-C	
1513	1	Edison	
1514	1	solitaire	
1515	1	Cristoph Model 20	
1516	1	Marietta F - Montblanc	
1517	1	580s -	
1518	1	Poor Man's	
1519	1	VP M 5	
1520	1	Cruiser	
1521	1	Mnemosyne N195	
1522	1	The m nib	
1523	1	Geha 725 Goldschwinge	
1524	1	De Atramentis Document	
1525	1	Pelikän M 800	
1526	1	599s	
1527	1	DeArmentis	
1528	1	the Light Blue	
1529	1	WD40	
1530	1	Sheaffer Triumph 1250	
1531	1	beautifully.](http://imgur.com/JolZQEF	
1532	1	Du satt	
1533	1	Aerometrics	
1534	1	Petit	
1535	1	Yamabudo F	
1536	1	Tsukiyo F	
1537	1	Tree	
1538	1	cheapest”my	
1539	1	Waterman Blue	
1540	1	Allies	
1541	1	u/JunkyardSam	
1542	1	221P	
1543	1	coke bottle	
1544	1	the Graf von Faber Castell	
1545	1	Pinot Noir	
1546	1	the Darth Vader	
1547	1	R2-D2 Sheaffer	
1548	1	Kumpooed ^^^I	
1549	1	Carbon	
1550	1	gt;it	
1551	1	Kyoto TAG	
1552	1	Ebonite 2	
1553	1	a Baystate Blue	
1554	1	the Pocky Sticks	
1555	1	&gt;Your	
1556	1	4fcb-ad07-071323e44938.jpg	
1557	1	the [UNICEF editions](http://www.carmenriverapens.com	
1558	1	Roundhand Script	
1559	1	Lamy2000	
1560	1	Cayenne	
1561	1	Columbia	
1562	1	Atramentis Mint	
1563	1	Nakaya event](https://www.nakaya.org	
1564	1	Boise	
1565	1	New Diamond Point	
1566	1	EF-F	
1567	1	my FPR Himalayas	
1568	1	VanNess	
1569	1	Kumpoo Platinum 3776	
1570	1	Covey	
1571	1	🙄	
1572	1	Quink 7	
1573	1	The Model 31](https://imgur.com	
1574	1	https://i.imgur.com/7IbnfDX.jpg	
1575	1	Nock Co Sapelo	
1576	1	Vroman	
1577	1	Exception	
1578	1	Soyuz AP-2-1	
1579	1	АР-97	
1580	1	❤️.	
1581	1	semi-)flex	
1582	1	Denim	
1583	1	Colorverse	
1584	1	Fill	
1585	1	Wisdom of Trees	
1586	1	Jakujoya	
1587	1	a Parker VS	
1588	1	Symphony	
1589	1	Irises	
1590	1	Cicelé	
1591	1	haven´t	
1592	1	I´m	
1593	1	Lamborghinis	
1594	1	Romulus Pens	
1595	1	Shiyou	
1596	1	Elite/95s	
1597	1	a CON 20/Con40 converter	
1598	1	a Parker Classic	
1599	1	Nitrogen Royal	
1600	1	Elf Root Beer	
1601	1	FPR Himalaya	
1602	1	WS3009	
1603	1	3008	
1604	1	Baoer 801	
1605	1	Autopoint	
1606	1	The YWSBI Classic	
1607	1	KitKats	
1608	1	Tusche	
1609	1	The M800/M1000	
1610	1	M200/400/600	
1611	1	Sketchink	
1612	1	Blue Coral	
1613	1	Alphas	
1614	1	Aoya Cascade Green	
1615	1	130x	
1616	1	a Fisher Space Pen	
1617	1	Fuller	
1618	1	Redeem Pens?	
1619	1	Presidential Parker 51	
1620	1	Candlepowerforums	
1621	1	the “Color Palette”	
1622	1	a "Speedball Calligraphy Fountain Pen	
1623	1	comment](https://www.reddit.com	
1624	1	RES	
1625	1	️.	
1626	1	F w/ Iroshizuku Fuyu-syogun	
1627	1	F/M	
1628	1	F * Parker 51	
1629	1	Once I´m	
1630	1	Pilot Explorer	
1631	1	Blue Man	
1632	1	HP 28	
1633	1	Executive-Blue-Fountain-Pen-l8k	
1634	1	Carbonesques	
1635	1	.25	
1636	1	Montegrappa	
1637	1	E95s F	
1638	1	VP F	
1639	1	Rose Syrup	
1640	1	HaMys7A.jpg	
1641	1	PenHero	
1642	1	All F and EF	
1643	1	GO-01	
1644	1	Pelikan 400	
1645	1	Colorverse Mars Curiosity	
1646	1	a M800 Stresemann	
1647	1	Instagram @valtheropens	
1648	1	NC-17	
1649	1	Commonwealth Pen	
1650	1	the F-C02	
1651	1	Pilot Blue Black](https://www.penucopia.com	
1652	1	Christoph](https://www.franklin-christoph.com	
1653	1	Nib	
1654	1	MoonMan M2	
1655	1	Dollar General's	
1656	1	Spiderwort	
1657	1	2x Waterman L’Etalon	
1658	1	Classic Red	
1659	1	pics](https://imgur.com/a/95c8wXn	
1660	1	Book 3	
1661	1	The model 308	
1662	1	Grandmia Pens	
1663	1	Bulkfiller	
1664	1	Levenger L-tech	
1665	1	My Lamy 2000	
1666	1	Diamine Oxblood	
1667	1	Edit 2	
1668	1	Estie *	
1669	1	Skywriter	
1670	1	Visvamitra	
1671	1	MOONMAN	
1672	1	U-Haul	
1673	1	\*SECOND\	
1674	1	Chick-fil	
1675	1	(Parker IM	
1676	1	*W*	
1677	1	MoonMan	
1678	1	Autumn	
1679	1	Basilica	
1680	1	Cavalier	
1681	1	Pilot Gundam	
1682	1	Fs and Ms	
1683	1	I A O	
