#Word types: 2106
#Word tokens: 249386
#Search results: 0
1	16233	so	
2	15694	just	
3	10096	really	
4	7678	very	
5	7388	when	
6	7116	too	
7	6363	also	
8	6133	how	
9	5424	now	
10	5241	well	
11	5085	more	
12	5028	as	
13	4733	much	
14	4242	still	
15	4106	only	
16	4012	even	
17	3883	pretty	
18	3874	actually	
19	3662	though	
20	3614	here	
21	3519	then	
22	3482	definitely	
23	3061	probably	
24	2520	maybe	
25	2405	back	
26	2332	far	
27	2232	there	
28	2163	at	
29	2099	where	
30	1954	all	
31	1944	quite	
32	1838	always	
33	1820	already	
34	1809	why	
35	1790	right	
36	1733	yet	
37	1689	about	
38	1601	again	
39	1402	around	
40	1333	enough	
41	1264	almost	
42	1246	ever	
43	1243	ago	
44	1185	of	
45	1176	super	
46	1175	least	
47	1117	most	
48	1087	usually	
49	1066	however	
50	984	better	
51	977	else	
52	963	first	
53	889	soon	
54	888	slightly	
55	886	before	
56	876	especially	
57	875	away	
58	866	rather	
59	855	kind	
60	845	exactly	
61	837	unfortunately	
62	816	currently	
63	784	that	
64	747	instead	
65	745	honestly	
66	729	sometimes	
67	722	mostly	
68	713	finally	
69	691	absolutely	
70	677	long	
71	673	in	
72	669	often	
73	658	hopefully	
74	644	recently	
75	606	completely	
76	597	less	
77	587	easily	
78	586	once	
79	584	later	
80	561	together	
81	548	out	
82	525	indeed	
83	521	totally	
84	517	quickly	
85	517	fairly	
86	494	online	
87	487	certainly	
88	468	perfectly	
89	457	basically	
90	456	up	
91	456	anyway	
92	433	personally	
93	426	either	
94	420	perhaps	
95	407	apart	
96	398	nicely	
97	393	extremely	
98	391	eventually	
99	384	forward	
100	378	longer	
101	374	hard	
102	372	apparently	
103	367	next	
104	363	generally	
105	360	otherwise	
106	356	home	
107	352	down	
108	343	normally	
109	331	fine	
110	329	sadly	
111	309	somewhere	
112	300	anymore	
113	282	overall	
114	277	likely	
115	270	nearly	
116	270	fully	
117	269	simply	
118	268	surprisingly	
119	268	relatively	
120	266	properly	
121	260	originally	
122	259	fast	
123	256	somewhat	
124	256	highly	
125	255	somehow	
126	251	way	
127	247	incredibly	
128	244	literally	
129	240	anywhere	
130	238	smoothly	
131	237	off	
132	236	specifically	
133	235	inside	
134	235	over	
135	232	best	
136	227	immediately	
137	220	obviously	
138	220	particularly	
139	218	kinda	
140	216	beautifully	
141	215	straight	
142	214	truly	
143	207	sort	
144	207	mainly	
145	203	everywhere	
146	198	directly	
147	195	earlier	
148	195	possibly	
149	192	barely	
150	190	seriously	
151	182	above	
152	171	luckily	
153	170	slowly	
154	166	clearly	
155	164	further	
156	161	sure	
157	159	damn	
158	158	on	
159	157	entirely	
160	155	course	
161	151	little	
162	148	correctly	
163	147	great	
164	147	both	
165	144	any	
166	144	anyways	
167	142	regularly	
168	139	lately	
169	139	typically	
170	138	close	
171	134	regardless	
172	132	whenever	
173	131	ahead	
174	131	hence	
175	130	forever	
176	129	initially	
177	128	the	
178	128	aside	
179	127	alone	
180	127	outside	
181	126	thankfully	
182	124	rarely	
183	122	technically	
184	121	accidentally	
185	120	sometime	
186	119	daily	
187	116	constantly	
188	115	after	
189	115	since	
190	114	haha	
191	113	differently	
192	113	twice	
193	110	thus	
194	104	previously	
195	102	faster	
196	101	significantly	
197	100	roughly	
198	100	pleasantly	
199	99	frequently	
200	96	wonderfully	
201	96	essentially	
202	95	consistently	
203	94	some	
204	94	occasionally	
205	92	automatically	
206	91	exclusively	
207	90	smooth	
208	89	necessarily	
209	89	early	
210	88	reasonably	
211	86	heavily	
212	85	badly	
213	84	matter	
214	83	thoroughly	
215	83	closer	
216	81	therefore	
217	81	extra	
218	80	carefully	
219	80	along	
220	79	gently	
221	78	someday	
222	78	greatly	
223	77	comfortably	
224	77	hardly	
225	75	separately	
226	75	prior	
227	73	below	
228	73	fortunately	
229	73	overnight	
230	72	elsewhere	
231	72	nice	
232	71	instantly	
233	69	oddly	
234	69	decently	
235	67	ultimately	
236	66	late	
237	66	supposedly	
238	66	wet	
239	65	potentially	
240	65	upside	
241	65	amazingly	
242	65	similarly	
243	64	sooner	
244	64	lightly	
245	64	wrong	
246	63	closely	
247	62	naturally	
248	62	interesting	
249	61	afterwards	
250	61	harder	
251	60	interestingly	
252	60	real	
253	59	overly	
254	58	primarily	
255	57	every	
256	57	terribly	
257	57	tightly	
258	56	shortly	
259	56	locally	
260	54	everyday	
261	54	noticeably	
262	53	’s	
263	52	purely	
264	52	near	
265	52	half	
266	51	partially	
267	50	ooh	
268	50	practically	
269	50	by	
270	50	n’t	
271	49	deep	
272	48	suddenly	
273	48	i.e.	
274	48	anytime	
275	47	readily	
276	47	ridiculously	
277	47	ok	
278	47	whatsoever	
279	47	aesthetically	
280	46	nowhere	
281	45	securely	
282	45	strongly	
283	45	kindly	
284	44	safely	
285	44	visually	
286	42	through	
287	42	nonetheless	
288	42	surely	
289	42	nowadays	
290	42	to	
291	42	albeit	
292	41	tight	
293	41	finer	
294	41	preferably	
295	41	poorly	
296	41	admittedly	
297	41	plain	
298	41	last	
299	40	equally	
300	40	second	
301	40	happily	
302	39	genuinely	
303	39	individually	
304	39	halfway	
305	38	idk	
306	38	partly	
307	38	imo	
308	38	nearby	
309	38	randomly	
310	36	quick	
311	36	behind	
312	36	insanely	
313	36	across	
314	36	ideally	
315	35	besides	
316	34	commonly	
317	34	briefly	
318	34	widely	
319	33	dry	
320	33	awhile	
321	33	lol	
322	32	considerably	
323	32	physically	
324	32	cool	
325	32	wise	
326	32	good	
327	31	internationally	
328	31	cheap	
329	31	non	
330	30	than	
331	30	lastly	
332	30	wide	
333	30	wherever	
334	30	deeper	
335	29	funny	
336	29	nib	
337	29	ironically	
338	28	permanently	
339	28	officially	
340	28	disassembly	
341	28	high	
342	28	easier	
343	27	largely	
344	27	firmly	
345	27	altogether	
346	27	strangely	
347	27	gladly	
348	27	low	
349	27	anyhow	
350	27	easy	
351	27	underneath	
352	27	aka	
353	27	reliably	
354	27	+	
355	26	weirdly	
356	26	precisely	
357	26	deeply	
358	26	incorrectly	
359	26	flawlessly	
360	26	short	
361	26	strictly	
362	26	vertically	
363	25	evenly	
364	25	temporarily	
365	25	overseas	
366	25	respectively	
367	25	small	
368	24	bad	
369	24	approximately	
370	24	periodically	
371	24	utterly	
372	24	broad	
373	24	manually	
374	23	newly	
375	23	okay	
376	23	double	
377	23	additionally	
378	23	solely	
379	23	successfully	
380	23	extensively	
381	23	alike	
382	23	higher	
383	23	quicker	
384	23	specially	
385	23	tbh	
386	23	solidly	
387	22	virtually	
388	22	importantly	
389	22	repeatedly	
390	22	deliberately	
391	22	freely	
392	22	mildly	
393	22	actively	
394	22	beforehand	
395	21	merely	
396	21	frankly	
397	21	freshly	
398	21	e.g.	
399	21	lower	
400	21	flat	
401	21	lovely	
402	21	medium	
403	21	intentionally	
404	21	horizontally	
405	20	stupidly	
406	20	seemingly	
407	20	presumably	
408	20	remotely	
409	20	direct	
410	20	promptly	
411	20	professionally	
412	20	thick	
413	20	accurately	
414	20	vastly	
415	20	same	
416	19	awesome	
417	19	oooh	
418	19	truthfully	
419	19	upright	
420	19	soooo	
421	18	loose	
422	18	overboard	
423	18	loosely	
424	18	cheaply	
425	18	neatly	
426	18	effectively	
427	18	snugly	
428	17	casually	
429	17	iirc	
430	17	asap	
431	17	remarkably	
432	17	absurdly	
433	17	handy	
434	17	furthermore	
435	16	vaguely	
436	16	other	
437	16	smoother	
438	16	thin	
439	16	amazing	
440	16	unposted	
441	16	effortlessly	
442	16	eyedropper	
443	15	worldwide	
444	15	nt	
445	15	clear	
446	15	abroad	
447	15	drastically	
448	15	incidentally	
449	15	true	
450	15	new	
451	15	slow	
452	15	nevertheless	
453	15	moderately	
454	14	exceptionally	
455	14	defiantly	
456	14	awfully	
457	14	upwards	
458	14	this	
459	14	wider	
460	14	ugly	
461	14	a	
462	14	solid	
463	14	substantially	
464	14	ohhh	
465	14	dead	
466	14	fantastically	
467	14	legitimately	
468	14	different	
469	14	meanwhile	
470	13	ebonite	
471	13	unusually	
472	13	btw	
473	13	farther	
474	13	horribly	
475	13	magically	
476	13	wildly	
477	13	likewise	
478	13	gradually	
479	13	sorry	
480	13	seldom	
481	12	wholeheartedly	
482	12	friendly	
483	12	plenty	
484	12	subtly	
485	12	secondly	
486	12	loud	
487	12	rly	
488	12	politely	
489	12	live	
490	12	namely	
491	12	accordingly	
492	12	definetly	
493	12	under	
494	12	backwards	
495	12	rapidly	
496	11	explicitly	
497	11	whoa	
498	11	universally	
499	11	alternatively	
500	11	yep	
501	11	subsequently	
502	11	fiddly	
503	11	worst	
504	11	darker	
505	11	sparkly	
506	11	realistically	
507	11	is	
508	11	safe	
509	11	inevitably	
510	11	aggressively	
511	11	financially	
512	10	immensely	
513	10	arguably	
514	10	continuously	
515	10	sufficiently	
516	10	unreasonably	
517	10	annoyingly	
518	10	unbelievably	
519	10	such	
520	10	slower	
521	10	cleanly	
522	10	internally	
523	10	decidedly	
524	10	publicly	
525	10	simultaneously	
526	10	hugely	
527	10	mentally	
528	10	traditionally	
529	10	glad	
530	10	sincerely	
531	10	big	
532	9	desperately	
533	9	patiently	
534	9	objectively	
535	9	dearly	
536	9	thicker	
537	9	unintentionally	
538	9	severely	
539	9	positively	
540	9	conveniently	
541	9	marginally	
542	9	consciously	
543	9	excellently	
544	9	slim	
545	9	excessively	
546	9	many	
547	9	shockingly	
548	9	nicer	
549	9	black	
550	9	please	
551	9	notably	
552	9	aha	
553	8	notoriously	
554	8	appropriately	
555	8	sparingly	
556	8	def	
557	8	aww	
558	8	lighter	
559	8	purposefully	
560	8	duly	
561	8	ohh	
562	8	moreover	
563	8	shamelessly	
564	8	externally	
565	8	generously	
566	8	oily	
567	8	funnily	
568	8	vigorously	
569	8	evidently	
570	8	wholly	
571	8	although	
572	8	perfect	
573	8	;)	
574	8	north	
575	8	odd	
576	8	helpful	
577	8	historically	
578	8	chemically	
579	8	coincidentally	
580	8	large	
581	8	hey	
582	8	downward	
583	8	awkward	
584	7	while	
585	7	definately	
586	7	possible	
587	7	hmmmm	
588	7	uncomfortably	
589	7	extraordinarily	
590	7	weird	
591	7	lucky	
592	7	undoubtedly	
593	7	vicariously	
594	7	brilliantly	
595	7	tremendously	
596	7	blindly	
597	7	allegedly	
598	7	throughly	
599	7	heavier	
600	7	ergonomically	
601	7	improperly	
602	7	round	
603	7	heavy	
604	7	functionally	
605	7	thru	
606	7	😁	
607	7	obsessively	
608	7	green	
609	7	dramatically	
610	7	correct	
611	7	stranger	
612	6	smelly	
613	6	formally	
614	6	identically	
615	6	plainly	
616	6	rightly	
617	6	prematurely	
618	6	spontaneously	
619	6	upward	
620	6	:(	
621	6	distinctly	
622	6	theoretically	
623	6	open	
624	6	aback	
625	6	custom	
626	6	side	
627	6	painfully	
628	6	lacquer	
629	6	usd	
630	6	exceedingly	
631	6	south	
632	6	superbly	
633	6	consequently	
634	6	past	
635	6	unexpectedly	
636	6	automod	
637	6	insofar	
638	6	ooooh	
639	6	definitively	
640	6	yellow	
641	6	pink	
642	6	prohibitively	
643	6	subconsciously	
644	6	tighter	
645	6	comically	
646	6	increasingly	
647	6	secretly	
648	6	waaay	
649	6	understandably	
650	6	uniquely	
651	6	neat	
652	6	faintly	
653	6	sharply	
654	6	third	
655	6	unnecessarily	
656	5	hilariously	
657	5	markedly	
658	5	impulse	
659	5	comparatively	
660	5	alright	
661	5	inadvertently	
662	5	mass	
663	5	visibly	
664	5	mid	
665	5	broadly	
666	5	~~available~~	
667	5	globally	
668	5	gracefully	
669	5	thereof	
670	5	twitter	
671	5	commercially	
672	5	outright	
673	5	dangerously	
674	5	pleasant	
675	5	sooo	
676	5	afaik	
677	5	emotionally	
678	5	seperately	
679	5	environmentally	
680	5	exquisitely	
681	5	predominantly	
682	5	eagerly	
683	5	inconsistently	
684	5	mechanically	
685	5	two	
686	5	full	
687	5	alternately	
688	5	abnormally	
689	5	soft	
690	5	wiggly	
691	5	presently	
692	5	strk%3amebidx%3ait&amp;_trksid	
693	5	ie	
694	5	neither	
695	5	supremely	
696	5	blue	
697	5	religiously	
698	5	happy	
699	5	ordinarily	
700	5	nos	
701	5	hot	
702	5	formerly	
703	5	logically	
704	5	wisely	
705	5	sideways	
706	5	jokingly	
707	5	finely	
708	5	forth	
709	5	massively	
710	5	silly	
711	5	critically	
712	5	if	
713	5	unfortunatly	
714	5	wether	
715	4	violently	
716	4	digitally	
717	4	relative	
718	4	outrageously	
719	4	tragically	
720	4	serendipitously	
721	4	embarrassingly	
722	4	thinner	
723	4	noticably	
724	4	wobbly	
725	4	french	
726	4	continually	
727	4	quietly	
728	4	subtle	
729	4	adequately	
730	4	bigger	
731	4	elegantly	
732	4	ingeniously	
733	4	reallly	
734	4	like	
735	4	awesomely	
736	4	awkwardly	
737	4	technologically	
738	4	they're	
739	4	yay	
740	4	eternally	
741	4	slippery	
742	4	minimally	
743	4	ill	
744	4	unique	
745	4	thinly	
746	4	seamlessly	
747	4	conversely	
748	4	respectfully	
749	4	front	
750	4	mistakenly	
751	4	truely	
752	4	not	
753	4	overwhelmingly	
754	4	doubt	
755	4	spectacularly	
756	4	infrequently	
757	4	efficiently	
758	4	inexplicably	
759	4	splendidly	
760	4	dark	
761	4	horrendously	
762	4	converter	
763	4	cleaner	
764	4	oooo	
765	4	independently	
766	4	intensely	
767	4	delightfully	
768	4	beautiful	
769	4	domestically	
770	4	rightfully	
771	4	present	
772	4	snuggly	
773	4	aptly	
774	4	awww	
775	4	en	
776	4	infinitely	
777	4	realllly	
778	4	diagonally	
779	4	purposely	
780	4	broader	
781	4	tho	
782	4	ve	
783	4	fluidly	
784	4	worse	
785	4	vintage	
786	4	free	
787	4	openly	
788	4	characteristically	
789	4	furiously	
790	4	recklessly	
791	4	inherently	
792	4	fair	
793	3	sporadically	
794	3	wonderful	
795	3	classically	
796	3	astonishingly	
797	3	steadily	
798	3	simple	
799	3	carelessly	
800	3	aboard	
801	3	endlessly	
802	3	scribbly	
803	3	might	
804	3	faithfully	
805	3	everytime	
806	3	suspiciously	
807	3	inexpensive	
808	3	sweet	
809	3	invariably	
810	3	downright	
811	3	brutally	
812	3	satisfyingly	
813	3	liberally	
814	3	disproportionately	
815	3	abundantly	
816	3	excruciatingly	
817	3	excitedly	
818	3	upstairs	
819	3	deceptively	
820	3	confidently	
821	3	waverly	
822	3	inkwell	
823	3	graciously	
824	3	unevenly	
825	3	wrongly	
826	3	definitly	
827	3	adorably	
828	3	amusingly	
829	3	mighty	
830	3	phonetically	
831	3	artificially	
832	3	shimmer	
833	3	top	
834	3	remover	
835	3	vice	
836	3	eerily	
837	3	impatiently	
838	3	nah	
839	3	for	
840	3	excellent	
841	3	de	
842	3	wetly	
843	3	unseen	
844	3	monthly	
845	3	foolishly	
846	3	fun	
847	3	shorter	
848	3	worth	
849	3	anatomically	
850	3	phenomenally	
851	3	lapse	
852	3	cosmetically	
853	3	softly	
854	3	tastefully	
855	3	brightly	
856	3	alongside	
857	3	suprisingly	
858	3	irreparably	
859	3	atrociously	
860	3	sheen	
861	3	feather	
862	3	another	
863	3	momentarily	
864	3	gnarly	
865	3	scientifically	
866	3	throughout	
867	3	robust	
868	3	bright	
869	3	brilliant	
870	3	reportedly	
871	3	heartedly	
872	3	informative	
873	3	obnoxiously	
874	3	inexpensively	
875	3	propably	
876	3	sorely	
877	3	absentmindedly	
878	3	similar	
879	3	naively	
880	3	wherein	
881	3	absent	
882	3	mindedly	
883	3	firstly	
884	3	luckly	
885	3	impulsively	
886	3	legibly	
887	3	outward	
888	3	obscenely	
889	3	strikingly	
890	3	handily	
891	3	fantastic	
892	3	opposite	
893	3	definetely	
894	3	hella	
895	3	weekly	
896	3	finial	
897	3	midway	
898	3	grudgingly	
899	3	preemptively	
900	3	harsh	
901	3	larger	
902	3	exponentially	
903	3	conservatively	
904	3	flashy	
905	3	tough	
906	3	vid	
907	3	dizzyingly	
908	2	platinum	
909	2	goth	
910	2	otherworldly	
911	2	vs	
912	2	unusally	
913	2	economically	
914	2	structurally	
915	2	light	
916	2	voluntarily	
917	2	disgustingly	
918	2	soluzione	
919	2	accidently	
920	2	knowingly	
921	2	awwww	
922	2	doubly	
923	2	audibly	
924	2	ur	
925	2	questionably	
926	2	hereby	
927	2	solo	
928	2	adore	
929	2	a5	
930	2	brighter	
931	2	ready	
932	2	downhill	
933	2	amicably	
934	2	color	
935	2	unpleasantly	
936	2	conventionally	
937	2	lengthwise	
938	2	preliminarily	
939	2	deferentially	
940	2	horizontal	
941	2	expertly	
942	2	afterward	
943	2	infamously	
944	2	willy	
945	2	billy	
946	2	willingly	
947	2	mutually	
948	2	diddly	
949	2	hardest	
950	2	progressively	
951	2	meticulously	
952	2	y	
953	2	impossibly	
954	2	enormously	
955	2	merrily	
956	2	's	
957	2	unconsciously	
958	2	legally	
959	2	grammatically	
960	2	handedly	
961	2	irrationally	
962	2	excitingly	
963	2	alarmingly	
964	2	gorgeous	
965	2	heavenly	
966	2	laughably	
967	2	magnetically	
968	2	nominally	
969	2	radically	
970	2	irl	
971	2	lackluster	
972	2	uniformly	
973	2	blatantly	
974	2	pleasently	
975	2	akin	
976	2	lovingly	
977	2	favorably	
978	2	optionally	
979	2	conceivably	
980	2	uncapped	
981	2	fancy	
982	2	favorite	
983	2	ooohhh	
984	2	begrudgingly	
985	2	freakishly	
986	2	muchly	
987	2	reaaaaaallly	
988	2	philly	
989	2	outwards	
990	2	proportionately	
991	2	butterly	
992	2	bordeaux	
993	2	regular	
994	2	v	
995	2	irresponsibly	
996	2	em	
997	2	negative	
998	2	girth	
999	2	rude	
1000	2	fluently	
1001	2	notwithstanding	
1002	2	stupid	
1003	2	sarcastically	
1004	2	haphazardly	
1005	2	intimately	
1006	2	frustrating	
1007	2	steady	
1008	2	forcibly	
1009	2	absolutly	
1010	2	unsurprisingly	
1011	2	fugly	
1012	2	longingly	
1013	2	enjoyable	
1014	2	comparably	
1015	2	popularly	
1016	2	swiftly	
1017	2	beyond	
1018	2	ghostly	
1019	2	alway	
1020	2	seasonally	
1021	2	reaaally	
1022	2	gateway	
1023	2	messy	
1024	2	purply	
1025	2	convincingly	
1026	2	erratically	
1027	2	forcefully	
1028	2	red	
1029	2	acceptably	
1030	2	atm	
1031	2	unfairly	
1032	2	sapiens	
1033	2	thereby	
1034	2	which	
1035	2	expediently	
1036	2	girly	
1037	2	white	
1038	2	closest	
1039	2	cleverly	
1040	2	satisfactorily	
1041	2	unsightly	
1042	2	harshly	
1043	2	invisibly	
1044	2	forwards	
1045	2	majorly	
1046	2	exetremly	
1047	2	frantically	
1048	2	idly	
1049	2	or	
1050	2	fourth	
1051	2	nonchalantly	
1052	2	3d	
1053	2	chronologically	
1054	2	inwards	
1055	2	nervous	
1056	2	three	
1057	2	cursive	
1058	2	$	
1059	2	routinely	
1060	2	shhh	
1061	2	awry	
1062	2	versus	
1063	2	anecdotally	
1064	2	downstairs	
1065	2	fragile	
1066	2	inward	
1067	2	strk%3amebidx%3ait&amp;var=621676276998&amp;_trksid	
1068	2	unfriendly	
1069	2	fout	
1070	2	vibrantly	
1071	2	within	
1072	2	scratchier	
1073	2	silently	
1074	2	e	
1075	2	ahahah	
1076	2	heheh	
1077	2	perpetually	
1078	2	thickly	
1079	2	softer	
1080	2	arbitrarily	
1081	2	competitively	
1082	2	stealth	
1083	2	unabashedly	
1084	2	vac	
1085	2	privately	
1086	2	few	
1087	2	can	
1088	2	🤙	
1089	2	charitably	
1090	2	delicately	
1091	2	interchangeably	
1092	2	k	
1093	2	outdoors	
1094	2	drier	
1095	2	passively	
1096	2	etc	
1097	2	lonely	
1098	2	innocently	
1099	2	gingerly	
1100	2	rare	
1101	2	sticky	
1102	2	intricately	
1103	2	dilly	
1104	2	acutely	
1105	2	organically	
1106	2	ngl	
1107	2	beautifuly	
1108	2	bravely	
1109	2	unsure	
1110	2	unfortunatelly	
1111	2	louder	
1112	2	affordably	
1113	2	\(probably	
1114	2	pearly	
1115	2	thusly	
1116	2	sudden	
1117	2	allthough	
1118	2	silky	
1119	2	cheaper	
1120	2	avant	
1121	2	notepad	
1122	2	approx	
1123	2	whereby	
1124	2	hmm	
1125	2	plz	
1126	2	surprised	
1127	2	thereafter	
1128	2	magnificently	
1129	2	unmistakably	
1130	2	bizarrely	
1131	2	obligatory	
1132	2	meh	
1133	2	blind	
1134	2	no	
1135	2	eloquently	
1136	2	defenitely	
1137	2	soooooo	
1138	2	deathly	
1139	2	narrowly	
1140	2	thoughtfully	
1141	2	smoky	
1142	2	prefere	
1143	2	confusingly	
1144	2	nervously	
1145	2	needlessly	
1146	2	gangly	
1147	2	oft	
1148	2	ir	
1149	2	uncommonly	
1150	2	onboard	
1151	2	colloquially	
1152	2	nur	
1153	2	la	
1154	2	drunkenly	
1155	2	chinchilly	
1156	2	highest	
1157	2	gray	
1158	2	quote	
1159	2	inexpertly	
1160	1	pointlessly	
1161	1	😜	
1162	1	expensive(even	
1163	1	fresher	
1164	1	largly	
1165	1	squishy	
1166	1	chinese	
1167	1	psychotically	
1168	1	psychically	
1169	1	singlehandedly	
1170	1	ph	
1171	1	skinny	
1172	1	bland	
1173	1	joyously	
1174	1	unpredictably	
1175	1	gloriously	
1176	1	/very/	
1177	1	ipad	
1178	1	terrifically	
1179	1	greedily	
1180	1	ann_omally	
1181	1	~~out~~	
1182	1	six	
1183	1	abd	
1184	1	gt;typically	
1185	1	acrid	
1186	1	occasionally~	
1187	1	harmless	
1188	1	inordinately	
1189	1	accentually	
1190	1	informally	
1191	1	otoh	
1192	1	intellectually	
1193	1	ignorantly	
1194	1	overlays	
1195	1	distinctively	
1196	1	nvm	
1197	1	parallel	
1198	1	madly	
1199	1	statistically	
1200	1	̶p̶u̶s̶h̶e̶r̶	
1201	1	https://imgur.com/gallery/jcig2	
1202	1	aaaaa	
1203	1	burping	
1204	1	eligible	
1205	1	dually	
1206	1	sloppy	
1207	1	respectably	
1208	1	review-098.jpg	
1209	1	distractingly	
1210	1	cartoonishly	
1211	1	d	
1212	1	bar-	
1213	1	especislly	
1214	1	actiually	
1215	1	legit	
1216	1	dimly	
1217	1	noticeablely	
1218	1	ivory	
1219	1	apperently	
1220	1	downwards	
1221	1	ly	
1222	1	numerically	
1223	1	fortuitously	
1224	1	fiendishly	
1225	1	prooooobably	
1226	1	dependent	
1227	1	crassly	
1228	1	important	
1229	1	instore	
1230	1	expectedly	
1231	1	enjoyably	
1232	1	/r	
1233	1	presumingly	
1234	1	litwrally	
1235	1	classic	
1236	1	ultrasonically	
1237	1	intensively	
1238	1	lime	
1239	1	intrinsically	
1240	1	classy	
1241	1	collapsed(that	
1242	1	pad	
1243	1	secondhand	
1244	1	unquestionably	
1245	1	penniless	
1246	1	unposted](http://i.imgur.com/7cytodz.jpg	
1247	1	shit	
1248	1	sublimely	
1249	1	her	
1250	1	muji	
1251	1	electronically	
1252	1	inextricably	
1253	1	manifestly	
1254	1	clearer	
1255	1	aimlessly	
1256	1	my.most	
1257	1	off-	
1258	1	demi	
1259	1	~~then	
1260	1	stubbornly	
1261	1	nust	
1262	1	niggly	
1263	1	=)	
1264	1	uff	
1265	1	mere	
1266	1	egnough	
1267	1	deliberate	
1268	1	galore	
1269	1	reaaaaaaallly	
1270	1	legendary	
1271	1	http://imgur.com/a/l4ej0	
1272	1	coincidently	
1273	1	arduously	
1274	1	beautifullly	
1275	1	gt;especially	
1276	1	definetley	
1277	1	chilly	
1278	1	lux	
1279	1	https://www.jetpens.com/pilot-namiki-black-ink-12-cartridges/pd/1385	
1280	1	surpassingly	
1281	1	voraciously	
1282	1	shoddy	
1283	1	https://imgur.com/a/stui3	
1284	1	nornally	
1285	1	reeeally	
1286	1	thorough	
1287	1	magnetic	
1288	1	https://imgur.com/k9hj1zq	
1289	1	inadequately	
1290	1	smaller	
1291	1	dm	
1292	1	lacquered	
1293	1	susceptible	
1294	1	allaround	
1295	1	unusably	
1296	1	fewer	
1297	1	permanantly	
1298	1	without	
1299	1	undeniably	
1300	1	decent	
1301	1	surprising	
1302	1	bold	
1303	1	selfishly	
1304	1	rudely	
1305	1	reallllly	
1306	1	difficult	
1307	1	lutely	
1308	1	actulally	
1309	1	eminently	
1310	1	^^	
1311	1	formula(definitely	
1312	1	flatly	
1313	1	nuch	
1314	1	squarely	
1315	1	backgroud	
1316	1	gooble	
1317	1	convenient	
1318	1	aa	
1319	1	nanohana	
1320	1	jammed	
1321	1	wipct1s.jpg	
1322	1	retroactively	
1323	1	reaaaaaally	
1324	1	astray	
1325	1	exteremely	
1326	1	politically	
1327	1	velvety	
1328	1	shapes](https://chatterleyluxuries.com	
1329	1	disturbingly	
1330	1	older	
1331	1	aware	
1332	1	reviews/	
1333	1	indefinitely	
1334	1	impressively	
1335	1	photogenically	
1336	1	ooooooooh	
1337	1	aparantly	
1338	1	post	
1339	1	criminally	
1340	1	agonisingly	
1341	1	autoco	
1342	1	unsightingly	
1343	1	safer	
1344	1	chatterly	
1345	1	(:	
1346	1	dutifully	
1347	1	relictantly	
1348	1	water	
1349	1	antique	
1350	1	acronyms	
1351	1	https://global.rakuten.com/en/store/office-japan/item/kd-03/	
1352	1	deadly	
1353	1	ostensibly	
1354	1	😏	
1355	1	ferverously	
1356	1	uneven	
1357	1	dedinitly	
1358	1	painless	
1359	1	poussiere	
1360	1	rattly	
1361	1	prime	
1362	1	unwisely	
1363	1	duo	
1364	1	maliciously	
1365	1	certain	
1366	1	verily	
1367	1	compulsorily	
1368	1	microscopy	
1369	1	crisp	
1370	1	indecisively	
1371	1	asunder	
1372	1	rakuten	
1373	1	strange	
1374	1	admitidly	
1375	1	fookhingly	
1376	1	vulgarly	
1377	1	calmly	
1378	1	minly	
1379	1	accurate	
1380	1	tenfold	
1381	1	ruby	
1382	1	preeeeetty	
1383	1	defenitly	
1384	1	subjectively	
1385	1	deceivingly	
1386	1	expecially	
1387	1	mostlikely	
1388	1	;_;	
1389	1	avidly	
1390	1	clockwise,2nd	
1391	1	losser	
1392	1	andere	
1393	1	schoonmaak	
1394	1	¯\_(ツ)_/¯	
1395	1	lazily	
1396	1	horrifyingly	
1397	1	novelty	
1398	1	ver	
1399	1	visible	
1400	1	snazzy	
1401	1	superiorly	
1402	1	ooohhhhh	
1403	1	loudest	
1404	1	widest	
1405	1	couple	
1406	1	https://i.imgur.com/rnozw92.jpg	
1407	1	clumsily	
1408	1	definitelly	
1409	1	blunt	
1410	1	okok	
1411	1	whatever	
1412	1	sneakily	
1413	1	affectionately	
1414	1	leery	
1415	1	boldly	
1416	1	~~also	
1417	1	eye	
1418	1	nibless	
1419	1	looooooooooong	
1420	1	ooooooooooooooooooooooohhhh	
1421	1	shhhhhhhh	
1422	1	enought	
1423	1	watcher	
1424	1	fishy	
1425	1	ed	
1426	1	permettere	
1427	1	probabibly	
1428	1	@flareheart	
1429	1	jolly	
1430	1	veeery	
1431	1	probly	
1432	1	passably	
1433	1	resistant	
1434	1	tastelessly	
1435	1	goodbye	
1436	1	inversely	
1437	1	finest	
1438	1	mothly	
1439	1	buon	
1440	1	stateside	
1441	1	l’ll	
1442	1	firsthand	
1443	1	orignially	
1444	1	that/	
1445	1	hurriedly	
1446	1	patently	
1447	1	mmm	
1448	1	¯\\\_(ツ)\_/¯	
1449	1	^^^^i'll	
1450	1	rob	
1451	1	brb	
1452	1	retail	
1453	1	pen_swap/	
1454	1	thermally	
1455	1	necessrily	
1456	1	particularily	
1457	1	backward	
1458	1	alwayse	
1459	1	timely	
1460	1	aparently	
1461	1	ha	
1462	1	dumbly	
1463	1	conviniently	
1464	1	instantaneously	
1465	1	characteristic	
1466	1	lamy](http://www.lamystore.se/	
1467	1	misalignment	
1468	1	stately	
1469	1	but	
1470	1	https://m.imgur.com/gallery/j5j9v	
1471	1	nc&amp;_trksid	
1472	1	etcetera	
1473	1	gt;omg	
1474	1	nib-1931382-uk	
1475	1	italic	
1476	1	hi	
1477	1	never	
1478	1	lever	
1479	1	crescent	
1480	1	thoughtlessly	
1481	1	uncontrollably	
1482	1	opal	
1483	1	glitter	
1484	1	capable	
1485	1	annnnd	
1486	1	economical	
1487	1	al	
1488	1	justly	
1489	1	n8l1elx.jpg	
1490	1	relentlessly	
1491	1	|professionally	
1492	1	go!](https://www.penchalet.com	
1493	1	flexibly	
1494	1	fountainfeeder	
1495	1	fromjapan.co.jp	
1496	1	mayyyyybe	
1497	1	\^_^	
1498	1	shal	
1499	1	su	
1500	1	up!(although	
1501	1	shogun	
1502	1	systemically	
1503	1	ahhhhhh	
1504	1	fml	
1505	1	unrealistic	
1506	1	reaaaaally	
1507	1	affectionally	
1508	1	sire	
1509	1	shoddily	
1510	1	shy	
1511	1	reallyreally	
1512	1	it/	
1513	1	nitpicky	
1514	1	competently	
1515	1	26-year	
1516	1	would	
1517	1	post](https://www.penaddict.com	
1518	1	nelly	
1519	1	categorically	
1520	1	heartily	
1521	1	potty	
1522	1	amirite	
1523	1	doh	
1524	1	whimsically	
1525	1	left~~	
1526	1	unbearably	
1527	1	precise	
1528	1	heavy(especially	
1529	1	shoplady	
1530	1	nightmarishly	
1531	1	shamefully	
1532	1	insultingly	
1533	1	modestly	
1534	1	sleek	
1535	1	appart	
1536	1	maaaaaaybe	
1537	1	laser	
1538	1	familly	
1539	1	defiently	
1540	1	potently	
1541	1	useless	
1542	1	unconventionally	
1543	1	hastily	
1544	1	anandauk	
1545	1	glaringly	
1546	1	afraid	
1547	1	prone	
1548	1	instinctively	
1549	1	i'm	
1550	1	nick	
1551	1	painful	
1552	1	themeesh	
1553	1	gaming-(primarily	
1554	1	childrearing-(most	
1555	1	weebly	
1556	1	times	
1557	1	nightfall	
1558	1	aplenty	
1559	1	escribir	
1560	1	steely	
1561	1	precariously	
1562	1	wayy	
1563	1	sublime	
1564	1	painstakingly	
1565	1	acess	
1566	1	genearlly	
1567	1	oldest	
1568	1	shd	
1569	1	ususlly	
1570	1	involuntarily	
1571	1	definietly	
1572	1	reassuringly	
1573	1	defintely	
1574	1	rambly	
1575	1	sharp	
1576	1	dreadfully	
1577	1	basicallt	
1578	1	mega	
1579	1	͡ಠ	
1580	1	with	
1581	1	pro	
1582	1	dissasembly	
1583	1	suboptimally	
1584	1	sheepishly	
1585	1	unprofessionally	
1586	1	musically	
1587	1	comparable	
1588	1	trooper	
1589	1	outstandingly	
1590	1	it)](https://blog.gouletpens.com/2012/05	
1591	1	optimally	
1592	1	quixotically	
1593	1	mad	
1594	1	per	
1595	1	demonstrably	
1596	1	counter	
1597	1	m	
1598	1	/this/	
1599	1	evilly	
1600	1	fractionally	
1601	1	responsibly	
1602	1	expensive	
1603	1	https://imgur.com/a/1vf3o	
1604	1	pricey	
1605	1	interchangeable/	
1606	1	touchy	
1607	1	lawlessly	
1608	1	inappropriately	
1609	1	superior	
1610	1	due	
1611	1	beware	
1612	1	väl	
1613	1	https://www.reddit.com/r/fountainpens/comments/7wclss/fixing_slippery_plastic/	
1614	1	sowly	
1615	1	pencily	
1616	1	myosotis	
1617	1	sniff	
1618	1	prqctically	
1619	1	(seriously	
1620	1	😅	
1621	1	spectacular	
1622	1	instinctually	
1623	1	furthur	
1624	1	surprisengly	
1625	1	relly	
1626	1	deffinitely	
1627	1	morbidly	
1628	1	terrifyingly	
1629	1	unfortuneatly	
1630	1	ooooooo	
1631	1	materially	
1632	1	find	
1633	1	fondly	
1634	1	jointly	
1635	1	masterfully	
1636	1	toward	
1637	1	rough	
1638	1	u.s.a	
1639	1	https://www.gouletpens.com/aurora-88-fountain-pen-888-urano-fine-limited-edition/p/au-888-ur-f	
1640	1	unfortunate	
1641	1	springy	
1642	1	nior	
1643	1	minutely	
1644	1	ne	
1645	1	reaaaallly	
1646	1	height	
1647	1	16	
1648	1	noticiablly	
1649	1	nib-/263374091612?txnid=2180205511016	
1650	1	plastically	
1651	1	happier	
1652	1	newer	
1653	1	willvintage	
1654	1	triple	
1655	1	wistfully	
1656	1	cohesively	
1657	1	reply	
1658	1	eachother	
1659	1	overbearingly	
1660	1	picky	
1661	1	psychodelically	
1662	1	🤔	
1663	1	collectively	
1664	1	shallow	
1665	1	tangentially	
1666	1	cumulatively	
1667	1	proably	
1668	1	mini	
1669	1	proudly	
1670	1	ragingly	
1671	1	vegemite	
1672	1	funilly	
1673	1	topwise	
1674	1	misleadingly	
1675	1	reeeeally	
1676	1	abotu	
1677	1	permanent	
1678	1	one	
1679	1	luxuriously	
1680	1	sorta	
1681	1	obsolete	
1682	1	strong	
1683	1	hefty	
1684	1	devastatingly	
1685	1	sligthly	
1686	1	momentarely	
1687	1	interested	
1688	1	derisively	
1689	1	could	
1690	1	mundane	
1691	1	proactively	
1692	1	curly	
1693	1	thightly	
1694	1	chunkier	
1695	1	indirectly	
1696	1	relatedly	
1697	1	offy	
1698	1	lamyusa	
1699	1	adversely	
1700	1	\(roughly	
1701	1	proooobably	
1702	1	thrilled	
1703	1	thrpugh	
1704	1	miraculously	
1705	1	x	
1706	1	reeeeallly	
1707	1	replies:"why	
1708	1	buuuut	
1709	1	subsequentially	
1710	1	reputedly	
1711	1	systematically	
1712	1	welcome	
1713	1	probalbly	
1714	1	probanly	
1715	1	eyewateringly	
1716	1	addictive	
1717	1	symmetrically	
1718	1	reasonally	
1719	1	\(obviously	
1720	1	poorely	
1721	1	w0aa_k0n.jpg	
1722	1	irresistibly	
1723	1	^^^safely	
1724	1	humanely	
1725	1	vow	
1726	1	definiteively	
1727	1	fictionally	
1728	1	exprience	
1729	1	subliminally	
1730	1	gusher	
1731	1	\(whatever	
1732	1	tiny	
1733	1	charmingly	
1734	1	regretfully	
1735	1	intermittently	
1736	1	register	
1737	1	proficient	
1738	1	ach	
1739	1	\(how	
1740	1	hopelessly	
1741	1	wriggle	
1742	1	aesthically	
1743	1	general	
1744	1	drill	
1745	1	conclusively	
1746	1	triply	
1747	1	elaborately	
1748	1	unattractive	
1749	1	waaaay	
1750	1	quest	
1751	1	irrespective	
1752	1	useful	
1753	1	astetically	
1754	1	undergrad	
1755	1	customarily	
1756	1	whether	
1757	1	1	
1758	1	ere	
1759	1	signifcantly	
1760	1	tentatively	
1761	1	questionable	
1762	1	crazily	
1763	1	tidily	
1764	1	warmly	
1765	1	loooong	
1766	1	\(albeit	
1767	1	gt;personally	
1768	1	ayy	
1769	1	toroughly	
1770	1	@lilleatherstudio	
1771	1	plus	
1772	1	nassively	
1773	1	ornate	
1774	1	\-	
1775	1	dropper	
1776	1	litterly	
1777	1	dissembly	
1778	1	alyji	
1779	1	compulsively	
1780	1	particulary	
1781	1	smkw	
1782	1	ordinary	
1783	1	photo\	
1784	1	dumb	
1785	1	manga	
1786	1	stylistically	
1787	1	leftover	
1788	1	frilly	
1789	1	farily	
1790	1	teletively	
1791	1	maulybe	
1792	1	flawed	
1793	1	translucently	
1794	1	earthy	
1795	1	bux	
1796	1	slosh	
1797	1	pressureless	
1798	1	xfeather	
1799	1	orkest	
1800	1	headlong	
1801	1	stiff	
1802	1	\(though	
1803	1	empty	
1804	1	\(i.e	
1805	1	silence	
1806	1	\(there	
1807	1	imma	
1808	1	extemely	
1809	1	justifiably	
1810	1	sake	
1811	1	goddamn	
1812	1	oven	
1813	1	tucky	
1814	1	utilitarian	
1815	1	heck	
1816	1	tooooooo	
1817	1	hyper	
1818	1	pricier	
1819	1	soo	
1820	1	perferably	
1821	1	oof	
1822	1	successively	
1823	1	nationally	
1824	1	translucent	
1825	1	noire-30ml	
1826	1	4.6	
1827	1	intuitively	
1828	1	gorgeously	
1829	1	fuckdiculously	
1830	1	tablecloth	
1831	1	prettier	
1832	1	gift/162973351480?_trksid	
1833	1	😀	
1834	1	nondestructively	
1835	1	spalted	
1836	1	dropper?ive	
1837	1	perenially	
1838	1	dude	
1839	1	extravagantly	
1840	1	feedbacky	
1841	1	toupee	
1842	1	algebra	
1843	1	belatedly	
1844	1	frustratingly	
1845	1	probaply	
1846	1	offices_supplies_pen	
1847	1	jealously	
1848	1	consitantly	
1849	1	springier	
1850	1	smooothly	
1851	1	overmuch	
1852	1	cartier	
1853	1	ancient	
1854	1	crudely	
1855	1	disappointingly	
1856	1	deeefinitely	
1857	1	leisurely	
1858	1	narrow	
1859	1	catastrophically	
1860	1	ps	
1861	1	gainfully	
1862	1	touchscreen	
1863	1	complete	
1864	1	tooooo	
1865	1	unstuck	
1866	1	tricky	
1867	1	@@	
1868	1	vividly	
1869	1	easiest	
1870	1	hypothetically	
1871	1	man:/	
1872	1	suuuuuper	
1873	1	https://www.etsy.com/jp/listing/624326989/penbbs-309-acrylic-piston-filling?ref=shop_home_active_2	
1874	1	symbolically	
1875	1	npt	
1876	1	old	
1877	1	younger	
1878	1	anonymously	
1879	1	flessibile	
1880	1	reeeeeeeeally	
1881	1	arround	
1882	1	indiscriminately	
1883	1	otherly	
1884	1	nibside	
1885	1	filthy	
1886	1	aound	
1887	1	realllllly	
1888	1	601	
1889	1	knowledgeable	
1890	1	dircetly	
1891	1	conflicted	
1892	1	single	
1893	1	ofcourse	
1894	1	look	
1895	1	elusively	
1896	1	noted-	
1897	1	independent	
1898	1	😮	
1899	1	acutally	
1900	1	sound	
1901	1	store](https://www.ebay.com.au	
1902	1	ambering	
1903	1	handsomely	
1904	1	dimensionally	
1905	1	allways	
1906	1	mehhhhh	
1907	1	@redletterpens	
1908	1	socially	
1909	1	slithly	
1910	1	shader	
1911	1	sloppily	
1912	1	https://www.reddit.com/user/schofts/comments/92qs9g/pen/	
1913	1	amply	
1914	1	erroneously	
1915	1	urgently	
1916	1	moore	
1917	1	deliciously	
1918	1	quiet	
1919	1	gt;montblanc	
1920	1	inimitably	
1921	1	oooooh	
1922	1	尚羽堂(https://www.finewriting.com.tw	
1923	1	discernibly	
1924	1	service@finewriting.com.tw	
1925	1	yearningly	
1926	1	beastly	
1927	1	andavo	
1928	1	homely	
1929	1	ocassionally	
1930	1	henceforth	
1931	1	bound	
1932	1	eyesearingly	
1933	1	eek	
1934	1	but-	
1935	1	impeccably	
1936	1	indefinably	
1937	1	constructively	
1938	1	exclusive	
1939	1	expectations-	
1940	1	staunchly	
1941	1	sheely	
1942	1	dastardly	
1943	1	jelly	
1944	1	uncaps	
1945	1	marvellously	
1946	1	jankier	
1947	1	profusely	
1948	1	heheheheh	
1949	1	drunk	
1950	1	bottles](https://en.wikipedia.org	
1951	1	manly	
1952	1	rlly	
1953	1	til	
1954	1	ink	
1955	1	strategically	
1956	1	predominately	
1957	1	arrgghh	
1958	1	cuddly	
1959	1	prominently	
1960	1	thanku	
1961	1	spicy	
1962	1	need(probably	
1963	1	singly	
1964	1	asynchronously	
1965	1	swoon	
1966	1	crumbly	
1967	1	backstory	
1968	1	melbourne	
1969	1	_	
1970	1	loong"(actually	
1971	1	onwards	
1972	1	pleasingly	
1973	1	whole	
1974	1	nutterly	
1975	1	cryptically	
1976	1	radical	
1977	1	scratchy	
1978	1	nilly	
1979	1	negatively	
1980	1	faultlessly	
1981	1	proabably	
1982	1	cheap-	
1983	1	wartime	
1984	1	horrifically	
1985	1	ten	
1986	1	blank	
1987	1	https://www.amazon.com/dp/b07c1vdpxd/ref=cm_sw_r_cp_api_amghbbe6krqby	
1988	1	hahaaa	
1989	1	siguiente	
1990	1	aún	
1991	1	algo	
1992	1	rápido	
1993	1	maximum	
1994	1	basiclly	
1995	1	curmudgeonly	
1996	1	agressively	
1997	1	feathertouch	
1998	1	shady	
1999	1	longest	
2000	1	/s	
2001	1	​well	
2002	1	unbiasedly	
2003	1	apprently	
2004	1	humbled	
2005	1	key	
2006	1	patience	
2007	1	frivolously	
2008	1	hontesly	
2009	1	relgiously	
2010	1	obvious	
2011	1	lookalike	
2012	1	hand	
2013	1	nein	
2014	1	semi	
2015	1	oto	
2016	1	ishime	
2017	1	expensively	
2018	1	colourful	
2019	1	stuck	
2020	1	bearly	
2021	1	bascially	
2022	1	habitually	
2023	1	skilfully	
2024	1	apperantely	
2025	1	chaotically	
2026	1	reverse	
2027	1	serially	
2028	1	defenetly	
2029	1	waaaaahhhhh	
2030	1	🤘	
2031	1	bettwe	
2032	1	w	
2033	1	\:d/	
2034	1	assuredly	
2035	1	elswhere	
2036	1	dull	
2037	1	lool	
2038	1	ooo	
2039	1	similarily	
2040	1	orginally	
2041	1	raden](https://i.imgur.com/2b761jy.jpg	
2042	1	asymmetrically	
2043	1	omg	
2044	1	enterally	
2045	1	appreciably	
2046	1	curiously	
2047	1	korean	
2048	1	dillahunty	
2049	1	scratchily	
2050	1	no.343	
2051	1	idiomatically	
2052	1	risibly	
2053	1	verbally	
2054	1	cuz	
2055	1	ahah	
2056	1	a/7osleth	
2057	1	sofar	
2058	1	ether	
2059	1	@jazzorilla	
2060	1	clever	
2061	1	attractively	
2062	1	nope	
2063	1	overhead	
2064	1	😌	
2065	1	fow	
2066	1	neccessarily	
2067	1	beside	
2068	1	absulutely	
2069	1	unscrew	
2070	1	tampon	
2071	1	spare	
2072	1	watery	
2073	1	recognizably	
2074	1	fabulously	
2075	1	brainlessly	
2076	1	usally	
2077	1	lamy	
2078	1	hesitantly	
2079	1	blackest	
2080	1	occassionally	
2081	1	mindlessly	
2082	1	novice	
2083	1	oop	
2084	1	350ml	
2085	1	yucky	
2086	1	pent	
2087	1	appropriate	
2088	1	perpendicular	
2089	1	detinitely	
2090	1	400-piece	
2091	1	vacuum	
2092	1	flimsily	
2093	1	ultra	
2094	1	mysteriously	
2095	1	silk	
2096	1	eeerily	
2097	1	opaquely	
2098	1	https://imgur.com/a/6q9od6w	
2099	1	telekinetically	
2100	1	lewdly	
2101	1	fit	
2102	1	@lizsteelart	
2103	1	stilly	
2104	1	squiggly	
2105	1	reaaaaallly	
2106	1	tooo	
