#Word types: 1565
#Word tokens: 103026
#Search results: 0
1	6775	just	
2	4948	so	
3	3494	really	
4	3007	also	
5	2871	when	
6	2608	how	
7	2496	very	
8	2480	too	
9	2258	more	
10	2116	even	
11	2115	then	
12	2086	well	
13	2071	as	
14	1994	only	
15	1775	here	
16	1693	still	
17	1607	now	
18	1564	why	
19	1521	much	
20	1424	pretty	
21	1383	probably	
22	1360	actually	
23	1319	though	
24	1272	maybe	
25	1135	where	
26	1115	at	
27	1040	back	
28	1039	there	
29	903	all	
30	846	always	
31	747	about	
32	673	definitely	
33	660	ever	
34	612	however	
35	611	least	
36	609	far	
37	609	already	
38	608	again	
39	574	most	
40	558	quite	
41	535	around	
42	532	almost	
43	526	right	
44	518	else	
45	517	rather	
46	512	enough	
47	506	of	
48	491	usually	
49	471	especially	
50	468	often	
51	458	instead	
52	453	that	
53	440	better	
54	426	personally	
55	423	away	
56	412	yet	
57	395	generally	
58	392	sometimes	
59	377	first	
60	367	easily	
61	364	exactly	
62	355	automatically	
63	353	ago	
64	321	perhaps	
65	308	long	
66	307	out	
67	301	slightly	
68	296	super	
69	287	certainly	
70	284	before	
71	280	indeed	
72	276	less	
73	270	completely	
74	270	kind	
75	263	absolutely	
76	255	simply	
77	254	honestly	
78	243	basically	
79	241	recently	
80	240	otherwise	
81	238	currently	
82	234	once	
83	233	totally	
84	230	in	
85	228	mostly	
86	227	fairly	
87	215	obviously	
88	204	unfortunately	
89	201	anyway	
90	197	soon	
91	196	apart	
92	191	either	
93	178	literally	
94	177	together	
95	174	quickly	
96	172	course	
97	172	likely	
98	170	later	
99	168	apparently	
100	168	down	
101	166	longer	
102	164	properly	
103	163	seriously	
104	163	clearly	
105	157	extremely	
106	157	hopefully	
107	155	specifically	
108	155	up	
109	153	perfectly	
110	151	particularly	
111	149	online	
112	149	anymore	
113	145	possibly	
114	139	over	
115	136	finally	
116	133	hard	
117	131	directly	
118	126	highly	
119	124	best	
120	124	nearly	
121	123	fine	
122	119	eventually	
123	119	relatively	
124	117	somewhere	
125	117	entirely	
126	113	truly	
127	113	typically	
128	107	off	
129	106	anywhere	
130	105	normally	
131	102	fully	
132	102	way	
133	101	further	
134	97	somewhat	
135	96	correctly	
136	95	straight	
137	94	fast	
138	93	regardless	
139	93	forward	
140	93	incredibly	
141	92	damn	
142	91	somehow	
143	90	any	
144	88	immediately	
145	85	sort	
146	85	sadly	
147	84	alone	
148	83	above	
149	81	mainly	
150	80	aside	
151	80	essentially	
152	80	nicely	
153	79	next	
154	79	inside	
155	78	kinda	
156	73	everywhere	
157	73	forever	
158	71	barely	
159	69	necessarily	
160	66	on	
161	66	regularly	
162	65	twice	
163	65	outside	
164	64	home	
165	63	therefore	
166	63	thus	
167	61	smoothly	
168	61	frequently	
169	61	earlier	
170	61	badly	
171	60	significantly	
172	59	matter	
173	58	faster	
174	57	hardly	
175	57	rarely	
176	57	both	
177	56	reasonably	
178	56	differently	
179	55	hence	
180	54	anyways	
181	54	the	
182	53	great	
183	53	daily	
184	53	after	
185	52	close	
186	50	whenever	
187	50	merely	
188	50	technically	
189	49	little	
190	49	lately	
191	49	constantly	
192	49	overall	
193	49	ahead	
194	47	wrong	
195	45	since	
196	45	slowly	
197	45	poorly	
198	45	carefully	
199	45	originally	
200	45	overly	
201	44	roughly	
202	44	ultimately	
203	42	surprisingly	
204	42	consistently	
205	41	sure	
206	41	second	
207	40	i.e.	
208	40	imo	
209	39	accidentally	
210	39	heavily	
211	38	surely	
212	38	terribly	
213	36	elsewhere	
214	36	equally	
215	35	naturally	
216	34	gently	
217	34	prior	
218	34	frankly	
219	34	thoroughly	
220	34	separately	
221	33	besides	
222	33	previously	
223	33	below	
224	32	alternatively	
225	32	early	
226	32	potentially	
227	32	wet	
228	31	intentionally	
229	31	haha	
230	31	real	
231	31	widely	
232	31	similarly	
233	30	harder	
234	30	exclusively	
235	29	occasionally	
236	29	luckily	
237	29	every	
238	29	primarily	
239	29	initially	
240	29	whatsoever	
241	28	beautifully	
242	28	suddenly	
243	28	extra	
244	28	actively	
245	27	amazingly	
246	27	sometime	
247	27	readily	
248	26	ok	
249	26	practically	
250	26	upside	
251	26	closely	
252	26	half	
253	26	late	
254	25	strongly	
255	25	instantly	
256	25	decently	
257	24	supposedly	
258	24	locally	
259	24	genuinely	
260	24	effectively	
261	23	ugly	
262	23	arguably	
263	23	permanently	
264	23	legally	
265	23	near	
266	23	overnight	
267	23	commonly	
268	22	fortunately	
269	22	some	
270	22	preferably	
271	22	virtually	
272	22	purely	
273	21	accurately	
274	21	someday	
275	21	greatly	
276	21	nowadays	
277	21	furthermore	
278	21	nice	
279	21	largely	
280	20	along	
281	20	nowhere	
282	20	aesthetically	
283	20	partially	
284	20	wonderfully	
285	20	cheap	
286	20	remotely	
287	20	across	
288	19	tightly	
289	19	happily	
290	19	low	
291	19	thankfully	
292	19	repeatedly	
293	19	automod	
294	18	securely	
295	18	ridiculously	
296	18	sooner	
297	18	comfortably	
298	18	firmly	
299	18	nonetheless	
300	18	cheaply	
301	18	publicly	
302	18	disassembly	
303	18	deliberately	
304	17	anyhow	
305	17	physically	
306	17	gladly	
307	17	broad	
308	17	lastly	
309	17	afterwards	
310	17	albeit	
311	17	strictly	
312	17	ideally	
313	17	closer	
314	17	e.g.	
315	16	specially	
316	16	is	
317	16	kindly	
318	16	horribly	
319	16	nt	
320	16	everyday	
321	16	precisely	
322	16	randomly	
323	16	deep	
324	16	oddly	
325	16	lightly	
326	16	exceptionally	
327	16	successfully	
328	15	smooth	
329	15	meanwhile	
330	15	explicitly	
331	15	through	
332	15	safely	
333	15	high	
334	15	deeply	
335	15	than	
336	15	likewise	
337	15	iirc	
338	15	non	
339	15	higher	
340	15	last	
341	15	briefly	
342	15	nevertheless	
343	15	plain	
344	15	by	
345	14	considerably	
346	14	quick	
347	14	altogether	
348	14	additionally	
349	14	solely	
350	14	gradually	
351	14	loud	
352	14	notoriously	
353	14	awfully	
354	14	idk	
355	13	vastly	
356	13	shortly	
357	13	dry	
358	13	backwards	
359	13	reliably	
360	13	seemingly	
361	13	inherently	
362	12	freely	
363	12	wide	
364	12	interesting	
365	12	good	
366	12	blatantly	
367	12	behind	
368	12	overseas	
369	12	quicker	
370	12	namely	
371	12	objectively	
372	12	negatively	
373	12	inevitably	
374	12	to	
375	12	chemically	
376	11	secondly	
377	11	double	
378	11	functionally	
379	11	theoretically	
380	11	tight	
381	11	flat	
382	11	small	
383	11	wise	
384	11	finer	
385	11	partly	
386	11	clear	
387	11	sufficiently	
388	11	n’t	
389	10	admittedly	
390	10	dead	
391	10	vintage	
392	10	pleasantly	
393	10	accordingly	
394	10	newly	
395	10	insanely	
396	10	medium	
397	10	upwards	
398	10	nib	
399	10	whoa	
400	10	anytime	
401	10	flawlessly	
402	10	many	
403	10	remarkably	
404	10	easy	
405	10	desperately	
406	10	manually	
407	10	moderately	
408	10	lower	
409	10	noticeably	
410	9	wider	
411	9	btw	
412	9	respectively	
413	9	+	
414	9	strangely	
415	9	beforehand	
416	9	hugely	
417	9	officially	
418	9	other	
419	9	substantially	
420	9	continuously	
421	9	okay	
422	9	aka	
423	9	vertically	
424	9	slow	
425	9	legitimately	
426	9	unnecessarily	
427	9	easier	
428	9	nearby	
429	9	utterly	
430	9	halfway	
431	9	magically	
432	9	incorrectly	
433	8	sorry	
434	8	financially	
435	8	alike	
436	8	upright	
437	8	soooo	
438	8	eyedropper	
439	8	worldwide	
440	8	deeper	
441	8	politically	
442	8	visually	
443	8	historically	
444	8	internally	
445	8	a	
446	8	loosely	
447	8	fundamentally	
448	8	firstly	
449	8	infrequently	
450	8	interestingly	
451	8	doubt	
452	7	sincerely	
453	7	importantly	
454	7	wrongly	
455	7	realistically	
456	7	openly	
457	7	rapidly	
458	7	temporarily	
459	7	politely	
460	7	please	
461	7	professionally	
462	7	blindly	
463	7	third	
464	7	stupidly	
465	7	presumably	
466	7	individually	
467	7	snugly	
468	7	wildly	
469	7	everytime	
470	7	logically	
471	7	moreover	
472	7	approximately	
473	7	--:|:--|:--	
474	7	environmentally	
475	7	short	
476	6	custom	
477	6	vaguely	
478	6	mildly	
479	6	same	
480	6	fantastically	
481	6	new	
482	6	absurdly	
483	6	ethically	
484	6	silly	
485	6	annoyingly	
486	6	evenly	
487	6	ie	
488	6	anonymously	
489	6	true	
490	6	such	
491	6	extensively	
492	6	incidentally	
493	6	yep	
494	6	factually	
495	6	continually	
496	6	horizontally	
497	6	ironically	
498	6	underneath	
499	6	brightly	
500	6	routinely	
501	6	commercially	
502	6	purposely	
503	6	artificially	
504	6	wholeheartedly	
505	6	independently	
506	6	worst	
507	6	ve	
508	6	adequately	
509	6	simultaneously	
510	5	defiantly	
511	5	possible	
512	5	dramatically	
513	5	ur	
514	5	weekly	
515	5	cool	
516	5	awesomely	
517	5	dearly	
518	5	big	
519	5	comparatively	
520	5	allegedly	
521	5	ill	
522	5	larger	
523	5	bad	
524	5	plenty	
525	5	drastically	
526	5	$	
527	5	funny	
528	5	traditionally	
529	5	privately	
530	5	intensely	
531	5	internationally	
532	5	freshly	
533	5	neatly	
534	5	appropriately	
535	5	heartily	
536	5	thereof	
537	5	periodically	
538	5	live	
539	5	direct	
540	5	loose	
541	5	grammatically	
542	5	while	
543	5	conveniently	
544	5	sideways	
545	5	severely	
546	5	endlessly	
547	5	louder	
548	4	painfully	
549	4	quietly	
550	4	afterward	
551	4	needlessly	
552	4	downhill	
553	4	silently	
554	4	uniformly	
555	4	amazing	
556	4	rare	
557	4	solidly	
558	4	asap	
559	4	usd	
560	4	ooh	
561	4	black	
562	4	downright	
563	4	each	
564	4	friendly	
565	4	thru	
566	4	cosmetically	
567	4	impulsively	
568	4	purposefully	
569	4	full	
570	4	collectively	
571	4	sapiens	
572	4	outright	
573	4	exceedingly	
574	4	massively	
575	4	handy	
576	4	hey	
577	4	awhile	
578	4	unexpectedly	
579	4	hmm	
580	4	vs	
581	4	nah	
582	4	sudden	
583	4	safe	
584	4	aggressively	
585	4	awesome	
586	4	infinitely	
587	4	legibly	
588	4	thin	
589	4	or	
590	4	farther	
591	4	slower	
592	4	smoother	
593	4	immensely	
594	4	aha	
595	4	excitedly	
596	4	morally	
597	4	under	
598	4	undoubtedly	
599	4	foolishly	
600	4	unusably	
601	4	etc	
602	4	ludicrously	
603	4	universally	
604	4	wherever	
605	4	momentarily	
606	4	patiently	
607	4	otoh	
608	4	formerly	
609	4	fiddly	
610	4	unconsciously	
611	4	comically	
612	4	mutually	
613	4	mentally	
614	4	downward	
615	4	unusually	
616	4	tbh	
617	4	hourly	
618	4	overboard	
619	4	fountainpengore	
620	4	unreasonably	
621	3	ph	
622	3	although	
623	3	prone	
624	3	scribbly	
625	3	uniquely	
626	3	disproportionately	
627	3	prolly	
628	3	anecdotally	
629	3	presently	
630	3	uhh	
631	3	technologically	
632	3	thick	
633	3	excellently	
634	3	domestically	
635	3	economically	
636	3	heartedly	
637	3	unintentionally	
638	3	increasingly	
639	3	throughly	
640	3	ebonite	
641	3	definetly	
642	3	singularly	
643	3	awkward	
644	3	alright	
645	3	open	
646	3	twitter	
647	3	waaay	
648	3	large	
649	3	lighter	
650	3	contrary	
651	3	afraid	
652	3	marginally	
653	3	lightfast	
654	3	weirdly	
655	3	north	
656	3	vigorously	
657	3	finely	
658	3	notably	
659	3	stateside	
660	3	dark	
661	3	conversely	
662	3	tremendously	
663	3	indefinitely	
664	3	fugly	
665	3	wisely	
666	3	promptly	
667	3	neither	
668	3	grossly	
669	3	upward	
670	3	prohibitively	
671	3	worse	
672	3	inexpensively	
673	3	wholly	
674	3	remover	
675	3	they're	
676	3	monthly	
677	3	inadvertently	
678	3	ahhh	
679	3	mass	
680	3	excessively	
681	3	lol	
682	3	mmm	
683	3	seldom	
684	3	statistically	
685	3	rightfully	
686	3	sac	
687	3	generously	
688	3	irl	
689	3	thinly	
690	3	bluntly	
691	3	laterally	
692	3	alternately	
693	3	broader	
694	3	8ballpens	
695	2	insofar	
696	2	unfairly	
697	2	unprofessionally	
698	2	tangentially	
699	2	feather	
700	2	perfectally	
701	2	completly	
702	2	clever	
703	2	curently	
704	2	materially	
705	2	drunk	
706	2	converter	
707	2	aboard	
708	2	refreshingly	
709	2	favorably	
710	2	correct	
711	2	cowardly	
712	2	keenly	
713	2	experimentally	
714	2	effortlessly	
715	2	anorexic	
716	2	alongwith	
717	2	hmmmm	
718	2	obsessively	
719	2	ignorantly	
720	2	willfully	
721	2	reallly	
722	2	unconditionally	
723	2	cleanly	
724	2	distinctly	
725	2	gt;unfortunately	
726	2	onwards	
727	2	edjelly	
728	2	narrow	
729	2	pointedly	
730	2	proudly	
731	2	stunningly	
732	2	south	
733	2	abroad	
734	2	thirdly	
735	2	subsequently	
736	2	sloppily	
737	2	extraordinarily	
738	2	markedly	
739	2	ergonomically	
740	2	ftfy	
741	2	fun	
742	2	probly	
743	2	madly	
744	2	unequivocally	
745	2	unbearably	
746	2	perpetually	
747	2	superbly	
748	2	consequently	
749	2	spectacularly	
750	2	coz	
751	2	hilariously	
752	2	solid	
753	2	past	
754	2	ouch	
755	2	passionately	
756	2	few	
757	2	doubly	
758	2	en	
759	2	admirably	
760	2	blatently	
761	2	vicariously	
762	2	two	
763	2	ohhh	
764	2	identically	
765	2	e	
766	2	mid	
767	2	enormously	
768	2	jokingly	
769	2	radically	
770	2	strange	
771	2	gt;firstly	
772	2	famously	
773	2	whereby	
774	2	dangerously	
775	2	wobbly	
776	2	religiously	
777	2	plainly	
778	2	philosophical	
779	2	heavier	
780	2	scientifically	
781	2	unbelievably	
782	2	digitally	
783	2	bitter	
784	2	worth	
785	2	manly	
786	2	bravely	
787	2	anxiously	
788	2	indirectly	
789	2	mistakenly	
790	2	emotionally	
791	2	secretly	
792	2	amirite	
793	2	consistantly	
794	2	sparkly	
795	2	whole	
796	2	artistically	
797	2	unacceptably	
798	2	opposite	
799	2	nicer	
800	2	offensively	
801	2	eagerly	
802	2	hostile	
803	2	shockingly	
804	2	asshurt	
805	2	pointlessly	
806	2	symmetrically	
807	2	awkwardly	
808	2	aight	
809	2	outrageously	
810	2	;)	
811	2	oily	
812	2	spontaneously	
813	2	interchangeably	
814	2	ordinarily	
815	2	thereby	
816	2	green	
817	2	fancy	
818	2	stealth	
819	2	afaik	
820	2	acceptably	
821	2	ghostly	
822	2	ghastly	
823	2	fourth	
824	2	forth	
825	2	free	
826	2	cheaper	
827	2	definitively	
828	2	undeniably	
829	2	unmistakably	
830	2	structurally	
831	2	pleasant	
832	2	fair	
833	2	smaller	
834	2	predominantly	
835	2	unseen	
836	2	criminally	
837	2	evidently	
838	2	subjectively	
839	2	pathetically	
840	2	lovely	
841	2	lacquer	
842	2	truthfully	
843	2	broadly	
844	2	unquestionably	
845	2	delightfully	
846	2	cautiously	
847	2	vehemently	
848	2	elegantly	
849	2	this	
850	2	critically	
851	2	unevenly	
852	2	knowingly	
853	2	em	
854	2	globally	
855	2	thouroghly	
856	2	magnetically	
857	2	fiercely	
858	2	forcefully	
859	2	tougher	
860	2	amusingly	
861	2	’s	
862	2	if	
863	2	adamantly	
864	2	visibly	
865	2	expressly	
866	2	rightly	
867	2	und	
868	2	overtly	
869	2	plz	
870	2	nay	
871	2	vocally	
872	2	unfortunatly	
873	2	willy	
874	2	pink	
875	2	anti	
876	1	lightweight	
877	1	surgically	
878	1	really~	
879	1	o	
880	1	predictably	
881	1	superficially	
882	1	gt;realistically	
883	1	t	
884	1	rectally	
885	1	molecularly	
886	1	darker	
887	1	http://i.imgur.com/mnqyitw.jpg	
888	1	obtrusively	
889	1	noooooo	
890	1	utensil	
891	1	ruby	
892	1	jelly	
893	1	definatly	
894	1	false	
895	1	le	
896	1	outcome	
897	1	howevr	
898	1	noob	
899	1	proprly	
900	1	rlly	
901	1	eerily	
902	1	academically	
903	1	adun	
904	1	indelibly	
905	1	radioactively	
906	1	poppingly	
907	1	acidentally	
908	1	preeeeeetty	
909	1	characteristically	
910	1	dusty	
911	1	dreadfully	
912	1	apiece	
913	1	wibbly	
914	1	uni	
915	1	flexx	
916	1	candy	
917	1	sensationally	
918	1	somhw	
919	1	shuld	
920	1	harmless	
921	1	def	
922	1	manyfold	
923	1	improperly	
924	1	bleedsthrough	
925	1	intensively	
926	1	uneven	
927	1	cleverly	
928	1	mega	
929	1	fine(usually	
930	1	illegible	
931	1	optimally	
932	1	glaringly	
933	1	thouroughly	
934	1	humid	
935	1	one](http://eastwesteverywhere.blogspot.com/2013/05	
936	1	crystal	
937	1	unambiguously	
938	1	actly	
939	1	veeery	
940	1	hhhh	
941	1	thnkfuly	
942	1	casually	
943	1	toxically	
944	1	https://www.youtube.com/watch?v=9rhfxcbom_q	
945	1	:(	
946	1	shamefully	
947	1	hardest	
948	1	fourthly	
949	1	pre	
950	1	demonstrably	
951	1	costly	
952	1	ideologically	
953	1	curmudgeonly	
954	1	semi	
955	1	blindingly	
956	1	inarguably	
957	1	^"definitely	
958	1	triple	
959	1	noramlly	
960	1	inst	
961	1	round	
962	1	are.lovely	
963	1	seriouslyx	
964	1	densely	
965	1	smothly	
966	1	mini(then	
967	1	impatiently	
968	1	chronologically	
969	1	fastest	
970	1	c'm	
971	1	heh	
972	1	reaaaally	
973	1	~~generally	
974	1	bro	
975	1	sketchy	
976	1	deffinitely	
977	1	popularly	
978	1	up/	
979	1	lib	
980	1	detest	
981	1	russia	
982	1	phonetically	
983	1	metropolitan	
984	1	alternativus	
985	1	gosh	
986	1	oppressively	
987	1	crushingly	
988	1	tentatively	
989	1	progressively	
990	1	flattery	
991	1	rationally	
992	1	wrongfully	
993	1	ive_got_a_real_problem_with_fountainpennetwork	
994	1	relative	
995	1	sub	
996	1	apeshit	
997	1	abstractly	
998	1	15hrs	
999	1	yellow	
1000	1	italic	
1001	1	majorly	
1002	1	phenomenally	
1003	1	absolutly	
1004	1	~us$470	
1005	1	effeciently	
1006	1	legitimate	
1007	1	quote	
1008	1	beter	
1009	1	simple	
1010	1	merly	
1011	1	skipping	
1012	1	usn	
1013	1	blank	
1014	1	equall	
1015	1	aplenty	
1016	1	disparagingly	
1017	1	suprisingly	
1018	1	gt;really	
1019	1	alongside	
1020	1	m	
1021	1	definetely	
1022	1	ahhhhhh	
1023	1	deservedly	
1024	1	generically	
1025	1	nos	
1026	1	positive	
1027	1	without	
1028	1	pro	
1029	1	vivdly	
1030	1	bright	
1031	1	aptly	
1032	1	nibs/	
1033	1	enthusiast	
1034	1	gt;also	
1035	1	throughout	
1036	1	enjoyable	
1037	1	extememly	
1038	1	finest	
1039	1	http://www.infoworld.com/article/2639497/techology-business/how-did-wordperfect-go-wrong-.html	
1040	1	assuredly	
1041	1	succinctly	
1042	1	gorgeously	
1043	1	outdo	
1044	1	oooh	
1045	1	screw	
1046	1	novelty	
1047	1	overwhelmingly	
1048	1	certain	
1049	1	intellectually	
1050	1	top	
1051	1	formally	
1052	1	strikingly	
1053	1	classically	
1054	1	goddamn	
1055	1	hellishly	
1056	1	lamy.com	
1057	1	dull	
1058	1	se	
1059	1	stranger	
1060	1	https://instagram.com/p/0imgfzbmfj/	
1061	1	berserk	
1062	1	slender	
1063	1	pen	
1064	1	noticably	
1065	1	hoefully	
1066	1	disparately	
1067	1	newb	
1068	1	definitly	
1069	1	harshly	
1070	1	speciatly	
1071	1	gt;secondly	
1072	1	ninny	
1073	1	yagankiely	
1074	1	skeuomorphically	
1075	1	effiently	
1076	1	nibbbbbbb	
1077	1	figuratively	
1078	1	informative/	
1079	1	couldn't.t	
1080	1	handsomely	
1081	1	following	
1082	1	hypothetically	
1083	1	look	
1084	1	tamper	
1085	1	do	
1086	1	from	
1087	1	soakingly	
1088	1	tively	
1089	1	honetsly	
1090	1	¯\\\_(ツ)_/¯	
1091	1	xfeather	
1092	1	inescapably	
1093	1	electronically	
1094	1	awww	
1095	1	self	
1096	1	notwithstanding	
1097	1	wherein	
1098	1	present	
1099	1	may	
1100	1	affirmatively	
1101	1	playfully	
1102	1	voluntarily	
1103	1	victoria	
1104	1	multiple	
1105	1	outstandingly	
1106	1	monumentally	
1107	1	conpletely	
1108	1	liberally	
1109	1	touchy	
1110	1	reportedly	
1111	1	soooooo	
1112	1	natural	
1113	1	seriousily	
1114	1	horizontal	
1115	1	disgustingly	
1116	1	patently	
1117	1	upfront	
1118	1	otherworldly	
1119	1	categorically	
1120	1	monstrously	
1121	1	bubbly	
1122	1	charitably	
1123	1	fascinating	
1124	1	exponentially	
1125	1	because	
1126	1	http://www.gouletpens.com/nib-nook	
1127	1	harsher	
1128	1	's	
1129	1	selectively	
1130	1	tragically	
1131	1	/r	
1132	1	trim	
1133	1	www.ebay.ie	
1134	1	rrally	
1135	1	wwo	
1136	1	socially	
1137	1	instinctively	
1138	1	springier	
1139	1	questionably	
1140	1	^^properly	
1141	1	reallllllllllllllly	
1142	1	versa	
1143	1	fishy	
1144	1	throwaway	
1145	1	overmuch	
1146	1	judgemental	
1147	1	steadily	
1148	1	deathly	
1149	1	generic	
1150	1	swiftly	
1151	1	sily	
1152	1	leisurely	
1153	1	fabulously	
1154	1	involuntarily	
1155	1	undesirably	
1156	1	dirty	
1157	1	certifiably	
1158	1	idiot	
1159	1	irrationally	
1160	1	precipitously	
1161	1	brazenly	
1162	1	constructively	
1163	1	candidly	
1164	1	conspicuously	
1165	1	homie	
1166	1	fluidly	
1167	1	what	
1168	1	nvm	
1169	1	obsolescent	
1170	1	lovably	
1171	1	harmoniously	
1172	1	fleshly	
1173	1	honesly	
1174	1	sickly	
1175	1	wether	
1176	1	/s	
1177	1	marble-14k	
1178	1	measurement	
1179	1	longingly	
1180	1	dipshit	
1181	1	mean	
1182	1	i'm	
1183	1	gt;actually	
1184	1	swirly	
1185	1	jently	
1186	1	wtv	
1187	1	toooo	
1188	1	gingerly	
1189	1	vast	
1190	1	invariably	
1191	1	incomprehensibly	
1192	1	-really!-	
1193	1	amazed	
1194	1	gough	
1195	1	writing?it	
1196	1	profoundly	
1197	1	flexible	
1198	1	sorely	
1199	1	+1	
1200	1	bully	
1201	1	trickier	
1202	1	unpleasantly	
1203	1	irreparably	
1204	1	mucher	
1205	1	truely	
1206	1	thickly	
1207	1	turquoise](http://i.imgur.com/17lpyss.jpg	
1208	1	duly	
1209	1	hotly	
1210	1	near-]universally	
1211	1	earnestly	
1212	1	velvety	
1213	1	board](http://www.jetpens.com	
1214	1	annually	
1215	1	modestly	
1216	1	genetically	
1217	1	con-20	
1218	1	mobile	
1219	1	http://imgur.com/ucufyga	
1220	1	utter	
1221	1	massive	
1222	1	adoringly	
1223	1	uselessly	
1224	1	terminology).~~	
1225	1	systematically	
1226	1	straightly	
1227	1	exatly	
1228	1	nub	
1229	1	counterintuitively	
1230	1	becuase	
1231	1	sweet	
1232	1	heroically	
1233	1	impressively	
1234	1	loudly	
1235	1	infinitesimally	
1236	1	swamppeople.tumblr.com/post/79809228445/when-you-realize-a-brand-new-swamp-people-is-only	
1237	1	befiore	
1238	1	brutally	
1239	1	undersrand	
1240	1	unrelentingly	
1241	1	mod	
1242	1	miraculously	
1243	1	interested	
1244	1	suitably	
1245	1	til	
1246	1	^hopelessly	
1247	1	invest	
1248	1	tthere	
1249	1	mimically	
1250	1	thicker	
1251	1	slippery	
1252	1	golly	
1253	1	definately	
1254	1	perfect	
1255	1	these	
1256	1	newest	
1257	1	/fairly/	
1258	1	quiet	
1259	1	unfortunetly	
1260	1	lamentably	
1261	1	oooo	
1262	1	uncharitably	
1263	1	beyond	
1264	1	suspiciously	
1265	1	depressingly	
1266	1	implicitly	
1267	1	qualitatively	
1268	1	daily-	
1269	1	odd	
1270	1	micro	
1271	1	foward	
1272	1	powerfully	
1273	1	diligently	
1274	1	gt;absolutely	
1275	1	leaks”–utensils	
1276	1	pens](http://blog.gouletpens.com/2016/02	
1277	1	willingly	
1278	1	cursive	
1279	1	http://www.clairefontaine.com/product-en-328298c-linicolor-address-book-12x148-80-sheets-lined-ass-colour.html	
1280	1	disappointingly	
1281	1	nightly	
1282	1	frighteningly	
1283	1	regrettably	
1284	1	supremely	
1285	1	realllllly	
1286	1	huh	
1287	1	gushingly	
1288	1	towards	
1289	1	coincidentally	
1290	1	adversely	
1291	1	manlier	
1292	1	cuz	
1293	1	risky	
1294	1	extemely	
1295	1	nominally	
1296	1	richly	
1297	1	tirelessly	
1298	1	anally	
1299	1	royally	
1300	1	narrowly	
1301	1	carelessly	
1302	1	peach	
1303	1	일을	
1304	1	unspeakably	
1305	1	restlessly	
1306	1	colour	
1307	1	~~likely~~	
1308	1	snidely	
1309	1	pm	
1310	1	happy	
1311	1	conventionally	
1312	1	chemical	
1313	1	bulk	
1314	1	effective	
1315	1	shit	
1316	1	retrospectively	
1317	1	adv	
1318	1	stodgy	
1319	1	suepr	
1320	1	subtle	
1321	1	pornographically	
1322	1	esxypecially	
1323	1	strategically	
1324	1	gratuitously	
1325	1	toxic	
1326	1	centrally	
1327	1	sweeter	
1328	1	uncomfortably	
1329	1	intolerably	
1330	1	cold	
1331	1	outward	
1332	1	unwisely	
1333	1	consciously	
1334	1	pickup(actually	
1335	1	with	
1336	1	frantically	
1337	1	conclusively	
1338	1	surprised	
1339	1	strong	
1340	1	nonsensical	
1341	1	horrendously	
1342	1	incessantly	
1343	1	obnoxiously	
1344	1	shamelessly	
1345	1	models(obviously	
1346	1	favourably	
1347	1	geographically	
1348	1	maliciously	
1349	1	thoughtfully	
1350	1	dimwit	
1351	1	sooo	
1352	1	ivory	
1353	1	bud	
1354	1	positively	
1355	1	it.(yet	
1356	1	inextricably	
1357	1	manifestly	
1358	1	way(as	
1359	1	efficiently	
1360	1	slim	
1361	1	reddit	
1362	1	impervious	
1363	1	humanly	
1364	1	falsely	
1365	1	dude	
1366	1	surpassingly	
1367	1	inadequately	
1368	1	onward	
1369	1	vice	
1370	1	comprehensive	
1371	1	decidedly	
1372	1	lutely	
1373	1	srsly	
1374	1	ohhhhhh	
1375	1	inconsistently	
1376	1	profusely	
1377	1	responsibly	
1378	1	mercilessly	
1379	1	nervous	
1380	1	rattly	
1381	1	ostensibly	
1382	1	admitidly	
1383	1	surpringly	
1384	1	tastefully	
1385	1	omg	
1386	1	hella	
1387	1	huge	
1388	1	expecially	
1389	1	distinctively	
1390	1	minimally	
1391	1	downstairs	
1392	1	tomix	
1393	1	subconsciously	
1394	1	mathematically	
1395	1	tapwater	
1396	1	dumb	
1397	1	potholder	
1398	1	gloriously	
1399	1	middle	
1400	1	orangey	
1401	1	nationwide	
1402	1	forthright	
1403	1	tjis	
1404	1	lever	
1405	1	aloud	
1406	1	audibly	
1407	1	etcetera	
1408	1	showier	
1409	1	lackluster	
1410	1	firsthand	
1411	1	^^^^i'll	
1412	1	^^am	
1413	1	justly	
1414	1	whatever	
1415	1	attire	
1416	1	gone	
1417	1	bigger	
1418	1	smelly	
1419	1	intrigued	
1420	1	unfailingly	
1421	1	wtf	
1422	1	impossibly	
1423	1	facetiously	
1424	1	graciously	
1425	1	might	
1426	1	lollllllllll	
1427	1	lt;overtly	
1428	1	^^^usually	
1429	1	sligtly	
1430	1	😅	
1431	1	equially	
1432	1	sublimely	
1433	1	though-	
1434	1	genuinly	
1435	1	skipping(apparently	
1436	1	unprovoked	
1437	1	worrisome	
1438	1	expressively	
1439	1	disturbingly	
1440	1	springy	
1441	1	respectfully	
1442	1	asymmetrically	
1443	1	like	
1444	1	unknowingly	
1445	1	contextually	
1446	1	externally	
1447	1	can	
1448	1	confusingly	
1449	1	link](https://www.redbubble.com	
1450	1	thorougly	
1451	1	snuggly	
1452	1	defiently	
1453	1	literaturely	
1454	1	satisfactorily	
1455	1	mundane	
1456	1	nuts	
1457	1	counter	
1458	1	astetically	
1459	1	reflexively	
1460	1	easilly	
1461	1	acutely	
1462	1	lily	
1463	1	oooooooh	
1464	1	arghhhh	
1465	1	uhmmm	
1466	1	general	
1467	1	a5	
1468	1	elaborately	
1469	1	questionable	
1470	1	wild	
1471	1	\(albeit	
1472	1	insantly	
1473	1	tighter	
1474	1	intriguingly	
1475	1	nassively	
1476	1	unfamiliar	
1477	1	both.](https://i.redd.it	
1478	1	¯\_(ツ)_/¯	
1479	1	teletively	
1480	1	pressureless	
1481	1	obvious	
1482	1	handily	
1483	1	harsh	
1484	1	expediently	
1485	1	curiously	
1486	1	soo	
1487	1	perferably	
1488	1	gt;only	
1489	1	allowrd	
1490	1	nondestructively	
1491	1	autonomously	
1492	1	glad	
1493	1	feminine	
1494	1	mercifully	
1495	1	old	
1496	1	pompous	
1497	1	~~take	
1498	1	vividly	
1499	1	18£.	
1500	1	\&gt;completely	
1501	1	uuuugh	
1502	1	blunt	
1503	1	npt	
1504	1	abundantly	
1505	1	hyper	
1506	1	rant	
1507	1	girth	
1508	1	fragile	
1509	1	arround	
1510	1	seperately	
1511	1	spray	
1512	1	laser	
1513	1	gleefully	
1514	1	am	
1515	1	humbly	
1516	1	messy	
1517	1	scarily	
1518	1	crumbly	
1519	1	qty	
1520	1	swoon	
1521	1	urgently	
1522	1	gangly	
1523	1	^perfectly	
1524	1	rabidly	
1525	1	8ball	
1526	1	permenantly	
1527	1	mechanically	
1528	1	imperceptibly	
1529	1	warm	
1530	1	funnily	
1531	1	sunrise	
1532	1	preciously	
1533	1	actuallly	
1534	1	factory	
1535	1	skillfully	
1536	1	culturally	
1537	1	ludicrous	
1538	1	meh	
1539	1	successful	
1540	1	firmer	
1541	1	on(also	
1542	1	faintly	
1543	1	marvelously	
1544	1	reeeally	
1545	1	vape	
1546	1	elswhere	
1547	1	poor	
1548	1	appreciably	
1549	1	dillahunty	
1550	1	awry	
1551	1	sparingly	
1552	1	worldly	
1553	1	10keyless	
1554	1	reluctantly	
1555	1	competitively	
1556	1	creepy	
1557	1	stiff	
1558	1	enough(hopefully	
1559	1	comparably	
1560	1	misalignment	
1561	1	amp;nbsp	
1562	1	dv	
1563	1	infinitessimally	
1564	1	blue	
1565	1	pathologically	
