average compound: 0.4568750933632747
max compound: 0.9999
min compound: -0.9955
average positive: 0.18491020039542094
max positive: 1.0
min positive: 0.0
average negative: 0.032304193414532945
max negative: 1.0
min negative: 0.0
