#Word types: 1401
#Word tokens: 61531
#Search results: 0
1	9539	are	
2	7917	have	
3	7149	do	
4	4644	'm	
5	3073	're	
6	2339	think	
7	1708	want	
8	1606	am	
9	1252	like	
10	1211	know	
11	1017	use	
12	958	get	
13	828	need	
14	797	love	
15	529	thank	
16	522	see	
17	484	feel	
18	444	guess	
19	419	find	
20	411	mean	
21	380	write	
22	358	look	
23	338	agree	
24	313	say	
25	305	hope	
26	304	make	
27	302	seem	
28	296	go	
29	265	believe	
30	264	prefer	
31	258	’m	
32	251	buy	
33	212	come	
34	204	take	
35	202	wish	
36	200	require	
37	199	m	
38	194	own	
39	185	tend	
40	180	recommend	
41	176	keep	
42	172	work	
43	172	understand	
44	170	try	
45	159	hate	
46	159	remove	
47	140	live	
48	133	sell	
49	125	enjoy	
50	118	wonder	
51	105	appreciate	
52	103	remember	
53	99	carry	
54	98	suppose	
55	96	hear	
56	91	ink	
57	90	put	
58	90	got	
59	87	start	
60	85	post	
61	85	assume	
62	83	hold	
63	82	doubt	
64	76	run	
65	74	pay	
66	72	disagree	
67	71	give	
68	67	plan	
69	67	end	
70	66	ask	
71	66	fill	
72	65	show	
73	64	read	
74	59	suggest	
75	58	call	
76	58	suspect	
77	55	bet	
78	54	offer	
79	53	expect	
80	52	pen	
81	52	consider	
82	51	spend	
83	50	imagine	
84	48	mention	
85	48	order	
86	47	cost	
87	47	realize	
88	46	care	
89	46	fit	
90	46	’re	
91	45	dislike	
92	45	leave	
93	41	tell	
94	40	ai	
95	40	decide	
96	39	stick	
97	38	include	
98	38	happen	
99	38	send	
100	36	talk	
101	36	choose	
102	34	break	
103	34	pull	
104	33	change	
105	32	exist	
106	32	welcome	
107	31	dunno	
108	30	clean	
109	30	suck	
110	30	sound	
111	29	lose	
112	28	turn	
113	28	check	
114	28	let	
115	27	learn	
116	26	share	
117	26	follow	
118	26	figure	
119	26	stand	
120	25	add	
121	25	miss	
122	24	pick	
123	24	deserve	
124	24	refill	
125	24	throw	
126	23	intend	
127	23	notice	
128	23	respect	
129	23	downvote	
130	23	support	
131	22	apply	
132	22	claim	
133	22	admit	
134	22	speak	
135	21	push	
136	21	provide	
137	21	forgot	
138	21	accept	
139	21	press	
140	21	forget	
141	20	flush	
142	20	recall	
143	20	adore	
144	20	stay	
145	20	’d	
146	19	continue	
147	19	stop	
148	19	apologize	
149	19	move	
150	19	collect	
151	19	allow	
152	19	regret	
153	18	wear	
154	18	draw	
155	18	sit	
156	18	swear	
157	17	ship	
158	17	compare	
159	17	perform	
160	17	point	
161	17	watch	
162	17	dry	
163	16	misread	
164	16	bring	
165	16	treat	
166	16	produce	
167	16	meet	
168	16	promise	
169	16	list	
170	16	realise	
171	16	appear	
172	16	open	
173	15	play	
174	15	refer	
175	15	refuse	
176	15	charge	
177	15	purchase	
178	15	trust	
179	14	fountain	
180	14	fail	
181	14	receive	
182	14	search	
183	14	become	
184	14	arrive	
185	14	avoid	
186	13	re	
187	13	value	
188	13	reach	
189	13	dare	
190	13	be	
191	13	store	
192	13	recognize	
193	13	behave	
194	13	second	
195	13	touch	
196	12	vote	
197	12	vary	
198	12	worry	
199	12	win	
200	12	fall	
201	12	flow	
202	12	flex	
203	12	contribute	
204	12	help	
205	12	wait	
206	12	reckon	
207	11	drop	
208	11	grab	
209	11	handle	
210	11	insist	
211	11	haha	
212	11	die	
213	11	match	
214	11	tighten	
215	10	mess	
216	10	replace	
217	10	dip	
218	10	shake	
219	10	contain	
220	10	mate	
221	10	describe	
222	10	act	
223	10	smell	
224	10	snap	
225	10	teach	
226	10	switch	
227	10	begin	
228	10	uncap	
229	10	rotate	
230	9	blame	
231	9	quink	
232	9	rinse	
233	9	complain	
234	9	test	
235	9	lean	
236	9	belong	
237	9	knock	
238	9	experience	
239	9	manage	
240	9	stain	
241	9	leak	
242	9	visit	
243	9	define	
244	9	finish	
245	9	grip	
246	9	report	
247	8	presume	
248	8	link	
249	8	fear	
250	8	reddit	
251	8	deal	
252	8	crack	
253	8	print	
254	8	count	
255	8	create	
256	8	contact	
257	8	drive	
258	8	lead	
259	8	hand	
260	8	damn	
261	8	ignore	
262	8	fucking	
263	8	differ	
264	8	creep	
265	8	stock	
266	8	sign	
267	8	shop	
268	8	respond	
269	8	adjust	
270	8	advise	
271	8	restore	
272	7	beg	
273	7	dilute	
274	7	laugh	
275	7	set	
276	7	type	
277	7	cover	
278	7	heat	
279	7	cap	
280	7	grow	
281	7	explain	
282	7	feed	
283	7	remain	
284	7	prove	
285	7	lack	
286	7	discover	
287	7	place	
288	7	trim	
289	7	operate	
290	7	grind	
291	7	return	
292	7	wash	
293	7	catch	
294	7	bend	
295	7	remind	
296	7	wipe	
297	6	line	
298	6	cause	
299	6	destroy	
300	6	face	
301	6	roll	
302	6	beat	
303	6	rely	
304	6	pair	
305	6	state	
306	6	practice	
307	6	save	
308	6	concur	
309	6	strip	
310	6	pretend	
311	6	graduate	
312	6	comment	
313	6	swap	
314	6	pass	
315	6	please	
316	6	don't	
317	6	force	
318	6	encourage	
319	6	slide	
320	6	appeal	
321	6	commit	
322	6	demand	
323	6	waste	
324	6	gather	
325	6	upvote	
326	6	syringe	
327	6	desire	
328	6	last	
329	6	dig	
330	6	mix	
331	6	rub	
332	6	acknowledge	
333	6	zoom	
334	6	feather	
335	6	function	
336	5	struggle	
337	5	spell	
338	5	opt	
339	5	browse	
340	5	examine	
341	5	copy	
342	5	focus	
343	5	smooth	
344	5	hit	
345	5	suffer	
346	5	damage	
347	5	invest	
348	5	shit	
349	5	cringe	
350	5	request	
351	5	click	
352	5	seal	
353	5	pm	
354	5	indicate	
355	5	factor	
356	5	protect	
357	5	reduce	
358	5	join	
359	5	disappear	
360	5	correct	
361	5	shade	
362	5	review	
363	5	quit	
364	5	involve	
365	5	kill	
366	5	kinda	
367	5	rip	
368	5	spread	
369	5	fix	
370	5	screw	
371	5	note	
372	5	eat	
373	5	slip	
374	5	favor	
375	5	apologise	
376	5	specialize	
377	4	package	
378	4	double	
379	4	retail	
380	4	maintain	
381	4	raise	
382	4	develop	
383	4	present	
384	4	jump	
385	4	walk	
386	4	sing	
387	4	repeat	
388	4	fast	
389	4	prevent	
390	4	mind	
391	4	survive	
392	4	drink	
393	4	represent	
394	4	loathe	
395	4	polish	
396	4	beware	
397	4	perceive	
398	4	seek	
399	4	darn	
400	4	steal	
401	4	glue	
402	4	affect	
403	4	pop	
404	4	regard	
405	4	approve	
406	4	confuse	
407	4	attack	
408	4	guarantee	
409	4	discuss	
410	4	ruin	
411	4	flip	
412	4	risk	
413	4	serve	
414	4	pour	
415	4	reply	
416	4	weigh	
417	4	matter	
418	4	tune	
419	4	disassemble	
420	4	lay	
421	4	rate	
422	4	lubricate	
423	4	bless	
424	4	upload	
425	4	drag	
426	4	despise	
427	4	tick	
428	4	applaud	
429	4	r.o	
430	3	improve	
431	3	promote	
432	3	study	
433	3	hesitate	
434	3	name	
435	3	attempt	
436	3	spy	
437	3	misunderstand	
438	3	dun	
439	3	lend	
440	3	deem	
441	3	hang	
442	3	slow	
443	3	fold	
444	3	cursive	
445	3	release	
446	3	reccomend	
447	3	step	
448	3	control	
449	3	react	
450	3	amaze	
451	3	service	
452	3	load	
453	3	confess	
454	3	verify	
455	3	hide	
456	3	approach	
457	3	concede	
458	3	taste	
459	3	pre	
460	3	account	
461	3	design	
462	3	spill	
463	3	spring	
464	3	evaluate	
465	3	email	
466	3	encounter	
467	3	gotcha	
468	3	^respect	
469	3	rave	
470	3	envy	
471	3	fluctuate	
472	3	occur	
473	3	scroll	
474	3	deliver	
475	3	research	
476	3	clog	
477	3	owe	
478	3	glide	
479	3	assure	
480	3	overlap	
481	3	determine	
482	3	quote	
483	3	urge	
484	3	looove	
485	3	identify	
486	3	smudge	
487	3	eyedropper	
488	3	sub	
489	3	bind	
490	3	ride	
491	3	price	
492	3	question	
493	3	admire	
494	3	associate	
495	3	view	
496	3	sense	
497	3	piss	
498	3	rest	
499	3	market	
500	3	sake	
501	3	relate	
502	3	fuck	
503	3	gloss	
504	3	submit	
505	3	vape	
506	3	woudlnt	
507	3	empty	
508	3	drain	
509	3	buff	
510	3	thread	
511	3	sparkle	
512	3	witness	
513	3	travel	
514	3	argue	
515	3	edc	
516	3	eco	
517	3	blow	
518	3	invert	
519	3	propose	
520	2	express	
521	2	duplicate	
522	2	sack	
523	2	repair	
524	2	clip	
525	2	label	
526	2	advocate	
527	2	average	
528	2	spoil	
529	2	burn	
530	2	forgive	
531	2	hav	
532	2	qualify	
533	2	mail	
534	2	limit	
535	2	restrict	
536	2	discourage	
537	2	plate	
538	2	tip	
539	2	forbid	
540	2	setup	
541	2	spot	
542	2	revel	
543	2	thin	
544	2	separate	
545	2	chalk	
546	2	mourn	
547	2	bleed	
548	2	leverage	
549	2	abide	
550	2	volunteer	
551	2	eversharp	
552	2	resist	
553	2	adhere	
554	2	justify	
555	2	stole	
556	2	violate	
557	2	pack	
558	2	dm	
559	2	close	
560	2	blur	
561	2	delete	
562	2	monster	
563	2	lock	
564	2	rock	
565	2	vacs	
566	2	reactive	
567	2	gon	
568	2	detest	
569	2	jot	
570	2	crave	
571	2	cross	
572	2	warn	
573	2	update	
574	2	ground	
575	2	hurt	
576	2	delight	
577	2	lecture	
578	2	gain	
579	2	recognise	
580	2	emphasize	
581	2	engrave	
582	2	stifle	
583	2	diminish	
584	2	enforce	
585	2	sheaffer	
586	2	hath	
587	2	defend	
588	2	prioritize	
589	2	waterman	
590	2	aim	
591	2	strike	
592	2	listen	
593	2	scratch	
594	2	reflect	
595	2	clear	
596	2	blog	
597	2	praise	
598	2	skyrocket	
599	2	broaden	
600	2	orient	
601	2	stink	
602	2	hat	
603	2	subscribe	
604	2	wetter	
605	2	build	
606	2	hunt	
607	2	imply	
608	2	reveal	
609	2	publish	
610	2	nib	
611	2	assign	
612	2	can't	
613	2	conform	
614	2	bow	
615	2	brag	
616	2	sketch	
617	2	tap	
618	2	twist	
619	2	ve	
620	2	kick	
621	2	borrow	
622	2	sac	
623	2	criticize	
624	2	bounce	
625	2	head	
626	2	digress	
627	2	scan	
628	2	baby	
629	2	inbetween	
630	2	abuse	
631	2	annoy	
632	2	source	
633	2	annnnnd	
634	2	attribute	
635	2	edit	
636	2	specify	
637	2	stuff	
638	2	shudder	
639	2	brand	
640	2	dont	
641	2	manufacture	
642	2	announce	
643	2	insert	
644	2	expel	
645	2	reground	
646	2	celebrate	
647	2	lol'd	
648	2	threaten	
649	2	notebook	
650	2	activate	
651	2	splurge	
652	2	whole	
653	2	range	
654	2	absorb	
655	2	engage	
656	2	uv	
657	2	th_away99	
658	2	expire	
659	2	paste	
660	2	interest	
661	2	sure	
662	2	squeeze	
663	2	wil	
664	2	like/	
665	2	cry	
666	2	ditch	
667	2	discard	
668	2	brush	
669	2	fly	
670	2	dispose	
671	2	depend	
672	2	fountainpengore	
673	2	install	
674	2	loosen	
675	2	deploy	
676	2	retain	
677	2	correlate	
678	2	lather	
679	2	conduct	
680	2	pocket	
681	2	sport	
682	2	really	
683	2	crap	
684	2	answer	
685	2	smear	
686	2	award	
687	2	gebeurt	
688	2	ring	
689	2	don	
690	2	ahhh	
691	1	etc	
692	1	utilize	
693	1	cop	
694	1	commend	
695	1	light	
696	1	rand	
697	1	flock	
698	1	bid	
699	1	adieu	
700	1	baystate	
701	1	shave	
702	1	delve	
703	1	bully	
704	1	wander	
705	1	wake	
706	1	overwrite	
707	1	circle	
708	1	google	
709	1	predate	
710	1	slap	
711	1	imprint	
712	1	suppose.~~	
713	1	tilt	
714	1	accomodate	
715	1	cannt	
716	1	smal	
717	1	betcha	
718	1	http://www.gouletpens.com/edison_replacement_nibs_s/1266.htm	
719	1	canny	
720	1	wink	
721	1	mash	
722	1	hook	
723	1	alternate	
724	1	lot	
725	1	attract	
726	1	nod	
727	1	meant-	
728	1	supershow	
729	1	impulse	
730	1	loss	
731	1	dove	
732	1	mis	
733	1	gt	
734	1	hvnt	
735	1	interpret	
736	1	angle	
737	1	exploit	
738	1	broach	
739	1	translate_the_illest	
740	1	giveaway	
741	1	mod	
742	1	plz	
743	1	area	
744	1	suit	
745	1	giv	
746	1	sick	
747	1	pls	
748	1	log	
749	1	wnt	
750	1	meld	
751	1	man	
752	1	jad	
753	1	crowd	
754	1	basic	
755	1	command	
756	1	sch	
757	1	finalise	
758	1	drpd	
759	1	prty	
760	1	ie	
761	1	galore	
762	1	sow	
763	1	latch	
764	1	bulletproof	
765	1	da	
766	1	pursue	
767	1	thebrimic	
768	1	frequent	
769	1	categorize	
770	1	evolve	
771	1	inquire	
772	1	though	
773	1	hurr	
774	1	stumble	
775	1	protectandserve	
776	1	wanty	
777	1	betare	
778	1	reread	
779	1	humble	
780	1	overflex	
781	1	vomit	
782	1	alter	
783	1	scribe	
784	1	gush	
785	1	=/	
786	1	green	
787	1	dnt	
788	1	agree-	
789	1	object	
790	1	quart	
791	1	side	
792	1	op	
793	1	met	
794	1	drool	
795	1	rekkon	
796	1	tiink	
797	1	swab	
798	1	lol	
799	1	rewrote	
800	1	morbid	
801	1	embrace	
802	1	melt	
803	1	navigate	
804	1	cheapen	
805	1	been	
806	1	fool	
807	1	attend	
808	1	dismiss	
809	1	caveat	
810	1	proclaim	
811	1	info	
812	1	bleach	
813	1	fight	
814	1	multiply	
815	1	declare	
816	1	revolve	
817	1	commiserate	
818	1	reference	
819	1	accuse	
820	1	base	
821	1	encompass	
822	1	waaaaas	
823	1	bear	
824	1	~~knew~~	
825	1	triple	
826	1	float	
827	1	capitalize	
828	1	row	
829	1	candy	
830	1	file	
831	1	ridicule	
832	1	retract	
833	1	peek	
834	1	cant	
835	1	punch	
836	1	clap	
837	1	educate	
838	1	:-/	
839	1	deny	
840	1	gis	
841	1	settle	
842	1	bridge	
843	1	narrow	
844	1	arrange	
845	1	vibe	
846	1	obscure	
847	1	highlight	
848	1	inkwell	
849	1	constitute	
850	1	strange	
851	1	ossify	
852	1	soak	
853	1	sale	
854	1	potato	
855	1	dweebs	
856	1	reseal	
857	1	fake	
858	1	freak	
859	1	don´t	
860	1	bug	
861	1	optimise	
862	1	resort	
863	1	notify	
864	1	discredit	
865	1	experiment	
866	1	convey	
867	1	flog	
868	1	hemisphere	
869	1	cram	
870	1	-	
871	1	der	
872	1	und	
873	1	coat	
874	1	title	
875	1	sneeze	
876	1	lacquer	
877	1	flippant	
878	1	goulet	
879	1	*	
880	1	concentrate	
881	1	bought](http://www.ebay.com	
882	1	import	
883	1	threshold	
884	1	gel	
885	1	huff	
886	1	immerse	
887	1	shift	
888	1	couldn't.t	
889	1	shape	
890	1	nyers	
891	1	undersand	
892	1	spew	
893	1	smoke	
894	1	result	
895	1	subsidise	
896	1	lie	
897	1	albiet	
898	1	panic	
899	1	transcribe	
900	1	bastard	
901	1	outline	
902	1	would't	
903	1	sooooo	
904	1	achieve	
905	1	advertise	
906	1	sue	
907	1	communicate	
908	1	insult	
909	1	woodn't	
910	1	perspective	
911	1	decant	
912	1	partake	
913	1	sympathize	
914	1	generalise	
915	1	knob	
916	1	wave	
917	1	sarcasm	
918	1	ballpoint	
919	1	asinine	
920	1	exhaust	
921	1	grok	
922	1	donate	
923	1	lt;a	
924	1	shoot	
925	1	armillary_sphere	
926	1	conclude	
927	1	mwan	
928	1	died(knife	
929	1	canr	
930	1	looksiem	
931	1	wad	
932	1	kie	
933	1	liker	
934	1	downplay	
935	1	bitch	
936	1	pare	
937	1	track	
938	1	overwrote	
939	1	journal	
940	1	omg	
941	1	police	
942	1	lump	
943	1	elevate	
944	1	fiddle	
945	1	f'd	
946	1	branch	
947	1	douse	
948	1	loot	
949	1	expose	
950	1	strengthen	
951	1	eds	
952	1	scare	
953	1	incite	
954	1	comply	
955	1	delay	
956	1	alienate	
957	1	yell	
958	1	renew	
959	1	escalate	
960	1	christ	
961	1	fondle	
962	1	cancel	
963	1	resent	
964	1	disguise	
965	1	diversify	
966	1	deliberate	
967	1	loan	
968	1	negotiate	
969	1	class	
970	1	-mind	
971	1	bulge	
972	1	drown	
973	1	tape	
974	1	tube	
975	1	stub	
976	1	gift	
977	1	allege	
978	1	fin	
979	1	hipster	
980	1	process	
981	1	cramp	
982	1	refresh	
983	1	masterrace	
984	1	kiddo	
985	1	sprinkle	
986	1	convert	
987	1	upgrade	
988	1	register	
989	1	cute	
990	1	infact	
991	1	garbage	
992	1	abdicate	
993	1	ppl	
994	1	solve	
995	1	ain't	
996	1	misspell	
997	1	recieve	
998	1	gt;not	
999	1	:3	
1000	1	nïave	
1001	1	surprise	
1002	1	incorporate	
1003	1	habanero	
1004	1	micromesh	
1005	1	misuse	
1006	1	honor	
1007	1	remark	
1008	1	rep	
1009	1	dock	
1010	1	chance	
1011	1	dis	
1012	1	overestimate	
1013	1	defect	
1014	1	¢	
1015	1	pm'd	
1016	1	organise	
1017	1	modify	
1018	1	twas	
1019	1	snag	
1020	1	transport	
1021	1	alkaline	
1022	1	plot	
1023	1	rewatch	
1024	1	acquaire	
1025	1	negociate	
1026	1	compute	
1027	1	soooo	
1028	1	elaborate	
1029	1	ar	
1030	1	hail	
1031	1	sellout	
1032	1	thrive	
1033	1	contest	
1034	1	enter	
1035	1	keen	
1036	1	sorta	
1037	1	idk	
1038	1	trademark	
1039	1	rollerball	
1040	1	listener	
1041	1	complement	
1042	1	discomfort	
1043	1	freshman	
1044	1	disrespect	
1045	1	fry	
1046	1	recover	
1047	1	decay	
1048	1	shoudl	
1049	1	thi	
1050	1	whaa	
1051	1	reverse	
1052	1	grit	
1053	1	by2	
1054	1	chech	
1055	1	scrounge	
1056	1	exert	
1057	1	consist	
1058	1	stir	
1059	1	endorse	
1060	1	acetate	
1061	1	connect	
1062	1	sip	
1063	1	blind	
1064	1	attach	
1065	1	unhook	
1066	1	trio	
1067	1	asshole	
1068	1	prescribe	
1069	1	xpost	
1070	1	watercolor	
1071	1	sir	
1072	1	down-	
1073	1	toe	
1074	1	kiss	
1075	1	squint	
1076	1	mature	
1077	1	faber	
1078	1	bottle	
1079	1	bucket	
1080	1	video	
1081	1	worship	
1082	1	benefit	
1083	1	favour	
1084	1	redditor	
1085	1	light/?40%20miles%20=%2064.4%20km%0a	
1086	1	_	
1087	1	perpetuate	
1088	1	dust	
1089	1	observe	
1090	1	endevor	
1091	1	retard	
1092	1	romanticize	
1093	1	poppy	
1094	1	cast	
1095	1	ace	
1096	1	did--	
1097	1	floss	
1098	1	feedback	
1099	1	dodnt	
1100	1	rearrange	
1101	1	trawl	
1102	1	case	
1103	1	wedge	
1104	1	combine	
1105	1	aare	
1106	1	combo	
1107	1	derive	
1108	1	curtail	
1109	1	debuted-	
1110	1	said-	
1111	1	matte	
1112	1	grammar	
1113	1	dream	
1114	1	bulk	
1115	1	saw	
1116	1	own(ed	
1117	1	realign	
1118	1	border	
1119	1	master	
1120	1	fun	
1121	1	difference	
1122	1	geez	
1123	1	oppose	
1124	1	explore	
1125	1	inhale	
1126	1	quiet	
1127	1	m215	
1128	1	analyze	
1129	1	castell	
1130	1	loom	
1131	1	consume	
1132	1	camr	
1133	1	there，hope	
1134	1	superglue	
1135	1	should't	
1136	1	calibrate	
1137	1	du	
1138	1	jostle	
1139	1	enable	
1140	1	pile	
1141	1	weight	
1142	1	handwrote	
1143	1	supply	
1144	1	standardize	
1145	1	rant	
1146	1	stamp	
1147	1	misinterpret	
1148	1	hifiman	
1149	1	document	
1150	1	kjudef	
1151	1	ect	
1152	1	emphasise	
1153	1	round	
1154	1	dimwit	
1155	1	cptjeff	
1156	1	summon	
1157	1	superchrome	
1158	1	alleviate	
1159	1	lament	
1160	1	use](https://www.amazon.com	
1161	1	conflate	
1162	1	crease	
1163	1	feature	
1164	1	offend	
1165	1	aswell	
1166	1	msg	
1167	1	turquoise	
1168	1	thumb	
1169	1	measure	
1170	1	replicate	
1171	1	though?since	
1172	1	instruct	
1173	1	custom_monet_fantasy_vanishing_point_by_richard/	
1174	1	residue	
1175	1	employ	
1176	1	dude	
1177	1	alot	
1178	1	colonize	
1179	1	persist	
1180	1	^(learn	
1181	1	ebay	
1182	1	progress	
1183	1	heatset	
1184	1	resemble	
1185	1	translate	
1186	1	postm	
1187	1	rosscos_pens_2015&amp;_armrs=1&amp;_osacat=0&amp;_from	
1188	1	spin	
1189	1	default	
1190	1	giggle	
1191	1	trade	
1192	1	glaze	
1193	1	tern	
1194	1	curl	
1195	1	right	
1196	1	mount	
1197	1	seccond	
1198	1	tinker	
1199	1	go](https://www	
1200	1	pronounce	
1201	1	negate	
1202	1	580al	
1203	1	uncover	
1204	1	prime	
1205	1	reinsert	
1206	1	willvintage	
1207	1	dominate	
1208	1	aspire	
1209	1	nah	
1210	1	meanbit	
1211	1	doodle	
1212	1	blotchy	
1213	1	r8	
1214	1	dosnt	
1215	1	shame	
1216	1	employee	
1217	1	proceed	
1218	1	checkout	
1219	1	weekend	
1220	1	prepare	
1221	1	discbound	
1222	1	ton	
1223	1	ahve	
1224	1	bought/.	
1225	1	classify	
1226	1	airflow	
1227	1	😂	
1228	1	🏅	
1229	1	refrain	
1230	1	explode	
1231	1	plug	
1232	1	neglect	
1233	1	portray	
1234	1	bit	
1235	1	fawn	
1236	1	flow/	
1237	1	third	
1238	1	upp	
1239	1	€	
1240	1	devilish	
1241	1	innovate	
1242	1	message	
1243	1	compiler	
1244	1	os	
1245	1	wite	
1246	1	prohibit	
1247	1	reserve	
1248	1	wahl	
1249	1	hike	
1250	1	fancy	
1251	1	mask	
1252	1	https://imgur.com/gallery/rxdns	
1253	1	vac	
1254	1	kind	
1255	1	disintegrate	
1256	1	esteem	
1257	1	overlook	
1258	1	stunt	
1259	1	embody	
1260	1	swim	
1261	1	exercise	
1262	1	lurk	
1263	1	nibs	
1264	1	increase	
1265	1	photograph	
1266	1	leaks	
1267	1	coudlnt	
1268	1	extend	
1269	1	address	
1270	1	thereof	
1271	1	counter	
1272	1	shoulda	
1273	1	chip	
1274	1	reshape	
1275	1	sheen	
1276	1	ban	
1277	1	weep	
1278	1	adorn	
1279	1	hehe	
1280	1	orange	
1281	1	drank	
1282	1	evaporate	
1283	1	indulge	
1284	1	lower	
1285	1	reason	
1286	1	substitute	
1287	1	neat	
1288	1	restock	
1289	1	opaque	
1290	1	tuning	
1291	1	nudge	
1292	1	conclusion	
1293	1	haath	
1294	1	cum	
1295	1	dabble	
1296	1	hatin	
1297	1	agree/	
1298	1	game	
1299	1	ware	
1300	1	adderall	
1301	1	eel	
1302	1	ignorance	
1303	1	pump	
1304	1	promulgate	
1305	1	dictate	
1306	1	•	
1307	1	captain	
1308	1	diverge	
1309	1	devalue	
1310	1	ans	
1311	1	cheapo	
1312	1	quill	
1313	1	lovw	
1314	1	ftw	
1315	1	map	
1316	1	colour	
1317	1	strive	
1318	1	capture	
1319	1	hire	
1320	1	imposter	
1321	1	tickle	
1322	1	cus	
1323	1	contract	
1324	1	cann't	
1325	1	calm	
1326	1	aslo	
1327	1	aficionado	
1328	1	caution	
1329	1	lift	
1330	1	rattle	
1331	1	gonzo	
1332	1	mesh	
1333	1	pens(the	
1334	1	washable	
1335	1	liek	
1336	1	/only/	
1337	1	moisture	
1338	1	invent	
1339	1	loooove	
1340	1	bond	
1341	1	recoil	
1342	1	pen(s	
1343	1	select	
1344	1	foresee	
1345	1	chuck	
1346	1	host	
1347	1	readjust	
1348	1	rush	
1349	1	eye	
1350	1	interfere	
1351	1	disdain	
1352	1	antitrump	
1353	1	rise	
1354	1	obtain	
1355	1	cheesy	
1356	1	havnt	
1357	1	bent	
1358	1	😎	
1359	1	arazelthesixth	
1360	1	mistake	
1361	1	guide	
1362	1	cease	
1363	1	invertebrate	
1364	1	erase	
1365	1	cycle	
1366	1	-&gt	
1367	1	tumble	
1368	1	acquire	
1369	1	peform	
1370	1	deadpan	
1371	1	score	
1372	1	display	
1373	1	shouldgive	
1374	1	swatch	
1375	1	scribble	
1376	1	obsess	
1377	1	covet	
1378	1	resume	
1379	1	block	
1380	1	pelikan	
1381	1	steer	
1382	1	hyperfocus	
1383	1	tarnish	
1384	1	pickup	
1385	1	moderate	
1386	1	main	
1387	1	seat	
1388	1	sooooooooooo	
1389	1	skip	
1390	1	fishy	
1391	1	tweak	
1392	1	invite	
1393	1	commission	
1394	1	compound	
1395	1	part	
1396	1	showcase	
1397	1	interact	
1398	1	metal	
1399	1	preserve	
1400	1	teal	
1401	1	bother	
