#Word types: 894
#Word tokens: 2387188
#Search results: 0
1	704158	to	
2	189587	do	
3	162947	can	
4	143875	would	
5	118842	've	
6	104256	have	
7	101075	will	
8	74390	'll	
9	66776	does	
10	63224	could	
11	61619	did	
12	58849	'm	
13	56487	'd	
14	53509	should	
15	49350	might	
16	38543	ca	
17	36051	was	
18	33878	may	
19	29771	has	
20	29769	are	
21	29337	is	
22	29083	're	
23	23680	been	
24	18211	be	
25	17211	wo	
26	14217	am	
27	13965	had	
28	11839	's	
29	7156	must	
30	5613	’ve	
31	5302	were	
32	5262	na	
33	4450	’ll	
34	4249	’m	
35	3167	’d	
36	2435	ta	
37	2057	having	
38	2042	ve	
39	1428	’re	
40	1205	’s	
41	801	re	
42	777	shall	
43	642	ll	
44	462	m	
45	353	enjoy	
46	297	get	
47	244	suggest	
48	241	got	
49	234	s	
50	219	try	
51	180	ai	
52	147	need	
53	139	don't	
54	132	being	
55	130	gets	
56	110	getting	
57	100	with	
58	86	come	
59	82	pre	
60	75	dare	
61	73	looks	
62	71	like	
63	68	regret	
64	65	helps	
65	58	vs	
66	53	help	
67	53	feels	
68	48	keep	
69	47	start	
70	44	hate	
71	41	go	
72	39	mind	
73	35	know	
74	34	helped	
75	34	d	
76	33	started	
77	32	please	
78	30	felt	
79	30	hmm	
80	30	see	
81	29	love	
82	27	came	
83	24	hand	
84	23	look	
85	23	writes	
86	22	recommend	
87	21	take	
88	19	went	
89	19	gt;does	
90	19	of	
91	18	provided	
92	17	'em	
93	17	huh	
94	17	welp	
95	16	enjoyed	
96	15	want	
97	15	about	
98	14	nib	
99	14	comes	
100	14	going	
101	14	sha	
102	14	click	
103	13	oughta	
104	12	goes	
105	12	havn't	
106	12	understand	
107	12	means	
108	11	guess	
109	11	sould	
110	11	granted	
111	11	fucking	
112	11	😁	
113	10	feel	
114	10	always	
115	10	really	
116	10	loves	
117	10	co	
118	10	til	
119	10	cross	
120	10	saw	
121	10	don‘t	
122	9	handle	
123	9	done	
124	9	buy	
125	8	test	
126	8	it'll	
127	8	kept	
128	8	shouldn't	
129	8	makes	
130	8	flush	
131	8	eyedropper	
132	8	tend	
133	8	write	
134	7	shoulda	
135	7	helping	
136	7	say	
137	7	double	
138	7	took	
139	7	won't	
140	7	\	
141	7	make	
142	7	prefer	
143	7	heat	
144	7	let	
145	7	own	
146	7	cannot	
147	7	•	
148	7	seen	
149	6	starting	
150	6	wet	
151	6	finished	
152	6	t	
153	6	use	
154	6	read	
155	6	wpuld	
156	6	super	
157	6	through	
158	6	your	
159	6	my	
160	6	can't	
161	5	seem	
162	5	find	
163	5	ought	
164	5	considering	
165	5	definitely	
166	5	from	
167	5	liked	
168	5	dip	
169	5	wil	
170	5	ist	
171	5	semi	
172	5	stop	
173	5	bought	
174	5	regretting	
175	4	mean	
176	4	cause	
177	4	uncapped	
178	4	gone	
179	4	gave	
180	4	draw	
181	4	sound	
182	4	woudn't	
183	4	dosen't	
184	4	by	
185	4	gotten	
186	4	what	
187	4	sweet	
188	4	;)	
189	4	remember	
190	4	turn	
191	4	shave	
192	4	ok	
193	4	pls	
194	4	order	
195	4	sell	
196	4	feed	
197	4	ink	
198	4	withstand	
199	4	for	
200	4	seemed	
201	4	recall	
202	4	under	
203	4	till	
204	4	stopped	
205	4	easier	
206	4	advise	
207	3	on	
208	3	keeps	
209	3	wll	
210	3	i´ve	
211	3	yup	
212	3	people	
213	3	check	
214	3	impulse	
215	3	consider	
216	3	suggests	
217	3	sill	
218	3	lol	
219	3	hole	
220	3	plz	
221	3	haha	
222	3	sits	
223	3	doen't	
224	3	shpuld	
225	3	dont	
226	3	whould	
227	3	seems	
228	3	do-	
229	3	nerve	
230	3	becomes	
231	3	become	
232	3	looked	
233	3	rn	
234	3	shalt	
235	3	shoudn't	
236	3	could't	
237	3	shake	
238	3	havnt	
239	3	sorry	
240	3	freaking	
241	3	improves	
242	3	imagine	
243	3	w	
244	3	wingsung	
245	3	wouln't	
246	3	almost	
247	3	'	
248	3	don’t	
249	2	refill	
250	2	sounds	
251	2	cab	
252	2	wan't	
253	2	o	
254	2	lets	
255	2	gt;do	
256	2	does't	
257	2	behave	
258	2	using	
259	2	dry	
260	2	send	
261	2	into	
262	2	sucked	
263	2	ime	
264	2	wuld	
265	2	gt;jackdaws	
266	2	depends	
267	2	woudln't	
268	2	vould	
269	2	ill	
270	2	therefor	
271	2	did't	
272	2	have't	
273	2	imo	
274	2	me/	
275	2	in	
276	2	gt;could	
277	2	oculd	
278	2	trust	
279	2	theyr'e	
280	2	choose	
281	2	~~not~~	
282	2	beta	
283	2	ya'll	
284	2	loosening	
285	2	shipped	
286	2	(i	
287	2	stay	
288	2	would't	
289	2	leave	
290	2	tk	
291	2	don`t	
292	2	dot	
293	2	@	
294	2	thank	
295	2	following	
296	2	#	
297	2	trying	
298	2	fuking	
299	2	starts	
300	2	teach	
301	2	swatches	
302	2	wouldn't	
303	2	y	
304	2	didnt	
305	2	i`d	
306	2	save	
307	2	includes	
308	2	couldn´t	
309	2	ça	
310	2	color	
311	2	wouls	
312	2	quote	
313	2	at	
314	2	can´t	
315	2	eill	
316	2	pc823	
317	2	fixed	
318	2	mk	
319	2	cramp	
320	2	ehh	
321	2	pm	
322	2	trim	
323	2	shouldn´t	
324	2	posting	
325	2	nope	
326	2	non	
327	2	don'r	
328	2	add	
329	2	fill	
330	2	&	
331	2	than	
332	2	mis	
333	2	loathe	
334	2	pen	
335	2	give	
336	2	show	
337	2	repeat	
338	2	increase	
339	2	blind	
340	1	and9gcst_pokzlb3rxgq_djnfot4yqjjkgjqlfnvl	
341	1	ave	
342	1	freakin	
343	1	i`ve	
344	1	actuallydid	
345	1	presume	
346	1	included	
347	1	cw&amp;t	
348	1	deosn't	
349	1	aren;t	
350	1	wellllll	
351	1	bad--	
352	1	accidentllay	
353	1	gt;fountain	
354	1	way	
355	1	pens(seriously	
356	1	removing	
357	1	hav	
358	1	angled	
359	1	handwrite	
360	1	ddin't	
361	1	woiuld	
362	1	ddidn't	
363	1	//can	
364	1	gt;everyone	
365	1	faces	
366	1	arriving	
367	1	gt;herbin	
368	1	convinced	
369	1	eco](http://www.inknouveau.com/2013/10	
370	1	-can	
371	1	leaving	
372	1	culd	
373	1	seldomly	
374	1	likely	
375	1	au	
376	1	leek	
377	1	-you're	
378	1	foresee	
379	1	pops	
380	1	hardbound	
381	1	wright	
382	1	hear	
383	1	aaaaaaaaahg	
384	1	arrive	
385	1	checked	
386	1	dodn't	
387	1	whatwould	
388	1	aerometric	
389	1	new	
390	1	wiuld	
391	1	~~i've	
392	1	shaken	
393	1	acbb	
394	1	put	
395	1	usuallt	
396	1	say-	
397	1	sorryfor	
398	1	ex	
399	1	belong	
400	1	risk	
401	1	when	
402	1	exist	
403	1	ihave	
404	1	is!i've	
405	1	finish	
406	1	update-	
407	1	needlepoint	
408	1	arm	
409	1	upsets	
410	1	husband~	
411	1	eould	
412	1	crisply	
413	1	wi'll	
414	1	changed	
415	1	pictures⎯would	
416	1	csn	
417	1	work	
418	1	feather	
419	1	simetimes	
420	1	request	
421	1	knows-	
422	1	💨	
423	1	rid	
424	1	plan	
425	1	gear	
426	1	freezing	
427	1	requires	
428	1	assuming	
429	1	ask	
430	1	filling	
431	1	resulted	
432	1	ordered	
433	1	plows	
434	1	annnnnd	
435	1	cast	
436	1	right-	
437	1	though-	
438	1	did'int	
439	1	staying	
440	1	wonldn't	
441	1	shot	
442	1	sweat	
443	1	we‘ve	
444	1	doensn't	
445	1	tablet	
446	1	flippin	
447	1	dudes	
448	1	performance	
449	1	personaly	
450	1	nuts	
451	1	doesn't	
452	1	reach	
453	1	ended	
454	1	def.would	
455	1	wait	
456	1	os	
457	1	loved	
458	1	surelt	
459	1	°	
460	1	coontown	
461	1	reddit	
462	1	topic/107971-help	
463	1	knew	
464	1	someone'd	
465	1	bit	
466	1	shows	
467	1	breaks(i've	
468	1	wven	
469	1	pen-	
470	1	j4cc3b	
471	1	wi	
472	1	jsdeqd2.jpg	
473	1	days.should	
474	1	dies	
475	1	hated	
476	1	flick	
477	1	broke	
478	1	s/2439.htm	
479	1	gift	
480	1	outdo	
481	1	twsbi	
482	1	pulling	
483	1	reduce	
484	1	skipping	
485	1	-very	
486	1	wot	
487	1	doubt	
488	1	ipenstore	
489	1	water	
490	1	resin	
491	1	comments/1zrsmf	
492	1	gt;choose	
493	1	goulet	
494	1	не	
495	1	open	
496	1	f*cking	
497	1	1_zps9ro6w9gl.jpg	
498	1	didin't	
499	1	hadn't	
500	1	engraved	
501	1	gt;just	
502	1	purchased	
503	1	warp	
504	1	topic/246770-help	
505	1	slow	
506	1	summon	
507	1	/doesn't/	
508	1	comments/3ych7i	
509	1	triplet	
510	1	diamond-580-fountain	
511	1	anyway?--you're	
512	1	somebody'd	
513	1	cand	
514	1	pause	
515	1	this-	
516	1	finishing	
517	1	brand(s	
518	1	parry**--	
519	1	esterbrook	
520	1	mould	
521	1	$	
522	1	woulod	
523	1	dares	
524	1	marked	
525	1	topic/99662-help	
526	1	pushes	
527	1	afford	
528	1	gt;properly	
529	1	fpn	
530	1	justifying	
531	1	burgundy(can	
532	1	topic/293053-should	
533	1	wrote	
534	1	doing	
535	1	dint	
536	1	taking	
537	1	spend	
538	1	p	
539	1	borderline	
540	1	led	
541	1	https://www.youtube.com/watch?v=a3nd2p4m0ne	
542	1	^(should	
543	1	fin	
544	1	arranged	
545	1	heave	
546	1	regretted	
547	1	alhough	
548	1	shuld	
549	1	wwould	
550	1	cap	
551	1	stiill	
552	1	moving	
553	1	letting	
554	1	topic/235530-sailor	
555	1	regarding	
556	1	rememeber	
557	1	spread	
558	1	ebay/38009-b.jpg	
559	1	said	
560	1	call	
561	1	making	
562	1	amazing!!!!want	
563	1	pull	
564	1	ply	
565	1	courtesy	
566	1	2ould	
567	1	deem	
568	1	shape	
569	1	agree	
570	1	nai_calus	
571	1	missing(will	
572	1	chew	
573	1	hould	
574	1	happen	
575	1	underneath	
576	1	anki	
577	1	shiuld	
578	1	hope	
579	1	couple	
580	1	comments/4sio5a	
581	1	kould	
582	1	shluld	
583	1	not	
584	1	dig	
585	1	من	
586	1	couldn't	
587	1	involved	
588	1	ormay	
589	1	begins	
590	1	with?^in	
591	1	correct	
592	1	became	
593	1	whe	
594	1	won&amp;#039;t	
595	1	son't	
596	1	hsouldn't	
597	1	proofread	
598	1	regrets	
599	1	fb	
600	1	the	
601	1	shoulden't	
602	1	providing	
603	1	miiiight	
604	1	can''t	
605	1	didon't	
606	1	arrived	
607	1	pissed-	
608	1	takes	
609	1	approach	
610	1	apykdtpret4	
611	1	subscribe	
612	1	converted	
613	1	tfs	
614	1	茶葉蛋	
615	1	~60fps	
616	1	cost	
617	1	store/	
618	1	they'e	
619	1	crack	
620	1	warranty	
621	1	-just	
622	1	usuallu	
623	1	forgot	
624	1	expected	
625	1	-revealing	
626	1	eyedrop	
627	1	tune	
628	1	nibs	
629	1	imma	
630	1	index#wiki_zebra_301	
631	1	stain	
632	1	agree](/r	
633	1	/u/6packabsinthe	
634	1	comments/5lg7z3	
635	1	paired	
636	1	left	
637	1	close	
638	1	kinda	
639	1	wold	
640	1	right	
641	1	havnent	
642	1	comments/5ps1i0	
643	1	sheen	
644	1	-feel-	
645	1	op	
646	1	@twsbi	
647	1	notebook	
648	1	diamond-580rb	
649	1	seemti	
650	1	fo	
651	1	dodoes	
652	1	/	
653	1	ry	
654	1	fx	
655	1	pen(s	
656	1	bc	
657	1	themselves-	
658	1	forgo	
659	1	unit_nescio	
660	1	guide	
661	1	sholdn't	
662	1	sized	
663	1	yet-	
664	1	p5197.m570.l1313&amp;_nkw	
665	1	woodbin	
666	1	hasen't	
667	1	dident	
668	1	red	
669	1	aslo	
670	1	fould	
671	1	thing?](https://www.cultpens.com	
672	1	enjoys	
673	1	evaporate	
674	1	fly	
675	1	lovingly	
676	1	don;t	
677	1	dries	
678	1	state	
679	1	wound't	
680	1	až	
681	1	lefties	
682	1	effects	
683	1	price	
684	1	try-	
685	1	air	
686	1	involved-	
687	1	reverse	
688	1	after	
689	1	😀	
690	1	coudn't	
691	1	it'l	
692	1	steal	
693	1	snap/	
694	1	wanna	
695	1	ear	
696	1	arrives	
697	1	di	
698	1	onto	
699	1	orbs	
700	1	guides	
701	1	tolerate	
702	1	outweigh	
703	1	dnt	
704	1	etc	
705	1	thought	
706	1	towards	
707	1	speaking	
708	1	ink(s	
709	1	yould	
710	1	unposted	
711	1	all	
712	1	point(can	
713	1	hurt/	
714	1	https://camelcamelcamel.com/pilot-collection-fountain-barrel-91432/product/b015exs130	
715	1	vary	
716	1	gt;those	
717	1	comments/6vd1f3	
718	1	threads	
719	1	konrad	
720	1	lapis	
721	1	awesome.for	
722	1	~would~	
723	1	nibs.com	
724	1	kidding	
725	1	whilst	
726	1	m'a	
727	1	stand	
728	1	international-1	
729	1	ia	
730	1	turns_out_biology_lab_equipment_is_helpful_for	
731	1	woulnd't	
732	1	used	
733	1	^	
734	1	scratch	
735	1	jumps	
736	1	pin	
737	1	swap	
738	1	binge	
739	1	gt;might	
740	1	bigger.(dont	
741	1	head	
742	1	your'e	
743	1	won‘t	
744	1	sponge	
745	1	i️’m	
746	1	-would	
747	1	bleedthrough	
748	1	while	
749	1	geen	
750	1	sortof	
751	1	sbould	
752	1	f9/04/7c	
753	1	like(ugh	
754	1	restore	
755	1	bugs	
756	1	else-	
757	1	copious	
758	1	spent	
759	1	definetly	
760	1	i’ve	
761	1	haveto	
762	1	v	
763	1	|also	
764	1	cursive	
765	1	design(wich	
766	1	could‘ve	
767	1	frickin	
768	1	goin	
769	1	width	
770	1	^^^^could	
771	1	qui	
772	1	history/	
773	1	shouln't	
774	1	burp	
775	1	favor	
776	1	x	
777	1	woudlnt	
778	1	happening	
779	1	friction	
780	1	hides	
781	1	heckin	
782	1	lt;----	
783	1	ja	
784	1	castell+fountain+pen+loom	
785	1	anticipate	
786	1	medium	
787	1	wants	
788	1	think'd	
789	1	hurts	
790	1	base	
791	1	keyword	
792	1	diversifying	
793	1	which'd	
794	1	interesting/	
795	1	party	
796	1	april-21	
797	1	attend	
798	1	kust	
799	1	involves	
800	1	whoa	
801	1	syringe	
802	1	beauty	
803	1	^^i	
804	1	gunk	
805	1	i’ll	
806	1	永生	
807	1	bothering	
808	1	-amazing	
809	1	hoping	
810	1	~200lbs	
811	1	cultpens)would	
812	1	ideally	
813	1	custom	
814	1	defo	
815	1	know/	
816	1	pro	
817	1	sre	
818	1	sleeves	
819	1	enter-	
820	1	threatening	
821	1	me’ll	
822	1	too.could	
823	1	looking	
824	1	worked	
825	1	ware	
826	1	havin'	
827	1	writing	
828	1	change	
829	1	leads	
830	1	broke/	
831	1	\(may	
832	1	attenuate	
833	1	uses	
834	1	shoeld	
835	1	\(might	
836	1	isn't	
837	1	wow-	
838	1	pro-100	
839	1	\(my	
840	1	\(not	
841	1	clogged(may	
842	1	🏼	
843	1	own't	
844	1	deff	
845	1	sat	
846	1	wsa	
847	1	magic\-\-would	
848	1	wit	
849	1	https://i.redditmedia.com/xh5zhzgt_qfsplyf2m2oelevaqc6nm7y3wipihnrng0.jpg?s=3ece7a855048a8443bdfc3528b4d194a)i'm	
850	1	cann't	
851	1	inknouveau.comif	
852	1	wouldn't;t	
853	1	second	
854	1	seen/	
855	1	finally	
856	1	given	
857	1	tends	
858	1	heb	
859	1	dosn't	
860	1	feeds/	
861	1	dd	
862	1	inked	
863	1	instead](https://instagram.com	
864	1	nib(could	
865	1	gt;watch	
866	1	stayed	
867	1	ucould	
868	1	saves	
869	1	*does	
870	1	i	
871	1	woudnt	
872	1	won´t	
873	1	black	
874	1	band	
875	1	chance	
876	1	clearly	
877	1	i;ll	
878	1	clean/	
879	1	wern't	
880	1	▀	
881	1	saftey	
882	1	alternate	
883	1	gt;i’ve	
884	1	finds	
885	1	bold(i	
886	1	spill	
887	1	gitz	
888	1	m200s	
889	1	citing	
890	1	probaby	
891	1	hv	
892	1	listing	
893	1	subtlety	
894	1	blanket	
