#Word types: 1540
#Word tokens: 104848
#Search results: 0
1	6786	just	
2	4777	so	
3	3609	really	
4	3034	also	
5	2878	when	
6	2638	how	
7	2505	very	
8	2488	too	
9	2182	then	
10	2119	even	
11	2105	well	
12	2100	more	
13	2065	as	
14	1984	only	
15	1904	here	
16	1741	now	
17	1705	still	
18	1683	why	
19	1455	much	
20	1414	pretty	
21	1396	probably	
22	1363	actually	
23	1352	never	
24	1325	maybe	
25	1295	though	
26	1182	where	
27	1138	there	
28	1064	back	
29	877	all	
30	860	always	
31	689	definitely	
32	670	ever	
33	660	far	
34	649	about	
35	645	again	
36	623	however	
37	612	already	
38	607	at	
39	554	quite	
40	543	enough	
41	538	most	
42	535	almost	
43	534	else	
44	523	of	
45	516	right	
46	516	rather	
47	512	around	
48	498	usually	
49	478	often	
50	470	especially	
51	461	instead	
52	442	yet	
53	430	personally	
54	421	better	
55	420	first	
56	398	sometimes	
57	396	away	
58	396	generally	
59	394	ago	
60	393	exactly	
61	372	easily	
62	355	automatically	
63	351	long	
64	349	that	
65	345	out	
66	332	perhaps	
67	307	less	
68	302	slightly	
69	297	super	
70	293	before	
71	293	indeed	
72	289	certainly	
73	283	in	
74	281	kind	
75	273	absolutely	
76	271	completely	
77	263	honestly	
78	258	simply	
79	251	otherwise	
80	248	recently	
81	246	basically	
82	244	once	
83	238	currently	
84	238	totally	
85	230	mostly	
86	227	fairly	
87	221	obviously	
88	218	down	
89	208	unfortunately	
90	205	soon	
91	205	no	
92	203	apart	
93	200	seriously	
94	200	likely	
95	196	anyway	
96	195	either	
97	185	over	
98	184	later	
99	182	literally	
100	178	together	
101	177	quickly	
102	174	course	
103	174	up	
104	168	apparently	
105	168	clearly	
106	164	properly	
107	160	online	
108	160	hopefully	
109	159	specifically	
110	158	extremely	
111	155	longer	
112	153	perfectly	
113	152	on	
114	151	hard	
115	151	anymore	
116	151	particularly	
117	148	possibly	
118	143	finally	
119	142	way	
120	138	somewhere	
121	135	little	
122	132	directly	
123	131	fine	
124	130	imo	
125	127	highly	
126	124	nearly	
127	123	sure	
128	120	off	
129	119	relatively	
130	117	eventually	
131	117	entirely	
132	114	typically	
133	113	anywhere	
134	112	truly	
135	112	kinda	
136	106	normally	
137	102	fully	
138	101	further	
139	101	not	
140	101	somewhat	
141	100	regardless	
142	100	forward	
143	97	correctly	
144	94	straight	
145	93	fast	
146	93	incredibly	
147	92	somehow	
148	92	sort	
149	89	immediately	
150	89	sadly	
151	87	close	
152	87	least	
153	86	above	
154	85	aside	
155	82	essentially	
156	82	btw	
157	80	mainly	
158	80	best	
159	80	nicely	
160	78	alone	
161	76	everywhere	
162	76	forever	
163	75	inside	
164	73	next	
165	73	necessarily	
166	73	matter	
167	71	barely	
168	69	regularly	
169	65	therefore	
170	64	twice	
171	64	smoothly	
172	64	after	
173	63	thus	
174	62	earlier	
175	61	frequently	
176	61	significantly	
177	61	badly	
178	60	home	
179	60	faster	
180	59	hardly	
181	57	hence	
182	57	differently	
183	57	rarely	
184	56	reasonably	
185	53	technically	
186	51	merely	
187	51	daily	
188	50	whenever	
189	50	lately	
190	49	constantly	
191	49	ahead	
192	48	outside	
193	48	damn	
194	47	overall	
195	47	elsewhere	
196	47	poorly	
197	46	slowly	
198	46	automod	
199	45	through	
200	45	roughly	
201	45	carefully	
202	45	originally	
203	45	overly	
204	45	ultimately	
205	43	consistently	
206	43	second	
207	42	surprisingly	
208	40	accidentally	
209	39	anyways	
210	39	heavily	
211	39	terribly	
212	38	surely	
213	38	any	
214	37	below	
215	36	prior	
216	36	equally	
217	36	naturally	
218	35	gently	
219	35	frankly	
220	35	sometime	
221	35	similarly	
222	35	thoroughly	
223	34	late	
224	34	alternatively	
225	34	separately	
226	33	previously	
227	33	real	
228	33	potentially	
229	32	harder	
230	31	haha	
231	31	occasionally	
232	31	intentionally	
233	31	widely	
234	31	early	
235	30	exclusively	
236	30	whatsoever	
237	29	beautifully	
238	29	luckily	
239	29	amazingly	
240	29	initially	
241	28	suddenly	
242	28	is	
243	28	actively	
244	27	primarily	
245	27	disassembly	
246	27	readily	
247	26	besides	
248	26	practically	
249	26	closely	
250	25	nowhere	
251	25	lol	
252	25	strongly	
253	25	locally	
254	25	upside	
255	25	instantly	
256	25	decently	
257	24	great	
258	24	permanently	
259	24	legally	
260	24	genuinely	
261	24	effectively	
262	23	someday	
263	23	nowadays	
264	23	supposedly	
265	23	since	
266	23	arguably	
267	23	virtually	
268	23	overnight	
269	23	commonly	
270	22	fortunately	
271	22	preferably	
272	22	near	
273	22	purely	
274	22	thankfully	
275	21	accurately	
276	21	greatly	
277	21	furthermore	
278	21	everyday	
279	21	high	
280	21	wonderfully	
281	21	remotely	
282	21	easy	
283	21	forth	
284	21	e.g.	
285	21	largely	
286	20	tightly	
287	20	aesthetically	
288	20	partially	
289	20	quick	
290	20	wrong	
291	20	repeatedly	
292	19	sooner	
293	19	happily	
294	19	by	
295	19	nonetheless	
296	19	cheaply	
297	19	overseas	
298	19	publicly	
299	19	closer	
300	18	awhile	
301	18	anyhow	
302	18	securely	
303	18	ridiculously	
304	18	iirc	
305	18	comfortably	
306	18	firmly	
307	18	precisely	
308	18	deliberately	
309	17	physically	
310	17	gladly	
311	17	broad	
312	17	afterwards	
313	17	likewise	
314	17	strictly	
315	17	ideally	
316	16	randomly	
317	16	specially	
318	16	meanwhile	
319	16	safely	
320	16	kindly	
321	16	horribly	
322	16	deep	
323	16	oddly	
324	16	lightly	
325	16	exceptionally	
326	16	successfully	
327	15	along	
328	15	explicitly	
329	15	deeply	
330	15	additionally	
331	15	backwards	
332	15	half	
333	15	nevertheless	
334	14	considerably	
335	14	fair	
336	14	ahhh	
337	14	altogether	
338	14	solely	
339	14	reliably	
340	14	gradually	
341	14	seemingly	
342	14	notoriously	
343	14	negatively	
344	14	awfully	
345	13	ill	
346	13	vastly	
347	13	lastly	
348	13	shortly	
349	13	beforehand	
350	13	loud	
351	13	behind	
352	13	inherently	
353	13	both	
354	12	semi	
355	12	freely	
356	12	functionally	
357	12	theoretically	
358	12	blatantly	
359	12	higher	
360	12	namely	
361	12	objectively	
362	12	briefly	
363	12	inevitably	
364	11	secondly	
365	11	insanely	
366	11	double	
367	11	tight	
368	11	lower	
369	11	partly	
370	11	aka	
371	11	sideways	
372	11	incorrectly	
373	11	sufficiently	
374	11	last	
375	11	mmm	
376	10	admittedly	
377	10	pleasantly	
378	10	accordingly	
379	10	newly	
380	10	darker	
381	10	oooh	
382	10	officially	
383	10	flawlessly	
384	10	ugly	
385	10	across	
386	10	remarkably	
387	10	desperately	
388	10	continuously	
389	10	manually	
390	10	moderately	
391	10	halfway	
392	10	vertically	
393	10	neither	
394	10	historically	
395	10	noticeably	
396	10	everytime	
397	10	upright	
398	10	chemically	
399	9	importantly	
400	9	respectively	
401	9	strangely	
402	9	financially	
403	9	hugely	
404	9	doubt	
405	9	anytime	
406	9	substantially	
407	9	clear	
408	9	worldwide	
409	9	cleaner	
410	9	legitimately	
411	9	direct	
412	9	whatnot	
413	9	unnecessarily	
414	9	visually	
415	9	wide	
416	9	internally	
417	9	nearby	
418	9	utterly	
419	9	magically	
420	9	interestingly	
421	8	realistically	
422	8	good	
423	8	temporarily	
424	8	heavy	
425	8	politely	
426	8	wise	
427	8	professionally	
428	8	alike	
429	8	custom	
430	8	wider	
431	8	politically	
432	8	individually	
433	8	low	
434	8	logically	
435	8	neatly	
436	8	loosely	
437	8	fundamentally	
438	8	approximately	
439	8	slow	
440	8	firstly	
441	8	infrequently	
442	8	extra	
443	7	sincerely	
444	7	wrongly	
445	7	openly	
446	7	nicer	
447	7	every	
448	7	rapidly	
449	7	heavier	
450	7	evenly	
451	7	blindly	
452	7	horizontally	
453	7	awkward	
454	7	stupidly	
455	7	underneath	
456	7	presumably	
457	7	internationally	
458	7	deeper	
459	7	snugly	
460	7	wildly	
461	7	moreover	
462	7	upwards	
463	7	quicker	
464	7	environmentally	
465	6	ok	
466	6	vaguely	
467	6	mildly	
468	6	fantastically	
469	6	awesomely	
470	6	absurdly	
471	6	ethically	
472	6	annoyingly	
473	6	anonymously	
474	6	extensively	
475	6	incidentally	
476	6	esp	
477	6	factually	
478	6	plain	
479	6	continually	
480	6	ironically	
481	6	cheaper	
482	6	brightly	
483	6	routinely	
484	6	commercially	
485	6	purposely	
486	6	artificially	
487	6	lb	
488	6	wholeheartedly	
489	6	independently	
490	6	adequately	
491	6	simultaneously	
492	6	louder	
493	5	dead	
494	5	defiantly	
495	5	dramatically	
496	5	abroad	
497	5	same	
498	5	dearly	
499	5	smooth	
500	5	comparatively	
501	5	allegedly	
502	5	darn	
503	5	purposefully	
504	5	third	
505	5	outright	
506	5	drastically	
507	5	versa	
508	5	mentally	
509	5	awesome	
510	5	mass	
511	5	worst	
512	5	-	
513	5	stateside	
514	5	traditionally	
515	5	privately	
516	5	intensely	
517	5	freshly	
518	5	easier	
519	5	appropriately	
520	5	heartily	
521	5	thereof	
522	5	periodically	
523	5	fugly	
524	5	dry	
525	5	grammatically	
526	5	conveniently	
527	5	wherever	
528	5	worse	
529	5	severely	
530	5	fiddly	
531	5	endlessly	
532	4	painfully	
533	4	quietly	
534	4	afterward	
535	4	needlessly	
536	4	downhill	
537	4	silently	
538	4	scribbly	
539	4	uniformly	
540	4	jelly	
541	4	cheap	
542	4	solidly	
543	4	prolly	
544	4	pr	
545	4	cowardly	
546	4	downright	
547	4	cleanly	
548	4	bit	
549	4	cosmetically	
550	4	soooo	
551	4	impulsively	
552	4	plenty	
553	4	collectively	
554	4	exceedingly	
555	4	bad	
556	4	massively	
557	4	unexpectedly	
558	4	til	
559	4	irrespective	
560	4	aggressively	
561	4	infinitely	
562	4	legibly	
563	4	north	
564	4	finely	
565	4	conversely	
566	4	immensely	
567	4	excitedly	
568	4	morally	
569	4	meh	
570	4	monthly	
571	4	foremost	
572	4	promptly	
573	4	under	
574	4	upward	
575	4	undoubtedly	
576	4	foolishly	
577	4	unusably	
578	4	ludicrously	
579	4	universally	
580	4	solid	
581	4	nano	
582	4	sorry	
583	4	momentarily	
584	4	patiently	
585	4	formerly	
586	4	hot	
587	4	unconsciously	
588	4	comically	
589	4	mutually	
590	4	many	
591	4	structurally	
592	4	live	
593	4	unusually	
594	4	hourly	
595	4	jinhaos	
596	4	overboard	
597	4	unreasonably	
598	3	uhhh	
599	3	unlikely	
600	3	opposite	
601	3	lesser	
602	3	uniquely	
603	3	disproportionately	
604	3	anecdotally	
605	3	presently	
606	3	downwards	
607	3	technologically	
608	3	alright	
609	3	hm	
610	3	globally	
611	3	excellently	
612	3	willfully	
613	3	between	
614	3	domestically	
615	3	economically	
616	3	thru	
617	3	soft	
618	3	heartedly	
619	3	unintentionally	
620	3	ph	
621	3	round	
622	3	increasingly	
623	3	throughly	
624	3	definetly	
625	3	singularly	
626	3	consequently	
627	3	marginally	
628	3	hrs	
629	3	weirdly	
630	3	funnily	
631	3	okay	
632	3	vigorously	
633	3	farther	
634	3	notably	
635	3	tremendously	
636	3	digitally	
637	3	indefinitely	
638	3	wisely	
639	3	ooh	
640	3	grossly	
641	3	prohibitively	
642	3	top	
643	3	originalpostsearcher	
644	3	montegrappa	
645	3	broader	
646	3	inexpensively	
647	3	wholly	
648	3	fp	
649	3	oily	
650	3	inadvertently	
651	3	excessively	
652	3	downward	
653	3	c'm	
654	3	seldom	
655	3	statistically	
656	3	rightfully	
657	3	tbh	
658	3	generously	
659	3	truthfully	
660	3	3d	
661	3	short	
662	3	thinly	
663	3	bluntly	
664	3	laterally	
665	3	alternately	
666	3	fam	
667	2	insofar	
668	2	ptsd	
669	2	favourite	
670	2	unfairly	
671	2	unprofessionally	
672	2	tangentially	
673	2	perfectally	
674	2	^reply	
675	2	completly	
676	2	aloud	
677	2	curently	
678	2	materially	
679	2	weird	
680	2	cool	
681	2	vry	
682	2	refreshingly	
683	2	favorably	
684	2	keenly	
685	2	experimentally	
686	2	effortlessly	
687	2	obsessively	
688	2	ignorantly	
689	2	dark	
690	2	nvm	
691	2	reallly	
692	2	unconditionally	
693	2	distinctly	
694	2	gt;unfortunately	
695	2	onwards	
696	2	edjelly	
697	2	reassembly	
698	2	converter	
699	2	discopig	
700	2	full	
701	2	pointedly	
702	2	proudly	
703	2	casually	
704	2	stunningly	
705	2	thirdly	
706	2	subsequently	
707	2	sloppily	
708	2	extraordinarily	
709	2	markedly	
710	2	ergonomically	
711	2	wet	
712	2	feather	
713	2	ftfy	
714	2	hangover	
715	2	probly	
716	2	madly	
717	2	unequivocally	
718	2	unbearably	
719	2	\&gt	
720	2	perpetually	
721	2	bahaha	
722	2	superbly	
723	2	spectacularly	
724	2	hilariously	
725	2	waaay	
726	2	hwat	
727	2	passionately	
728	2	the	
729	2	doubly	
730	2	admirably	
731	2	blatently	
732	2	vicariously	
733	2	ohhh	
734	2	identically	
735	2	oz	
736	2	hey	
737	2	nib	
738	2	enormously	
739	2	free	
740	2	jokingly	
741	2	radically	
742	2	if'n	
743	2	famously	
744	2	whereby	
745	2	forwards	
746	2	a	
747	2	dangerously	
748	2	braver	
749	2	ugh	
750	2	religiously	
751	2	plainly	
752	2	xfeather	
753	2	w/	
754	2	scientifically	
755	2	unbelievably	
756	2	front	
757	2	lamy	
758	2	manly	
759	2	re	
760	2	bravely	
761	2	yanno	
762	2	oughta	
763	2	anxiously	
764	2	indirectly	
765	2	notwithstanding	
766	2	mistakenly	
767	2	emotionally	
768	2	crisp	
769	2	sparkly	
770	2	secretly	
771	2	assembly	
772	2	consistantly	
773	2	abrade	
774	2	whole	
775	2	artistically	
776	2	unacceptably	
777	2	all-	
778	2	oft	
779	2	offensively	
780	2	srsly	
781	2	some	
782	2	prettier	
783	2	eagerly	
784	2	iro	
785	2	hostile	
786	2	shockingly	
787	2	richer	
788	2	pointlessly	
789	2	symmetrically	
790	2	lighter	
791	2	awkwardly	
792	2	flat	
793	2	outrageously	
794	2	knockoff	
795	2	aha	
796	2	lily	
797	2	spontaneously	
798	2	interchangeably	
799	2	ordinarily	
800	2	thereby	
801	2	acceptably	
802	2	ghastly	
803	2	fourth	
804	2	weekly	
805	2	amazon	
806	2	definitively	
807	2	undeniably	
808	2	unmistakably	
809	2	slippery	
810	2	ink350bb	
811	2	foul	
812	2	shorter	
813	2	please	
814	2	predominantly	
815	2	expensive	
816	2	criminally	
817	2	evidently	
818	2	subjectively	
819	2	pathetically	
820	2	past	
821	2	instantaneously	
822	2	broadly	
823	2	unquestionably	
824	2	delightfully	
825	2	because	
826	2	cautiously	
827	2	vehemently	
828	2	straps	
829	2	elegantly	
830	2	smoother	
831	2	critically	
832	2	unevenly	
833	2	knowingly	
834	2	waverly	
835	2	thouroghly	
836	2	vice	
837	2	magnetically	
838	2	fiercely	
839	2	forcefully	
840	2	bodily	
841	2	waxy	
842	2	dilly	
843	2	mercilessly	
844	2	expecially	
845	2	fatter	
846	2	amusingly	
847	2	fountainpengore	
848	2	counter	
849	2	hum	
850	2	😅	
851	2	adamantly	
852	2	visibly	
853	2	drier	
854	2	expressly	
855	2	rightly	
856	2	overtly	
857	2	♀	
858	2	away.](https://np.reddit.com	
859	2	vocally	
860	2	highest	
861	2	n00bs	
862	2	unfortunatly	
863	1	shittier	
864	1	freelance	
865	1	employees	
866	1	it´s	
867	1	いろしずく	
868	1	surgically	
869	1	overdone	
870	1	predictably	
871	1	superficially	
872	1	gt;realistically	
873	1	edelstein	
874	1	http://www.cross.com/catalog/penlisting.aspx?cat_name=fountain_pens&amp;aspxautodetectcookiesupport=1	
875	1	rectally	
876	1	molecularly	
877	1	obtrusively	
878	1	utensil	
879	1	definatly	
880	1	~~personally	
881	1	yeess	
882	1	shibe	
883	1	justifiably	
884	1	howevr	
885	1	proprly	
886	1	rlly	
887	1	eerily	
888	1	academically	
889	1	indelibly	
890	1	radioactively	
891	1	poppingly	
892	1	acidentally	
893	1	characteristically	
894	1	ho	
895	1	dreadfully	
896	1	apiece	
897	1	wibbly	
898	1	sensationally	
899	1	hyper	
900	1	alongwith	
901	1	manyfold	
902	1	hyms	
903	1	improperly	
904	1	bleedsthrough	
905	1	mega	
906	1	intensively	
907	1	ohhhhh	
908	1	cleverly	
909	1	fine(usually	
910	1	op	
911	1	tmanga14	
912	1	optimally	
913	1	glaringly	
914	1	snot	
915	1	affix	
916	1	coool	
917	1	thouroughly	
918	1	accross	
919	1	piecemeal	
920	1	ie	
921	1	dime	
922	1	unambiguously	
923	1	afterword	
924	1	true	
925	1	different	
926	1	actly	
927	1	freeze	
928	1	omg	
929	1	thnkfuly	
930	1	ahahaa	
931	1	rosewood	
932	1	south	
933	1	shamefully	
934	1	hardest	
935	1	fourthly	
936	1	demonstrably	
937	1	cisele	
938	1	ideologically	
939	1	ther	
940	1	hally	
941	1	in-	
942	1	curmudgeonly	
943	1	punny	
944	1	blindingly	
945	1	inarguably	
946	1	^"definitely	
947	1	triple	
948	1	noramlly	
949	1	pencily	
950	1	seriouslyx	
951	1	forever(37	
952	1	helly	
953	1	ot	
954	1	densely	
955	1	smothly	
956	1	metal(albeit	
957	1	impatiently	
958	1	norse	
959	1	chronologically	
960	1	fastest	
961	1	orz	
962	1	bahahaha	
963	1	reaaaally	
964	1	ipsati	
965	1	deffinitely	
966	1	popularly	
967	1	bugs	
968	1	realy	
969	1	phonetically	
970	1	oppressively	
971	1	crushingly	
972	1	tentatively	
973	1	progressively	
974	1	flattery	
975	1	rationally	
976	1	wrongfully	
977	1	evolutionarily	
978	1	ughhhhhhhh	
979	1	abstractly	
980	1	majorly	
981	1	phenomenally	
982	1	absolutly	
983	1	effeciently	
984	1	merly	
985	1	droppingly	
986	1	nooowwwwwwww	
987	1	blank	
988	1	themwhen	
989	1	http://i.imgur.com/tcdch1c.jpg	
990	1	finer	
991	1	disparagingly	
992	1	suprisingly	
993	1	gt;really	
994	1	alongside	
995	1	credibly	
996	1	definetely	
997	1	flexless	
998	1	http://en.wikipedia.org/wiki/supply_and_demand	
999	1	deservedly	
1000	1	generically	
1001	1	everydaaaaaay	
1002	1	stubbornly	
1003	1	hardy	
1004	1	vivdly	
1005	1	aptly	
1006	1	veeeeeery	
1007	1	psililisp	
1008	1	throughout	
1009	1	extememly	
1010	1	finest	
1011	1	luv	
1012	1	shut	
1013	1	assuredly	
1014	1	succinctly	
1015	1	actuall	
1016	1	gorgeously	
1017	1	nice	
1018	1	sudden	
1019	1	minus	
1020	1	pelikan't	
1021	1	watery	
1022	1	novelty	
1023	1	overwhelmingly	
1024	1	intellectually	
1025	1	formally	
1026	1	strikingly	
1027	1	classically	
1028	1	glad	
1029	1	shoutout	
1030	1	goddamn	
1031	1	arsey	
1032	1	hellishly	
1033	1	der	
1034	1	sound	
1035	1	newegg	
1036	1	6x	
1037	1	unhelpfully	
1038	1	ips	
1039	1	o.o	
1040	1	noticably	
1041	1	hoefully	
1042	1	disparately	
1043	1	definitly	
1044	1	harshly	
1045	1	speciatly	
1046	1	gt;firstly	
1047	1	gt;secondly	
1048	1	ninny	
1049	1	yagankiely	
1050	1	skeuomorphically	
1051	1	effiently	
1052	1	nibbbbbbb	
1053	1	figuratively	
1054	1	handsomely	
1055	1	smh	
1056	1	hypothetically	
1057	1	smarter	
1058	1	cursorily	
1059	1	soakingly	
1060	1	^^^^^badly	
1061	1	tively	
1062	1	honetsly	
1063	1	inescapably	
1064	1	electronically	
1065	1	dummy	
1066	1	wherein	
1067	1	bleedthrough	
1068	1	~$220	
1069	1	illy	
1070	1	affirmatively	
1071	1	playfully	
1072	1	voluntarily	
1073	1	neckbeards	
1074	1	ocd	
1075	1	outstandingly	
1076	1	monumentally	
1077	1	conpletely	
1078	1	liberally	
1079	1	reportedly	
1080	1	aboard	
1081	1	eugh	
1082	1	^^^^^nevermind	
1083	1	melight	
1084	1	seriousily	
1085	1	disgustingly	
1086	1	patently	
1087	1	otherworldly	
1088	1	categorically	
1089	1	oo.o	
1090	1	monstrously	
1091	1	bubbly	
1092	1	charitably	
1093	1	exponentially	
1094	1	iit-	
1095	1	don't	
1096	1	large	
1097	1	buddy	
1098	1	therefor	
1099	1	am	
1100	1	selectively	
1101	1	tragically	
1102	1	omas	
1103	1	visconti	
1104	1	www.ebay.ie	
1105	1	rrally	
1106	1	socially	
1107	1	instinctively	
1108	1	nibmeister	
1109	1	questionably	
1110	1	reallllllllllllllly	
1111	1	throwaway	
1112	1	fell	
1113	1	fulltime	
1114	1	appreciate/	
1115	1	naginatas	
1116	1	un	
1117	1	steadily	
1118	1	deathly	
1119	1	swiftly	
1120	1	sily	
1121	1	fabulously	
1122	1	involuntarily	
1123	1	undesirably	
1124	1	vs	
1125	1	bilberry-80ml	
1126	1	solo	
1127	1	sacs	
1128	1	certifiably	
1129	1	woulod	
1130	1	irrationally	
1131	1	sharp	
1132	1	precipitously	
1133	1	brazenly	
1134	1	constructively	
1135	1	candidly	
1136	1	conspicuously	
1137	1	smoothest	
1138	1	above](http://i.imgur.com/5ipn6ks.png	
1139	1	fluidly	
1140	1	lovably	
1141	1	ja	
1142	1	harmoniously	
1143	1	foot'(which	
1144	1	neckbeard	
1145	1	asshurt	
1146	1	fleshly	
1147	1	honesly	
1148	1	sickly	
1149	1	wether	
1150	1	item33b1cdb34f	
1151	1	longingly	
1152	1	left	
1153	1	fptv	
1154	1	din	
1155	1	jently	
1156	1	gingerly	
1157	1	invariably	
1158	1	incomprehensibly	
1159	1	it-	
1160	1	~$27	
1161	1	profoundly	
1162	1	dodgy	
1163	1	sorely	
1164	1	bully	
1165	1	unpleasantly	
1166	1	irreparably	
1167	1	http://www.youtube.com/watch?v=bdv5akwncqm	
1168	1	truely	
1169	1	geeze	
1170	1	duly	
1171	1	loose	
1172	1	doubtless	
1173	1	hotly	
1174	1	near-]universally	
1175	1	earnestly	
1176	1	overwrought	
1177	1	sooo	
1178	1	annually	
1179	1	flush	
1180	1	mmore	
1181	1	modestly	
1182	1	genetically	
1183	1	ive	
1184	1	stealth	
1185	1	plumix	
1186	1	his(or	
1187	1	adoringly	
1188	1	uselessly	
1189	1	systematically	
1190	1	-somewhat	
1191	1	straightly	
1192	1	exatly	
1193	1	counterintuitively	
1194	1	glitter	
1195	1	doge	
1196	1	ghostly	
1197	1	heroically	
1198	1	impressively	
1199	1	headfirst	
1200	1	loudly	
1201	1	infinitesimally	
1202	1	swamppeople.tumblr.com/post/79809228445/when-you-realize-a-brand-new-swamp-people-is-only	
1203	1	weighty	
1204	1	^^^^^ugly	
1205	1	brutally	
1206	1	unrelentingly	
1207	1	miraculously	
1208	1	suitably	
1209	1	qternity-3oz	
1210	1	tthere	
1211	1	mimically	
1212	1	beyond	
1213	1	golly	
1214	1	definately	
1215	1	unfortunetly	
1216	1	lamentably	
1217	1	~~keep	
1218	1	oooo	
1219	1	uncharitably	
1220	1	softer	
1221	1	eyedropper	
1222	1	suspiciously	
1223	1	depressingly	
1224	1	implicitly	
1225	1	qualitatively	
1226	1	https://www.pelikan.com/pulse/pulsar/en_us_intl.fwi.displayshop.91548./souveraen-black-blue-silver	
1227	1	https://edjelley.files.wordpress.com/2015/03/pelikan-m805-stresemann-fountain-pen-review-17.jpg	
1228	1	orange	
1229	1	http://www.officedepot.com/mb/a/products/123326/cross-calais-fountain-pen-medium-point/fromlocalbrowse=false	
1230	1	powerfully	
1231	1	diligently	
1232	1	willingly	
1233	1	wetter	
1234	1	=)	
1235	1	oooooh	
1236	1	disappointingly	
1237	1	nightly	
1238	1	frighteningly	
1239	1	grumpy	
1240	1	regrettably	
1241	1	supremely	
1242	1	turd	
1243	1	dislike	
1244	1	realllllly	
1245	1	huh	
1246	1	gushingly	
1247	1	inlaid	
1248	1	coincidentally	
1249	1	guilty	
1250	1	adversely	
1251	1	standard	
1252	1	cp1	
1253	1	vapes.especially	
1254	1	extemely	
1255	1	nominally	
1256	1	richly	
1257	1	haven't	
1258	1	tirelessly	
1259	1	anally	
1260	1	royally	
1261	1	narrowly	
1262	1	frooty	
1263	1	carelessly	
1264	1	rakuten	
1265	1	balisong	
1266	1	다른	
1267	1	병신시키야	
1268	1	unspeakably	
1269	1	restlessly	
1270	1	800kms	
1271	1	snidely	
1272	1	a_mean_asshole	
1273	1	conventionally	
1274	1	eloquently	
1275	1	retrospectively	
1276	1	heya	
1277	1	leery	
1278	1	heavenly	
1279	1	pornographically	
1280	1	esxypecially	
1281	1	ink-	
1282	1	fewer	
1283	1	unseen	
1284	1	strategically	
1285	1	gratuitously	
1286	1	overkill	
1287	1	tuckaway	
1288	1	centrally	
1289	1	or	
1290	1	~$30	
1291	1	but	
1292	1	wood-	
1293	1	sweeter	
1294	1	uncomfortably	
1295	1	intolerably	
1296	1	unwisely	
1297	1	consciously	
1298	1	pickup(actually	
1299	1	thought(although	
1300	1	frantically	
1301	1	slower	
1302	1	b1anky	
1303	1	conclusively	
1304	1	https://item.taobao.com/item.htm?spm=a1z09.2.0.0.1f30a53fpaaeld&amp;id=546584426721&amp;_u=3k2jn0ec1a3	
1305	1	http://random.cat/i/rme9h.jpg	
1306	1	eta-	
1307	1	berserk	
1308	1	tự	
1309	1	eraser	
1310	1	lovin	
1311	1	horrendously	
1312	1	incessantly	
1313	1	obnoxiously	
1314	1	shamelessly	
1315	1	models(obviously	
1316	1	favourably	
1317	1	bet	
1318	1	geographically	
1319	1	maliciously	
1320	1	newbie	
1321	1	bastard	
1322	1	thoughtfully	
1323	1	aww	
1324	1	dependably	
1325	1	edgy	
1326	1	positively	
1327	1	resac	
1328	1	weirdo	
1329	1	wich	
1330	1	inextricably	
1331	1	manifestly	
1332	1	flexible(or	
1333	1	efficiently	
1334	1	http://imgur.com/bpv2k3z	
1335	1	new	
1336	1	hardcover	
1337	1	https://i.imgur.com/7v3moys.jpg	
1338	1	😁	
1339	1	completley	
1340	1	humanly	
1341	1	falsely	
1342	1	surpassingly	
1343	1	ihyy	
1344	1	inadequately	
1345	1	señor	
1346	1	breathe	
1347	1	onward	
1348	1	decidedly	
1349	1	bloody	
1350	1	lutely	
1351	1	friendly	
1352	1	ohhhhhh	
1353	1	dilutuon	
1354	1	aroud	
1355	1	inconsistently	
1356	1	yay	
1357	1	profusely	
1358	1	fancier	
1359	1	barkely	
1360	1	responsibly	
1361	1	ache	
1362	1	rattly	
1363	1	ostensibly	
1364	1	admitidly	
1365	1	surpringly	
1366	1	tastefully	
1367	1	own	
1368	1	ohlanga	
1369	1	overhead	
1370	1	hella	
1371	1	distinctively	
1372	1	minimally	
1373	1	downstairs	
1374	1	tougher	
1375	1	subconsciously	
1376	1	mathematically	
1377	1	tldr	
1378	1	noseshimself	
1379	1	gloriously	
1380	1	middle	
1381	1	voor	
1382	1	gt;no	
1383	1	tho	
1384	1	lever	
1385	1	audibly	
1386	1	firsthand	
1387	1	piccadilly	
1388	1	8$.	
1389	1	perchance	
1390	1	justly	
1391	1	ef	
1392	1	l'm	
1393	1	uniball	
1394	1	dryly	
1395	1	welhen	
1396	1	venvstas	
1397	1	write	
1398	1	asap	
1399	1	hier	
1400	1	woof	
1401	1	(:	
1402	1	wingsung	
1403	1	metaphorically	
1404	1	smelly	
1405	1	unfailingly	
1406	1	aqua	
1407	1	impossibly	
1408	1	facetiously	
1409	1	explanatorily	
1410	1	graciously	
1411	1	narky	
1412	1	ep2628605	
1413	1	bs	
1414	1	sligtly	
1415	1	equially	
1416	1	sublimely	
1417	1	outstandiong	
1418	1	genuinly	
1419	1	skipping(apparently	
1420	1	easiest	
1421	1	serif	
1422	1	hehe	
1423	1	alas	
1424	1	possible	
1425	1	expressively	
1426	1	xactly	
1427	1	crazy	
1428	1	disturbingly	
1429	1	ammolite	
1430	1	pen](https://www.ebay.ie	
1431	1	respectfully	
1432	1	asymmetrically	
1433	1	unknowingly	
1434	1	https://i.imgur.com/t2yipgf.jpg	
1435	1	contextually	
1436	1	externally	
1437	1	confusingly	
1438	1	brianandersonpens	
1439	1	thorougly	
1440	1	snuggly	
1441	1	premiere	
1442	1	defiently	
1443	1	heh	
1444	1	literaturely	
1445	1	satisfactorily	
1446	1	offline	
1447	1	astetically	
1448	1	reflexively	
1449	1	easilly	
1450	1	~highly	
1451	1	profile	
1452	1	acutely	
1453	1	squiggly	
1454	1	matured-	
1455	1	programmerhumor	
1456	1	elaborately	
1457	1	height	
1458	1	new-	
1459	1	whatever	
1460	1	smack	
1461	1	two-	
1462	1	🥔	
1463	1	insantly	
1464	1	intriguingly	
1465	1	nassively	
1466	1	diver	
1467	1	n=3	
1468	1	teletively	
1469	1	handily	
1470	1	whilst	
1471	1	plz	
1472	1	soooooo	
1473	1	expediently	
1474	1	curiously	
1475	1	soo	
1476	1	perferably	
1477	1	topic/246388-just	
1478	1	nondestructively	
1479	1	autonomously	
1480	1	eachother	
1481	1	mercifully	
1482	1	’re	
1483	1	vividly	
1484	1	\&gt;completely	
1485	1	npt	
1486	1	abundantly	
1487	1	seperately	
1488	1	gleefully	
1489	1	willy	
1490	1	humbly	
1491	1	opooo	
1492	1	scarily	
1493	1	crumbly	
1494	1	urgently	
1495	1	axis	
1496	1	convenient	
1497	1	belligerently	
1498	1	rabidly	
1499	1	uneven	
1500	1	permenantly	
1501	1	mechanically	
1502	1	cyberbully	
1503	1	instagram	
1504	1	imperceptibly	
1505	1	unfold	
1506	1	tacitly	
1507	1	yuch	
1508	1	invisibly	
1509	1	preciously	
1510	1	actuallly	
1511	1	skillfully	
1512	1	culturally	
1513	1	https://www.martiniauctions.com/browse.html?search=1&amp;search_title=lamy+2000&amp;search_category=&amp;action=search	
1514	1	gratefullness	
1515	1	head	
1516	1	on(also	
1517	1	faintly	
1518	1	marvelously	
1519	1	reeeally	
1520	1	alot	
1521	1	https://www.reddit.com/r/fountainpens/comments/9fxqmy/comment/e602evl	
1522	1	appreciably	
1523	1	outperform	
1524	1	consistent	
1525	1	counterfeit	
1526	1	fountainpensgore	
1527	1	dildos	
1528	1	dolphin	
1529	1	sparingly	
1530	1	rarer	
1531	1	worldly	
1532	1	skeptical	
1533	1	nuts	
1534	1	reluctantly	
1535	1	competitively	
1536	1	enough(hopefully	
1537	1	comparably	
1538	1	infinitessimally	
1539	1	pathologically	
1540	1	lengthwise	
