#Word types: 72
#Word tokens: 147966
#Search results: 0
1	88994	and	
2	30058	but	
3	18923	or	
4	4451	&	
5	2094	so	
6	757	+	
7	684	plus	
8	503	as	
9	466	of	
10	422	than	
11	227	nor	
12	141	and/or	
13	136	yet	
14	21	if	
15	12	etc	
16	7	wow	
17	4	yes	
18	4	hey	
19	4	well	
20	3	like	
21	2	not	
22	2	a	
23	2	i	
24	1	4	
25	1	http://www.gouletpens.com/ink_drop_membership_p/inkdrop.htm	
26	1	isellpens	
27	1	la	
28	1	\(and	
29	1	~~he~~	
30	1	^^^people	
31	1	http://www.fountainpennetwork.com/forum/uploads/imgs/fpn_1417273499__regency_blue.jpg	
32	1	to	
33	1	post/41879001445	
34	1	gold	
35	1	~~m~~assdrop	
36	1	€	
37	1	aaaand	
38	1	ink_color%3apurple	
39	1	http://edisonpen.com/index.cfm/2010/02/19/in-praise-of-steel-nibs	
40	1	^	
41	1	http://imgur.com/0pfhhqw	
42	1	swqvjea	
43	1	mean	
44	1	gt	
45	1	;d	
46	1	super	
47	1	$	
48	1	proceeds	
49	1	chemically	
50	1	they're	
51	1	@2:00	
52	1	post	
53	1	w	
54	1	haha	
55	1	beforehand	
56	1	for	
57	1	because	
58	1	x	
59	1	’s	
60	1	fountain.html	
61	1	after	
62	1	ear	
63	1	who	
64	1	oh	
65	1	http://i.imgur.com/7hw1kj9.gifv	
66	1	this	
67	1	no	
68	1	ama	
69	1	s	
70	1	twsbi	
71	1	ty	
72	1	news/2018	
