#Word types: 1855
#Word tokens: 144945
#Search results: 0
1	57600	is	
2	28456	's	
3	8767	has	
4	6157	does	
5	4147	looks	
6	3037	’s	
7	2360	makes	
8	1698	seems	
9	1563	writes	
10	1472	comes	
11	1037	feels	
12	999	works	
13	941	gets	
14	799	goes	
15	732	takes	
16	713	means	
17	656	needs	
18	651	sounds	
19	646	says	
20	515	uses	
21	515	pens	
22	507	helps	
23	486	happens	
24	470	depends	
25	467	gives	
26	423	’re	
27	417	holds	
28	406	s	
29	365	knows	
30	333	inks	
31	325	wants	
32	310	shows	
33	292	fits	
34	291	sells	
35	290	turns	
36	262	likes	
37	261	appears	
38	253	reminds	
39	228	runs	
40	220	costs	
41	218	requires	
42	212	starts	
43	211	re	
44	207	keeps	
45	183	sucks	
46	182	dries	
47	181	tends	
48	174	puts	
49	169	becomes	
50	167	allows	
51	162	loves	
52	159	offers	
53	145	adds	
54	126	brings	
55	124	thinks	
56	117	flows	
57	113	stands	
58	110	ends	
59	108	performs	
60	107	asks	
61	104	matters	
62	101	shades	
63	101	causes	
64	98	provides	
65	97	includes	
66	97	feeds	
67	96	tells	
68	92	stays	
69	92	leaves	
70	91	carries	
71	91	posts	
72	89	matches	
73	89	sits	
74	88	exists	
75	88	cares	
76	85	lets	
77	80	changes	
78	78	leads	
79	77	buys	
80	76	lays	
81	76	smells	
82	75	deserves	
83	74	produces	
84	73	fills	
85	71	contains	
86	71	sees	
87	71	breaks	
88	71	calls	
89	69	hurts	
90	65	stops	
91	65	falls	
92	63	tries	
93	62	bothers	
94	62	sheens	
95	60	finds	
96	60	lives	
97	59	arrives	
98	57	creates	
99	56	remains	
100	55	owns	
101	54	varies	
102	54	suits	
103	53	explains	
104	53	refers	
105	53	grinds	
106	52	behaves	
107	52	lasts	
108	51	suggests	
109	51	meets	
110	50	fails	
111	50	follows	
112	50	continues	
113	49	glides	
114	48	applies	
115	48	plays	
116	47	hits	
117	47	covers	
118	46	serves	
119	46	involves	
120	46	touches	
121	46	speaks	
122	46	bleeds	
123	46	features	
124	45	pops	
125	45	stains	
126	44	prevents	
127	44	counts	
128	43	hates	
129	43	catches	
130	41	reads	
131	40	wears	
132	40	opens	
133	39	pulls	
134	38	enjoys	
135	38	begins	
136	38	screws	
137	38	seals	
138	37	throws	
139	37	implies	
140	37	sets	
141	37	sapiens	
142	36	blows	
143	35	moves	
144	34	beats	
145	33	compares	
146	33	draws	
147	33	scratches	
148	33	weighs	
149	33	drops	
150	33	increases	
151	32	mentions	
152	32	notes	
153	32	affects	
154	31	jumps	
155	31	drives	
156	31	belongs	
157	31	checks	
158	30	wins	
159	30	claims	
160	30	kills	
161	30	talks	
162	29	indicates	
163	29	feathers	
164	28	shines	
165	28	sports	
166	28	lies	
167	27	decides	
168	27	saves	
169	26	sends	
170	26	results	
171	26	hands	
172	26	downvotes	
173	26	reflects	
174	26	ruins	
175	26	represents	
176	25	forces	
177	25	flexes	
178	25	sizes	
179	25	reduces	
180	25	wishes	
181	25	cracks	
182	25	skips	
183	25	closes	
184	24	resembles	
185	24	handles	
186	24	appeals	
187	23	walks	
188	23	leaks	
189	22	passes	
190	22	solves	
191	22	accepts	
192	22	picks	
193	22	points	
194	22	twsbi	
195	22	translates	
196	21	annoys	
197	21	pushes	
198	21	absorbs	
199	21	states	
200	21	bugs	
201	21	pays	
202	21	cleans	
203	20	refuses	
204	20	grows	
205	20	tests	
206	20	strikes	
207	20	cartridges	
208	19	rotates	
209	19	lacks	
210	19	prefers	
211	19	forms	
212	19	manages	
213	18	spreads	
214	18	disappears	
215	18	recommends	
216	18	acts	
217	18	delivers	
218	18	loses	
219	18	appreciates	
220	18	fades	
221	18	retails	
222	18	snaps	
223	17	boils	
224	17	spends	
225	17	collects	
226	17	considers	
227	17	ranges	
228	17	understands	
229	17	sticks	
230	17	improves	
231	17	eats	
232	17	shares	
233	16	screams	
234	16	flies	
235	16	lists	
236	16	charges	
237	16	believes	
238	16	responds	
239	16	describes	
240	15	relates	
241	15	reaches	
242	15	qualifies	
243	15	reviews	
244	15	develops	
245	15	dates	
246	15	warms	
247	15	contributes	
248	15	reacts	
249	15	occurs	
250	15	designs	
251	15	settles	
252	15	builds	
253	15	encourages	
254	15	tastes	
255	15	lends	
256	15	destroys	
257	14	unscrews	
258	14	expands	
259	14	dies	
260	14	cuts	
261	14	notebooks	
262	14	hides	
263	14	operates	
264	14	removes	
265	13	relies	
266	13	staples	
267	13	consists	
268	13	rolls	
269	13	extends	
270	13	slides	
271	13	bears	
272	13	expects	
273	13	watches	
274	13	marks	
275	13	exhibits	
276	13	smears	
277	12	shoots	
278	12	limits	
279	12	threads	
280	12	blocks	
281	12	ensures	
282	12	clogs	
283	12	chooses	
284	12	doubles	
285	12	ships	
286	12	misses	
287	12	reveals	
288	12	glows	
289	12	rubs	
290	12	clicks	
291	12	clears	
292	12	attaches	
293	12	slips	
294	12	leans	
295	12	baffles	
296	12	grabs	
297	12	suffers	
298	11	floats	
299	11	supports	
300	11	attracts	
301	11	teaches	
302	11	raises	
303	11	rests	
304	11	receives	
305	11	soaks	
306	11	agrees	
307	11	balances	
308	11	sands	
309	11	interests	
310	11	connects	
311	10	skip	
312	10	returns	
313	10	proceeds	
314	10	smokes	
315	10	surprises	
316	10	presents	
317	10	amazes	
318	10	tops	
319	10	assumes	
320	10	washes	
321	10	remembers	
322	10	refills	
323	10	swab	
324	10	borrows	
325	9	fixes	
326	9	separates	
327	9	spins	
328	9	advertises	
329	9	dislikes	
330	9	enables	
331	9	specializes	
332	9	exceeds	
333	9	laughs	
334	9	functions	
335	9	replaces	
336	9	proves	
337	9	focuses	
338	9	stems	
339	9	props	
340	9	owes	
341	9	excites	
342	9	highlights	
343	9	defeats	
344	9	rivals	
345	9	messes	
346	9	cries	
347	9	mixes	
348	9	slows	
349	9	evaporates	
350	9	complains	
351	9	travels	
352	9	quotes	
353	9	knocks	
354	9	pleases	
355	9	ages	
356	8	demonstrates	
357	8	combines	
358	8	orders	
359	8	locks	
360	8	sums	
361	8	determines	
362	8	approaches	
363	8	invites	
364	8	worries	
365	8	realizes	
366	8	displays	
367	8	deals	
368	8	defines	
369	8	confirms	
370	8	forgets	
371	8	irks	
372	8	intro	
373	8	=	
374	8	kicks	
375	8	retains	
376	8	notices	
377	8	captures	
378	8	oxidizes	
379	8	grips	
380	8	lines	
381	7	heres	
382	7	pains	
383	7	treats	
384	7	expresses	
385	7	faces	
386	7	finishes	
387	7	bends	
388	7	influences	
389	7	fountainpens	
390	7	irritates	
391	7	protects	
392	7	satisfies	
393	7	values	
394	7	exclusives	
395	7	stinks	
396	7	accounts	
397	7	escapes	
398	7	scares	
399	7	flushes	
400	7	resists	
401	7	equals	
402	7	places	
403	7	repairs	
404	7	tapers	
405	7	ballpoints	
406	7	completes	
407	7	pours	
408	7	justifies	
409	7	punches	
410	7	boggles	
411	7	impacts	
412	7	benefits	
413	7	compliments	
414	7	chartres	
415	7	flakes	
416	7	nibs	
417	7	twists	
418	7	rocks	
419	6	converts	
420	6	generates	
421	6	railroads	
422	6	adjusts	
423	6	restores	
424	6	drips	
425	6	enters	
426	6	spills	
427	6	thumbs	
428	6	melts	
429	6	lifts	
430	6	fountains	
431	6	controls	
432	6	ties	
433	6	bottles	
434	6	hangs	
435	6	eliminates	
436	6	avoids	
437	6	consumes	
438	6	ignores	
439	6	addresses	
440	6	discourages	
441	6	replies	
442	6	showcases	
443	6	comments	
444	6	presses	
445	6	links	
446	6	drinks	
447	6	steps	
448	6	raves	
449	6	depicts	
450	6	recognizes	
451	6	burns	
452	6	swatches	
453	6	triggers	
454	6	embodies	
455	6	damages	
456	6	evokes	
457	6	darkens	
458	5	dictates	
459	5	warns	
460	5	saddens	
461	5	guides	
462	5	approves	
463	5	surpasses	
464	5	prides	
465	5	disagrees	
466	5	answers	
467	5	pouches	
468	5	knives	
469	5	symbolizes	
470	5	admits	
471	5	creeps	
472	5	waits	
473	5	offends	
474	5	compresses	
475	5	favorites	
476	5	shits	
477	5	achieves	
478	5	like	
479	5	maintains	
480	5	joins	
481	5	rhymes	
482	5	switches	
483	5	supplies	
484	5	outperforms	
485	5	ceases	
486	5	accompanies	
487	5	drains	
488	5	occupies	
489	5	contrasts	
490	5	commands	
491	5	promotes	
492	5	guarantees	
493	5	wipes	
494	5	predates	
495	5	rises	
496	5	rattles	
497	5	corrodes	
498	5	arises	
499	5	constitutes	
500	5	drags	
501	5	lands	
502	5	lights	
503	5	sleeves	
504	5	pisses	
505	5	pairs	
506	5	sings	
507	5	cures	
508	5	releases	
509	5	steals	
510	5	rules	
511	5	delights	
512	5	😄	
513	5	incorporates	
514	5	anyways	
515	5	outweighs	
516	5	cheapens	
517	4	gushes	
518	4	subscribes	
519	4	ones	
520	4	survives	
521	4	intends	
522	4	upvotes	
523	4	modifies	
524	4	plugs	
525	4	transcends	
526	4	forums	
527	4	terrifies	
528	4	shakes	
529	4	blends	
530	4	minimizes	
531	4	sparkles	
532	4	cancels	
533	4	houses	
534	4	earns	
535	4	learns	
536	4	discusses	
537	4	ticks	
538	4	secures	
539	4	yo	
540	4	pelikan	
541	4	shatters	
542	4	complements	
543	4	dissolves	
544	4	differentiates	
545	4	winds	
546	4	dumps	
547	4	intrigues	
548	4	chucks	
549	4	tunes	
550	4	emphasizes	
551	4	accumulates	
552	4	shellac	
553	4	attempts	
554	4	excels	
555	4	respects	
556	4	wonders	
557	4	references	
558	4	confuses	
559	4	utilizes	
560	4	derives	
561	4	crosses	
562	4	insists	
563	4	shimmers	
564	4	differs	
565	4	announces	
566	4	seeks	
567	4	obscures	
568	4	teases	
569	4	rates	
570	4	stores	
571	4	decreases	
572	4	hears	
573	4	launches	
574	4	gathers	
575	4	clings	
576	4	yields	
577	4	mods	
578	4	packages	
579	4	updates	
580	4	aims	
581	4	alleviates	
582	4	indigo	
583	4	retracts	
584	4	smudges	
585	4	uncaps	
586	4	celebrates	
587	4	amounts	
588	4	signs	
589	4	parts	
590	4	cools	
591	4	syringes	
592	4	inspires	
593	4	wicks	
594	4	exudes	
595	4	fulfills	
596	4	competes	
597	4	adores	
598	4	sketches	
599	3	gunks	
600	3	inkwells	
601	3	exposes	
602	3	introduces	
603	3	manufactures	
604	3	bonds	
605	3	favours	
606	3	reds	
607	3	manifests	
608	3	contradicts	
609	3	denotes	
610	3	envelopes	
611	3	highly	
612	3	times	
613	3	pertains	
614	3	interferes	
615	3	experiences	
616	3	haunts	
617	3	loads	
618	3	freaks	
619	3	concerns	
620	3	conjures	
621	3	loosens	
622	3	equates	
623	3	retires	
624	3	judges	
625	3	evens	
626	3	digs	
627	3	acknowledges	
628	3	hints	
629	3	infuriates	
630	3	disassembles	
631	3	drafts	
632	3	specifies	
633	3	renders	
634	3	outlines	
635	3	writers	
636	3	upstrokes	
637	3	excludes	
638	3	tickles	
639	3	amuses	
640	3	succeeds	
641	3	exemplifies	
642	3	details	
643	3	fascinates	
644	3	transfers	
645	3	pictures	
646	3	memes	
647	3	seeps	
648	3	rains	
649	3	sorts	
650	3	entails	
651	3	visits	
652	3	organizes	
653	3	whips	
654	3	tires	
655	3	swings	
656	3	questions	
657	3	molds	
658	3	dares	
659	3	saturates	
660	3	kustoms	
661	3	accomplishes	
662	3	softens	
663	3	lovers	
664	3	thins	
665	3	rewards	
666	3	quits	
667	3	spoils	
668	3	lubricates	
669	3	enhances	
670	3	21k	
671	3	;d	
672	3	stresses	
673	3	favors	
674	3	prints	
675	3	gains	
676	3	ramps	
677	3	hemisphere	
678	3	pads	
679	3	contacts	
680	3	homeschools	
681	3	skills	
682	3	pools	
683	3	plans	
684	3	dreams	
685	3	bounds	
686	3	jerks	
687	3	squeezes	
688	3	inserts	
689	3	mimics	
690	3	demands	
691	3	backs	
692	3	edges	
693	3	employs	
694	3	labels	
695	3	packs	
696	3	rips	
697	3	markets	
698	3	casts	
699	3	corresponds	
700	3	persists	
701	3	sans	
702	3	gifts	
703	3	trims	
704	3	advocates	
705	3	permits	
706	3	sprays	
707	3	cherishes	
708	3	transforms	
709	3	measures	
710	3	stripes	
711	3	ups	
712	3	motivates	
713	3	negates	
714	3	pokes	
715	3	tarnishes	
716	3	bats	
717	3	splatters	
718	3	scabiosa	
719	3	elevates	
720	3	defies	
721	3	repeats	
722	3	boasts	
723	2	repels	
724	2	signatures	
725	2	e	
726	2	shapes	
727	2	emits	
728	2	compels	
729	2	wraps	
730	2	insides	
731	2	contracts	
732	2	curves	
733	2	rollerballs	
734	2	warrants	
735	2	crashes	
736	2	practices	
737	2	touchscreens	
738	2	normalizes	
739	2	strays	
740	2	requests	
741	2	frills	
742	2	explodes	
743	2	strains	
744	2	reverses	
745	2	possesses	
746	2	probs	
747	2	spits	
748	2	ebonites	
749	2	stacks	
750	2	deposits	
751	2	engraves	
752	2	pends	
753	2	detracts	
754	2	disturbs	
755	2	ecks	
756	2	wpes	
757	2	lessens	
758	2	newbies	
759	2	have](http://imgur.com	
760	2	protrudes	
761	2	wahl	
762	2	layers	
763	2	imparts	
764	2	distracts	
765	2	undercuts	
766	2	resonates	
767	2	frequents	
768	2	fins	
769	2	prompts	
770	2	donates	
771	2	parks	
772	2	friends	
773	2	horrifies	
774	2	streaks	
775	2	subsidizes	
776	2	surrounds	
777	2	rushes	
778	2	signals	
779	2	stocks	
780	2	stars	
781	2	orients	
782	2	14k	
783	2	caters	
784	2	undermines	
785	2	mine	
786	2	crimps	
787	2	fries	
788	2	risks	
789	2	bows	
790	2	reports	
791	2	pumps	
792	2	summarizes	
793	2	18k	
794	2	counterfeits	
795	2	convinces	
796	2	reverts	
797	2	tolerates	
798	2	mkes	
799	2	minimises	
800	2	bypasses	
801	2	149s	
802	2	emerges	
803	2	ferries	
804	2	desires	
805	2	knockoff	
806	2	sleeps	
807	2	lowers	
808	2	scales	
809	2	dips	
810	2	snags	
811	2	captivates	
812	2	revolves	
813	2	springs	
814	2	doodles	
815	2	gotchu	
816	2	piques	
817	2	shears	
818	2	dulls	
819	2	resides	
820	2	originates	
821	2	ails	
822	2	lookit	
823	2	types	
824	2	voids	
825	2	breathes	
826	2	progresses	
827	2	༽つ	
828	2	bumps	
829	2	bounces	
830	2	rides	
831	2	wakes	
832	2	sparks	
833	2	maximizes	
834	2	pages	
835	2	objects	
836	2	regrets	
837	2	comprises	
838	2	smiles	
839	2	centers	
840	2	unzips	
841	2	trumps	
842	2	fucks	
843	2	lots	
844	2	drys	
845	2	hells	
846	2	solidifies	
847	2	approximates	
848	2	weeds	
849	2	devalues	
850	2	files	
851	2	overwhelms	
852	2	pencils	
853	2	precludes	
854	2	alters	
855	2	gloves	
856	2	encounters	
857	2	bites	
858	2	someones	
859	2	discovers	
860	2	descends	
861	2	oo	
862	2	weirds	
863	2	relaxes	
864	2	invokes	
865	2	tears	
866	2	rows	
867	2	shortens	
868	2	loks	
869	2	instills	
870	2	rejects	
871	2	tl;dr	
872	2	coincides	
873	2	carves	
874	2	upsets	
875	2	racks	
876	2	polishes	
877	2	rings	
878	2	browses	
879	2	itches	
880	2	narrows	
881	2	blooms	
882	2	grades	
883	2	prices	
884	2	plagues	
885	2	peeps	
886	2	outshines	
887	2	soars	
888	2	cringes	
889	2	pockets	
890	2	scores	
891	2	fluctuates	
892	2	assures	
893	2	vanishes	
894	2	trains	
895	2	rags	
896	2	melds	
897	2	newtonpens	
898	2	praises	
899	2	squirts	
900	2	admires	
901	2	pre	
902	2	crusts	
903	2	blames	
904	2	hobbies	
905	2	lefty	
906	2	illustrates	
907	2	fairs	
908	2	clutches	
909	2	leaps	
910	2	twitches	
911	2	4x	
912	2	boosts	
913	2	peruses	
914	2	🤷	
915	2	flattens	
916	2	lurks	
917	2	skulls	
918	2	bleaches	
919	2	compounds	
920	2	folds	
921	2	restricts	
922	2	exits	
923	2	78g+	
924	2	lmao	
925	2	invests	
926	2	wiggles	
927	2	dances	
928	2	paints	
929	2	entices	
930	2	purples	
931	2	emulates	
932	2	grasps	
933	2	graduates	
934	2	quills	
935	2	classifieds	
936	2	expels	
937	2	crystallizes	
938	2	shims	
939	2	dominates	
940	2	discolors	
941	2	laptops	
942	2	finials	
943	2	accommodates	
944	2	welds	
945	2	skews	
946	2	corroborates	
947	2	dwarfs	
948	2	penetrates	
949	2	did't	
950	2	lol	
951	2	thickens	
952	2	blurs	
953	2	customs	
954	2	correlates	
955	2	issues	
956	2	i'm	
957	2	preforms	
958	2	pipettes	
959	2	heavens	
960	2	climbs	
961	2	calms	
962	2	stifles	
963	2	projects	
964	2	threatens	
965	2	participates	
966	2	violates	
967	2	gums	
968	2	poses	
969	2	distributes	
970	2	https://fprevolutionusa.com/collections/feeds	
971	2	prohibits	
972	2	sharpens	
973	2	votes	
974	2	clashes	
975	2	sharks	
976	2	escalates	
977	1	languishes	
978	1	stumbles	
979	1	overdoes	
980	1	flips	
981	1	taps	
982	1	inhales	
983	1	gags	
984	1	70s	
985	1	underperforms	
986	1	strokes	
987	1	hopes	
988	1	uploads	
989	1	gouges	
990	1	http://www.isellpens.com/default.asp	
991	1	crisp	
992	1	scans	
993	1	awakens	
994	1	hoards	
995	1	hires	
996	1	inconveniences	
997	1	balloons	
998	1	neutralizes	
999	1	recaps	
1000	1	smacks	
1001	1	http://www.exoticblanks.com/computer-circuit-board-blanks/	
1002	1	maths	
1003	1	trips	
1004	1	guess](http://imgur.com	
1005	1	ovrecomnd	
1006	1	isellpens	
1007	1	levels	
1008	1	synergizes	
1009	1	leaches	
1010	1	pliers	
1011	1	snorkels	
1012	1	wholesales	
1013	1	concedes	
1014	1	trays	
1015	1	wnt4fv8hcha	
1016	1	informs	
1017	1	names	
1018	1	runningm	
1019	1	chalky	
1020	1	bans	
1021	1	responses	
1022	1	clumps	
1023	1	snob	
1024	1	imposes	
1025	1	smels	
1026	1	fotos	
1027	1	from](http://www.ebay.com	
1028	1	😁	
1029	1	sofaeries	
1030	1	unles	
1031	1	dmnd	
1032	1	stutters	
1033	1	estimates	
1034	1	cooks	
1035	1	unl33	
1036	1	scripts	
1037	1	gobbles	
1038	1	gadgets	
1039	1	jams	
1040	1	guys	
1041	1	accentuates	
1042	1	nudges	
1043	1	samey	
1044	1	suites	
1045	1	monopolizes	
1046	1	mars	
1047	1	astonishes	
1048	1	transmits	
1049	1	seem•	
1050	1	dums	
1051	1	apologies	
1052	1	degrades	
1053	1	leeches	
1054	1	baptizes	
1055	1	disappoints	
1056	1	yellows	
1057	1	fucking	
1058	1	exfoliates	
1059	1	nears	
1060	1	channels	
1061	1	doses	
1062	1	virescens	
1063	1	kits	
1064	1	aids	
1065	1	pm'd	
1066	1	moans	
1067	1	splits	
1068	1	gods	
1069	1	rejuvenates	
1070	1	grindylows	
1071	1	vultures	
1072	1	combats	
1073	1	speeds	
1074	1	screeds	
1075	1	chronicles	
1076	1	bravespacelizards	
1077	1	overlaps	
1078	1	fancies	
1079	1	purchases	
1080	1	kids	
1081	1	bashes	
1082	1	excuses	
1083	1	unleashes	
1084	1	calculates	
1085	1	emails	
1086	1	blasts	
1087	1	lionizes	
1088	1	squeals	
1089	1	scenarios	
1090	1	belies	
1091	1	umbrella	
1092	1	puzzles	
1093	1	stuffs	
1094	1	multimedia	
1095	1	discontinues	
1096	1	duplicates	
1097	1	shoves	
1098	1	asserts	
1099	1	showrooms	
1100	1	centres	
1101	1	peeks	
1102	1	confiscates	
1103	1	uses/	
1104	1	resolves	
1105	1	strives	
1106	1	fanboys	
1107	1	shreds	
1108	1	instrmnts	
1109	1	csts	
1110	1	superlatives	
1111	1	documents	
1112	1	sunds	
1113	1	steeples	
1114	1	takeaways	
1115	1	dilutes	
1116	1	fels	
1117	1	aspires	
1118	1	formalities	
1119	1	staves	
1120	1	transcribes	
1121	1	ports	
1122	1	fattens	
1123	1	underscores	
1124	1	reps	
1125	1	sponsors	
1126	1	options	
1127	1	ecigarettes	
1128	1	love	
1129	1	starbucks	
1130	1	violets	
1131	1	is!](http://www.pelikan.com	
1132	1	parallels	
1133	1	simplifies	
1134	1	bores	
1135	1	shaves	
1136	1	can't	
1137	1	italiana	
1138	1	subsidises	
1139	1	kind	
1140	1	pen(s	
1141	1	stimulates	
1142	1	laddie	
1143	1	christmases	
1144	1	empties	
1145	1	pegs	
1146	1	disallows	
1147	1	dodgy	
1148	1	peers	
1149	1	commutes	
1150	1	quakes	
1151	1	decays	
1152	1	wields	
1153	1	breeds	
1154	1	dissuades	
1155	1	suspects	
1156	1	fleshes	
1157	1	airs	
1158	1	bitches	
1159	1	indulges	
1160	1	interrupts	
1161	1	obligates	
1162	1	hardens	
1163	1	advances	
1164	1	converges	
1165	1	curbs	
1166	1	stalks	
1167	1	do't	
1168	1	sub-100	
1169	1	focusses	
1170	1	welcomes	
1171	1	circuits	
1172	1	volunteers	
1173	1	unites	
1174	1	inclues	
1175	1	need	
1176	1	wines	
1177	1	recites	
1178	1	webstores	
1179	1	elses	
1180	1	\*lets	
1181	1	infiltrates	
1182	1	stnds	
1183	1	grates	
1184	1	twirls	
1185	1	argues	
1186	1	recieves	
1187	1	devils	
1188	1	disposes	
1189	1	red|	
1190	1	blowpops	
1191	1	waves	
1192	1	disgusts	
1193	1	buffs	
1194	1	newsagents	
1195	1	had^†	
1196	1	recognises	
1197	1	tins	
1198	1	escolares	
1199	1	pobres	
1200	1	tumbles	
1201	1	smke	
1202	1	îles	
1203	1	grants	
1204	1	mixtures	
1205	1	finders	
1206	1	http://japanshop-quill.com	
1207	1	maakt	
1208	1	plucks	
1209	1	lumières	
1210	1	camps	
1211	1	shtpsts	
1212	1	wires	
1213	1	fares	
1214	1	choses	
1215	1	demonstrators	
1216	1	vitamins	
1217	1	scrolls	
1218	1	mets	
1219	1	pamphlets	
1220	1	receipts	
1221	1	meds	
1222	1	censors	
1223	1	toes	
1224	1	psts	
1225	1	groans	
1226	1	averages	
1227	1	1970s	
1228	1	clef	
1229	1	records	
1230	1	ilovepens	
1231	1	facts	
1232	1	astroglides	
1233	1	allures	
1234	1	outdoes	
1235	1	ekko	
1236	1	dotes	
1237	1	teachers	
1238	1	weights	
1239	1	enforces	
1240	1	lumbers	
1241	1	instructs	
1242	1	facilitates	
1243	1	circles	
1244	1	topic/297645-whats	
1245	1	jokes	
1246	1	inlays	
1247	1	undergoes	
1248	1	foxes	
1249	1	mechanicalpencils	
1250	1	firms	
1251	1	pretends	
1252	1	methinks	
1253	1	publishes	
1254	1	bums	
1255	1	solutions	
1256	1	effects	
1257	1	branches	
1258	1	make	
1259	1	712-	
1260	1	sub-$1	
1261	1	craps	
1262	1	sanders	
1263	1	blues	
1264	1	forges	
1265	1	books	
1266	1	caries	
1267	1	conducts	
1268	1	blades	
1269	1	oversaturates	
1270	1	appearances	
1271	1	3v	
1272	1	revisits	
1273	1	gramps	
1274	1	standardizes	
1275	1	incurs	
1276	1	looms	
1277	1	gripes	
1278	1	jiggles	
1279	1	manhandles	
1280	1	doublefudgebrownies	
1281	1	deepens	
1282	1	is!](https://youtu.be	
1283	1	con-40	
1284	1	obliterates	
1285	1	italics	
1286	1	glistens	
1287	1	perpetuates	
1288	1	reassures	
1289	1	spews	
1290	1	wanders	
1291	1	blunts	
1292	1	hods	
1293	1	tubes	
1294	1	afaik	
1295	1	photos	
1296	1	disarms	
1297	1	mistakes	
1298	1	hee	
1299	1	waaaaay	
1300	1	prototypes	
1301	1	messages	
1302	1	fpgeeks	
1303	1	pronounces	
1304	1	misread/	
1305	1	ruptures	
1306	1	devices	
1307	1	overlooks	
1308	1	lumpy	
1309	1	balks	
1310	1	meows	
1311	1	loaf	
1312	1	coats	
1313	1	showtunes	
1314	1	blancs	
1315	1	insults	
1316	1	observes	
1317	1	flares	
1318	1	vindt	
1319	1	grenades	
1320	1	siblings	
1321	1	displaces	
1322	1	http://imgur.com/husd6o4	
1323	1	deploys	
1324	1	backings	
1325	1	reviewers	
1326	1	signifies	
1327	1	sailor--	
1328	1	detests	
1329	1	harms	
1330	1	youtubers	
1331	1	necessitates	
1332	1	mores	
1333	1	fluoresces	
1334	1	skyrockets	
1335	1	whoops	
1336	1	halo	
1337	1	males	
1338	1	misdelivers	
1339	1	shoutouts	
1340	1	awaits	
1341	1	precipitates	
1342	1	engulfs	
1343	1	crawls	
1344	1	bookmarks	
1345	1	inssists	
1346	1	fountianpens	
1347	1	christmas	
1348	1	marries	
1349	1	headphones	
1350	1	rusts	
1351	1	higgins	
1352	1	this	
1353	1	specifically-	
1354	1	rinascimento	
1355	1	superflex	
1356	1	tools	
1357	1	perfects	
1358	1	deal	
1359	1	inwards	
1360	1	kerps	
1361	1	hugs	
1362	1	refils	
1363	1	months	
1364	1	heaps	
1365	1	bottoms	
1366	1	lieth	
1367	1	reinforces	
1368	1	associates	
1369	1	retro	
1370	1	blanks	
1371	1	sinks	
1372	1	duofolds	
1373	1	tightens	
1374	1	diverges	
1375	1	writs	
1376	1	awards	
1377	1	ushers	
1378	1	saw	
1379	1	themselves-	
1380	1	aligns	
1381	1	cones	
1382	1	students	
1383	1	snowballs	
1384	1	cards/	
1385	1	totals	
1386	1	designates	
1387	1	lend	
1388	1	annotates	
1389	1	poops	
1390	1	kingfishers	
1391	1	suuuuuucks	
1392	1	arouses	
1393	1	lowkey	
1394	1	coordinates	
1395	1	handcrafts	
1396	1	dyes	
1397	1	sews	
1398	1	occasionally	
1399	1	shields	
1400	1	initials	
1401	1	resellers	
1402	1	2ks	
1403	1	decimates	
1404	1	offsets	
1405	1	elects	
1406	1	disrupts	
1407	1	donuts	
1408	1	disrespects	
1409	1	heats	
1410	1	diminishes	
1411	1	reuses	
1412	1	are:-	
1413	1	proclaims	
1414	1	shrinks	
1415	1	conflates	
1416	1	tempts	
1417	1	adams	
1418	1	diagrams	
1419	1	ingres	
1420	1	railroades	
1421	1	gaskets	
1422	1	waaay	
1423	1	clairefontaines	
1424	1	tulips	
1425	1	hogs	
1426	1	embraces	
1427	1	alloys	
1428	1	jetpens	
1429	1	quirks	
1430	1	ok	
1431	1	caretakers	
1432	1	scoffs	
1433	1	deletes	
1434	1	adles	
1435	1	resumes	
1436	1	lads	
1437	1	astounds	
1438	1	registers	
1439	1	shames	
1440	1	processes	
1441	1	maps	
1442	1	resells	
1443	1	permastains	
1444	1	longs	
1445	1	treads	
1446	1	inspects	
1447	1	imports	
1448	1	reappears	
1449	1	oxidises	
1450	1	wastes	
1451	1	pricey	
1452	1	all-	
1453	1	reminders	
1454	1	fixates	
1455	1	lgbtq+	
1456	1	breeches	
1457	1	https://www.facebook.com/penagora	
1458	1	day(i'm	
1459	1	displeases	
1460	1	chairs	
1461	1	properly-	
1462	1	harkens	
1463	1	needles	
1464	1	guitars	
1465	1	depreciates	
1466	1	mashes	
1467	1	fields	
1468	1	accelerates	
1469	1	lengthens	
1470	1	discharges	
1471	1	misreads	
1472	1	tsbi	
1473	1	gazes	
1474	1	thougnt	
1475	1	ɟeels	
1476	1	advertsises	
1477	1	eyeballs	
1478	1	90s	
1479	1	nods	
1480	1	grooves	
1481	1	diplomatpens	
1482	1	insulates	
1483	1	tampers	
1484	1	concludes	
1485	1	burrows	
1486	1	patinas	
1487	1	frustrates	
1488	1	relists	
1489	1	wets	
1490	1	days	
1491	1	fires	
1492	1	i'll	
1493	1	whispers	
1494	1	negotiates	
1495	1	absorbers	
1496	1	🤑	
1497	1	eludes	
1498	1	thanks	
1499	1	slashes	
1500	1	cultpens	
1501	1	incl	
1502	1	obliques	
1503	1	reproduces	
1504	1	brightens	
1505	1	stirs	
1506	1	loathes	
1507	1	outnumbers	
1508	1	eclipses	
1509	1	rations	
1510	1	l9oks	
1511	1	329s	
1512	1	cashiers	
1513	1	brushes	
1514	1	topic/324910-experiments	
1515	1	erks	
1516	1	nubs	
1517	1	undergrads	
1518	1	tantalizes	
1519	1	bodies	
1520	1	cramps	
1521	1	rots	
1522	1	drills	
1523	1	subs	
1524	1	retippings	
1525	1	bids	
1526	1	transports	
1527	1	woos	
1528	1	metros	
1529	1	binders	
1530	1	cultivates	
1531	1	optimizes	
1532	1	clones	
1533	1	veats	
1534	1	recreates	
1535	1	engages	
1536	1	tines	
1537	1	congrats	
1538	1	penalises	
1539	1	stokes	
1540	1	-	
1541	1	cheapwatches	
1542	1	hoothootneverflies	
1543	1	iro	
1544	1	others	
1545	1	proposes	
1546	1	heathens	
1547	1	rd	
1548	1	notebooks/-pads	
1549	1	https://edjelley.com/2012/11/19/handwritten-review-diamine-ochre/	
1550	1	sears	
1551	1	nowdays	
1552	1	crispy	
1553	1	hooks	
1554	1	remortgages	
1555	1	composes	
1556	1	christoph	
1557	1	thes	
1558	1	32lbs	
1559	1	furrows	
1560	1	adapts	
1561	1	omits	
1562	1	ranks	
1563	1	notebook.is	
1564	1	yells	
1565	1	overflows	
1566	1	upside	
1567	1	impedes	
1568	1	greens	
1569	1	colours	
1570	1	abounds	
1571	1	snakes	
1572	1	climates	
1573	1	conforms	
1574	1	encapsulates	
1575	1	iwith	
1576	1	spares	
1577	1	suffer	
1578	1	detaches	
1579	1	drifts	
1580	1	rounds	
1581	1	vests	
1582	1	penagora	
1583	1	hails	
1584	1	snows	
1585	1	nails	
1586	1	tames	
1587	1	ladies	
1588	1	|smells	
1589	1	|laurel	
1590	1	|ideal	
1591	1	souten|blue|	
1592	1	befuddles	
1593	1	bullshits	
1594	1	upsells	
1595	1	r	
1596	1	temps	
1597	1	overcomes	
1598	1	prsents	
1599	1	trends	
1600	1	jostles	
1601	1	views	
1602	1	injects	
1603	1	distrusts	
1604	1	wide	
1605	1	flings	
1606	1	distresses	
1607	1	2x	
1608	1	heirlooms	
1609	1	swears	
1610	1	d’antan	
1611	1	inflates	
1612	1	plumes	
1613	1	ghosts	
1614	1	homie	
1615	1	grits	
1616	1	necessities	
1617	1	overhears	
1618	1	drools	
1619	1	physicists	
1620	1	雪月風花	
1621	1	hops	
1622	1	unearths	
1623	1	tosses	
1624	1	comoensates	
1625	1	unlocks	
1626	1	evolves	
1627	1	enthusiasts	
1628	1	realo	
1629	1	desks	
1630	1	said.](https://youtu.be	
1631	1	isn’t	
1632	1	doughnuts	
1633	1	uncovers	
1634	1	http://i.imgur.com/2culsqz.gifv	
1635	1	amonia	
1636	1	foams	
1637	1	extolls	
1638	1	mitigates	
1639	1	criticizes	
1640	1	dangles	
1641	1	heals	
1642	1	nullifies	
1643	1	shuts	
1644	1	chuckles	
1645	1	bologna	
1646	1	larmes	
1647	1	pauses	
1648	1	droops	
1649	1	swirls	
1650	1	affixes	
1651	1	vindicates	
1652	1	’	
1653	1	coudlnt	
1654	1	@stasiaart	
1655	1	regulars	
1656	1	peeves	
1657	1	greese	
1658	1	withstands	
1659	1	sacs	
1660	1	mines	
1661	1	slaps	
1662	1	tuns	
1663	1	vibrates	
1664	1	^(*taps	
1665	1	interacts	
1666	1	senses	
1667	1	pm’d	
1668	1	nags	
1669	1	prefaces	
1670	1	machines	
1671	1	perceives	
1672	1	piles	
1673	1	loveeee	
1674	1	resales	
1675	1	matures	
1676	1	apartments	
1677	1	hunts	
1678	1	overprices	
1679	1	bands	
1680	1	spirals	
1681	1	corrects	
1682	1	xf	
1683	1	bumpers	
1684	1	splays	
1685	1	trails	
1686	1	my	
1687	1	profits	
1688	1	sheds	
1689	1	lattes	
1690	1	fouls	
1691	1	repackages	
1692	1	-holds	
1693	1	declares	
1694	1	encompases	
1695	1	dires	
1696	1	kikko	
1697	1	polices	
1698	1	leech	
1699	1	stabilizes	
1700	1	https://newtonpens.files.wordpress.com/2013/11/cracked-housing.jpg?resize=980%2c1065	
1701	1	offgasses	
1702	1	bags	
1703	1	optima	
1704	1	dispenses	
1705	1	bowls	
1706	1	blobs	
1707	1	sways	
1708	1	rescues	
1709	1	liooks	
1710	1	\(usd	
1711	1	commits	
1712	1	badgers	
1713	1	out	
1714	1	😱	
1715	1	puddles	
1716	1	lumps	
1717	1	radiates	
1718	1	brass	
1719	1	pongs	
1720	1	outlasts	
1721	1	drugstores	
1722	1	paperbacks	
1723	1	conveys	
1724	1	inches	
1725	1	slots	
1726	1	blurts	
1727	1	explores	
1728	1	despises	
1729	1	jawns	
1730	1	st	
1731	1	invents	
1732	1	8s	
1733	1	inherits	
1734	1	bubbles	
1735	1	pivots	
1736	1	moonlights	
1737	1	periods	
1738	1	variants	
1739	1	seras	
1740	1	ie	
1741	1	deteriorates	
1742	1	trusts	
1743	1	submits	
1744	1	gels	
1745	1	merits	
1746	1	butthurt	
1747	1	1930s	
1748	1	shrugs	
1749	1	mails	
1750	1	forwards	
1751	1	outpunches	
1752	1	searches	
1753	1	reigns	
1754	1	http://flexiblenib.com/store/2018/06/04/z6e-zebra-g-in-jowo-6-now-available/	
1755	1	dampens	
1756	1	butts	
1757	1	legos	
1758	1	stinkpens	
1759	1	logs	
1760	1	pornhub	
1761	1	birthdae	
1762	1	mrsp	
1763	1	references](https://cad	
1764	1	pees	
1765	1	guffaw	
1766	1	exacerbates	
1767	1	recipies	
1768	1	your'e	
1769	1	overpowers	
1770	1	grumbles	
1771	1	glitters	
1772	1	brands	
1773	1	adorns	
1774	1	betrays	
1775	1	\[insert	
1776	1	10x	
1777	1	scholarships	
1778	1	rhyme	
1779	1	walls	
1780	1	us	
1781	1	inky	
1782	1	simulates	
1783	1	paws	
1784	1	@redletterpens	
1785	1	dicks	
1786	1	shoes	
1787	1	sides	
1788	1	distinguishes	
1789	1	last	
1790	1	boys	
1791	1	paint	
1792	1	they're	
1793	1	pits	
1794	1	idicates	
1795	1	transitions	
1796	1	pores	
1797	1	jars	
1798	1	see](https://youtu.be	
1799	1	hucks	
1800	1	eyedroppers	
1801	1	fosters	
1802	1	amungst	
1803	1	binds	
1804	1	workhorses	
1805	1	ones-	
1806	1	backes	
1807	1	sais	
1808	1	elites	
1809	1	etches	
1810	1	cites	
1811	1	trades	
1812	1	stub(brings	
1813	1	reamains	
1814	1	500k	
1815	1	mocks	
1816	1	resins	
1817	1	credits	
1818	1	replicates	
1819	1	own](https://i.imgur.com	
1820	1	funds	
1821	1	squeaks	
1822	1	slices	
1823	1	disqualifies	
1824	1	alienates	
1825	1	charts	
1826	1	covet	
1827	1	traps	
1828	1	knicks	
1829	1	ringtops	
1830	1	https://www.peytonstreetpens.com/craig-sheaffer-ring-top-fountain-pen-1920s-bchr-full-flex-fine-warranted-nib-excellent-restored.html	
1831	1	posits	
1832	1	arts	
1833	1	spaces	
1834	1	was'nt	
1835	1	'	
1836	1	merges	
1837	1	mounts	
1838	1	outclasses	
1839	1	auctions	
1840	1	journals	
1841	1	upwards	
1842	1	narrates	
1843	1	cues	
1844	1	googles	
1845	1	\*gives	
1846	1	tweaks	
1847	1	disperses	
1848	1	fuses	
1849	1	revives	
1850	1	shouts	
1851	1	freezes	
1852	1	inhibits	
1853	1	desolves	
1854	1	habanero	
1855	1	stretches	
